%!PS-Adobe-3.0 EPSF-3.0
%%Creator: (MATLAB, The Mathworks, Inc. Version 9.6.0.1072779 \(R2019a\). Operating System: Windows 7)
%%Title: ./EstFactors_Emp.eps
%%CreationDate: 2020-09-18T11:03:21
%%Pages: (atend)
%%BoundingBox:    98    26  1083   560
%%LanguageLevel: 3
%%EndComments
%%BeginProlog
%%BeginResource: procset (Apache XML Graphics Std ProcSet) 1.2 0
%%Version: 1.2 0
%%Copyright: (Copyright 2001-2003,2010 The Apache Software Foundation. License terms: http://www.apache.org/licenses/LICENSE-2.0)
/bd{bind def}bind def
/ld{load def}bd
/GR/grestore ld
/GS/gsave ld
/RM/rmoveto ld
/C/curveto ld
/t/show ld
/L/lineto ld
/ML/setmiterlimit ld
/CT/concat ld
/f/fill ld
/N/newpath ld
/S/stroke ld
/CC/setcmykcolor ld
/A/ashow ld
/cp/closepath ld
/RC/setrgbcolor ld
/LJ/setlinejoin ld
/GC/setgray ld
/LW/setlinewidth ld
/M/moveto ld
/re {4 2 roll M
1 index 0 rlineto
0 exch rlineto
neg 0 rlineto
cp } bd
/_ctm matrix def
/_tm matrix def
/BT { _ctm currentmatrix pop matrix _tm copy pop 0 0 moveto } bd
/ET { _ctm setmatrix } bd
/iTm { _ctm setmatrix _tm concat } bd
/Tm { _tm astore pop iTm 0 0 moveto } bd
/ux 0.0 def
/uy 0.0 def
/F {
  /Tp exch def
  /Tf exch def
  Tf findfont Tp scalefont setfont
  /cf Tf def  /cs Tp def
} bd
/ULS {currentpoint /uy exch def /ux exch def} bd
/ULE {
  /Tcx currentpoint pop def
  gsave
  newpath
  cf findfont cs scalefont dup
  /FontMatrix get 0 get /Ts exch def /FontInfo get dup
  /UnderlinePosition get Ts mul /To exch def
  /UnderlineThickness get Ts mul /Tt exch def
  ux uy To add moveto  Tcx uy To add lineto
  Tt setlinewidth stroke
  grestore
} bd
/OLE {
  /Tcx currentpoint pop def
  gsave
  newpath
  cf findfont cs scalefont dup
  /FontMatrix get 0 get /Ts exch def /FontInfo get dup
  /UnderlinePosition get Ts mul /To exch def
  /UnderlineThickness get Ts mul /Tt exch def
  ux uy To add cs add moveto Tcx uy To add cs add lineto
  Tt setlinewidth stroke
  grestore
} bd
/SOE {
  /Tcx currentpoint pop def
  gsave
  newpath
  cf findfont cs scalefont dup
  /FontMatrix get 0 get /Ts exch def /FontInfo get dup
  /UnderlinePosition get Ts mul /To exch def
  /UnderlineThickness get Ts mul /Tt exch def
  ux uy To add cs 10 mul 26 idiv add moveto Tcx uy To add cs 10 mul 26 idiv add lineto
  Tt setlinewidth stroke
  grestore
} bd
/QT {
/Y22 exch store
/X22 exch store
/Y21 exch store
/X21 exch store
currentpoint
/Y21 load 2 mul add 3 div exch
/X21 load 2 mul add 3 div exch
/X21 load 2 mul /X22 load add 3 div
/Y21 load 2 mul /Y22 load add 3 div
/X22 load /Y22 load curveto
} bd
/SSPD {
dup length /d exch dict def
{
/v exch def
/k exch def
currentpagedevice k known {
/cpdv currentpagedevice k get def
v cpdv ne {
/upd false def
/nullv v type /nulltype eq def
/nullcpdv cpdv type /nulltype eq def
nullv nullcpdv or
{
/upd true def
} {
/sametype v type cpdv type eq def
sametype {
v type /arraytype eq {
/vlen v length def
/cpdvlen cpdv length def
vlen cpdvlen eq {
0 1 vlen 1 sub {
/i exch def
/obj v i get def
/cpdobj cpdv i get def
obj cpdobj ne {
/upd true def
exit
} if
} for
} {
/upd true def
} ifelse
} {
v type /dicttype eq {
v {
/dv exch def
/dk exch def
/cpddv cpdv dk get def
dv cpddv ne {
/upd true def
exit
} if
} forall
} {
/upd true def
} ifelse
} ifelse
} if
} ifelse
upd true eq {
d k v put
} if
} if
} if
} forall
d length 0 gt {
d setpagedevice
} if
} bd
/RE { % /NewFontName [NewEncodingArray] /FontName RE -
  findfont dup length dict begin
  {
    1 index /FID ne
    {def} {pop pop} ifelse
  } forall
  /Encoding exch def
  /FontName 1 index def
  currentdict definefont pop
  end
} bind def
%%EndResource
%%BeginResource: procset (Apache XML Graphics EPS ProcSet) 1.0 0
%%Version: 1.0 0
%%Copyright: (Copyright 2002-2003 The Apache Software Foundation. License terms: http://www.apache.org/licenses/LICENSE-2.0)
/BeginEPSF { %def
/b4_Inc_state save def         % Save state for cleanup
/dict_count countdictstack def % Count objects on dict stack
/op_count count 1 sub def      % Count objects on operand stack
userdict begin                 % Push userdict on dict stack
/showpage { } def              % Redefine showpage, { } = null proc
0 setgray 0 setlinecap         % Prepare graphics state
1 setlinewidth 0 setlinejoin
10 setmiterlimit [ ] 0 setdash newpath
/languagelevel where           % If level not equal to 1 then
{pop languagelevel             % set strokeadjust and
1 ne                           % overprint to their defaults.
{false setstrokeadjust false setoverprint
} if
} if
} bd
/EndEPSF { %def
count op_count sub {pop} repeat            % Clean up stacks
countdictstack dict_count sub {end} repeat
b4_Inc_state restore
} bd
%%EndResource
%FOPBeginFontDict
%%IncludeResource: font Courier-Oblique
%%IncludeResource: font Courier-BoldOblique
%%IncludeResource: font Courier-Bold
%%IncludeResource: font ZapfDingbats
%%IncludeResource: font Symbol
%%IncludeResource: font Helvetica
%%IncludeResource: font Helvetica-Oblique
%%IncludeResource: font Helvetica-Bold
%%IncludeResource: font Helvetica-BoldOblique
%%IncludeResource: font Times-Roman
%%IncludeResource: font Times-Italic
%%IncludeResource: font Times-Bold
%%IncludeResource: font Times-BoldItalic
%%IncludeResource: font Courier
%FOPEndFontDict
%%BeginResource: encoding WinAnsiEncoding
/WinAnsiEncoding [
/.notdef /.notdef /.notdef /.notdef /.notdef
/.notdef /.notdef /.notdef /.notdef /.notdef
/.notdef /.notdef /.notdef /.notdef /.notdef
/.notdef /.notdef /.notdef /.notdef /.notdef
/.notdef /.notdef /.notdef /.notdef /.notdef
/.notdef /.notdef /.notdef /.notdef /.notdef
/.notdef /.notdef /space /exclam /quotedbl
/numbersign /dollar /percent /ampersand /quotesingle
/parenleft /parenright /asterisk /plus /comma
/hyphen /period /slash /zero /one
/two /three /four /five /six
/seven /eight /nine /colon /semicolon
/less /equal /greater /question /at
/A /B /C /D /E
/F /G /H /I /J
/K /L /M /N /O
/P /Q /R /S /T
/U /V /W /X /Y
/Z /bracketleft /backslash /bracketright /asciicircum
/underscore /quoteleft /a /b /c
/d /e /f /g /h
/i /j /k /l /m
/n /o /p /q /r
/s /t /u /v /w
/x /y /z /braceleft /bar
/braceright /asciitilde /bullet /Euro /bullet
/quotesinglbase /florin /quotedblbase /ellipsis /dagger
/daggerdbl /circumflex /perthousand /Scaron /guilsinglleft
/OE /bullet /Zcaron /bullet /bullet
/quoteleft /quoteright /quotedblleft /quotedblright /bullet
/endash /emdash /asciitilde /trademark /scaron
/guilsinglright /oe /bullet /zcaron /Ydieresis
/space /exclamdown /cent /sterling /currency
/yen /brokenbar /section /dieresis /copyright
/ordfeminine /guillemotleft /logicalnot /sfthyphen /registered
/macron /degree /plusminus /twosuperior /threesuperior
/acute /mu /paragraph /middot /cedilla
/onesuperior /ordmasculine /guillemotright /onequarter /onehalf
/threequarters /questiondown /Agrave /Aacute /Acircumflex
/Atilde /Adieresis /Aring /AE /Ccedilla
/Egrave /Eacute /Ecircumflex /Edieresis /Igrave
/Iacute /Icircumflex /Idieresis /Eth /Ntilde
/Ograve /Oacute /Ocircumflex /Otilde /Odieresis
/multiply /Oslash /Ugrave /Uacute /Ucircumflex
/Udieresis /Yacute /Thorn /germandbls /agrave
/aacute /acircumflex /atilde /adieresis /aring
/ae /ccedilla /egrave /eacute /ecircumflex
/edieresis /igrave /iacute /icircumflex /idieresis
/eth /ntilde /ograve /oacute /ocircumflex
/otilde /odieresis /divide /oslash /ugrave
/uacute /ucircumflex /udieresis /yacute /thorn
/ydieresis
] def
%%EndResource
%FOPBeginFontReencode
/Courier-Oblique findfont
dup length dict begin
  {1 index /FID ne {def} {pop pop} ifelse} forall
  /Encoding WinAnsiEncoding def
  currentdict
end
/Courier-Oblique exch definefont pop
/Courier-BoldOblique findfont
dup length dict begin
  {1 index /FID ne {def} {pop pop} ifelse} forall
  /Encoding WinAnsiEncoding def
  currentdict
end
/Courier-BoldOblique exch definefont pop
/Courier-Bold findfont
dup length dict begin
  {1 index /FID ne {def} {pop pop} ifelse} forall
  /Encoding WinAnsiEncoding def
  currentdict
end
/Courier-Bold exch definefont pop
/Helvetica findfont
dup length dict begin
  {1 index /FID ne {def} {pop pop} ifelse} forall
  /Encoding WinAnsiEncoding def
  currentdict
end
/Helvetica exch definefont pop
/Helvetica-Oblique findfont
dup length dict begin
  {1 index /FID ne {def} {pop pop} ifelse} forall
  /Encoding WinAnsiEncoding def
  currentdict
end
/Helvetica-Oblique exch definefont pop
/Helvetica-Bold findfont
dup length dict begin
  {1 index /FID ne {def} {pop pop} ifelse} forall
  /Encoding WinAnsiEncoding def
  currentdict
end
/Helvetica-Bold exch definefont pop
/Helvetica-BoldOblique findfont
dup length dict begin
  {1 index /FID ne {def} {pop pop} ifelse} forall
  /Encoding WinAnsiEncoding def
  currentdict
end
/Helvetica-BoldOblique exch definefont pop
/Times-Roman findfont
dup length dict begin
  {1 index /FID ne {def} {pop pop} ifelse} forall
  /Encoding WinAnsiEncoding def
  currentdict
end
/Times-Roman exch definefont pop
/Times-Italic findfont
dup length dict begin
  {1 index /FID ne {def} {pop pop} ifelse} forall
  /Encoding WinAnsiEncoding def
  currentdict
end
/Times-Italic exch definefont pop
/Times-Bold findfont
dup length dict begin
  {1 index /FID ne {def} {pop pop} ifelse} forall
  /Encoding WinAnsiEncoding def
  currentdict
end
/Times-Bold exch definefont pop
/Times-BoldItalic findfont
dup length dict begin
  {1 index /FID ne {def} {pop pop} ifelse} forall
  /Encoding WinAnsiEncoding def
  currentdict
end
/Times-BoldItalic exch definefont pop
/Courier findfont
dup length dict begin
  {1 index /FID ne {def} {pop pop} ifelse} forall
  /Encoding WinAnsiEncoding def
  currentdict
end
/Courier exch definefont pop
%FOPEndFontReencode
%%EndProlog
%%Page: 1 1
%%PageBoundingBox: 0 0 1147 594
%%BeginPageSetup
[1 0 0 -1 0 594] CT
%%EndPageSetup
GS
[0.6 0 0 0.6 0 0] CT
1 GC
N
0 0 1912 990 re
f
GR
GS
[0.6 0 0 0.6 0 0] CT
1 GC
N
0 0 1912 990 re
f
GR
GS
[0.6 0 0 0.6 0 0] CT
1 GC
N
249 881 M
1730 881 L
1730 74 L
249 74 L
cp
f
GR
GS
[0.6 0 0 0.6 0 0] CT
0.149 GC
2 setlinecap
1 LJ
0.833 LW
N
249 881 M
1730 881 L
S
GR
GS
[0.6 0 0 0.6 0 0] CT
0.149 GC
2 setlinecap
1 LJ
0.833 LW
N
249 74 M
1730 74 L
S
GR
GS
[0.6 0 0 0.6 0 0] CT
0.149 GC
2 setlinecap
1 LJ
0.833 LW
N
249 881 M
249 866.19 L
S
GR
GS
[0.6 0 0 0.6 0 0] CT
0.149 GC
2 setlinecap
1 LJ
0.833 LW
N
495.867 881 M
495.867 866.19 L
S
GR
GS
[0.6 0 0 0.6 0 0] CT
0.149 GC
2 setlinecap
1 LJ
0.833 LW
N
742.667 881 M
742.667 866.19 L
S
GR
GS
[0.6 0 0 0.6 0 0] CT
0.149 GC
2 setlinecap
1 LJ
0.833 LW
N
989.534 881 M
989.534 866.19 L
S
GR
GS
[0.6 0 0 0.6 0 0] CT
0.149 GC
2 setlinecap
1 LJ
0.833 LW
N
1236.333 881 M
1236.333 866.19 L
S
GR
GS
[0.6 0 0 0.6 0 0] CT
0.149 GC
2 setlinecap
1 LJ
0.833 LW
N
1483.2 881 M
1483.2 866.19 L
S
GR
GS
[0.6 0 0 0.6 0 0] CT
0.149 GC
2 setlinecap
1 LJ
0.833 LW
N
1730 881 M
1730 866.19 L
S
GR
GS
[0.6 0 0 0.6 0 0] CT
0.149 GC
2 setlinecap
1 LJ
0.833 LW
N
249 74 M
249 88.81 L
S
GR
GS
[0.6 0 0 0.6 0 0] CT
0.149 GC
2 setlinecap
1 LJ
0.833 LW
N
495.867 74 M
495.867 88.81 L
S
GR
GS
[0.6 0 0 0.6 0 0] CT
0.149 GC
2 setlinecap
1 LJ
0.833 LW
N
742.667 74 M
742.667 88.81 L
S
GR
GS
[0.6 0 0 0.6 0 0] CT
0.149 GC
2 setlinecap
1 LJ
0.833 LW
N
989.534 74 M
989.534 88.81 L
S
GR
GS
[0.6 0 0 0.6 0 0] CT
0.149 GC
2 setlinecap
1 LJ
0.833 LW
N
1236.333 74 M
1236.333 88.81 L
S
GR
GS
[0.6 0 0 0.6 0 0] CT
0.149 GC
2 setlinecap
1 LJ
0.833 LW
N
1483.2 74 M
1483.2 88.81 L
S
GR
GS
[0.6 0 0 0.6 0 0] CT
0.149 GC
2 setlinecap
1 LJ
0.833 LW
N
1730 74 M
1730 88.81 L
S
GR
GS
[0.6 0 0 0.6 149.39999 536.59999] CT
0.149 GC
/Helvetica 50 F
GS
[1 0 0 1 0 0] CT
-76.5 51 moveto 
1 -1 scale
(Jan-60) t 
GR
GR
GS
[0.6 0 0 0.6 297.52026 536.59999] CT
0.149 GC
/Helvetica 50 F
GS
[1 0 0 1 0 0] CT
-76.5 51 moveto 
1 -1 scale
(Jan-70) t 
GR
GR
GS
[0.6 0 0 0.6 445.59999 536.59999] CT
0.149 GC
/Helvetica 50 F
GS
[1 0 0 1 0 0] CT
-76.5 51 moveto 
1 -1 scale
(Jan-80) t 
GR
GR
GS
[0.6 0 0 0.6 593.72026 536.59999] CT
0.149 GC
/Helvetica 50 F
GS
[1 0 0 1 0 0] CT
-76.5 51 moveto 
1 -1 scale
(Jan-90) t 
GR
GR
GS
[0.6 0 0 0.6 741.79999 536.59999] CT
0.149 GC
/Helvetica 50 F
GS
[1 0 0 1 0 0] CT
-76.5 51 moveto 
1 -1 scale
(Jan-00) t 
GR
GR
GS
[0.6 0 0 0.6 889.92023 536.59999] CT
0.149 GC
/Helvetica 50 F
GS
[1 0 0 1 0 0] CT
-76.5 51 moveto 
1 -1 scale
(Jan-10) t 
GR
GR
GS
[0.6 0 0 0.6 1037.99996 536.59999] CT
0.149 GC
/Helvetica 50 F
GS
[1 0 0 1 0 0] CT
-76.5 51 moveto 
1 -1 scale
(Jan-20) t 
GR
GR
GS
[0.6 0 0 0.6 0 0] CT
0.149 GC
2 setlinecap
1 LJ
0.833 LW
N
249 881 M
249 74 L
S
GR
GS
[0.6 0 0 0.6 0 0] CT
0.149 GC
2 setlinecap
1 LJ
0.833 LW
N
1730 881 M
1730 74 L
S
GR
GS
[0.6 0 0 0.6 0 0] CT
0.149 GC
2 setlinecap
1 LJ
0.833 LW
N
249 881 M
263.808 881 L
S
GR
GS
[0.6 0 0 0.6 0 0] CT
0.149 GC
2 setlinecap
1 LJ
0.833 LW
N
249 765.714 M
263.808 765.714 L
S
GR
GS
[0.6 0 0 0.6 0 0] CT
0.149 GC
2 setlinecap
1 LJ
0.833 LW
N
249 650.429 M
263.808 650.429 L
S
GR
GS
[0.6 0 0 0.6 0 0] CT
0.149 GC
2 setlinecap
1 LJ
0.833 LW
N
249 535.143 M
263.808 535.143 L
S
GR
GS
[0.6 0 0 0.6 0 0] CT
0.149 GC
2 setlinecap
1 LJ
0.833 LW
N
249 419.857 M
263.808 419.857 L
S
GR
GS
[0.6 0 0 0.6 0 0] CT
0.149 GC
2 setlinecap
1 LJ
0.833 LW
N
249 304.571 M
263.808 304.571 L
S
GR
GS
[0.6 0 0 0.6 0 0] CT
0.149 GC
2 setlinecap
1 LJ
0.833 LW
N
249 189.286 M
263.808 189.286 L
S
GR
GS
[0.6 0 0 0.6 0 0] CT
0.149 GC
2 setlinecap
1 LJ
0.833 LW
N
249 74 M
263.808 74 L
S
GR
GS
[0.6 0 0 0.6 0 0] CT
0.149 GC
2 setlinecap
1 LJ
0.833 LW
N
1730 881 M
1715.192 881 L
S
GR
GS
[0.6 0 0 0.6 0 0] CT
0.149 GC
2 setlinecap
1 LJ
0.833 LW
N
1730 765.714 M
1715.192 765.714 L
S
GR
GS
[0.6 0 0 0.6 0 0] CT
0.149 GC
2 setlinecap
1 LJ
0.833 LW
N
1730 650.429 M
1715.192 650.429 L
S
GR
GS
[0.6 0 0 0.6 0 0] CT
0.149 GC
2 setlinecap
1 LJ
0.833 LW
N
1730 535.143 M
1715.192 535.143 L
S
GR
GS
[0.6 0 0 0.6 0 0] CT
0.149 GC
2 setlinecap
1 LJ
0.833 LW
N
1730 419.857 M
1715.192 419.857 L
S
GR
GS
[0.6 0 0 0.6 0 0] CT
0.149 GC
2 setlinecap
1 LJ
0.833 LW
N
1730 304.571 M
1715.192 304.571 L
S
GR
GS
[0.6 0 0 0.6 0 0] CT
0.149 GC
2 setlinecap
1 LJ
0.833 LW
N
1730 189.286 M
1715.192 189.286 L
S
GR
GS
[0.6 0 0 0.6 0 0] CT
0.149 GC
2 setlinecap
1 LJ
0.833 LW
N
1730 74 M
1715.192 74 L
S
GR
GS
[0.6 0 0 0.6 141.39945 528.6] CT
0.149 GC
/Helvetica 50 F
GS
[1 0 0 1 0 0] CT
-73 20 moveto 
1 -1 scale
(-20) t 
GR
GR
GS
[0.6 0 0 0.6 141.39945 459.42858] CT
0.149 GC
/Helvetica 50 F
GS
[1 0 0 1 0 0] CT
-73 20 moveto 
1 -1 scale
(-10) t 
GR
GR
GS
[0.6 0 0 0.6 141.39945 390.25715] CT
0.149 GC
/Helvetica 50 F
GS
[1 0 0 1 0 0] CT
-28 20 moveto 
1 -1 scale
(0) t 
GR
GR
GS
[0.6 0 0 0.6 141.39945 321.08573] CT
0.149 GC
/Helvetica 50 F
GS
[1 0 0 1 0 0] CT
-56 20 moveto 
1 -1 scale
(10) t 
GR
GR
GS
[0.6 0 0 0.6 141.39945 251.91429] CT
0.149 GC
/Helvetica 50 F
GS
[1 0 0 1 0 0] CT
-56 20 moveto 
1 -1 scale
(20) t 
GR
GR
GS
[0.6 0 0 0.6 141.39945 182.74286] CT
0.149 GC
/Helvetica 50 F
GS
[1 0 0 1 0 0] CT
-56 20 moveto 
1 -1 scale
(30) t 
GR
GR
GS
[0.6 0 0 0.6 141.39945 113.57143] CT
0.149 GC
/Helvetica 50 F
GS
[1 0 0 1 0 0] CT
-56 20 moveto 
1 -1 scale
(40) t 
GR
GR
GS
[0.6 0 0 0.6 141.39945 44.4] CT
0.149 GC
/Helvetica 50 F
GS
[1 0 0 1 0 0] CT
-56 20 moveto 
1 -1 scale
(50) t 
GR
GR
GS
[0.6 0 0 0.6 0 0] CT
0 0.447 0.741 RC
1 LJ
3.333 LW
N
285.898 510.274 M
287.993 505.398 L
290.088 503.079 L
292.048 509.625 L
294.211 508.991 L
296.238 508.787 L
298.198 509.558 L
300.428 505.105 L
302.32 511.1 L
304.347 512.074 L
306.442 516.181 L
308.537 510.984 L
310.497 506.777 L
312.66 505.549 L
314.755 506.591 L
316.647 506.381 L
318.877 507.647 L
320.904 508.996 L
322.999 511.78 L
325.094 510.24 L
326.986 508.282 L
328.946 506.925 L
331.109 508.118 L
333.204 507.331 L
335.096 505.336 L
337.326 506.71 L
339.354 505.241 L
341.448 503.909 L
343.543 501.995 L
345.503 503.69 L
347.666 502.042 L
349.761 501.411 L
351.653 495.511 L
353.815 494.969 L
355.843 498.409 L
357.735 501.822 L
359.965 503.562 L
362.06 498.974 L
364.155 499.011 L
366.182 501.894 L
368.21 502.089 L
370.305 500.823 L
372.4 499.542 L
374.36 498.362 L
376.252 498.12 L
378.482 499.014 L
380.509 500.036 L
382.402 499.211 L
384.632 499.06 L
386.659 498.414 L
388.822 496.797 L
390.849 492.61 L
392.809 490.425 L
394.904 488.235 L
397.066 475.889 L
399.161 473.666 L
401.053 460.397 L
403.148 472.841 L
405.108 473.58 L
407.271 474.748 L
409.298 467.822 L
411.258 460.092 L
413.488 439.478 L
415.515 454.12 L
417.61 461.408 L
419.638 458.231 L
421.665 476.36 L
423.828 481.878 L
425.72 473.198 L
427.815 487.794 L
429.707 476.395 L
431.937 476.988 L
433.965 460.247 L
436.059 468.948 L
438.154 456.26 L
440.114 457.005 L
442.277 444.267 L
444.304 440.037 L
446.264 439.531 L
448.494 448.422 L
450.454 441.026 L
452.414 436.574 L
454.576 433.632 L
456.671 433.694 L
458.563 434.477 L
460.793 439.159 L
462.821 447.02 L
464.916 446.702 L
467.011 441.992 L
468.971 438.01 L
471.133 419.076 L
473.228 423.709 L
475.12 425.009 L
477.013 420.531 L
479.243 422.835 L
481.202 417.34 L
483.365 413.071 L
485.46 419.742 L
487.42 407.637 L
489.582 379.095 L
491.677 406.652 L
493.569 388.832 L
495.8 384.176 L
497.827 367.225 L
499.719 399.306 L
501.882 392.532 L
503.909 364.991 L
505.869 374.69 L
508.031 372.359 L
510.126 377.743 L
512.221 377.891 L
514.249 383.818 L
516.276 392.694 L
518.371 410.563 L
520.466 421.808 L
522.426 413.969 L
524.318 424.308 L
526.548 440.092 L
528.576 418.976 L
530.468 412.396 L
532.698 399.137 L
534.725 394.017 L
536.888 422.981 L
538.915 426.458 L
540.875 431.374 L
543.037 427.086 L
545.132 432.255 L
547.227 425.019 L
549.187 425.653 L
551.215 424.283 L
553.174 425.615 L
555.404 425.876 L
557.432 425.63 L
559.527 426.235 L
561.622 417.331 L
563.582 417.688 L
565.744 420.141 L
567.771 422.428 L
569.731 420.024 L
571.961 415.75 L
573.854 410.88 L
575.881 408.588 L
577.976 408.766 L
580.071 413.724 L
582.031 413.902 L
584.193 384.257 L
586.288 393.591 L
588.18 403.49 L
590.411 404.274 L
592.438 406.971 L
594.533 400.684 L
596.628 393.87 L
598.52 393.215 L
600.48 376.489 L
602.642 364.303 L
604.737 366.569 L
606.63 364.204 L
608.86 362.256 L
610.887 352.61 L
612.982 362.813 L
615.077 370.8 L
617.037 379.861 L
619.199 383.697 L
621.294 380.642 L
623.187 382.493 L
625.281 374.335 L
627.309 356.385 L
629.336 366.776 L
631.431 368.029 L
633.526 364.858 L
635.486 358.582 L
637.648 349.114 L
639.743 363.524 L
641.636 357.807 L
643.866 368.181 L
645.893 366.436 L
647.785 371.761 L
650.015 373.647 L
652.043 374.21 L
653.935 365.671 L
656.165 368.14 L
658.193 368.234 L
660.355 372.417 L
662.383 375.649 L
664.342 381.229 L
666.505 395.75 L
668.6 402.658 L
670.695 383.844 L
672.587 380.798 L
674.682 380.016 L
676.642 379.728 L
678.804 380.935 L
680.832 386.762 L
682.791 381.166 L
685.022 385.439 L
687.049 382.469 L
689.144 376.123 L
691.171 377.27 L
693.199 366.867 L
695.361 360.905 L
697.253 357.924 L
699.348 356.302 L
701.241 354.511 L
703.471 349.889 L
705.498 341.073 L
707.593 344.118 L
709.688 347.941 L
711.648 345.02 L
713.81 330.005 L
715.838 336.14 L
717.797 325.841 L
720.028 334.771 L
721.92 324.405 L
723.947 324.955 L
726.042 318.689 L
728.137 327.04 L
730.097 335.234 L
732.259 327.919 L
734.354 320.104 L
736.247 313.316 L
738.477 268.123 L
740.504 282.017 L
742.599 282.102 L
744.694 252.547 L
746.654 208.336 L
748.749 215.284 L
750.776 260.775 L
752.804 279.376 L
754.898 289.699 L
756.993 267.574 L
758.953 240.612 L
761.116 226.351 L
763.211 201.761 L
765.103 197.853 L
767.333 202.757 L
769.36 195.112 L
771.253 169.314 L
773.415 168.617 L
775.443 148.262 L
777.402 170.751 L
779.565 160.127 L
781.66 137.143 L
783.755 111.252 L
785.782 96.986 L
787.81 121.42 L
789.905 185.27 L
792 148.595 L
793.959 141.646 L
795.852 152.502 L
798.082 148.287 L
800.109 163.642 L
802.001 163.952 L
804.231 142.282 L
806.259 164.686 L
808.421 200.033 L
810.449 223.489 L
812.409 254.871 L
814.571 246.717 L
816.666 257.597 L
818.761 243.294 L
820.653 263.871 L
822.748 254.479 L
824.708 265.677 L
826.87 248.047 L
828.898 242.72 L
830.858 214.714 L
833.088 210.228 L
835.115 226.566 L
837.21 217.718 L
839.237 222.192 L
841.265 215.674 L
843.427 220.99 L
845.387 208.109 L
847.415 191.829 L
849.51 180.592 L
851.604 146.274 L
853.564 149.587 L
855.727 182.144 L
857.822 186.941 L
859.714 198 L
861.944 222.248 L
863.971 224.238 L
866.066 222.551 L
868.161 237.324 L
870.054 210.125 L
872.013 217.991 L
874.176 224.908 L
876.271 266.159 L
878.163 264.638 L
880.393 252.771 L
882.421 264.84 L
884.516 263.663 L
886.611 274.042 L
888.57 287.699 L
890.733 311.986 L
892.828 308.002 L
894.72 346.063 L
896.815 373.027 L
898.842 371.65 L
900.87 344.322 L
902.965 364.678 L
905.06 363.557 L
907.019 381.184 L
909.182 360.55 L
911.277 368.499 L
913.169 375.341 L
915.399 374.546 L
917.427 378.165 L
919.319 380.873 L
921.481 370.534 L
923.509 344.684 L
925.469 337.116 L
927.631 337.678 L
929.726 328.375 L
931.821 317.746 L
933.848 294.993 L
935.876 318.929 L
937.971 316.561 L
940.066 322.61 L
942.026 340.855 L
944.12 345.872 L
946.215 330.14 L
948.175 319.84 L
950.338 310.746 L
952.365 324.965 L
954.325 312.374 L
956.555 310.819 L
958.582 324.541 L
960.677 332.83 L
962.705 319.059 L
964.732 316.942 L
966.895 322.619 L
968.787 310.921 L
970.882 313.413 L
972.774 321.238 L
975.004 334.345 L
977.032 351.221 L
979.127 363.515 L
981.222 347.363 L
983.181 344.717 L
985.344 357.315 L
987.371 360.876 L
989.331 357.333 L
991.561 340.497 L
993.453 336.349 L
995.481 332.507 L
997.576 319.661 L
999.671 333.441 L
1001.63 339.384 L
1003.793 342.893 L
1005.888 322.727 L
1007.78 323.36 L
1010.01 330.779 L
1012.038 344.719 L
1014.133 348.176 L
1016.228 351.022 L
1018.12 350.786 L
1020.012 348.635 L
1022.242 349.459 L
1024.337 346.911 L
1026.229 338.989 L
1028.459 343.365 L
1030.487 353.467 L
1032.582 366.862 L
1034.677 366.59 L
1036.637 367.643 L
1038.799 390.219 L
1040.894 369.33 L
1042.786 369.102 L
1044.949 362.476 L
1046.976 360.19 L
1048.936 369.713 L
1051.099 374.131 L
1053.193 390.028 L
1055.288 391.264 L
1057.316 399.222 L
1059.343 386.119 L
1061.438 381.421 L
1063.466 388.972 L
1065.493 402.061 L
1067.385 414.662 L
1069.615 413.691 L
1071.575 416.867 L
1073.535 416.304 L
1075.765 430.801 L
1077.792 430.658 L
1079.955 444.046 L
1081.982 446.138 L
1083.942 445.018 L
1086.105 431.733 L
1088.2 431.038 L
1090.295 438.849 L
1092.187 417.978 L
1094.282 395.623 L
1096.241 387.652 L
1098.404 384.774 L
1100.431 376.764 L
1102.391 387.026 L
1104.621 385.093 L
1106.649 369.185 L
1108.744 363.328 L
1110.771 362.246 L
1112.798 365.447 L
1114.961 372.606 L
1116.853 384.392 L
1118.948 384.492 L
1120.84 391.366 L
1123.07 417.568 L
1125.098 421.504 L
1127.193 412.516 L
1129.288 418.326 L
1131.248 423.311 L
1133.41 429.141 L
1135.438 437.413 L
1137.397 444.414 L
1139.627 443.079 L
1141.587 424.615 L
1143.547 415.127 L
1145.709 405.171 L
1147.804 398.973 L
1149.697 404.846 L
1151.927 402.329 L
1153.954 396.134 L
1156.049 404.223 L
1158.144 416.667 L
1160.104 428.676 L
1162.266 415.576 L
1164.361 412.266 L
1166.254 409.63 L
1168.349 396.156 L
1170.376 403.361 L
1172.403 405.938 L
1174.498 410.522 L
1176.593 428.808 L
1178.553 416.404 L
1180.716 424.165 L
1182.811 434.384 L
1184.703 435.77 L
1186.933 439.839 L
1188.96 446.898 L
1190.852 442.15 L
1193.015 440.928 L
1195.042 439.914 L
1197.002 443.709 L
1199.165 449.03 L
1201.26 447.69 L
1203.355 463.513 L
1205.382 484.046 L
1207.409 477.047 L
1209.504 473.301 L
1211.599 471.231 L
1213.559 473.223 L
1215.451 450.058 L
1217.681 449.036 L
1219.709 448.146 L
1221.533 435.817 L
1223.831 430.592 L
1225.859 425.16 L
1228.021 421.577 L
1230.048 423.914 L
1232.008 421.306 L
1234.171 417.186 L
1236.266 407.505 L
1238.361 405.449 L
1240.321 410.01 L
1242.416 424.692 L
1244.308 419.131 L
1246.538 417.773 L
1248.565 425.936 L
1250.66 427.572 L
1252.755 434.947 L
1254.715 433.048 L
1256.877 435.881 L
1258.905 447.323 L
1260.865 457.301 L
1263.095 455.909 L
1264.987 461.755 L
1267.014 460.6 L
1269.109 447.1 L
1271.204 443.829 L
1273.164 443.737 L
1275.327 457.207 L
1277.422 462.18 L
1279.314 469.781 L
1281.544 481.218 L
1283.571 461.103 L
1285.666 449.456 L
1287.761 452.372 L
1289.653 457.37 L
1291.546 439.211 L
1293.776 451.344 L
1295.871 455.492 L
1297.763 461.982 L
1299.993 474.875 L
1302.02 489.05 L
1304.115 507.887 L
1306.21 497.84 L
1308.17 485.962 L
1310.333 502.2 L
1312.428 496.119 L
1314.32 508.138 L
1316.415 503.146 L
1318.442 501.731 L
1320.469 524.624 L
1322.564 518.35 L
1324.659 479.481 L
1326.619 479.073 L
1328.782 500.153 L
1330.877 486.688 L
1332.769 486.488 L
1334.999 489.609 L
1337.026 493.493 L
1338.919 499.415 L
1341.149 506.195 L
1343.176 479.68 L
1345.068 474.697 L
1347.298 477.162 L
1349.326 482.26 L
1351.488 496.476 L
1353.516 497.808 L
1355.476 501.137 L
1357.638 490.274 L
1359.733 496.072 L
1361.828 500.169 L
1363.72 492.426 L
1365.748 485.06 L
1367.775 499.157 L
1369.938 506.891 L
1371.965 509.668 L
1373.925 496.875 L
1376.155 506.059 L
1378.182 493.886 L
1380.277 485.033 L
1382.305 486.486 L
1384.332 491.611 L
1386.495 486.081 L
1388.387 484.48 L
1390.482 473.842 L
1392.374 466.65 L
1394.604 464.282 L
1396.631 464.041 L
1398.726 469.936 L
1400.821 477.827 L
1402.781 482.067 L
1404.944 483.394 L
1406.971 488.997 L
1408.931 480.021 L
1411.161 475.729 L
1413.053 484.893 L
1415.081 481.373 L
1417.176 482.462 L
1419.271 473.169 L
1421.23 467.712 L
1423.393 475.348 L
1425.488 484.321 L
1427.38 482.454 L
1429.61 486.084 L
1431.637 501.674 L
1433.732 499.196 L
1435.827 513.499 L
1437.787 516.073 L
1439.882 520.949 L
1441.91 508.364 L
1443.937 496.193 L
1446.032 500.577 L
1448.127 501.942 L
1450.087 507.682 L
1452.249 502.891 L
1454.344 482.977 L
1456.236 525.572 L
1458.466 553.245 L
1460.494 530.491 L
1462.386 525.126 L
1464.549 545.074 L
1466.576 528.445 L
1468.536 513.597 L
1470.698 509.95 L
1472.793 512.489 L
1474.888 516.198 L
1476.916 521.31 L
1478.943 519.262 L
1481.038 528.268 L
1483.133 505.01 L
1485.093 512.984 L
1486.985 513.562 L
1489.215 506.341 L
1491.242 512.76 L
1493.135 525.229 L
1495.365 539.703 L
1497.392 544.27 L
1499.555 562.219 L
1501.582 561.57 L
1503.542 559.302 L
1505.704 551.141 L
1507.799 529.039 L
1509.894 526.4 L
1511.786 524.263 L
1513.881 522.075 L
1515.841 529.056 L
1518.004 540.762 L
1520.031 535.835 L
1521.991 552.497 L
1524.221 575.043 L
1526.248 585.745 L
1528.343 578.179 L
1530.371 581.119 L
1532.398 589.185 L
1534.561 593.759 L
1536.521 587.754 L
1538.548 577.283 L
1540.643 588.652 L
1542.738 602.675 L
1544.698 600.122 L
1546.86 605.747 L
1548.955 604.209 L
1550.847 602.28 L
1553.077 598.82 L
1555.105 602.885 L
1557.2 597.056 L
1559.295 587.442 L
1561.187 592.038 L
1563.079 593.303 L
1565.309 599.564 L
1567.404 580.801 L
1569.297 563.333 L
1571.527 559.785 L
1573.554 550.83 L
1575.649 558.164 L
1577.744 561.422 L
1579.704 554.109 L
1581.866 540.341 L
1583.961 554.194 L
1585.853 555.058 L
1587.948 550.285 L
1589.976 552.903 L
1592.003 560.924 L
1594.098 559.048 L
1596.193 555.975 L
1598.153 564.474 L
1600.315 558.269 L
1602.41 564.331 L
1604.302 571.192 L
1606.533 571.334 L
1608.56 590.548 L
1610.452 578.452 L
1612.615 581.584 L
1614.642 577.875 L
1616.602 574.644 L
1618.765 566.014 L
1620.859 572.183 L
1622.954 571.911 L
1624.982 579.081 L
1627.009 574.26 L
1629.104 571.357 L
1631.199 568.776 L
1633.159 583.518 L
1635.254 590.159 L
1637.349 589.94 L
1639.309 588.175 L
1641.471 586.671 L
1643.499 601.001 L
1645.458 602.391 L
1647.688 597.289 L
1649.716 597.172 L
1651.811 588.391 L
1653.838 565.34 L
1655.865 561.829 L
1658.028 562.84 L
1659.92 565.843 L
1662.015 564.355 L
1663.907 569.381 L
1666.138 572.556 L
1668.165 569.216 L
1670.26 570.024 L
1672.355 576.991 L
1674.315 569.329 L
1676.477 567.641 L
1678.505 565.522 L
1680.464 565.779 L
1682.694 554.408 L
1684.587 548.196 L
1686.547 553.657 L
1688.709 546.319 L
1690.804 550.321 L
1692.764 550.074 L
1694.926 546.921 L
S
GR
GS
[0.6 0 0 0.6 0 0] CT
0.851 0.325 0.098 RC
1 LJ
3.333 LW
N
285.898 621.234 M
287.993 620.139 L
290.088 621.211 L
292.048 618.697 L
294.211 621.036 L
296.238 620.618 L
298.198 618.166 L
300.428 615.492 L
302.32 620.293 L
304.347 623.575 L
306.442 619.123 L
308.537 624.109 L
310.497 624.809 L
312.66 622.326 L
314.755 629.778 L
316.647 629.933 L
318.877 627.303 L
320.904 627.771 L
322.999 627.332 L
325.094 625.904 L
326.986 623.152 L
328.946 625.684 L
331.109 625.454 L
333.204 625.262 L
335.096 625.226 L
337.326 622.402 L
339.354 620.884 L
341.448 622.21 L
343.543 621.866 L
345.503 623.376 L
347.666 621.593 L
349.761 620.95 L
351.653 640.972 L
353.815 630.053 L
355.843 618.838 L
357.735 616.499 L
359.965 616.755 L
362.06 622.758 L
364.155 621.986 L
366.182 619.045 L
368.21 619.205 L
370.305 620.233 L
372.4 623.962 L
374.36 623.144 L
376.252 621.847 L
378.482 620.026 L
380.509 620.648 L
382.402 623.074 L
384.632 623.565 L
386.659 621.674 L
388.822 622.078 L
390.849 620.832 L
392.809 622.355 L
394.904 625.482 L
397.066 620.558 L
399.161 618.78 L
401.053 641.661 L
403.148 628.254 L
405.108 621.372 L
407.271 606.119 L
409.298 611.708 L
411.258 616.501 L
413.488 635.07 L
415.515 627.919 L
417.61 619.735 L
419.638 620.368 L
421.665 625.628 L
423.828 622.616 L
425.72 641.531 L
427.815 625.74 L
429.707 622.826 L
431.937 618.225 L
433.965 615.199 L
436.059 609.987 L
438.154 624.169 L
440.114 617.195 L
442.277 615.228 L
444.304 621.564 L
446.264 618.355 L
448.494 615.662 L
450.454 639.496 L
452.414 631.356 L
454.576 622.639 L
456.671 633.84 L
458.563 624.159 L
460.793 628.814 L
462.821 626.696 L
464.916 625.577 L
467.011 627.409 L
468.971 631.364 L
471.133 632.39 L
473.228 624.409 L
475.12 611.439 L
477.013 618.358 L
479.243 620.556 L
481.202 602.951 L
483.365 597.141 L
485.46 594.347 L
487.42 602.26 L
489.582 599.926 L
491.677 601.817 L
493.569 611.803 L
495.8 597.127 L
497.827 602.956 L
499.719 601.693 L
501.882 607.896 L
503.909 605.681 L
505.869 600.682 L
508.031 601.973 L
510.126 603.381 L
512.221 607.972 L
514.249 613.935 L
516.276 605.577 L
518.371 624.74 L
520.466 614.274 L
522.426 628.009 L
524.318 631.517 L
526.548 631.59 L
528.576 615.004 L
530.468 617.389 L
532.698 604.027 L
534.725 608.716 L
536.888 615.794 L
538.915 615.596 L
540.875 622.293 L
543.037 622.495 L
545.132 624.274 L
547.227 618.009 L
549.187 619.831 L
551.215 608.52 L
553.174 613.476 L
555.404 620.004 L
557.432 613.64 L
559.527 608.807 L
561.622 613.867 L
563.582 612.749 L
565.744 609.897 L
567.771 612.782 L
569.731 613.06 L
571.961 611.48 L
573.854 607.561 L
575.881 610.318 L
577.976 609.932 L
580.071 584.151 L
582.031 579.977 L
584.193 600.288 L
586.288 620.424 L
588.18 623.418 L
590.411 622.409 L
592.438 628.037 L
594.533 626.948 L
596.628 626.755 L
598.52 628.658 L
600.48 623.368 L
602.642 615.883 L
604.737 616.992 L
606.63 609.011 L
608.86 600.965 L
610.887 608.18 L
612.982 606.298 L
615.077 607.171 L
617.037 611.386 L
619.199 622.118 L
621.294 617.594 L
623.187 624.725 L
625.281 615.881 L
627.309 606.717 L
629.336 610.543 L
631.431 610.643 L
633.526 603.44 L
635.486 605.323 L
637.648 602.622 L
639.743 613.194 L
641.636 609.717 L
643.866 613.448 L
645.893 616.119 L
647.785 609.775 L
650.015 610.494 L
652.043 611.642 L
653.935 606.198 L
656.165 611.623 L
658.193 614.031 L
660.355 617.672 L
662.383 622.054 L
664.342 624.525 L
666.505 633.525 L
668.6 627.777 L
670.695 618.165 L
672.587 619.113 L
674.682 621.404 L
676.642 621.257 L
678.804 624.429 L
680.832 625.19 L
682.791 620.397 L
685.022 619.932 L
687.049 618.488 L
689.144 614.101 L
691.171 615.803 L
693.199 616.518 L
695.361 615.968 L
697.253 614.186 L
699.348 611.841 L
701.241 608.416 L
703.471 605.864 L
705.498 605.552 L
707.593 603.882 L
709.688 607.942 L
711.648 610.432 L
713.81 601.649 L
715.838 604.614 L
717.797 600.719 L
720.028 602.165 L
721.92 603.831 L
723.947 606.756 L
726.042 606.432 L
728.137 610.875 L
730.097 616.193 L
732.259 614.112 L
734.354 612.306 L
736.247 610.969 L
738.477 602.941 L
740.504 613.622 L
742.599 615.04 L
744.694 615.79 L
746.654 580.396 L
748.749 596.739 L
750.776 625.255 L
752.804 620.441 L
754.898 616.095 L
756.993 611.91 L
758.953 597.289 L
761.116 601.894 L
763.211 603.62 L
765.103 611.334 L
767.333 628.968 L
769.36 632.421 L
771.253 613.634 L
773.415 611.582 L
775.443 605.1 L
777.402 614.751 L
779.565 606.747 L
781.66 594.395 L
783.755 587.53 L
785.782 578.28 L
787.81 602.784 L
789.905 600.327 L
792 590.003 L
793.959 597.761 L
795.852 593.961 L
798.082 594.283 L
800.109 592.73 L
802.001 591.497 L
804.231 588.141 L
806.259 585.65 L
808.421 577.459 L
810.449 578.576 L
812.409 596.504 L
814.571 607.859 L
816.666 610.709 L
818.761 614.342 L
820.653 613.271 L
822.748 612.651 L
824.708 614.755 L
826.87 611.541 L
828.898 610.836 L
830.858 607.161 L
833.088 606.079 L
835.115 609.226 L
837.21 609.895 L
839.237 610.048 L
841.265 608.786 L
843.427 612.393 L
845.387 609.708 L
847.415 608.056 L
849.51 607.348 L
851.604 593.677 L
853.564 590.134 L
855.727 594.531 L
857.822 596.22 L
859.714 597.247 L
861.944 601.432 L
863.971 605.29 L
866.066 609.451 L
868.161 610.168 L
870.054 609.915 L
872.013 608.757 L
874.176 612.32 L
876.271 614.28 L
878.163 617.042 L
880.393 617.87 L
882.421 614.423 L
884.516 616.502 L
886.611 619.317 L
888.57 621.272 L
890.733 623.698 L
892.828 624.655 L
894.72 617.224 L
896.815 617.185 L
898.842 614.979 L
900.87 611.514 L
902.965 615.82 L
905.06 622.374 L
907.019 626.331 L
909.182 624.572 L
911.277 627.677 L
913.169 629.064 L
915.399 627.595 L
917.427 628.234 L
919.319 625.638 L
921.481 625.231 L
923.509 614.005 L
925.469 612.018 L
927.631 618.399 L
929.726 619.373 L
931.821 617.436 L
933.848 612.57 L
935.876 614.773 L
937.971 616.36 L
940.066 613.125 L
942.026 624.823 L
944.12 624.288 L
946.215 622.719 L
948.175 621.891 L
950.338 615.425 L
952.365 614.963 L
954.325 617.841 L
956.555 613.679 L
958.582 614.034 L
960.677 615.591 L
962.705 610.834 L
964.732 604.291 L
966.895 606.905 L
968.787 603.671 L
970.882 598.466 L
972.774 606.517 L
975.004 611.126 L
977.032 616.821 L
979.127 623.67 L
981.222 610.931 L
983.181 610.681 L
985.344 617.77 L
987.371 618.099 L
989.331 616.533 L
991.561 613.913 L
993.453 612.23 L
995.481 609.182 L
997.576 606.72 L
999.671 612.197 L
1001.63 613.018 L
1003.793 617.776 L
1005.888 620.928 L
1007.78 621.897 L
1010.01 623.262 L
1012.038 622.069 L
1014.133 624.51 L
1016.228 623.932 L
1018.12 622.644 L
1020.012 619.225 L
1022.242 621.568 L
1024.337 623.174 L
1026.229 621.604 L
1028.459 624.227 L
1030.487 629.938 L
1032.582 631.027 L
1034.677 636.322 L
1036.637 639.84 L
1038.799 639.822 L
1040.894 637.548 L
1042.786 634.611 L
1044.949 627.54 L
1046.976 631.44 L
1048.936 635.195 L
1051.099 642.623 L
1053.193 644.158 L
1055.288 649.428 L
1057.316 652.73 L
1059.343 643.985 L
1061.438 636.14 L
1063.466 640.18 L
1065.493 643.759 L
1067.385 646.661 L
1069.615 646.339 L
1071.575 649.625 L
1073.535 640.617 L
1075.765 639.932 L
1077.792 636.622 L
1079.955 639.027 L
1081.982 636.239 L
1083.942 635.531 L
1086.105 634.911 L
1088.2 634.347 L
1090.295 634.249 L
1092.187 630.784 L
1094.282 625.905 L
1096.241 619.386 L
1098.404 618.319 L
1100.431 616.833 L
1102.391 618.513 L
1104.621 618.793 L
1106.649 616.238 L
1108.744 613.531 L
1110.771 603.581 L
1112.798 595.076 L
1114.961 606.631 L
1116.853 614.132 L
1118.948 614.469 L
1120.84 616.727 L
1123.07 624.079 L
1125.098 622.473 L
1127.193 622.347 L
1129.288 621.592 L
1131.248 619.771 L
1133.41 622.417 L
1135.438 625.963 L
1137.397 623.453 L
1139.627 630.497 L
1141.587 625.64 L
1143.547 620.126 L
1145.709 617.584 L
1147.804 614.489 L
1149.697 615.961 L
1151.927 616.334 L
1153.954 613.141 L
1156.049 615.577 L
1158.144 621.353 L
1160.104 621.114 L
1162.266 618.321 L
1164.361 618.82 L
1166.254 616.6 L
1168.349 614.222 L
1170.376 615.416 L
1172.403 614.703 L
1174.498 615.879 L
1176.593 619.591 L
1178.553 617.374 L
1180.716 616.233 L
1182.811 618.757 L
1184.703 615.818 L
1186.933 616.904 L
1188.96 621.966 L
1190.852 618.991 L
1193.015 617.349 L
1195.042 616.949 L
1197.002 616.346 L
1199.165 615.219 L
1201.26 615.69 L
1203.355 621.599 L
1205.382 626.919 L
1207.409 630.115 L
1209.504 624.527 L
1211.599 624.86 L
1213.559 624.082 L
1215.451 619.774 L
1217.681 622.287 L
1219.709 621.162 L
1221.533 616.761 L
1223.831 618.281 L
1225.859 617.916 L
1228.021 618.568 L
1230.048 620.286 L
1232.008 618.22 L
1234.171 618.04 L
1236.266 615.393 L
1238.361 608.124 L
1240.321 608.653 L
1242.416 607.551 L
1244.308 604.594 L
1246.538 601.99 L
1248.565 609.541 L
1250.66 612.499 L
1252.755 614.694 L
1254.715 621.089 L
1256.877 621.41 L
1258.905 624.585 L
1260.865 628.654 L
1263.095 631.766 L
1264.987 633.761 L
1267.014 635.442 L
1269.109 633.914 L
1271.204 633.368 L
1273.164 632.295 L
1275.327 638.326 L
1277.422 639.499 L
1279.314 646.797 L
1281.544 649.613 L
1283.571 643.679 L
1285.666 641.753 L
1287.761 639.423 L
1289.653 640.305 L
1291.546 629.701 L
1293.776 637.132 L
1295.871 637.508 L
1297.763 642.791 L
1299.993 656.42 L
1302.02 654.966 L
1304.115 657.839 L
1306.21 660.499 L
1308.17 651.322 L
1310.333 659.071 L
1312.428 656.902 L
1314.32 658.394 L
1316.415 658.845 L
1318.442 659.111 L
1320.469 657.815 L
1322.564 657.121 L
1324.659 657.957 L
1326.619 654.582 L
1328.782 660.459 L
1330.877 654.819 L
1332.769 649.543 L
1334.999 653.421 L
1337.026 652.186 L
1338.919 655.223 L
1341.149 655.332 L
1343.176 644.4 L
1345.068 641.187 L
1347.298 640.229 L
1349.326 639.398 L
1351.488 642.75 L
1353.516 639.568 L
1355.476 641.346 L
1357.638 635.074 L
1359.733 633.688 L
1361.828 628.387 L
1363.72 623.975 L
1365.748 620.806 L
1367.775 622.796 L
1369.938 621.875 L
1371.965 621.546 L
1373.925 618.672 L
1376.155 621.305 L
1378.182 617.284 L
1380.277 618.738 L
1382.305 619.957 L
1384.332 619.181 L
1386.495 620.217 L
1388.387 617.239 L
1390.482 618.722 L
1392.374 622.362 L
1394.604 620.495 L
1396.631 619.177 L
1398.726 621.738 L
1400.821 623.955 L
1402.781 623.941 L
1404.944 623.535 L
1406.971 623.509 L
1408.931 621.632 L
1411.161 620.337 L
1413.053 624.269 L
1415.081 626.331 L
1417.176 626.938 L
1419.271 620.289 L
1421.23 622.39 L
1423.393 628.929 L
1425.488 630.723 L
1427.38 632.976 L
1429.61 633.762 L
1431.637 644.128 L
1433.732 646.425 L
1435.827 651.6 L
1437.787 660.782 L
1439.882 656.067 L
1441.91 644.52 L
1443.937 640.55 L
1446.032 640.115 L
1448.127 642.546 L
1450.087 644.947 L
1452.249 653.576 L
1454.344 676.614 L
1456.236 673.402 L
1458.466 659.452 L
1460.494 661.833 L
1462.386 662.687 L
1464.549 658.771 L
1466.576 657.535 L
1468.536 662.917 L
1470.698 657.806 L
1472.793 655.419 L
1474.888 657.427 L
1476.916 656.373 L
1478.943 657.439 L
1481.038 662.755 L
1483.133 657.294 L
1485.093 662.473 L
1486.985 663.976 L
1489.215 660.372 L
1491.242 660.346 L
1493.135 661.412 L
1495.365 661.682 L
1497.392 663.962 L
1499.555 658.247 L
1501.582 660.49 L
1503.542 665.723 L
1505.704 663.441 L
1507.799 665.546 L
1509.894 668.671 L
1511.786 664.495 L
1513.881 661.195 L
1515.841 664.68 L
1518.004 665.583 L
1520.031 666.448 L
1521.991 667.771 L
1524.221 661.133 L
1526.248 652.112 L
1528.343 656.452 L
1530.371 655.16 L
1532.398 651.636 L
1534.561 652.479 L
1536.521 651.595 L
1538.548 654.051 L
1540.643 652.807 L
1542.738 646.449 L
1544.698 645.785 L
1546.86 646.295 L
1548.955 647.459 L
1550.847 648.235 L
1553.077 647.482 L
1555.105 647.581 L
1557.2 648.928 L
1559.295 652.049 L
1561.187 652.136 L
1563.079 650.965 L
1565.309 649.171 L
1567.404 651.784 L
1569.297 656.574 L
1571.527 659.832 L
1573.554 659.151 L
1575.649 659.78 L
1577.744 659.863 L
1579.704 664.614 L
1581.866 665.179 L
1583.961 661.252 L
1585.853 660.577 L
1587.948 657.893 L
1589.976 656.648 L
1592.003 655.022 L
1594.098 653.422 L
1596.193 651.048 L
1598.153 648.033 L
1600.315 647.267 L
1602.41 647.56 L
1604.302 647.146 L
1606.533 640.043 L
1608.56 640.005 L
1610.452 638.321 L
1612.615 640.888 L
1614.642 640.836 L
1616.602 641.731 L
1618.765 644.675 L
1620.859 642.126 L
1622.954 640.562 L
1624.982 640.548 L
1627.009 640.214 L
1629.104 638.338 L
1631.199 637.195 L
1633.159 639.499 L
1635.254 638.098 L
1637.349 638.873 L
1639.309 637.735 L
1641.471 636.407 L
1643.499 637.409 L
1645.458 635.55 L
1647.688 633.19 L
1649.716 634.681 L
1651.811 635.818 L
1653.838 636.979 L
1655.865 637.189 L
1658.028 636.346 L
1659.92 634.434 L
1662.015 636.955 L
1663.907 636.901 L
1666.138 637.299 L
1668.165 635.419 L
1670.26 636.281 L
1672.355 634.766 L
1674.315 633.302 L
1676.477 631.672 L
1678.505 628.848 L
1680.464 627.619 L
1682.694 624.605 L
1684.587 625.654 L
1686.547 624.54 L
1688.709 621.893 L
1690.804 623.166 L
1692.764 619.046 L
1694.926 618.156 L
S
GR
GS
[0.6 0 0 0.6 0 0] CT
0.929 0.694 0.125 RC
1 LJ
3.333 LW
N
285.898 640.848 M
287.993 634.453 L
290.088 640.171 L
292.048 638.202 L
294.211 638.556 L
296.238 641.089 L
298.198 642.943 L
300.428 639.37 L
302.32 642.584 L
304.347 641.378 L
306.442 640.426 L
308.537 640.832 L
310.497 644.989 L
312.66 643.168 L
314.755 646.353 L
316.647 643.789 L
318.877 641.128 L
320.904 644.662 L
322.999 645.985 L
325.094 643.766 L
326.986 638.247 L
328.946 642.71 L
331.109 643.457 L
333.204 645.062 L
335.096 644.339 L
337.326 648.61 L
339.354 648.201 L
341.448 648.896 L
343.543 649.33 L
345.503 654.616 L
347.666 654.284 L
349.761 651.155 L
351.653 679.286 L
353.815 666.217 L
355.843 649 L
357.735 647.742 L
359.965 647.198 L
362.06 649.066 L
364.155 650.934 L
366.182 650.904 L
368.21 651.777 L
370.305 658.514 L
372.4 659.083 L
374.36 655.289 L
376.252 656.763 L
378.482 654.73 L
380.509 655.944 L
382.402 658.992 L
384.632 657.023 L
386.659 655.831 L
388.822 659.075 L
390.849 659.016 L
392.809 660.442 L
394.904 666.11 L
397.066 667.361 L
399.161 663.824 L
401.053 690.631 L
403.148 673.389 L
405.108 667.128 L
407.271 651.743 L
409.298 658.33 L
411.258 663.92 L
413.488 691.874 L
415.515 681.059 L
417.61 671.37 L
419.638 671.795 L
421.665 674.417 L
423.828 664.9 L
425.72 689.475 L
427.815 660.266 L
429.707 653.161 L
431.937 649.66 L
433.965 657.096 L
436.059 654.177 L
438.154 672.285 L
440.114 664.621 L
442.277 660.168 L
444.304 669.887 L
446.264 668.574 L
448.494 659.929 L
450.454 691.99 L
452.414 681.549 L
454.576 671.659 L
456.671 691.568 L
458.563 668.561 L
460.793 664.418 L
462.821 668.012 L
464.916 667.405 L
467.011 670.321 L
468.971 678.094 L
471.133 689.601 L
473.228 679.403 L
475.12 674.424 L
477.013 673.269 L
479.243 676.988 L
481.202 663.835 L
483.365 674.885 L
485.46 681.268 L
487.42 684.951 L
489.582 682.547 L
491.677 685.47 L
493.569 694.25 L
495.8 691.542 L
497.827 685.397 L
499.719 672.177 L
501.882 669.714 L
503.909 672.759 L
505.869 672.604 L
508.031 666.76 L
510.126 663.573 L
512.221 664.167 L
514.249 664.437 L
516.276 654.4 L
518.371 650.79 L
520.466 646.161 L
522.426 637.094 L
524.318 632.031 L
526.548 638.439 L
528.576 639.659 L
530.468 645.147 L
532.698 649.786 L
534.725 654.72 L
536.888 651.461 L
538.915 652.763 L
540.875 648.287 L
543.037 647.672 L
545.132 643.732 L
547.227 634.326 L
549.187 635.049 L
551.215 641.996 L
553.174 637.655 L
555.404 643.143 L
557.432 648.792 L
559.527 638.378 L
561.622 651.67 L
563.582 653.278 L
565.744 651.381 L
567.771 652.533 L
569.731 659.004 L
571.961 666.19 L
573.854 668.746 L
575.881 680.459 L
577.976 674.342 L
580.071 646.65 L
582.031 652.498 L
584.193 693.969 L
586.288 711.393 L
588.18 694.369 L
590.411 691.5 L
592.438 703.552 L
594.533 696.976 L
596.628 690.268 L
598.52 695.122 L
600.48 707.612 L
602.642 708.654 L
604.737 703.837 L
606.63 698.045 L
608.86 694.936 L
610.887 707.994 L
612.982 682.167 L
615.077 683.092 L
617.037 681.342 L
619.199 690.041 L
621.294 664.406 L
623.187 663.571 L
625.281 659.95 L
627.309 656.37 L
629.336 648.492 L
631.431 662.384 L
633.526 664.784 L
635.486 667.245 L
637.648 666.06 L
639.743 655.678 L
641.636 653.638 L
643.866 650.86 L
645.893 643.248 L
647.785 648.495 L
650.015 647.923 L
652.043 648.315 L
653.935 655.684 L
656.165 654.949 L
658.193 650.887 L
660.355 650.981 L
662.383 652.461 L
664.342 650.465 L
666.505 649.792 L
668.6 647.602 L
670.695 649.552 L
672.587 646.583 L
674.682 645.923 L
676.642 647.048 L
678.804 654.56 L
680.832 654.548 L
682.791 659.288 L
685.022 663.309 L
687.049 667.548 L
689.144 669.223 L
691.171 669.269 L
693.199 668.717 L
695.361 671.058 L
697.253 669.633 L
699.348 669.3 L
701.241 668.767 L
703.471 671.975 L
705.498 677.09 L
707.593 675.14 L
709.688 683.05 L
711.648 692.084 L
713.81 694.556 L
715.838 705.707 L
717.797 710.619 L
720.028 704.283 L
721.92 705.207 L
723.947 705.129 L
726.042 705.043 L
728.137 706.211 L
730.097 702.297 L
732.259 705.905 L
734.354 714.832 L
736.247 719.83 L
738.477 740.248 L
740.504 729.14 L
742.599 733.202 L
744.694 729.343 L
746.654 739.626 L
748.749 770.012 L
750.776 716.952 L
752.804 674.762 L
754.898 674.518 L
756.993 675.056 L
758.953 698.815 L
761.116 711.019 L
763.211 727.39 L
765.103 760.632 L
767.333 758.523 L
769.36 768.102 L
771.253 741.567 L
773.415 720.244 L
775.443 743.539 L
777.402 767.21 L
779.565 746.905 L
781.66 755.072 L
783.755 749.995 L
785.782 728.259 L
787.81 723.098 L
789.905 686.062 L
792 700.286 L
793.959 717.783 L
795.852 716.749 L
798.082 722.921 L
800.109 715.176 L
802.001 699.791 L
804.231 718.263 L
806.259 685.606 L
808.421 659.462 L
810.449 652.816 L
812.409 663.164 L
814.571 669.762 L
816.666 667.481 L
818.761 666.059 L
820.653 666.491 L
822.748 675.238 L
824.708 670.351 L
826.87 672.749 L
828.898 677.237 L
830.858 677.672 L
833.088 677.148 L
835.115 672.216 L
837.21 668.193 L
839.237 672.995 L
841.265 673.953 L
843.427 673.915 L
845.387 674.646 L
847.415 680.716 L
849.51 678.37 L
851.604 674.139 L
853.564 676.242 L
855.727 684.3 L
857.822 690.795 L
859.714 686.27 L
861.944 677.797 L
863.971 665.404 L
866.066 659.124 L
868.161 662.772 L
870.054 668.093 L
872.013 664.934 L
874.176 659.681 L
876.271 655.623 L
878.163 652.323 L
880.393 656.543 L
882.421 653.15 L
884.516 654.904 L
886.611 659.351 L
888.57 661.897 L
890.733 667.908 L
892.828 667.048 L
894.72 672.452 L
896.815 669.889 L
898.842 663.448 L
900.87 657.322 L
902.965 660.245 L
905.06 658.844 L
907.019 651.754 L
909.182 650.56 L
911.277 652.304 L
913.169 655.804 L
915.399 661.099 L
917.427 660.189 L
919.319 660.302 L
921.481 661.323 L
923.509 655.116 L
925.469 657.865 L
927.631 659.104 L
929.726 656.223 L
931.821 657.903 L
933.848 658.735 L
935.876 651.18 L
937.971 652.366 L
940.066 651.188 L
942.026 660.435 L
944.12 658.588 L
946.215 655.672 L
948.175 657.058 L
950.338 659.041 L
952.365 661.197 L
954.325 668.624 L
956.555 673.123 L
958.582 674.579 L
960.677 675.225 L
962.705 681.086 L
964.732 682.074 L
966.895 688.451 L
968.787 690.883 L
970.882 692.599 L
972.774 690.676 L
975.004 693.38 L
977.032 688.702 L
979.127 688.355 L
981.222 685.986 L
983.181 687.143 L
985.344 687.121 L
987.371 685.528 L
989.331 685.454 L
991.561 683.94 L
993.453 681.48 L
995.481 682.32 L
997.576 680.541 L
999.671 681.624 L
1001.63 679.374 L
1003.793 677.805 L
1005.888 675.502 L
1007.78 673.502 L
1010.01 672.193 L
1012.038 672.929 L
1014.133 667.311 L
1016.228 662.684 L
1018.12 659.194 L
1020.012 653.938 L
1022.242 651.643 L
1024.337 651.128 L
1026.229 649.513 L
1028.459 650.797 L
1030.487 649.233 L
1032.582 648.943 L
1034.677 645.392 L
1036.637 639.997 L
1038.799 635.308 L
1040.894 630.945 L
1042.786 630.78 L
1044.949 629.665 L
1046.976 625.569 L
1048.936 627.942 L
1051.099 629.962 L
1053.193 627.569 L
1055.288 627.169 L
1057.316 624.608 L
1059.343 626.329 L
1061.438 626.152 L
1063.466 626.725 L
1065.493 627.963 L
1067.385 630.92 L
1069.615 630.989 L
1071.575 632.119 L
1073.535 632.415 L
1075.765 635.294 L
1077.792 634.548 L
1079.955 637.527 L
1081.982 636.465 L
1083.942 637.578 L
1086.105 635.379 L
1088.2 634.805 L
1090.295 635.085 L
1092.187 636.249 L
1094.282 634.195 L
1096.241 636.778 L
1098.404 641.301 L
1100.431 639.018 L
1102.391 642.622 L
1104.621 645.841 L
1106.649 647.545 L
1108.744 647.119 L
1110.771 652.58 L
1112.798 652.47 L
1114.961 660.224 L
1116.853 661.434 L
1118.948 662.33 L
1120.84 663.454 L
1123.07 667.572 L
1125.098 666.022 L
1127.193 662.904 L
1129.288 663.482 L
1131.248 664.871 L
1133.41 666.032 L
1135.438 667.687 L
1137.397 662.723 L
1139.627 664.28 L
1141.587 658.765 L
1143.547 657.167 L
1145.709 655.379 L
1147.804 653.491 L
1149.697 656.43 L
1151.927 658.4 L
1153.954 653.015 L
1156.049 654.574 L
1158.144 659.776 L
1160.104 661.537 L
1162.266 659.479 L
1164.361 658.791 L
1166.254 658.697 L
1168.349 658.77 L
1170.376 659.401 L
1172.403 657.61 L
1174.498 659.187 L
1176.593 664.163 L
1178.553 661.536 L
1180.716 659.662 L
1182.811 664.751 L
1184.703 666.58 L
1186.933 667.089 L
1188.96 667.673 L
1190.852 667.34 L
1193.015 666.18 L
1195.042 664.075 L
1197.002 664.75 L
1199.165 665.553 L
1201.26 665.302 L
1203.355 667.659 L
1205.382 666.529 L
1207.409 663.575 L
1209.504 663.781 L
1211.599 662.893 L
1213.559 662.879 L
1215.451 659.749 L
1217.681 657.768 L
1219.709 657.578 L
1221.533 655.501 L
1223.831 656.14 L
1225.859 656.162 L
1228.021 658.231 L
1230.048 658.036 L
1232.008 659.134 L
1234.171 662.312 L
1236.266 660.505 L
1238.361 662.334 L
1240.321 664.552 L
1242.416 670.298 L
1244.308 669.09 L
1246.538 666.891 L
1248.565 672.049 L
1250.66 675.774 L
1252.755 677.984 L
1254.715 679.279 L
1256.877 680.983 L
1258.905 682.722 L
1260.865 678.721 L
1263.095 666.077 L
1264.987 665.33 L
1267.014 657.963 L
1269.109 650.493 L
1271.204 644.647 L
1273.164 644.119 L
1275.327 646.112 L
1277.422 645.694 L
1279.314 634.3 L
1281.544 631.682 L
1283.571 621.605 L
1285.666 618.422 L
1287.761 619.655 L
1289.653 620.057 L
1291.546 615.82 L
1293.776 619.142 L
1295.871 618.889 L
1297.763 620.287 L
1299.993 627.309 L
1302.02 629.466 L
1304.115 631.814 L
1306.21 628.465 L
1308.17 621.005 L
1310.333 626.327 L
1312.428 624.337 L
1314.32 627.293 L
1316.415 625.255 L
1318.442 625.046 L
1320.469 629.516 L
1322.564 625.403 L
1324.659 617.822 L
1326.619 617.064 L
1328.782 623.277 L
1330.877 618.896 L
1332.769 617.945 L
1334.999 618.569 L
1337.026 619.413 L
1338.919 622.033 L
1341.149 623.229 L
1343.176 616.376 L
1345.068 616.214 L
1347.298 621.327 L
1349.326 622.853 L
1351.488 627.28 L
1353.516 630.695 L
1355.476 633.953 L
1357.638 634.111 L
1359.733 637.458 L
1361.828 639.907 L
1363.72 640.306 L
1365.748 640.416 L
1367.775 644.524 L
1369.938 646.697 L
1371.965 650.26 L
1373.925 651.517 L
1376.155 654.534 L
1378.182 652.5 L
1380.277 657.198 L
1382.305 659.584 L
1384.332 661.98 L
1386.495 664.406 L
1388.387 664.798 L
1390.482 664.581 L
1392.374 665.585 L
1394.604 666.52 L
1396.631 668.951 L
1398.726 670.189 L
1400.821 672.333 L
1402.781 672.259 L
1404.944 672.522 L
1406.971 673.132 L
1408.931 671.533 L
1411.161 670.285 L
1413.053 672.599 L
1415.081 672.52 L
1417.176 673.561 L
1419.271 668.262 L
1421.23 666.88 L
1423.393 670.46 L
1425.488 664.539 L
1427.38 659.929 L
1429.61 661.695 L
1431.637 656.615 L
1433.732 657.295 L
1435.827 642.911 L
1437.787 640.004 L
1439.882 633.157 L
1441.91 631.227 L
1443.937 632.003 L
1446.032 634.158 L
1448.127 633.854 L
1450.087 636.042 L
1452.249 633.021 L
1454.344 630.65 L
1456.236 631.404 L
1458.466 624.511 L
1460.494 621.214 L
1462.386 623.518 L
1464.549 624.805 L
1466.576 617.211 L
1468.536 615.022 L
1470.698 612.165 L
1472.793 611.177 L
1474.888 611.917 L
1476.916 612.456 L
1478.943 611.668 L
1481.038 615.803 L
1483.133 609.747 L
1485.093 611.446 L
1486.985 612.906 L
1489.215 610.41 L
1491.242 613.235 L
1493.135 617.575 L
1495.365 621.271 L
1497.392 623.04 L
1499.555 625.373 L
1501.582 626.098 L
1503.542 627.453 L
1505.704 624.503 L
1507.799 619.886 L
1509.894 619.484 L
1511.786 617.095 L
1513.881 615.039 L
1515.841 616.948 L
1518.004 620.308 L
1520.031 619.33 L
1521.991 626.349 L
1524.221 627.575 L
1526.248 627.086 L
1528.343 627.038 L
1530.371 627.09 L
1532.398 627.539 L
1534.561 629.641 L
1536.521 628.271 L
1538.548 626.566 L
1540.643 629.103 L
1542.738 630.951 L
1544.698 630.209 L
1546.86 630.951 L
1548.955 631.345 L
1550.847 631.119 L
1553.077 629.97 L
1555.105 631.294 L
1557.2 629.609 L
1559.295 627.756 L
1561.187 629.392 L
1563.079 628.975 L
1565.309 629.625 L
1567.404 625.137 L
1569.297 623.873 L
1571.527 622.786 L
1573.554 620.227 L
1575.649 621.616 L
1577.744 622.932 L
1579.704 623.582 L
1581.866 620.407 L
1583.961 622.173 L
1585.853 622.366 L
1587.948 620.574 L
1589.976 620.018 L
1592.003 621.572 L
1594.098 620.759 L
1596.193 619.632 L
1598.153 620.297 L
1600.315 618.525 L
1602.41 619.991 L
1604.302 622.68 L
1606.533 620.416 L
1608.56 624.912 L
1610.452 621.261 L
1612.615 623.845 L
1614.642 621.504 L
1616.602 621.312 L
1618.765 620.722 L
1620.859 621.713 L
1622.954 622.153 L
1624.982 622.403 L
1627.009 623.301 L
1629.104 625.44 L
1631.199 626.183 L
1633.159 629.095 L
1635.254 631.261 L
1637.349 630.376 L
1639.309 628.91 L
1641.471 630.47 L
1643.499 631.52 L
1645.458 632.346 L
1647.688 631.206 L
1649.716 631.815 L
1651.811 630.375 L
1653.838 626.767 L
1655.865 626.306 L
1658.028 625.367 L
1659.92 626.183 L
1662.015 630.829 L
1663.907 633.409 L
1666.138 636.526 L
1668.165 635.382 L
1670.26 635.633 L
1672.355 636.836 L
1674.315 635.409 L
1676.477 635.93 L
1678.505 637.248 L
1680.464 639.359 L
1682.694 636.732 L
1684.587 637.998 L
1686.547 640.269 L
1688.709 639.165 L
1690.804 641.231 L
1692.764 638.344 L
1694.926 639.663 L
S
GR
GS
[0.6 0 0 0.6 0 0] CT
1 GC
N
1717 262 M
1717 87 L
1487 87 L
1487 262 L
cp
f
GR
GS
[0.6 0 0 0.6 927.48834 70.57877] CT
/Helvetica 45 F
GS
[1 0 0 1 0 0] CT
0 18 moveto 
1 -1 scale
(Factor 1) t 
GR
GR
GS
[0.6 0 0 0.6 0 0] CT
0 0.447 0.741 RC
1 LJ
3.333 LW
N
1492.005 117.631 M
1542.06 117.631 L
S
GR
GS
[0.6 0 0 0.6 927.48834 104.7] CT
/Helvetica 45 F
GS
[1 0 0 1 0 0] CT
0 18 moveto 
1 -1 scale
(Factor 2) t 
GR
GR
GS
[0.6 0 0 0.6 0 0] CT
0.851 0.325 0.098 RC
1 LJ
3.333 LW
N
1492.005 174.5 M
1542.06 174.5 L
S
GR
GS
[0.6 0 0 0.6 927.48834 138.82124] CT
/Helvetica 45 F
GS
[1 0 0 1 0 0] CT
0 18 moveto 
1 -1 scale
(Factor 3) t 
GR
GR
GS
[0.6 0 0 0.6 0 0] CT
0.929 0.694 0.125 RC
1 LJ
3.333 LW
N
1492.005 231.369 M
1542.06 231.369 L
S
GR
GS
[0.6 0 0 0.6 0 0] CT
0.149 GC
10.0 ML
0.833 LW
N
1487 262 M
1487 87 L
1717 87 L
1717 262 L
cp
S
GR
%%Trailer
%%Pages: 1
%%EOF
