%!PS-Adobe-3.0 EPSF-3.0
%%Creator: (MATLAB, The Mathworks, Inc. Version 9.12.0.1975300 \(R2022a\) Update 3. Operating System: Windows 10)
%%Title: ./EstFactors_NS.eps
%%CreationDate: 2022-09-11T14:35:30
%%Pages: (atend)
%%BoundingBox:   322   131  2639  1444
%%LanguageLevel: 3
%%EndComments
%%BeginProlog
%%BeginResource: procset (Apache XML Graphics Std ProcSet) 1.2 0
%%Version: 1.2 0
%%Copyright: (Copyright 2001-2003,2010 The Apache Software Foundation. License terms: http://www.apache.org/licenses/LICENSE-2.0)
/bd{bind def}bind def
/ld{load def}bd
/GR/grestore ld
/GS/gsave ld
/RM/rmoveto ld
/C/curveto ld
/t/show ld
/L/lineto ld
/ML/setmiterlimit ld
/CT/concat ld
/f/fill ld
/N/newpath ld
/S/stroke ld
/CC/setcmykcolor ld
/A/ashow ld
/cp/closepath ld
/RC/setrgbcolor ld
/LJ/setlinejoin ld
/GC/setgray ld
/LW/setlinewidth ld
/M/moveto ld
/re {4 2 roll M
1 index 0 rlineto
0 exch rlineto
neg 0 rlineto
cp } bd
/_ctm matrix def
/_tm matrix def
/BT { _ctm currentmatrix pop matrix _tm copy pop 0 0 moveto } bd
/ET { _ctm setmatrix } bd
/iTm { _ctm setmatrix _tm concat } bd
/Tm { _tm astore pop iTm 0 0 moveto } bd
/ux 0.0 def
/uy 0.0 def
/F {
  /Tp exch def
  /Tf exch def
  Tf findfont Tp scalefont setfont
  /cf Tf def  /cs Tp def
} bd
/ULS {currentpoint /uy exch def /ux exch def} bd
/ULE {
  /Tcx currentpoint pop def
  gsave
  newpath
  cf findfont cs scalefont dup
  /FontMatrix get 0 get /Ts exch def /FontInfo get dup
  /UnderlinePosition get Ts mul /To exch def
  /UnderlineThickness get Ts mul /Tt exch def
  ux uy To add moveto  Tcx uy To add lineto
  Tt setlinewidth stroke
  grestore
} bd
/OLE {
  /Tcx currentpoint pop def
  gsave
  newpath
  cf findfont cs scalefont dup
  /FontMatrix get 0 get /Ts exch def /FontInfo get dup
  /UnderlinePosition get Ts mul /To exch def
  /UnderlineThickness get Ts mul /Tt exch def
  ux uy To add cs add moveto Tcx uy To add cs add lineto
  Tt setlinewidth stroke
  grestore
} bd
/SOE {
  /Tcx currentpoint pop def
  gsave
  newpath
  cf findfont cs scalefont dup
  /FontMatrix get 0 get /Ts exch def /FontInfo get dup
  /UnderlinePosition get Ts mul /To exch def
  /UnderlineThickness get Ts mul /Tt exch def
  ux uy To add cs 10 mul 26 idiv add moveto Tcx uy To add cs 10 mul 26 idiv add lineto
  Tt setlinewidth stroke
  grestore
} bd
/QT {
/Y22 exch store
/X22 exch store
/Y21 exch store
/X21 exch store
currentpoint
/Y21 load 2 mul add 3 div exch
/X21 load 2 mul add 3 div exch
/X21 load 2 mul /X22 load add 3 div
/Y21 load 2 mul /Y22 load add 3 div
/X22 load /Y22 load curveto
} bd
/SSPD {
dup length /d exch dict def
{
/v exch def
/k exch def
currentpagedevice k known {
/cpdv currentpagedevice k get def
v cpdv ne {
/upd false def
/nullv v type /nulltype eq def
/nullcpdv cpdv type /nulltype eq def
nullv nullcpdv or
{
/upd true def
} {
/sametype v type cpdv type eq def
sametype {
v type /arraytype eq {
/vlen v length def
/cpdvlen cpdv length def
vlen cpdvlen eq {
0 1 vlen 1 sub {
/i exch def
/obj v i get def
/cpdobj cpdv i get def
obj cpdobj ne {
/upd true def
exit
} if
} for
} {
/upd true def
} ifelse
} {
v type /dicttype eq {
v {
/dv exch def
/dk exch def
/cpddv cpdv dk get def
dv cpddv ne {
/upd true def
exit
} if
} forall
} {
/upd true def
} ifelse
} ifelse
} if
} ifelse
upd true eq {
d k v put
} if
} if
} if
} forall
d length 0 gt {
d setpagedevice
} if
} bd
/RE { % /NewFontName [NewEncodingArray] /FontName RE -
  findfont dup length dict begin
  {
    1 index /FID ne
    {def} {pop pop} ifelse
  } forall
  /Encoding exch def
  /FontName 1 index def
  currentdict definefont pop
  end
} bind def
%%EndResource
%%BeginResource: procset (Apache XML Graphics EPS ProcSet) 1.0 0
%%Version: 1.0 0
%%Copyright: (Copyright 2002-2003 The Apache Software Foundation. License terms: http://www.apache.org/licenses/LICENSE-2.0)
/BeginEPSF { %def
/b4_Inc_state save def         % Save state for cleanup
/dict_count countdictstack def % Count objects on dict stack
/op_count count 1 sub def      % Count objects on operand stack
userdict begin                 % Push userdict on dict stack
/showpage { } def              % Redefine showpage, { } = null proc
0 setgray 0 setlinecap         % Prepare graphics state
1 setlinewidth 0 setlinejoin
10 setmiterlimit [ ] 0 setdash newpath
/languagelevel where           % If level not equal to 1 then
{pop languagelevel             % set strokeadjust and
1 ne                           % overprint to their defaults.
{false setstrokeadjust false setoverprint
} if
} if
} bd
/EndEPSF { %def
count op_count sub {pop} repeat            % Clean up stacks
countdictstack dict_count sub {end} repeat
b4_Inc_state restore
} bd
%%EndResource
%FOPBeginFontDict
%%IncludeResource: font Courier-Oblique
%%IncludeResource: font Courier-BoldOblique
%%IncludeResource: font Courier-Bold
%%IncludeResource: font ZapfDingbats
%%IncludeResource: font Symbol
%%IncludeResource: font Helvetica
%%IncludeResource: font Helvetica-Oblique
%%IncludeResource: font Helvetica-Bold
%%IncludeResource: font Helvetica-BoldOblique
%%IncludeResource: font Times-Roman
%%IncludeResource: font Times-Italic
%%IncludeResource: font Times-Bold
%%IncludeResource: font Times-BoldItalic
%%IncludeResource: font Courier
%FOPEndFontDict
%%BeginResource: encoding WinAnsiEncoding
/WinAnsiEncoding [
/.notdef /.notdef /.notdef /.notdef /.notdef
/.notdef /.notdef /.notdef /.notdef /.notdef
/.notdef /.notdef /.notdef /.notdef /.notdef
/.notdef /.notdef /.notdef /.notdef /.notdef
/.notdef /.notdef /.notdef /.notdef /.notdef
/.notdef /.notdef /.notdef /.notdef /.notdef
/.notdef /.notdef /space /exclam /quotedbl
/numbersign /dollar /percent /ampersand /quotesingle
/parenleft /parenright /asterisk /plus /comma
/hyphen /period /slash /zero /one
/two /three /four /five /six
/seven /eight /nine /colon /semicolon
/less /equal /greater /question /at
/A /B /C /D /E
/F /G /H /I /J
/K /L /M /N /O
/P /Q /R /S /T
/U /V /W /X /Y
/Z /bracketleft /backslash /bracketright /asciicircum
/underscore /quoteleft /a /b /c
/d /e /f /g /h
/i /j /k /l /m
/n /o /p /q /r
/s /t /u /v /w
/x /y /z /braceleft /bar
/braceright /asciitilde /bullet /Euro /bullet
/quotesinglbase /florin /quotedblbase /ellipsis /dagger
/daggerdbl /circumflex /perthousand /Scaron /guilsinglleft
/OE /bullet /Zcaron /bullet /bullet
/quoteleft /quoteright /quotedblleft /quotedblright /bullet
/endash /emdash /asciitilde /trademark /scaron
/guilsinglright /oe /bullet /zcaron /Ydieresis
/space /exclamdown /cent /sterling /currency
/yen /brokenbar /section /dieresis /copyright
/ordfeminine /guillemotleft /logicalnot /sfthyphen /registered
/macron /degree /plusminus /twosuperior /threesuperior
/acute /mu /paragraph /middot /cedilla
/onesuperior /ordmasculine /guillemotright /onequarter /onehalf
/threequarters /questiondown /Agrave /Aacute /Acircumflex
/Atilde /Adieresis /Aring /AE /Ccedilla
/Egrave /Eacute /Ecircumflex /Edieresis /Igrave
/Iacute /Icircumflex /Idieresis /Eth /Ntilde
/Ograve /Oacute /Ocircumflex /Otilde /Odieresis
/multiply /Oslash /Ugrave /Uacute /Ucircumflex
/Udieresis /Yacute /Thorn /germandbls /agrave
/aacute /acircumflex /atilde /adieresis /aring
/ae /ccedilla /egrave /eacute /ecircumflex
/edieresis /igrave /iacute /icircumflex /idieresis
/eth /ntilde /ograve /oacute /ocircumflex
/otilde /odieresis /divide /oslash /ugrave
/uacute /ucircumflex /udieresis /yacute /thorn
/ydieresis
] def
%%EndResource
%FOPBeginFontReencode
/Courier-Oblique findfont
dup length dict begin
  {1 index /FID ne {def} {pop pop} ifelse} forall
  /Encoding WinAnsiEncoding def
  currentdict
end
/Courier-Oblique exch definefont pop
/Courier-BoldOblique findfont
dup length dict begin
  {1 index /FID ne {def} {pop pop} ifelse} forall
  /Encoding WinAnsiEncoding def
  currentdict
end
/Courier-BoldOblique exch definefont pop
/Courier-Bold findfont
dup length dict begin
  {1 index /FID ne {def} {pop pop} ifelse} forall
  /Encoding WinAnsiEncoding def
  currentdict
end
/Courier-Bold exch definefont pop
/Helvetica findfont
dup length dict begin
  {1 index /FID ne {def} {pop pop} ifelse} forall
  /Encoding WinAnsiEncoding def
  currentdict
end
/Helvetica exch definefont pop
/Helvetica-Oblique findfont
dup length dict begin
  {1 index /FID ne {def} {pop pop} ifelse} forall
  /Encoding WinAnsiEncoding def
  currentdict
end
/Helvetica-Oblique exch definefont pop
/Helvetica-Bold findfont
dup length dict begin
  {1 index /FID ne {def} {pop pop} ifelse} forall
  /Encoding WinAnsiEncoding def
  currentdict
end
/Helvetica-Bold exch definefont pop
/Helvetica-BoldOblique findfont
dup length dict begin
  {1 index /FID ne {def} {pop pop} ifelse} forall
  /Encoding WinAnsiEncoding def
  currentdict
end
/Helvetica-BoldOblique exch definefont pop
/Times-Roman findfont
dup length dict begin
  {1 index /FID ne {def} {pop pop} ifelse} forall
  /Encoding WinAnsiEncoding def
  currentdict
end
/Times-Roman exch definefont pop
/Times-Italic findfont
dup length dict begin
  {1 index /FID ne {def} {pop pop} ifelse} forall
  /Encoding WinAnsiEncoding def
  currentdict
end
/Times-Italic exch definefont pop
/Times-Bold findfont
dup length dict begin
  {1 index /FID ne {def} {pop pop} ifelse} forall
  /Encoding WinAnsiEncoding def
  currentdict
end
/Times-Bold exch definefont pop
/Times-BoldItalic findfont
dup length dict begin
  {1 index /FID ne {def} {pop pop} ifelse} forall
  /Encoding WinAnsiEncoding def
  currentdict
end
/Times-BoldItalic exch definefont pop
/Courier findfont
dup length dict begin
  {1 index /FID ne {def} {pop pop} ifelse} forall
  /Encoding WinAnsiEncoding def
  currentdict
end
/Courier exch definefont pop
%FOPEndFontReencode
%%EndProlog
%%Page: 1 1
%%PageBoundingBox: 0 0 2868 1550
%%BeginPageSetup
N
  322   131 M
 2961   131 L
 2961  1575 L
  322  1575 L
cp
clip
[1 0 0 -1 0 1550] CT
%%EndPageSetup
GS
[0.75 0 0 0.75 0 -0.25] CT
1 GC
N
0 0 3824 2067 re
f
GR
GS
[0.75 0 0 0.75 0 -0.25] CT
1 GC
N
0 0 3824 2067 re
f
GR
GS
[0.75 0 0 0.75 0 -0.25] CT
1 GC
N
497 1840 M
3461 1840 L
3461 155 L
497 155 L
cp
f
GR
GS
[0.75 0 0 0.75 0 -0.25] CT
0.149 GC
2 setlinecap
1 LJ
0.667 LW
N
497 1840 M
3461 1840 L
S
GR
GS
[0.75 0 0 0.75 0 -0.25] CT
0.149 GC
2 setlinecap
1 LJ
0.667 LW
N
497 155 M
3461 155 L
S
GR
GS
[0.75 0 0 0.75 0 -0.25] CT
0.149 GC
2 setlinecap
1 LJ
0.667 LW
N
497 1840 M
497 1810.36 L
S
GR
GS
[0.75 0 0 0.75 0 -0.25] CT
0.149 GC
2 setlinecap
1 LJ
0.667 LW
N
991.068 1840 M
991.068 1810.36 L
S
GR
GS
[0.75 0 0 0.75 0 -0.25] CT
0.149 GC
2 setlinecap
1 LJ
0.667 LW
N
1485 1840 M
1485 1810.36 L
S
GR
GS
[0.75 0 0 0.75 0 -0.25] CT
0.149 GC
2 setlinecap
1 LJ
0.667 LW
N
1979.068 1840 M
1979.068 1810.36 L
S
GR
GS
[0.75 0 0 0.75 0 -0.25] CT
0.149 GC
2 setlinecap
1 LJ
0.667 LW
N
2473 1840 M
2473 1810.36 L
S
GR
GS
[0.75 0 0 0.75 0 -0.25] CT
0.149 GC
2 setlinecap
1 LJ
0.667 LW
N
2967.068 1840 M
2967.068 1810.36 L
S
GR
GS
[0.75 0 0 0.75 0 -0.25] CT
0.149 GC
2 setlinecap
1 LJ
0.667 LW
N
3461 1840 M
3461 1810.36 L
S
GR
GS
[0.75 0 0 0.75 0 -0.25] CT
0.149 GC
2 setlinecap
1 LJ
0.667 LW
N
497 155 M
497 184.64 L
S
GR
GS
[0.75 0 0 0.75 0 -0.25] CT
0.149 GC
2 setlinecap
1 LJ
0.667 LW
N
991.068 155 M
991.068 184.64 L
S
GR
GS
[0.75 0 0 0.75 0 -0.25] CT
0.149 GC
2 setlinecap
1 LJ
0.667 LW
N
1485 155 M
1485 184.64 L
S
GR
GS
[0.75 0 0 0.75 0 -0.25] CT
0.149 GC
2 setlinecap
1 LJ
0.667 LW
N
1979.068 155 M
1979.068 184.64 L
S
GR
GS
[0.75 0 0 0.75 0 -0.25] CT
0.149 GC
2 setlinecap
1 LJ
0.667 LW
N
2473 155 M
2473 184.64 L
S
GR
GS
[0.75 0 0 0.75 0 -0.25] CT
0.149 GC
2 setlinecap
1 LJ
0.667 LW
N
2967.068 155 M
2967.068 184.64 L
S
GR
GS
[0.75 0 0 0.75 0 -0.25] CT
0.149 GC
2 setlinecap
1 LJ
0.667 LW
N
3461 155 M
3461 184.64 L
S
GR
GS
[0.75 0 0 0.75 372.75 1387.74997] CT
0.149 GC
/Helvetica 40 F
GS
[1 0 0 1 0 0] CT
-61.5 41 moveto 
1 -1 scale
(Jan-60) t 
GR
GR
GS
[0.75 0 0 0.75 743.30072 1387.74997] CT
0.149 GC
/Helvetica 40 F
GS
[1 0 0 1 0 0] CT
-61.5 41 moveto 
1 -1 scale
(Jan-70) t 
GR
GR
GS
[0.75 0 0 0.75 1113.75 1387.74997] CT
0.149 GC
/Helvetica 40 F
GS
[1 0 0 1 0 0] CT
-61.5 41 moveto 
1 -1 scale
(Jan-80) t 
GR
GR
GS
[0.75 0 0 0.75 1484.30072 1387.74997] CT
0.149 GC
/Helvetica 40 F
GS
[1 0 0 1 0 0] CT
-61.5 41 moveto 
1 -1 scale
(Jan-90) t 
GR
GR
GS
[0.75 0 0 0.75 1854.75 1387.74997] CT
0.149 GC
/Helvetica 40 F
GS
[1 0 0 1 0 0] CT
-61.5 41 moveto 
1 -1 scale
(Jan-00) t 
GR
GR
GS
[0.75 0 0 0.75 2225.30072 1387.74997] CT
0.149 GC
/Helvetica 40 F
GS
[1 0 0 1 0 0] CT
-61.5 41 moveto 
1 -1 scale
(Jan-10) t 
GR
GR
GS
[0.75 0 0 0.75 2595.75 1387.74997] CT
0.149 GC
/Helvetica 40 F
GS
[1 0 0 1 0 0] CT
-61.5 41 moveto 
1 -1 scale
(Jan-20) t 
GR
GR
GS
[0.75 0 0 0.75 0 -0.25] CT
0.149 GC
2 setlinecap
1 LJ
0.667 LW
N
497 1840 M
497 155 L
S
GR
GS
[0.75 0 0 0.75 0 -0.25] CT
0.149 GC
2 setlinecap
1 LJ
0.667 LW
N
3461 1840 M
3461 155 L
S
GR
GS
[0.75 0 0 0.75 0 -0.25] CT
0.149 GC
2 setlinecap
1 LJ
0.667 LW
N
497 1840 M
526.637 1840 L
S
GR
GS
[0.75 0 0 0.75 0 -0.25] CT
0.149 GC
2 setlinecap
1 LJ
0.667 LW
N
497 1503 M
526.637 1503 L
S
GR
GS
[0.75 0 0 0.75 0 -0.25] CT
0.149 GC
2 setlinecap
1 LJ
0.667 LW
N
497 1166 M
526.637 1166 L
S
GR
GS
[0.75 0 0 0.75 0 -0.25] CT
0.149 GC
2 setlinecap
1 LJ
0.667 LW
N
497 829 M
526.637 829 L
S
GR
GS
[0.75 0 0 0.75 0 -0.25] CT
0.149 GC
2 setlinecap
1 LJ
0.667 LW
N
497 492 M
526.637 492 L
S
GR
GS
[0.75 0 0 0.75 0 -0.25] CT
0.149 GC
2 setlinecap
1 LJ
0.667 LW
N
497 155 M
526.637 155 L
S
GR
GS
[0.75 0 0 0.75 0 -0.25] CT
0.149 GC
2 setlinecap
1 LJ
0.667 LW
N
3461 1840 M
3431.363 1840 L
S
GR
GS
[0.75 0 0 0.75 0 -0.25] CT
0.149 GC
2 setlinecap
1 LJ
0.667 LW
N
3461 1503 M
3431.363 1503 L
S
GR
GS
[0.75 0 0 0.75 0 -0.25] CT
0.149 GC
2 setlinecap
1 LJ
0.667 LW
N
3461 1166 M
3431.363 1166 L
S
GR
GS
[0.75 0 0 0.75 0 -0.25] CT
0.149 GC
2 setlinecap
1 LJ
0.667 LW
N
3461 829 M
3431.363 829 L
S
GR
GS
[0.75 0 0 0.75 0 -0.25] CT
0.149 GC
2 setlinecap
1 LJ
0.667 LW
N
3461 492 M
3431.363 492 L
S
GR
GS
[0.75 0 0 0.75 0 -0.25] CT
0.149 GC
2 setlinecap
1 LJ
0.667 LW
N
3461 155 M
3431.363 155 L
S
GR
GS
[0.75 0 0 0.75 364.74914 1379.75] CT
0.149 GC
/Helvetica 40 F
GS
[1 0 0 1 0 0] CT
-58 16 moveto 
1 -1 scale
(-10) t 
GR
GR
GS
[0.75 0 0 0.75 364.74914 1127] CT
0.149 GC
/Helvetica 40 F
GS
[1 0 0 1 0 0] CT
-36 16 moveto 
1 -1 scale
(-5) t 
GR
GR
GS
[0.75 0 0 0.75 364.74914 874.25] CT
0.149 GC
/Helvetica 40 F
GS
[1 0 0 1 0 0] CT
-23 16 moveto 
1 -1 scale
(0) t 
GR
GR
GS
[0.75 0 0 0.75 364.74914 621.5] CT
0.149 GC
/Helvetica 40 F
GS
[1 0 0 1 0 0] CT
-23 16 moveto 
1 -1 scale
(5) t 
GR
GR
GS
[0.75 0 0 0.75 364.74914 368.75] CT
0.149 GC
/Helvetica 40 F
GS
[1 0 0 1 0 0] CT
-45 16 moveto 
1 -1 scale
(10) t 
GR
GR
GS
[0.75 0 0 0.75 364.74914 116] CT
0.149 GC
/Helvetica 40 F
GS
[1 0 0 1 0 0] CT
-45 16 moveto 
1 -1 scale
(15) t 
GR
GR
GS
[0.75 0 0 0.75 0 -0.25] CT
0 0.447 0.741 RC
1 LJ
2.667 LW
N
570.846 891.005 M
575.039 880.77 L
579.232 876.792 L
583.154 893.694 L
587.482 887.143 L
591.54 889.142 L
595.462 897.763 L
599.925 893.653 L
603.712 894.916 L
607.77 887.946 L
611.962 905.819 L
616.155 884.456 L
620.077 876.642 L
624.405 878.596 L
628.598 864.438 L
632.385 861.899 L
636.848 868.965 L
640.906 872.117 L
645.099 878.711 L
649.291 879.919 L
653.078 879.754 L
657.001 873.018 L
661.329 876.415 L
665.521 876.463 L
669.308 872.756 L
673.772 884.172 L
677.829 883.946 L
682.022 878.789 L
686.215 875.591 L
690.137 878.911 L
694.465 879.878 L
698.657 878.946 L
702.445 838.571 L
706.772 852.992 L
710.83 875.755 L
714.617 887.51 L
719.08 890.435 L
723.273 867.961 L
727.466 869.974 L
731.523 882.732 L
735.581 883.526 L
739.773 882.245 L
743.966 872.332 L
747.888 867.666 L
751.675 870.719 L
756.139 876.666 L
760.196 878.285 L
763.983 872.917 L
768.446 870.245 L
772.504 872.644 L
776.832 870.592 L
780.889 863.858 L
784.812 857.639 L
789.004 849.738 L
793.332 836.81 L
797.525 835 L
801.312 774.028 L
805.505 815.758 L
809.427 829.826 L
813.755 857.635 L
817.813 837.236 L
821.735 814.466 L
826.198 747.718 L
830.256 783.411 L
834.448 810.802 L
838.506 804.723 L
842.563 829.38 L
846.891 842.506 L
850.678 797.824 L
854.871 843.827 L
858.658 826.208 L
863.121 836.041 L
867.179 814.713 L
871.372 840.182 L
875.564 795.154 L
879.487 806.184 L
883.815 784.271 L
887.872 766.002 L
891.794 770.902 L
896.258 790.401 L
900.18 741.403 L
904.102 743.568 L
908.43 751.086 L
912.623 737.185 L
916.41 744.558 L
920.873 739.854 L
924.93 764.988 L
929.123 768.25 L
933.316 755.674 L
937.238 743.216 L
941.566 710.753 L
945.759 731.435 L
949.546 760.885 L
953.333 735.693 L
957.796 738.048 L
961.718 758.951 L
966.046 769.052 L
970.239 795.024 L
974.161 755.886 L
978.489 706.295 L
982.682 755.942 L
986.469 700.605 L
990.932 726.059 L
994.99 677.585 L
998.777 736.414 L
1003.105 707.215 L
1007.162 659.205 L
1011.085 688.515 L
1015.413 679.363 L
1019.605 684.957 L
1023.798 674.689 L
1027.856 671.28 L
1031.913 702.223 L
1036.106 690.793 L
1040.299 734.664 L
1044.221 684.511 L
1048.008 692.443 L
1052.471 723.819 L
1056.529 724.574 L
1060.316 709.906 L
1064.779 716.325 L
1068.836 699.49 L
1073.164 736.971 L
1077.222 744.781 L
1081.144 737.848 L
1085.472 727.281 L
1089.665 730.433 L
1093.858 727.692 L
1097.78 725.226 L
1101.837 751.626 L
1105.76 742.395 L
1110.223 729.306 L
1114.28 745.657 L
1118.473 754.163 L
1122.666 731.583 L
1126.588 734.933 L
1130.916 745.328 L
1134.973 744.056 L
1138.896 741.353 L
1143.359 739.616 L
1147.146 741.361 L
1151.203 734.667 L
1155.396 732.764 L
1159.589 782.937 L
1163.511 795.5 L
1167.839 715.169 L
1172.032 694.601 L
1175.819 697.189 L
1180.282 701.957 L
1184.34 700.869 L
1188.532 686.085 L
1192.725 670.464 L
1196.512 668.75 L
1200.434 653.098 L
1204.762 646.556 L
1208.955 646.747 L
1212.742 658.386 L
1217.205 674.452 L
1221.263 641.354 L
1225.456 653.978 L
1229.648 670.585 L
1233.571 677.035 L
1237.899 664.953 L
1242.091 657.537 L
1245.878 643.894 L
1250.071 646.58 L
1254.129 631.706 L
1258.186 639.707 L
1262.379 647.43 L
1266.572 659.599 L
1270.494 644.514 L
1274.822 632.008 L
1279.015 631.152 L
1282.802 625.642 L
1287.265 635.623 L
1291.322 624.49 L
1295.109 650.098 L
1299.573 652.091 L
1303.63 650.678 L
1307.417 649.929 L
1311.88 642.117 L
1315.938 634.453 L
1320.266 633.431 L
1324.323 629.179 L
1328.245 632.546 L
1332.573 637.269 L
1336.766 663.992 L
1340.959 652.879 L
1344.746 644.107 L
1348.939 636.79 L
1352.861 636.569 L
1357.189 633.984 L
1361.246 643.003 L
1365.169 646.16 L
1369.632 657.584 L
1373.689 657.415 L
1377.882 656.819 L
1381.94 655.244 L
1385.997 633.106 L
1390.325 623.526 L
1394.112 621.42 L
1398.305 623.844 L
1402.092 628.204 L
1406.555 626.373 L
1410.613 612.43 L
1414.805 620.533 L
1418.998 622.785 L
1422.92 614.792 L
1427.248 605.415 L
1431.306 615.688 L
1435.228 607.069 L
1439.691 617.714 L
1443.478 594.983 L
1447.536 590.106 L
1451.729 578.432 L
1455.921 584.505 L
1459.844 587.195 L
1464.172 578.385 L
1468.364 570.649 L
1472.151 561.889 L
1476.615 504.369 L
1480.672 499.865 L
1484.865 496.858 L
1489.057 435.934 L
1492.98 435.499 L
1497.172 425.558 L
1501.23 424.458 L
1505.287 450.264 L
1509.48 483.227 L
1513.673 451.84 L
1517.595 446.56 L
1521.923 412.065 L
1526.116 366.813 L
1529.903 356.945 L
1534.366 325.682 L
1538.424 304.979 L
1542.211 284.974 L
1546.539 282.009 L
1550.596 267.307 L
1554.518 300.699 L
1558.846 289.102 L
1563.039 277.026 L
1567.232 239.081 L
1571.289 223.762 L
1575.347 212.015 L
1579.54 323.308 L
1583.732 281.949 L
1587.655 259.632 L
1591.442 288.661 L
1595.905 284.855 L
1599.962 314.243 L
1603.749 310.526 L
1608.213 285.793 L
1612.27 316.464 L
1616.598 391.382 L
1620.656 432.841 L
1624.578 460.52 L
1628.906 421.888 L
1633.099 434.128 L
1637.291 396.708 L
1641.078 438.207 L
1645.271 425.74 L
1649.193 440.086 L
1653.521 415.196 L
1657.579 408.348 L
1661.501 363.085 L
1665.964 356.178 L
1670.022 378.272 L
1674.214 358.035 L
1678.272 368.576 L
1682.329 359.042 L
1686.657 360.948 L
1690.58 342.453 L
1694.637 317.513 L
1698.83 296.433 L
1703.023 257.554 L
1706.945 274.374 L
1711.273 330.171 L
1715.466 340.892 L
1719.253 358.817 L
1723.716 391.686 L
1727.773 381.828 L
1731.966 365.137 L
1736.159 393.179 L
1739.946 343.827 L
1743.868 359.2 L
1748.196 361.739 L
1752.389 434.682 L
1756.176 425.165 L
1760.639 401.669 L
1764.697 431.33 L
1768.889 424.938 L
1773.082 439.608 L
1777.004 462.007 L
1781.332 505.087 L
1785.525 495.169 L
1789.312 589.003 L
1793.505 642.173 L
1797.562 643.355 L
1801.62 597.173 L
1805.813 626.487 L
1810.005 607.391 L
1813.928 627.758 L
1818.256 591.842 L
1822.448 599.625 L
1826.235 610.548 L
1830.699 614.618 L
1834.756 619.972 L
1838.543 631.506 L
1842.871 613.478 L
1846.929 586.258 L
1850.851 578.768 L
1855.179 566.338 L
1859.372 544.415 L
1863.564 528.818 L
1867.622 496.551 L
1871.679 533.7 L
1875.872 525.985 L
1880.065 542.427 L
1883.987 555.465 L
1888.18 565.087 L
1892.372 537.191 L
1896.295 519.76 L
1900.623 517.579 L
1904.68 547.292 L
1908.602 520.324 L
1913.066 529.1 L
1917.123 555.694 L
1921.316 568.23 L
1925.373 556.244 L
1929.431 568.223 L
1933.759 577.93 L
1937.546 563.929 L
1941.739 581.483 L
1945.526 577.196 L
1949.989 592.907 L
1954.046 609.163 L
1958.239 616.207 L
1962.432 614.059 L
1966.354 611.016 L
1970.682 619.134 L
1974.74 624.557 L
1978.662 621.176 L
1983.125 594.865 L
1986.912 589.975 L
1990.97 590.139 L
1995.162 570.379 L
1999.355 584.843 L
2003.277 592.433 L
2007.605 586.636 L
2011.798 538.825 L
2015.585 535.385 L
2020.048 545.411 L
2024.106 575.566 L
2028.299 574.456 L
2032.491 579.278 L
2036.278 580.877 L
2040.065 583.334 L
2044.529 578.277 L
2048.721 568.775 L
2052.508 556.533 L
2056.971 559.396 L
2061.029 563.78 L
2065.222 586.266 L
2069.415 571.123 L
2073.337 561.56 L
2077.665 602.846 L
2081.857 567.409 L
2085.645 574.096 L
2089.972 579.029 L
2094.03 563.927 L
2097.952 573.196 L
2102.28 563.385 L
2106.473 588.402 L
2110.666 577.316 L
2114.723 582.642 L
2118.781 580.704 L
2122.973 592.028 L
2127.031 598.519 L
2131.088 614.135 L
2134.875 632.132 L
2139.339 631.011 L
2143.261 629.659 L
2147.183 650.13 L
2151.646 681.75 L
2155.704 690.204 L
2160.032 711.614 L
2164.089 722.253 L
2168.012 722.699 L
2172.34 697.941 L
2176.532 697.328 L
2180.725 712.741 L
2184.512 681.546 L
2188.705 649.294 L
2192.627 650.616 L
2196.955 650.102 L
2201.013 636.307 L
2204.935 653.706 L
2209.398 651.667 L
2213.456 628.307 L
2217.648 622.764 L
2221.706 646.19 L
2225.763 671.076 L
2230.091 664.846 L
2233.878 669.585 L
2238.071 668.851 L
2241.858 677.31 L
2246.321 711.268 L
2250.379 722.084 L
2254.572 704.314 L
2258.764 717.336 L
2262.687 732.134 L
2267.014 737.827 L
2271.072 745.883 L
2274.994 762.583 L
2279.458 744.846 L
2283.38 717.58 L
2287.302 711.733 L
2291.63 698.351 L
2295.823 693.374 L
2299.61 702.221 L
2304.073 697.617 L
2308.13 690.547 L
2312.323 700.643 L
2316.516 713.69 L
2320.438 737.869 L
2324.766 719.245 L
2328.959 711.283 L
2332.746 711.452 L
2336.939 691.358 L
2340.996 702.388 L
2345.054 708.207 L
2349.246 715.247 L
2353.439 743.547 L
2357.361 724.033 L
2361.689 739.722 L
2365.882 756.711 L
2369.669 767.713 L
2374.132 773.575 L
2378.19 774.794 L
2381.977 772.581 L
2386.305 773.957 L
2390.362 771.642 L
2394.285 780.349 L
2398.613 794.351 L
2402.805 791.219 L
2406.998 808.05 L
2411.056 833.392 L
2415.113 810.605 L
2419.306 817.099 L
2423.499 812.417 L
2427.421 817.52 L
2431.208 782.648 L
2435.671 773.417 L
2439.729 773.905 L
2443.38 760.573 L
2447.979 746.439 L
2452.036 737.118 L
2456.364 728.762 L
2460.422 728.687 L
2464.344 728.898 L
2468.672 722.804 L
2472.865 708.898 L
2477.057 724.547 L
2480.98 734.262 L
2485.172 767.628 L
2488.959 764.072 L
2493.423 764.72 L
2497.48 765.651 L
2501.673 763.927 L
2505.866 773.677 L
2509.788 754.442 L
2514.116 759.104 L
2518.173 774.688 L
2522.096 782.445 L
2526.559 767.325 L
2530.346 772.994 L
2534.403 763.325 L
2538.596 738.062 L
2542.789 730.942 L
2546.711 732.606 L
2551.039 745.577 L
2555.232 752.284 L
2559.019 743.482 L
2563.482 757.676 L
2567.54 729.226 L
2571.732 711.63 L
2575.925 722.24 L
2579.712 729.743 L
2583.499 717.57 L
2587.962 726.702 L
2592.155 731.772 L
2595.942 732.586 L
2600.405 727.081 L
2604.463 756.267 L
2608.656 785.742 L
2612.848 759.067 L
2616.771 755.042 L
2621.099 770.357 L
2625.291 763.497 L
2629.078 783.572 L
2633.271 772.483 L
2637.329 769.086 L
2641.386 816.531 L
2645.579 805.51 L
2649.771 726.148 L
2653.694 732.872 L
2658.022 761.481 L
2662.215 747.578 L
2666.001 759.462 L
2670.465 757.394 L
2674.522 767.958 L
2678.309 773.705 L
2682.772 785.953 L
2686.83 759.095 L
2690.617 757.031 L
2695.08 766.519 L
2699.138 779.061 L
2703.466 800.049 L
2707.523 811.685 L
2711.446 815.674 L
2715.773 809.89 L
2719.966 826.123 L
2724.159 848.57 L
2727.946 845.521 L
2732.003 839.496 L
2736.061 863.508 L
2740.389 881.77 L
2744.446 889.925 L
2748.369 873.262 L
2752.832 885.85 L
2756.889 869.635 L
2761.082 852.451 L
2765.14 852.988 L
2769.197 866.117 L
2773.525 854.519 L
2777.312 858.84 L
2781.505 834.639 L
2785.292 811.787 L
2789.755 811.361 L
2793.813 815.036 L
2798.005 821.069 L
2802.198 831.844 L
2806.12 839.984 L
2810.448 843.764 L
2814.506 854.909 L
2818.428 841.728 L
2822.891 836.179 L
2826.678 845.058 L
2830.736 832.968 L
2834.928 833.704 L
2839.121 829.735 L
2843.043 814.084 L
2847.372 814.073 L
2851.564 823.389 L
2855.351 812.329 L
2859.814 817.794 L
2863.872 820.223 L
2868.065 809.21 L
2872.258 817.422 L
2876.18 799.117 L
2880.373 814.797 L
2884.43 819.296 L
2888.488 807.279 L
2892.68 817.892 L
2896.873 814.428 L
2900.795 820.068 L
2905.123 788.267 L
2909.316 690.603 L
2913.103 777.413 L
2917.566 863.718 L
2921.624 814.893 L
2925.411 802.757 L
2929.739 851.002 L
2933.796 820.011 L
2937.719 777.202 L
2942.046 781.026 L
2946.239 791.688 L
2950.432 794.638 L
2954.49 807.275 L
2958.547 800.528 L
2962.74 806.18 L
2966.932 772.112 L
2970.855 775.38 L
2974.642 772.929 L
2979.105 767.069 L
2983.162 780.991 L
2986.949 804.492 L
2991.413 833.248 L
2995.47 836.902 L
2999.798 886.468 L
3003.855 880.92 L
3007.778 863.626 L
3012.106 851.874 L
3016.299 803.6 L
3020.491 789.201 L
3024.278 794.677 L
3028.471 798.094 L
3032.393 803.347 L
3036.721 824.28 L
3040.779 812.254 L
3044.701 843.232 L
3049.164 903.929 L
3053.222 948.497 L
3057.415 924.656 L
3061.472 933.039 L
3065.53 957.64 L
3069.857 965.644 L
3073.78 955.888 L
3077.837 928.88 L
3082.03 954.218 L
3086.223 998.36 L
3090.145 995.996 L
3094.473 1006.003 L
3098.666 1000.373 L
3102.453 994.37 L
3106.916 989.035 L
3110.973 997.073 L
3115.166 981.918 L
3119.359 954.59 L
3123.146 963.09 L
3126.933 968.316 L
3131.396 985.339 L
3135.589 941.457 L
3139.376 895.782 L
3143.839 878.97 L
3147.897 862.312 L
3152.089 874.531 L
3156.282 880.969 L
3160.204 855.436 L
3164.532 826.584 L
3168.725 863.169 L
3172.512 867.677 L
3176.705 865.854 L
3180.762 873.903 L
3184.82 894.065 L
3189.013 894.657 L
3193.205 895.422 L
3197.128 919.641 L
3201.456 909.636 L
3205.648 920.563 L
3209.435 936.201 L
3213.899 953.024 L
3217.956 992.331 L
3221.743 972.483 L
3226.071 972.746 L
3230.129 964.079 L
3234.051 955.346 L
3238.379 931.105 L
3242.572 948.968 L
3246.764 952.562 L
3250.822 966.306 L
3254.879 958.837 L
3259.072 958.593 L
3263.265 956.901 L
3267.187 980.391 L
3271.38 997.707 L
3275.573 995.381 L
3279.495 994.27 L
3283.823 995.543 L
3287.88 1021.164 L
3291.802 1029.069 L
3296.266 1025.055 L
3300.323 1021.394 L
3304.516 1000.876 L
3308.573 952.317 L
3312.631 944 L
3316.959 947.249 L
3320.746 958.219 L
3324.939 951.782 L
3328.726 962.039 L
3333.189 968.689 L
3337.246 966.325 L
3341.439 965.842 L
3345.632 983.302 L
3349.554 971.979 L
3353.882 972.914 L
3357.94 976.411 L
3361.862 981.184 L
3366.325 965.94 L
3370.112 951.886 L
3374.034 965.766 L
3378.362 957.959 L
3382.555 963.511 L
3386.477 970.672 L
3390.805 968.033 L
S
GR
GS
[0.75 0 0 0.75 0 -0.25] CT
0.851 0.325 0.098 RC
1 LJ
2.667 LW
N
570.846 1273.565 M
575.039 1312.056 L
579.232 1285.158 L
583.154 1282.739 L
587.482 1287.437 L
591.54 1272.364 L
595.462 1254.49 L
599.925 1272.013 L
603.712 1260.3 L
607.77 1274.859 L
611.962 1264.374 L
616.155 1280.451 L
620.077 1263.492 L
624.405 1268.53 L
628.598 1269.129 L
632.385 1284.554 L
636.848 1291.454 L
640.906 1271.199 L
645.099 1259.496 L
649.291 1269.819 L
653.078 1295.762 L
657.001 1278.685 L
661.329 1272.643 L
665.521 1263.793 L
669.308 1269.813 L
673.772 1236.716 L
677.829 1236.287 L
682.022 1237.263 L
686.215 1235.963 L
690.137 1208.248 L
694.465 1206.953 L
698.657 1223.58 L
702.445 1123.274 L
706.772 1169.1 L
710.83 1233.529 L
714.617 1230.89 L
719.08 1232.662 L
723.273 1242.743 L
727.466 1230.446 L
731.523 1219.768 L
735.581 1214.816 L
739.773 1180.637 L
743.966 1188.46 L
747.888 1209.182 L
751.675 1197.904 L
756.139 1203.587 L
760.196 1197.172 L
763.983 1187.124 L
768.446 1199.765 L
772.504 1202.29 L
776.832 1186.625 L
780.889 1187.996 L
784.812 1186.365 L
789.004 1164.81 L
793.332 1157.634 L
797.525 1175.345 L
801.312 1097.815 L
805.505 1147.404 L
809.427 1163.839 L
813.755 1209.376 L
817.813 1193.878 L
821.735 1183.014 L
826.198 1095.46 L
830.256 1122.891 L
834.448 1148.452 L
838.506 1150.829 L
842.563 1130.877 L
846.891 1170.815 L
850.678 1090.605 L
854.871 1199.278 L
858.658 1243.85 L
863.121 1251.123 L
867.179 1218.396 L
871.372 1212.056 L
875.564 1159.951 L
879.487 1184.399 L
883.815 1217.828 L
887.872 1184.253 L
891.794 1183.847 L
896.258 1216.335 L
900.18 1105.259 L
904.102 1147.65 L
908.43 1183.989 L
912.623 1100.753 L
916.41 1204.531 L
920.873 1235.89 L
924.93 1202.088 L
929.123 1202.313 L
933.316 1195.48 L
937.238 1166.186 L
941.566 1123.484 L
945.759 1155.386 L
949.546 1147.894 L
953.333 1176.975 L
957.796 1159.712 L
961.718 1193.373 L
966.046 1119.716 L
970.239 1068.579 L
974.161 1080.683 L
978.489 1118.518 L
982.682 1078.632 L
986.469 1073.416 L
990.932 1055.581 L
994.99 1122.932 L
998.777 1161.64 L
1003.105 1198.691 L
1007.162 1204.943 L
1011.085 1182.885 L
1015.413 1221.473 L
1019.605 1237.819 L
1023.798 1246.516 L
1027.856 1254.783 L
1031.913 1280.45 L
1036.106 1332.647 L
1040.299 1320.013 L
1044.221 1415.374 L
1048.008 1443.519 L
1052.471 1391.049 L
1056.529 1361.975 L
1060.316 1343.547 L
1064.779 1295.834 L
1068.836 1285.213 L
1073.164 1292.153 L
1077.222 1280.476 L
1081.144 1318.276 L
1085.472 1327.08 L
1089.665 1348.9 L
1093.858 1393.319 L
1097.78 1393.438 L
1101.837 1325.608 L
1105.76 1361.238 L
1110.223 1347.387 L
1114.28 1299.011 L
1118.473 1344.15 L
1122.666 1291.563 L
1126.588 1279.164 L
1130.916 1279.729 L
1134.973 1278.307 L
1138.896 1244.939 L
1143.359 1204.439 L
1147.146 1184.518 L
1151.203 1127.677 L
1155.396 1161.051 L
1159.589 1244.898 L
1163.511 1200.424 L
1167.839 1049.771 L
1172.032 994.597 L
1175.819 1088.84 L
1180.282 1102.14 L
1184.34 1045.789 L
1188.532 1086.619 L
1192.725 1131.628 L
1196.512 1110.102 L
1200.434 1042.776 L
1204.762 1029.675 L
1208.955 1057.435 L
1212.742 1071.687 L
1217.205 1069.898 L
1221.263 1024.767 L
1225.456 1155.747 L
1229.648 1144.844 L
1233.571 1156.071 L
1237.899 1131.187 L
1242.091 1267.761 L
1245.878 1290.028 L
1250.071 1296.004 L
1254.129 1310.702 L
1258.186 1354.617 L
1262.379 1275.063 L
1266.572 1245.355 L
1270.494 1242.596 L
1274.822 1252.204 L
1279.015 1323.979 L
1282.802 1332.812 L
1287.265 1347.67 L
1291.322 1399.687 L
1295.109 1347.885 L
1299.573 1350.622 L
1303.63 1350.837 L
1307.417 1303.657 L
1311.88 1319.33 L
1315.938 1348.828 L
1320.266 1353.808 L
1324.323 1353.766 L
1328.245 1365.933 L
1332.573 1378.423 L
1336.766 1368.7 L
1340.959 1351.5 L
1344.746 1373.762 L
1348.939 1384.539 L
1352.861 1378.233 L
1357.189 1342.811 L
1361.246 1338.765 L
1365.169 1305.035 L
1369.632 1276.262 L
1373.689 1251.3 L
1377.882 1236.7 L
1381.94 1239.577 L
1385.997 1255.542 L
1390.325 1247.345 L
1394.112 1253.886 L
1398.305 1251.264 L
1402.092 1247.005 L
1406.555 1226.816 L
1410.613 1206.153 L
1414.805 1209.637 L
1418.998 1171.495 L
1422.92 1129.856 L
1427.248 1108.348 L
1431.306 1046.523 L
1435.228 1018.861 L
1439.691 1049.144 L
1443.478 1059.239 L
1447.536 1067.029 L
1451.729 1073.311 L
1455.921 1069.855 L
1459.844 1097.511 L
1464.172 1079.397 L
1468.364 1032.279 L
1472.151 1007.464 L
1476.615 917.806 L
1480.672 994.319 L
1484.865 975.56 L
1489.057 1030.423 L
1492.98 925.566 L
1497.172 788.354 L
1501.23 1116.693 L
1505.287 1325.201 L
1509.48 1304.93 L
1513.673 1313.357 L
1517.595 1168.54 L
1521.923 1125.553 L
1526.116 1063.578 L
1529.903 899.944 L
1534.366 952.964 L
1538.424 916.572 L
1542.211 1044.432 L
1546.539 1160.879 L
1550.596 1033.454 L
1554.518 900.777 L
1558.846 1005.031 L
1563.039 950.64 L
1567.232 988.016 L
1571.289 1101.979 L
1575.347 1170.987 L
1579.54 1308.11 L
1583.732 1238.373 L
1587.655 1166.944 L
1591.442 1151.244 L
1595.905 1121.312 L
1599.962 1144.74 L
1603.749 1228.141 L
1608.213 1137.68 L
1612.27 1292.451 L
1616.598 1382.356 L
1620.656 1398.004 L
1624.578 1353.479 L
1628.906 1354.432 L
1633.099 1364.042 L
1637.291 1396.734 L
1641.078 1370.433 L
1645.271 1328.653 L
1649.193 1350.09 L
1653.521 1346.483 L
1657.579 1324.886 L
1661.501 1341.973 L
1665.964 1347.151 L
1670.022 1366.416 L
1674.214 1400.189 L
1678.272 1369.018 L
1682.329 1366.864 L
1686.657 1371.134 L
1690.58 1373.439 L
1694.637 1351.886 L
1698.83 1375.179 L
1703.023 1399.198 L
1706.945 1374.676 L
1711.273 1306.195 L
1715.466 1268.18 L
1719.253 1284.609 L
1723.716 1318.148 L
1727.773 1396.453 L
1731.966 1445.242 L
1736.159 1411.481 L
1739.946 1408.831 L
1743.868 1415.778 L
1748.196 1447.646 L
1752.389 1432.775 L
1756.176 1459.807 L
1760.639 1450.692 L
1764.697 1448.307 L
1768.889 1444.768 L
1773.082 1416.245 L
1777.004 1392.544 L
1781.332 1339.215 L
1785.525 1350.301 L
1789.312 1260.263 L
1793.505 1245.109 L
1797.562 1276.555 L
1801.62 1330.713 L
1805.813 1304.715 L
1810.005 1330.954 L
1813.928 1363.552 L
1818.256 1387.384 L
1822.448 1377.749 L
1826.235 1354.435 L
1830.699 1321.241 L
1834.756 1324.117 L
1838.543 1313.718 L
1842.871 1317.5 L
1846.929 1350.206 L
1850.851 1337.46 L
1855.179 1346.675 L
1859.372 1375.527 L
1863.564 1372.366 L
1867.622 1378.719 L
1871.679 1402.536 L
1875.872 1402.342 L
1880.065 1394.234 L
1883.987 1353.473 L
1888.18 1357.138 L
1892.372 1385.981 L
1896.295 1386.995 L
1900.623 1368.374 L
1904.68 1339.895 L
1908.602 1318.174 L
1913.066 1283.51 L
1917.123 1261.546 L
1921.316 1252.982 L
1925.373 1221.544 L
1929.431 1200.761 L
1933.759 1165.234 L
1937.546 1154.882 L
1941.739 1128.806 L
1945.526 1152.438 L
1949.989 1135.851 L
1954.046 1159.648 L
1958.239 1166.937 L
1962.432 1163.705 L
1966.354 1159.033 L
1970.682 1164.644 L
1974.74 1170.881 L
1978.662 1170.84 L
1983.125 1190.117 L
1986.912 1204.144 L
1990.97 1195.4 L
1995.162 1212.323 L
1999.355 1206.438 L
2003.277 1215.096 L
2007.605 1232.919 L
2011.798 1275.675 L
2015.585 1289.588 L
2020.048 1293.024 L
2024.106 1271.07 L
2028.299 1305.363 L
2032.491 1327.224 L
2036.278 1343.877 L
2040.065 1366.864 L
2044.529 1385.155 L
2048.721 1395.17 L
2052.508 1408.654 L
2056.971 1403.879 L
2061.029 1417.274 L
2065.222 1407.934 L
2069.415 1442.161 L
2073.337 1481.327 L
2077.665 1484.561 L
2081.857 1524.852 L
2085.645 1518.604 L
2089.972 1513.01 L
2094.03 1548.651 L
2097.952 1535.48 L
2102.28 1539.048 L
2106.473 1540.338 L
2110.666 1555.1 L
2114.723 1570.297 L
2118.781 1551.339 L
2122.973 1536.17 L
2127.031 1535.305 L
2131.088 1523.98 L
2134.875 1501.681 L
2139.339 1501.308 L
2143.261 1500.287 L
2147.183 1475.402 L
2151.646 1441.622 L
2155.704 1436.789 L
2160.032 1412.021 L
2164.089 1408.225 L
2168.012 1401.028 L
2172.34 1425.706 L
2176.532 1428.463 L
2180.725 1418.453 L
2184.512 1424.392 L
2188.705 1446.773 L
2192.627 1423.455 L
2196.955 1397.749 L
2201.013 1415.04 L
2204.935 1388.513 L
2209.398 1372.8 L
2213.456 1372.951 L
2217.648 1374.484 L
2221.706 1318.389 L
2225.763 1292.622 L
2230.091 1271.266 L
2233.878 1271.885 L
2238.071 1267.756 L
2241.858 1260.18 L
2246.321 1228.806 L
2250.379 1228.986 L
2254.572 1255.616 L
2258.764 1244.473 L
2262.687 1226.396 L
2267.014 1220.481 L
2271.072 1211.799 L
2274.994 1225.94 L
2279.458 1237.042 L
2283.38 1275.05 L
2287.302 1279.752 L
2291.63 1293.543 L
2295.823 1302.634 L
2299.61 1283.718 L
2304.073 1276.083 L
2308.13 1304.618 L
2312.323 1293.925 L
2316.516 1266.636 L
2320.438 1243.305 L
2324.766 1261.021 L
2328.959 1269.827 L
2332.746 1267.36 L
2336.939 1274.711 L
2340.996 1266.88 L
2345.054 1272.35 L
2349.246 1261.693 L
2353.439 1224.09 L
2357.361 1245.791 L
2361.689 1245.492 L
2365.882 1212.494 L
2369.669 1192.627 L
2374.132 1188.095 L
2378.19 1190.716 L
2381.977 1189.844 L
2386.305 1193.299 L
2390.362 1205.174 L
2394.285 1195.892 L
2398.613 1182.651 L
2402.805 1186.483 L
2406.998 1172.208 L
2411.056 1171.1 L
2415.113 1203.57 L
2419.306 1191.975 L
2423.499 1199.826 L
2427.421 1195.78 L
2431.208 1226.351 L
2435.671 1245.574 L
2439.729 1244.832 L
2443.38 1257.871 L
2447.979 1263.774 L
2452.036 1268.597 L
2456.364 1262.441 L
2460.422 1265.728 L
2464.344 1256.844 L
2468.672 1242.605 L
2472.865 1256.016 L
2477.057 1228.718 L
2480.98 1212.349 L
2485.172 1161.244 L
2488.959 1165.603 L
2493.423 1172.6 L
2497.48 1154.829 L
2501.673 1139.879 L
2505.866 1125.425 L
2509.788 1136.919 L
2514.116 1125.563 L
2518.173 1112.05 L
2522.096 1134.895 L
2526.559 1216.33 L
2530.346 1220.208 L
2534.403 1267.638 L
2538.596 1320.361 L
2542.789 1355.816 L
2546.711 1356.253 L
2551.039 1346.798 L
2555.232 1347.003 L
2559.019 1422.882 L
2563.482 1433.762 L
2567.54 1496.186 L
2571.732 1521.632 L
2575.925 1505.584 L
2579.712 1500.245 L
2583.499 1515.181 L
2587.962 1503.242 L
2592.155 1501.257 L
2595.942 1500.578 L
2600.405 1483.475 L
2604.463 1452.873 L
2608.656 1427.18 L
2612.848 1463.464 L
2616.771 1494.28 L
2621.099 1467.586 L
2625.291 1479.42 L
2629.078 1454.065 L
2633.271 1471.836 L
2637.329 1475.38 L
2641.386 1422.652 L
2645.579 1450.152 L
2649.771 1536.159 L
2653.694 1532.934 L
2658.022 1491.087 L
2662.215 1514.827 L
2666.001 1506.51 L
2670.465 1509.731 L
2674.522 1497.675 L
2678.309 1484.527 L
2682.772 1470.862 L
2686.83 1508.413 L
2690.617 1506.15 L
2695.08 1471.995 L
2699.138 1455.562 L
2703.466 1424.271 L
2707.523 1394.877 L
2711.446 1377.364 L
2715.773 1371.144 L
2719.966 1342.323 L
2724.159 1309.834 L
2727.946 1303.529 L
2732.003 1302.075 L
2736.061 1269.245 L
2740.389 1246.109 L
2744.446 1221.871 L
2748.369 1220.358 L
2752.832 1200.658 L
2756.889 1214.25 L
2761.082 1200.865 L
2765.14 1189.108 L
2769.197 1168.118 L
2773.525 1162.697 L
2777.312 1154.348 L
2781.505 1170.496 L
2785.292 1182.286 L
2789.755 1174.878 L
2793.813 1157.853 L
2798.005 1151.319 L
2802.198 1136.759 L
2806.12 1132.593 L
2810.448 1128.552 L
2814.506 1119.092 L
2818.428 1132.445 L
2822.891 1140.695 L
2826.678 1128.439 L
2830.736 1138.012 L
2834.928 1132.787 L
2839.121 1154.928 L
2843.043 1174.013 L
2847.372 1163.287 L
2851.564 1192.279 L
2855.351 1226.462 L
2859.814 1215.021 L
2863.872 1254.873 L
2868.065 1260.088 L
2872.258 1340.475 L
2876.18 1378.967 L
2880.373 1400.613 L
2884.43 1394.158 L
2888.488 1391.609 L
2892.68 1373.571 L
2896.873 1380.109 L
2900.795 1368.163 L
2905.123 1413.159 L
2909.316 1509.141 L
2913.103 1453.59 L
2917.566 1425.857 L
2921.624 1473.367 L
2925.411 1468.739 L
2929.739 1430.31 L
2933.796 1486.837 L
2937.719 1529.462 L
2942.046 1536.639 L
2946.239 1533.144 L
2950.432 1530.208 L
2954.49 1519.001 L
2958.547 1528.242 L
2962.74 1509.568 L
2966.932 1553.817 L
2970.855 1549.895 L
2974.642 1545.084 L
2979.105 1557.325 L
2983.162 1534.528 L
2986.949 1499.477 L
2991.413 1463.746 L
2995.47 1454.572 L
2999.798 1407.419 L
3003.855 1409.168 L
3007.778 1417.751 L
3012.106 1437.327 L
3016.299 1492.426 L
3020.491 1506.324 L
3024.278 1511.401 L
3028.471 1516.453 L
3032.393 1507.427 L
3036.721 1478.524 L
3040.779 1491.278 L
3044.701 1437.7 L
3049.164 1389.157 L
3053.222 1355.955 L
3057.415 1374.8 L
3061.472 1368.307 L
3065.53 1347.878 L
3069.857 1333.001 L
3073.78 1344.587 L
3077.837 1371.817 L
3082.03 1342.631 L
3086.223 1300.329 L
3090.145 1304.704 L
3094.473 1295.912 L
3098.666 1298.253 L
3102.453 1303.684 L
3106.916 1311.94 L
3110.973 1300.499 L
3115.166 1319.614 L
3119.359 1348.683 L
3123.146 1335.267 L
3126.933 1333.121 L
3131.396 1318.05 L
3135.589 1369.804 L
3139.376 1408.614 L
3143.839 1427.763 L
3147.897 1450.253 L
3152.089 1436.549 L
3156.282 1425.8 L
3160.204 1442.274 L
3164.532 1476.646 L
3168.725 1442.088 L
3172.512 1437.8 L
3176.705 1445.737 L
3180.762 1442.745 L
3184.82 1421.098 L
3189.013 1423.13 L
3193.205 1426.373 L
3197.128 1405.595 L
3201.456 1419.731 L
3205.648 1405.938 L
3209.435 1382.31 L
3213.899 1375.951 L
3217.956 1329.853 L
3221.743 1358.234 L
3226.071 1347.311 L
3230.129 1364.361 L
3234.051 1371.374 L
3238.379 1391.708 L
3242.572 1373.251 L
3246.764 1366.636 L
3250.822 1357.551 L
3254.879 1356.508 L
3259.072 1342.483 L
3263.265 1337.864 L
3267.187 1311.953 L
3271.38 1288.797 L
3275.573 1295.808 L
3279.495 1303.001 L
3283.823 1292.235 L
3287.88 1273.825 L
3291.802 1262.5 L
3296.266 1267.884 L
3300.323 1268.461 L
3304.516 1288.902 L
3308.573 1336.895 L
3312.631 1344.358 L
3316.959 1346.534 L
3320.746 1333.684 L
3324.939 1315.411 L
3328.726 1295.385 L
3333.189 1275.319 L
3337.246 1280.19 L
3341.439 1280.189 L
3345.632 1262.082 L
3349.554 1274.078 L
3353.882 1268.662 L
3357.94 1255.869 L
3361.862 1240.241 L
3366.325 1258.907 L
3370.112 1261.125 L
3374.034 1239.745 L
3378.362 1246.465 L
3382.555 1233.955 L
3386.477 1239.598 L
3390.805 1232.966 L
S
GR
GS
[0.75 0 0 0.75 0 -0.25] CT
0.929 0.694 0.125 RC
1 LJ
2.667 LW
N
570.846 1139.72 M
575.039 1109.88 L
579.232 1136.852 L
583.154 1105.197 L
587.482 1134.18 L
591.54 1135.16 L
595.462 1109.334 L
599.925 1068.316 L
603.712 1136.988 L
607.77 1174.968 L
611.962 1119.722 L
616.155 1179.242 L
620.077 1198.553 L
624.405 1166.844 L
628.598 1264.89 L
632.385 1261.465 L
636.848 1223.99 L
640.906 1239.913 L
645.099 1240.897 L
649.291 1209.13 L
653.078 1162.01 L
657.001 1205.739 L
661.329 1204.181 L
665.521 1204.948 L
669.308 1200.628 L
673.772 1178.925 L
677.829 1163.753 L
682.022 1180.391 L
686.215 1179.704 L
690.137 1207.637 L
694.465 1185.33 L
698.657 1167.678 L
702.445 1462.785 L
706.772 1314.458 L
710.83 1142.132 L
714.617 1109.886 L
719.08 1109.843 L
723.273 1187.851 L
727.466 1186.792 L
731.523 1150.771 L
735.581 1153.854 L
739.773 1183.48 L
743.966 1224.587 L
747.888 1215.314 L
751.675 1204.705 L
756.139 1173.382 L
760.196 1182.029 L
763.983 1217.294 L
768.446 1218.777 L
772.504 1193.863 L
776.832 1205.657 L
780.889 1197.743 L
784.812 1215.278 L
789.004 1263.749 L
793.332 1214.146 L
797.525 1182.804 L
801.312 1503.087 L
805.505 1321.005 L
809.427 1224.571 L
813.755 1014.226 L
817.813 1085.458 L
821.735 1154.057 L
826.198 1436.241 L
830.256 1340.198 L
834.448 1222.403 L
838.506 1225.253 L
842.563 1292.374 L
846.891 1230.932 L
850.678 1502.124 L
854.871 1257.327 L
858.658 1197.812 L
863.121 1135.044 L
867.179 1118.125 L
871.372 1058.507 L
875.564 1258.513 L
879.487 1168.171 L
883.815 1130.661 L
887.872 1231.629 L
891.794 1194.401 L
896.258 1138.005 L
900.18 1483.441 L
904.102 1372.599 L
908.43 1252.52 L
912.623 1428.583 L
916.41 1276.32 L
920.873 1322.84 L
924.93 1292.65 L
929.123 1271.773 L
933.316 1304.273 L
937.238 1368.886 L
941.566 1408.028 L
945.759 1294.494 L
949.546 1132.407 L
953.333 1210.446 L
957.796 1240.342 L
961.718 1011.034 L
966.046 976.28 L
970.239 946.655 L
974.161 1046.454 L
978.489 1004.098 L
982.682 1037.328 L
986.469 1188.325 L
990.932 999.361 L
994.99 1047.164 L
998.777 993.85 L
1003.105 1062.663 L
1007.162 1049.5 L
1011.085 994.335 L
1015.413 988.325 L
1019.605 995.727 L
1023.798 1051.899 L
1027.856 1127.569 L
1031.913 1005.139 L
1036.106 1219.374 L
1040.299 1083.034 L
1044.221 1213.349 L
1048.008 1245.442 L
1052.471 1274.166 L
1056.529 1072.032 L
1060.316 1111.594 L
1064.779 973.142 L
1068.836 1035.146 L
1073.164 1112.142 L
1077.222 1114.111 L
1081.144 1174.54 L
1085.472 1181.475 L
1089.665 1194.738 L
1093.858 1088.796 L
1097.78 1111.159 L
1101.837 1000.779 L
1105.76 1039.639 L
1110.223 1136.047 L
1114.28 1080.114 L
1118.473 989.876 L
1122.666 1086.243 L
1126.588 1080.784 L
1130.916 1042.543 L
1134.973 1077.838 L
1138.896 1101.568 L
1143.359 1106.014 L
1147.146 1063.583 L
1151.203 1135.916 L
1155.396 1115.203 L
1159.589 762.429 L
1163.511 731.641 L
1167.839 1066.517 L
1172.032 1352.376 L
1175.819 1345.958 L
1180.282 1314.67 L
1184.34 1410.402 L
1188.532 1388.332 L
1192.725 1364.636 L
1196.512 1392.479 L
1200.434 1372.613 L
1204.762 1291.547 L
1208.955 1287.888 L
1212.742 1175.798 L
1217.205 1060.899 L
1221.263 1200.714 L
1225.456 1101.245 L
1229.648 1101.148 L
1233.571 1148.666 L
1237.899 1293.264 L
1242.091 1166.377 L
1245.878 1247.681 L
1250.071 1134.593 L
1254.129 1015.459 L
1258.186 1035.582 L
1262.379 1080.944 L
1266.572 1001.989 L
1270.494 1030.291 L
1274.822 994.222 L
1279.015 1085.3 L
1282.802 1044.998 L
1287.265 1081.343 L
1291.322 1081.514 L
1295.109 1030.657 L
1299.573 1037.028 L
1303.63 1051.744 L
1307.417 1010.322 L
1311.88 1070.584 L
1315.938 1088.357 L
1320.266 1134.15 L
1324.323 1194.293 L
1328.245 1220.864 L
1332.573 1334.601 L
1336.766 1256.013 L
1340.959 1139.867 L
1344.746 1139.388 L
1348.939 1164.78 L
1352.861 1168.438 L
1357.189 1232.114 L
1361.246 1243.435 L
1365.169 1197.985 L
1369.632 1203.828 L
1373.689 1198.383 L
1377.882 1148.608 L
1381.94 1168.332 L
1385.997 1175.104 L
1390.325 1176.519 L
1394.112 1150.416 L
1398.305 1120.684 L
1402.092 1078.598 L
1406.555 1059.429 L
1410.613 1070.331 L
1414.805 1048.59 L
1418.998 1116.445 L
1422.92 1175.328 L
1427.248 1087.711 L
1431.306 1154.346 L
1435.228 1123.306 L
1439.691 1123.819 L
1443.478 1142.089 L
1447.536 1171.605 L
1451.729 1168.408 L
1455.921 1225.168 L
1459.844 1271.828 L
1464.172 1262.794 L
1468.364 1271.429 L
1472.151 1274.911 L
1476.615 1230.26 L
1480.672 1330.038 L
1484.865 1365.524 L
1489.057 1362.978 L
1492.98 983.84 L
1497.172 1262.667 L
1501.23 1436.713 L
1505.287 1264.414 L
1509.48 1198.292 L
1513.673 1144.706 L
1517.595 1032.01 L
1521.923 1130.919 L
1526.116 1202.528 L
1529.903 1387.44 L
1534.366 1583.268 L
1538.424 1660.599 L
1542.211 1368.996 L
1546.539 1266.254 L
1550.596 1261.897 L
1554.518 1438.879 L
1558.846 1288.553 L
1563.039 1166.237 L
1567.232 1077.369 L
1571.289 900.741 L
1575.347 1171.183 L
1579.54 1039.825 L
1583.732 964.466 L
1587.655 1100.826 L
1591.442 1055.323 L
1595.905 1067.078 L
1599.962 1028.975 L
1603.749 970.69 L
1608.213 979.65 L
1612.27 872.118 L
1616.598 702.741 L
1620.656 690.358 L
1624.578 914.837 L
1628.906 1065.257 L
1633.099 1096.519 L
1637.291 1137.464 L
1641.078 1130.351 L
1645.271 1148.079 L
1649.193 1159.784 L
1653.521 1125.62 L
1657.579 1131.017 L
1661.501 1087.507 L
1665.964 1074.537 L
1670.022 1097.042 L
1674.214 1091.799 L
1678.272 1106.926 L
1682.329 1096.508 L
1686.657 1138.529 L
1690.58 1109.401 L
1694.637 1107.122 L
1698.83 1090.836 L
1703.023 927.236 L
1706.945 885.655 L
1711.273 965.554 L
1715.466 994.959 L
1719.253 990.277 L
1723.716 1017.745 L
1727.773 1022.783 L
1731.966 1056.429 L
1736.159 1077.568 L
1739.946 1088.823 L
1743.868 1070.417 L
1748.196 1097.966 L
1752.389 1112.307 L
1756.176 1130.141 L
1760.639 1153.973 L
1764.697 1104.338 L
1768.889 1134.908 L
1773.082 1185.209 L
1777.004 1219.316 L
1781.332 1271.398 L
1785.525 1279.188 L
1789.312 1206.888 L
1793.505 1193.038 L
1797.562 1142.108 L
1801.62 1076.079 L
1805.813 1141.079 L
1810.005 1219.14 L
1813.928 1250.518 L
1818.256 1223.541 L
1822.448 1269.881 L
1826.235 1299.809 L
1830.699 1299.414 L
1834.756 1303.508 L
1838.543 1272.677 L
1842.871 1268.334 L
1846.929 1119.524 L
1850.851 1097.635 L
1855.179 1172.664 L
1859.372 1176.53 L
1863.564 1159.056 L
1867.622 1103.13 L
1871.679 1109.687 L
1875.872 1132.104 L
1880.065 1101.049 L
1883.987 1262.957 L
1888.18 1254.059 L
1892.372 1225.629 L
1896.295 1219.292 L
1900.623 1150.975 L
1904.68 1151.882 L
1908.602 1204.69 L
1913.066 1168.283 L
1917.123 1176.733 L
1921.316 1198.7 L
1925.373 1155.619 L
1929.431 1079.923 L
1933.759 1121.384 L
1937.546 1090.752 L
1941.739 1035.409 L
1945.526 1124.313 L
1949.989 1187.028 L
1954.046 1245.61 L
1958.239 1328.304 L
1962.432 1168.766 L
1966.354 1164.992 L
1970.682 1247.459 L
1974.74 1246.627 L
1978.662 1228.639 L
1983.125 1188.94 L
1986.912 1159.783 L
1990.97 1125.675 L
1995.162 1090.49 L
1999.355 1157.656 L
2003.277 1165.551 L
2007.605 1220.557 L
2011.798 1251.556 L
2015.585 1262.539 L
2020.048 1277.185 L
2024.106 1265.582 L
2028.299 1276.64 L
2032.491 1255.769 L
2036.278 1227.389 L
2040.065 1166.95 L
2044.529 1188.519 L
2048.721 1208.204 L
2052.508 1183.641 L
2056.971 1218.38 L
2061.029 1286.471 L
2065.222 1302.128 L
2069.415 1357.374 L
2073.337 1386.513 L
2077.665 1374.02 L
2081.857 1326.893 L
2085.645 1289.452 L
2089.972 1194.985 L
2094.03 1227.915 L
2097.952 1285.531 L
2102.28 1387.991 L
2106.473 1403.883 L
2110.666 1469.726 L
2114.723 1506.292 L
2118.781 1397.527 L
2122.973 1295.061 L
2127.031 1340.4 L
2131.088 1395.588 L
2134.875 1443.354 L
2139.339 1440.224 L
2143.261 1483.837 L
2147.183 1376.838 L
2151.646 1375.542 L
2155.704 1329.195 L
2160.032 1368.193 L
2164.089 1330.306 L
2168.012 1323.486 L
2172.34 1307.102 L
2176.532 1299.645 L
2180.725 1299.786 L
2184.512 1259.508 L
2188.705 1192.226 L
2192.627 1120.655 L
2196.955 1119.386 L
2201.013 1098.46 L
2204.935 1129.507 L
2209.398 1138.613 L
2213.456 1110.065 L
2217.648 1077.923 L
2221.706 977.649 L
2225.763 883.493 L
2230.091 1027.859 L
2233.878 1125.237 L
2238.071 1134.154 L
2241.858 1164.574 L
2246.321 1270.833 L
2250.379 1247.424 L
2254.572 1233.32 L
2258.764 1226.993 L
2262.687 1208.923 L
2267.014 1243.839 L
2271.072 1292.73 L
2274.994 1251.005 L
2279.458 1335.992 L
2283.38 1263.234 L
2287.302 1190.977 L
2291.63 1152.003 L
2295.823 1106.616 L
2299.61 1134.653 L
2304.073 1143.842 L
2308.13 1090.677 L
2312.323 1126.488 L
2316.516 1209.897 L
2320.438 1214.921 L
2324.766 1170.956 L
2328.959 1174.749 L
2332.746 1147.439 L
2336.939 1117.516 L
2340.996 1135.176 L
2345.054 1121.93 L
2349.246 1139.71 L
2353.439 1201.903 L
2357.361 1166.08 L
2361.689 1152.144 L
2365.882 1193.764 L
2369.669 1162.315 L
2374.132 1175.867 L
2378.19 1241.615 L
2381.977 1204.443 L
2386.305 1179.742 L
2390.362 1170.436 L
2394.285 1166.854 L
2398.613 1153.135 L
2402.805 1155.285 L
2406.998 1237.082 L
2411.056 1303.978 L
2415.113 1334.961 L
2419.306 1266.068 L
2423.499 1265.387 L
2427.421 1258.791 L
2431.208 1192.171 L
2435.671 1217.423 L
2439.729 1204.686 L
2443.38 1140.904 L
2447.979 1163.877 L
2452.036 1157.493 L
2456.364 1174.799 L
2460.422 1196.596 L
2464.344 1175.613 L
2468.672 1182.745 L
2472.865 1148.334 L
2477.057 1059.381 L
2480.98 1067.92 L
2485.172 1073.865 L
2488.959 1032.46 L
2493.423 1003.593 L
2497.48 1105.826 L
2501.673 1150.121 L
2505.866 1184.553 L
2509.788 1269.337 L
2514.116 1281.303 L
2518.173 1323.977 L
2522.096 1361.833 L
2526.559 1358.443 L
2530.346 1381.989 L
2534.403 1380.806 L
2538.596 1336.723 L
2542.789 1309.541 L
2546.711 1296.955 L
2551.039 1373.842 L
2555.232 1386.721 L
2559.019 1445.4 L
2563.482 1470.99 L
2567.54 1365.574 L
2571.732 1323.769 L
2575.925 1304.466 L
2579.712 1317.84 L
2583.499 1179.542 L
2587.962 1270.222 L
2592.155 1283.308 L
2595.942 1349.892 L
2600.405 1539.499 L
2604.463 1540.728 L
2608.656 1588.764 L
2612.848 1608.207 L
2616.771 1472.887 L
2621.099 1582.203 L
2625.291 1547.456 L
2629.078 1578.774 L
2633.271 1575.856 L
2637.329 1577.706 L
2641.386 1585.097 L
2645.579 1559.526 L
2649.771 1539.814 L
2653.694 1495.833 L
2658.022 1590.032 L
2662.215 1506.521 L
2666.001 1439.697 L
2670.465 1484.646 L
2674.522 1473.648 L
2678.309 1516.678 L
2682.772 1527.225 L
2686.83 1368.507 L
2690.617 1329.002 L
2695.08 1332.191 L
2699.138 1327.335 L
2703.466 1383.884 L
2707.523 1356.697 L
2711.446 1386.812 L
2715.773 1310.958 L
2719.966 1303.621 L
2724.159 1244.441 L
2727.946 1187.71 L
2732.003 1147.17 L
2736.061 1185.397 L
2740.389 1181.102 L
2744.446 1186.543 L
2748.369 1152.659 L
2752.832 1194.477 L
2756.889 1146.133 L
2761.082 1170.885 L
2765.14 1194.455 L
2769.197 1191.091 L
2773.525 1208.737 L
2777.312 1173.282 L
2781.505 1190.276 L
2785.292 1239.248 L
2789.755 1222.127 L
2793.813 1213.952 L
2798.005 1247.92 L
2802.198 1281.989 L
2806.12 1282.286 L
2810.448 1277.854 L
2814.506 1279.818 L
2818.428 1250.608 L
2822.891 1229.915 L
2826.678 1286.489 L
2830.736 1312.464 L
2834.928 1324.253 L
2839.121 1226.061 L
2843.043 1244.496 L
2847.372 1336.96 L
2851.564 1346.19 L
2855.351 1359.318 L
2859.814 1375.758 L
2863.872 1489.018 L
2868.065 1522.711 L
2872.258 1545.317 L
2876.18 1646.656 L
2880.373 1578.03 L
2884.43 1423.435 L
2888.488 1370.483 L
2892.68 1371.289 L
2896.873 1400.76 L
2900.795 1439.365 L
2905.123 1536.493 L
2909.316 1818.152 L
2913.103 1796.226 L
2917.566 1599.442 L
2921.624 1609.324 L
2925.411 1628.499 L
2929.739 1586.951 L
2933.796 1542.865 L
2937.719 1600.755 L
2942.046 1529.569 L
2946.239 1495.983 L
2950.432 1521.668 L
2954.49 1510.889 L
2958.547 1521.146 L
2962.74 1601.607 L
2966.932 1514.507 L
2970.855 1583.734 L
2974.642 1608.938 L
2979.105 1555.007 L
2983.162 1562.437 L
2986.949 1589.104 L
2991.413 1605.723 L
2995.47 1641.802 L
2999.798 1580.06 L
3003.855 1607.294 L
3007.778 1678.686 L
3012.106 1641.981 L
3016.299 1645.079 L
3020.491 1687.656 L
3024.278 1626.392 L
3028.471 1577.688 L
3032.393 1629.283 L
3036.721 1655.418 L
3040.779 1663.212 L
3044.701 1705.905 L
3049.164 1628.357 L
3053.222 1509.098 L
3057.415 1557.054 L
3061.472 1543.074 L
3065.53 1500.845 L
3069.857 1517.148 L
3073.78 1500.857 L
3077.837 1525.268 L
3082.03 1520.939 L
3086.223 1446.617 L
3090.145 1431.781 L
3094.473 1440.332 L
3098.666 1455.925 L
3102.453 1465.814 L
3106.916 1452.66 L
3110.973 1458.625 L
3115.166 1469.392 L
3119.359 1502.608 L
3123.146 1511.99 L
3126.933 1496.129 L
3131.396 1475.362 L
3135.589 1490.214 L
3139.376 1541.43 L
3143.839 1583.59 L
3147.897 1565.844 L
3152.089 1582.372 L
3156.282 1588.791 L
3160.204 1649.219 L
3164.532 1642.631 L
3168.725 1602.188 L
3172.512 1590.493 L
3176.705 1544.707 L
3180.762 1527.166 L
3184.82 1512.505 L
3189.013 1487.931 L
3193.205 1448.989 L
3197.128 1413.998 L
3201.456 1395.661 L
3205.648 1407.028 L
3209.435 1409.719 L
3213.899 1315.45 L
3217.956 1329.599 L
3221.743 1293.878 L
3226.071 1335.818 L
3230.129 1330.659 L
3234.051 1341.569 L
3238.379 1375.712 L
3242.572 1350.265 L
3246.764 1332.457 L
3250.822 1334.748 L
3254.879 1330.5 L
3259.072 1314.456 L
3263.265 1301.885 L
3267.187 1342.631 L
3271.38 1332.277 L
3275.573 1337.949 L
3279.495 1318.662 L
3283.823 1305.825 L
3287.88 1322.468 L
3291.802 1301.39 L
3296.266 1266.464 L
3300.323 1286.887 L
3304.516 1296.61 L
3308.573 1296.416 L
3312.631 1299.876 L
3316.959 1288.071 L
3320.746 1266.618 L
3324.939 1309.253 L
3328.726 1319.863 L
3333.189 1334.005 L
3337.246 1307.629 L
3341.439 1319.216 L
3345.632 1305.605 L
3349.554 1281.073 L
3353.882 1262.439 L
3357.94 1231.279 L
3361.862 1221.225 L
3366.325 1173.752 L
3370.112 1190.065 L
3374.034 1184.935 L
3378.362 1147.472 L
3382.555 1169.296 L
3386.477 1115.57 L
3390.805 1105.454 L
S
GR
GS
[0.75 0 0 0.75 0 -0.25] CT
1 GC
N
3450 306 M
3450 166 L
3266 166 L
3266 306 L
cp
f
GR
GS
[0.75 0 0 0.75 2484.75 142.625] CT
/Helvetica 36 F
GS
[1 0 0 1 0 0] CT
0 14.5 moveto 
1 -1 scale
(Factor 1) t 
GR
GR
GS
[0.75 0 0 0.75 0 -0.25] CT
0 0.447 0.741 RC
1 LJ
2.667 LW
N
3270 190.5 M
3310 190.5 L
S
GR
GS
[0.75 0 0 0.75 2484.75 176.75] CT
/Helvetica 36 F
GS
[1 0 0 1 0 0] CT
0 14.5 moveto 
1 -1 scale
(Factor 2) t 
GR
GR
GS
[0.75 0 0 0.75 0 -0.25] CT
0.851 0.325 0.098 RC
1 LJ
2.667 LW
N
3270 236 M
3310 236 L
S
GR
GS
[0.75 0 0 0.75 2484.75 210.875] CT
/Helvetica 36 F
GS
[1 0 0 1 0 0] CT
0 14.5 moveto 
1 -1 scale
(Factor 3) t 
GR
GR
GS
[0.75 0 0 0.75 0 -0.25] CT
0.929 0.694 0.125 RC
1 LJ
2.667 LW
N
3270 281.5 M
3310 281.5 L
S
GR
GS
[0.75 0 0 0.75 0 -0.25] CT
0.149 GC
10.0 ML
0.667 LW
N
3266 306 M
3266 166 L
3450 166 L
3450 306 L
cp
S
GR
%%Trailer
%%Pages: 1
%%EOF
