%!PS-Adobe-3.0 EPSF-3.0
%%Creator: (MATLAB, The Mathworks, Inc. Version 9.6.0.1072779 \(R2019a\). Operating System: Windows 7)
%%Title: ./EU_US_UK_JP_1Y_yields.eps
%%CreationDate: 2020-09-18T11:03:47
%%Pages: (atend)
%%BoundingBox:   119    38  1067   575
%%LanguageLevel: 3
%%EndComments
%%BeginProlog
%%BeginResource: procset (Apache XML Graphics Std ProcSet) 1.2 0
%%Version: 1.2 0
%%Copyright: (Copyright 2001-2003,2010 The Apache Software Foundation. License terms: http://www.apache.org/licenses/LICENSE-2.0)
/bd{bind def}bind def
/ld{load def}bd
/GR/grestore ld
/GS/gsave ld
/RM/rmoveto ld
/C/curveto ld
/t/show ld
/L/lineto ld
/ML/setmiterlimit ld
/CT/concat ld
/f/fill ld
/N/newpath ld
/S/stroke ld
/CC/setcmykcolor ld
/A/ashow ld
/cp/closepath ld
/RC/setrgbcolor ld
/LJ/setlinejoin ld
/GC/setgray ld
/LW/setlinewidth ld
/M/moveto ld
/re {4 2 roll M
1 index 0 rlineto
0 exch rlineto
neg 0 rlineto
cp } bd
/_ctm matrix def
/_tm matrix def
/BT { _ctm currentmatrix pop matrix _tm copy pop 0 0 moveto } bd
/ET { _ctm setmatrix } bd
/iTm { _ctm setmatrix _tm concat } bd
/Tm { _tm astore pop iTm 0 0 moveto } bd
/ux 0.0 def
/uy 0.0 def
/F {
  /Tp exch def
  /Tf exch def
  Tf findfont Tp scalefont setfont
  /cf Tf def  /cs Tp def
} bd
/ULS {currentpoint /uy exch def /ux exch def} bd
/ULE {
  /Tcx currentpoint pop def
  gsave
  newpath
  cf findfont cs scalefont dup
  /FontMatrix get 0 get /Ts exch def /FontInfo get dup
  /UnderlinePosition get Ts mul /To exch def
  /UnderlineThickness get Ts mul /Tt exch def
  ux uy To add moveto  Tcx uy To add lineto
  Tt setlinewidth stroke
  grestore
} bd
/OLE {
  /Tcx currentpoint pop def
  gsave
  newpath
  cf findfont cs scalefont dup
  /FontMatrix get 0 get /Ts exch def /FontInfo get dup
  /UnderlinePosition get Ts mul /To exch def
  /UnderlineThickness get Ts mul /Tt exch def
  ux uy To add cs add moveto Tcx uy To add cs add lineto
  Tt setlinewidth stroke
  grestore
} bd
/SOE {
  /Tcx currentpoint pop def
  gsave
  newpath
  cf findfont cs scalefont dup
  /FontMatrix get 0 get /Ts exch def /FontInfo get dup
  /UnderlinePosition get Ts mul /To exch def
  /UnderlineThickness get Ts mul /Tt exch def
  ux uy To add cs 10 mul 26 idiv add moveto Tcx uy To add cs 10 mul 26 idiv add lineto
  Tt setlinewidth stroke
  grestore
} bd
/QT {
/Y22 exch store
/X22 exch store
/Y21 exch store
/X21 exch store
currentpoint
/Y21 load 2 mul add 3 div exch
/X21 load 2 mul add 3 div exch
/X21 load 2 mul /X22 load add 3 div
/Y21 load 2 mul /Y22 load add 3 div
/X22 load /Y22 load curveto
} bd
/SSPD {
dup length /d exch dict def
{
/v exch def
/k exch def
currentpagedevice k known {
/cpdv currentpagedevice k get def
v cpdv ne {
/upd false def
/nullv v type /nulltype eq def
/nullcpdv cpdv type /nulltype eq def
nullv nullcpdv or
{
/upd true def
} {
/sametype v type cpdv type eq def
sametype {
v type /arraytype eq {
/vlen v length def
/cpdvlen cpdv length def
vlen cpdvlen eq {
0 1 vlen 1 sub {
/i exch def
/obj v i get def
/cpdobj cpdv i get def
obj cpdobj ne {
/upd true def
exit
} if
} for
} {
/upd true def
} ifelse
} {
v type /dicttype eq {
v {
/dv exch def
/dk exch def
/cpddv cpdv dk get def
dv cpddv ne {
/upd true def
exit
} if
} forall
} {
/upd true def
} ifelse
} ifelse
} if
} ifelse
upd true eq {
d k v put
} if
} if
} if
} forall
d length 0 gt {
d setpagedevice
} if
} bd
/RE { % /NewFontName [NewEncodingArray] /FontName RE -
  findfont dup length dict begin
  {
    1 index /FID ne
    {def} {pop pop} ifelse
  } forall
  /Encoding exch def
  /FontName 1 index def
  currentdict definefont pop
  end
} bind def
%%EndResource
%%BeginResource: procset (Apache XML Graphics EPS ProcSet) 1.0 0
%%Version: 1.0 0
%%Copyright: (Copyright 2002-2003 The Apache Software Foundation. License terms: http://www.apache.org/licenses/LICENSE-2.0)
/BeginEPSF { %def
/b4_Inc_state save def         % Save state for cleanup
/dict_count countdictstack def % Count objects on dict stack
/op_count count 1 sub def      % Count objects on operand stack
userdict begin                 % Push userdict on dict stack
/showpage { } def              % Redefine showpage, { } = null proc
0 setgray 0 setlinecap         % Prepare graphics state
1 setlinewidth 0 setlinejoin
10 setmiterlimit [ ] 0 setdash newpath
/languagelevel where           % If level not equal to 1 then
{pop languagelevel             % set strokeadjust and
1 ne                           % overprint to their defaults.
{false setstrokeadjust false setoverprint
} if
} if
} bd
/EndEPSF { %def
count op_count sub {pop} repeat            % Clean up stacks
countdictstack dict_count sub {end} repeat
b4_Inc_state restore
} bd
%%EndResource
%FOPBeginFontDict
%%IncludeResource: font Courier-Oblique
%%IncludeResource: font Courier-BoldOblique
%%IncludeResource: font Courier-Bold
%%IncludeResource: font ZapfDingbats
%%IncludeResource: font Symbol
%%IncludeResource: font Helvetica
%%IncludeResource: font Helvetica-Oblique
%%IncludeResource: font Helvetica-Bold
%%IncludeResource: font Helvetica-BoldOblique
%%IncludeResource: font Times-Roman
%%IncludeResource: font Times-Italic
%%IncludeResource: font Times-Bold
%%IncludeResource: font Times-BoldItalic
%%IncludeResource: font Courier
%FOPEndFontDict
%%BeginResource: encoding WinAnsiEncoding
/WinAnsiEncoding [
/.notdef /.notdef /.notdef /.notdef /.notdef
/.notdef /.notdef /.notdef /.notdef /.notdef
/.notdef /.notdef /.notdef /.notdef /.notdef
/.notdef /.notdef /.notdef /.notdef /.notdef
/.notdef /.notdef /.notdef /.notdef /.notdef
/.notdef /.notdef /.notdef /.notdef /.notdef
/.notdef /.notdef /space /exclam /quotedbl
/numbersign /dollar /percent /ampersand /quotesingle
/parenleft /parenright /asterisk /plus /comma
/hyphen /period /slash /zero /one
/two /three /four /five /six
/seven /eight /nine /colon /semicolon
/less /equal /greater /question /at
/A /B /C /D /E
/F /G /H /I /J
/K /L /M /N /O
/P /Q /R /S /T
/U /V /W /X /Y
/Z /bracketleft /backslash /bracketright /asciicircum
/underscore /quoteleft /a /b /c
/d /e /f /g /h
/i /j /k /l /m
/n /o /p /q /r
/s /t /u /v /w
/x /y /z /braceleft /bar
/braceright /asciitilde /bullet /Euro /bullet
/quotesinglbase /florin /quotedblbase /ellipsis /dagger
/daggerdbl /circumflex /perthousand /Scaron /guilsinglleft
/OE /bullet /Zcaron /bullet /bullet
/quoteleft /quoteright /quotedblleft /quotedblright /bullet
/endash /emdash /asciitilde /trademark /scaron
/guilsinglright /oe /bullet /zcaron /Ydieresis
/space /exclamdown /cent /sterling /currency
/yen /brokenbar /section /dieresis /copyright
/ordfeminine /guillemotleft /logicalnot /sfthyphen /registered
/macron /degree /plusminus /twosuperior /threesuperior
/acute /mu /paragraph /middot /cedilla
/onesuperior /ordmasculine /guillemotright /onequarter /onehalf
/threequarters /questiondown /Agrave /Aacute /Acircumflex
/Atilde /Adieresis /Aring /AE /Ccedilla
/Egrave /Eacute /Ecircumflex /Edieresis /Igrave
/Iacute /Icircumflex /Idieresis /Eth /Ntilde
/Ograve /Oacute /Ocircumflex /Otilde /Odieresis
/multiply /Oslash /Ugrave /Uacute /Ucircumflex
/Udieresis /Yacute /Thorn /germandbls /agrave
/aacute /acircumflex /atilde /adieresis /aring
/ae /ccedilla /egrave /eacute /ecircumflex
/edieresis /igrave /iacute /icircumflex /idieresis
/eth /ntilde /ograve /oacute /ocircumflex
/otilde /odieresis /divide /oslash /ugrave
/uacute /ucircumflex /udieresis /yacute /thorn
/ydieresis
] def
%%EndResource
%FOPBeginFontReencode
/Courier-Oblique findfont
dup length dict begin
  {1 index /FID ne {def} {pop pop} ifelse} forall
  /Encoding WinAnsiEncoding def
  currentdict
end
/Courier-Oblique exch definefont pop
/Courier-BoldOblique findfont
dup length dict begin
  {1 index /FID ne {def} {pop pop} ifelse} forall
  /Encoding WinAnsiEncoding def
  currentdict
end
/Courier-BoldOblique exch definefont pop
/Courier-Bold findfont
dup length dict begin
  {1 index /FID ne {def} {pop pop} ifelse} forall
  /Encoding WinAnsiEncoding def
  currentdict
end
/Courier-Bold exch definefont pop
/Helvetica findfont
dup length dict begin
  {1 index /FID ne {def} {pop pop} ifelse} forall
  /Encoding WinAnsiEncoding def
  currentdict
end
/Helvetica exch definefont pop
/Helvetica-Oblique findfont
dup length dict begin
  {1 index /FID ne {def} {pop pop} ifelse} forall
  /Encoding WinAnsiEncoding def
  currentdict
end
/Helvetica-Oblique exch definefont pop
/Helvetica-Bold findfont
dup length dict begin
  {1 index /FID ne {def} {pop pop} ifelse} forall
  /Encoding WinAnsiEncoding def
  currentdict
end
/Helvetica-Bold exch definefont pop
/Helvetica-BoldOblique findfont
dup length dict begin
  {1 index /FID ne {def} {pop pop} ifelse} forall
  /Encoding WinAnsiEncoding def
  currentdict
end
/Helvetica-BoldOblique exch definefont pop
/Times-Roman findfont
dup length dict begin
  {1 index /FID ne {def} {pop pop} ifelse} forall
  /Encoding WinAnsiEncoding def
  currentdict
end
/Times-Roman exch definefont pop
/Times-Italic findfont
dup length dict begin
  {1 index /FID ne {def} {pop pop} ifelse} forall
  /Encoding WinAnsiEncoding def
  currentdict
end
/Times-Italic exch definefont pop
/Times-Bold findfont
dup length dict begin
  {1 index /FID ne {def} {pop pop} ifelse} forall
  /Encoding WinAnsiEncoding def
  currentdict
end
/Times-Bold exch definefont pop
/Times-BoldItalic findfont
dup length dict begin
  {1 index /FID ne {def} {pop pop} ifelse} forall
  /Encoding WinAnsiEncoding def
  currentdict
end
/Times-BoldItalic exch definefont pop
/Courier findfont
dup length dict begin
  {1 index /FID ne {def} {pop pop} ifelse} forall
  /Encoding WinAnsiEncoding def
  currentdict
end
/Courier exch definefont pop
%FOPEndFontReencode
%%EndProlog
%%Page: 1 1
%%PageBoundingBox: 0 0 1147 594
%%BeginPageSetup
[1 0 0 -1 0 594] CT
%%EndPageSetup
GS
[0.6 0 0 0.6 0 0] CT
1 GC
N
0 0 1912 990 re
f
GR
GS
[0.6 0 0 0.6 0 0] CT
1 GC
N
0 0 1912 990 re
f
GR
GS
[0.6 0 0 0.6 0 0] CT
1 GC
N
249 881 M
1730 881 L
1730 74 L
249 74 L
cp
f
GR
GS
[0.6 0 0 0.6 0 0] CT
0.149 GC
2 setlinecap
1 LJ
0.833 LW
N
249 881 M
1730 881 L
S
GR
GS
[0.6 0 0 0.6 0 0] CT
0.149 GC
2 setlinecap
1 LJ
0.833 LW
N
249 74 M
1730 74 L
S
GR
GS
[0.6 0 0 0.6 0 0] CT
0.149 GC
2 setlinecap
1 LJ
0.833 LW
N
249 881 M
249 866.19 L
S
GR
GS
[0.6 0 0 0.6 0 0] CT
0.149 GC
2 setlinecap
1 LJ
0.833 LW
N
460.627 881 M
460.627 866.19 L
S
GR
GS
[0.6 0 0 0.6 0 0] CT
0.149 GC
2 setlinecap
1 LJ
0.833 LW
N
672.253 881 M
672.253 866.19 L
S
GR
GS
[0.6 0 0 0.6 0 0] CT
0.149 GC
2 setlinecap
1 LJ
0.833 LW
N
883.687 881 M
883.687 866.19 L
S
GR
GS
[0.6 0 0 0.6 0 0] CT
0.149 GC
2 setlinecap
1 LJ
0.833 LW
N
1095.313 881 M
1095.313 866.19 L
S
GR
GS
[0.6 0 0 0.6 0 0] CT
0.149 GC
2 setlinecap
1 LJ
0.833 LW
N
1306.94 881 M
1306.94 866.19 L
S
GR
GS
[0.6 0 0 0.6 0 0] CT
0.149 GC
2 setlinecap
1 LJ
0.833 LW
N
1518.567 881 M
1518.567 866.19 L
S
GR
GS
[0.6 0 0 0.6 0 0] CT
0.149 GC
2 setlinecap
1 LJ
0.833 LW
N
1730 881 M
1730 866.19 L
S
GR
GS
[0.6 0 0 0.6 0 0] CT
0.149 GC
2 setlinecap
1 LJ
0.833 LW
N
249 74 M
249 88.81 L
S
GR
GS
[0.6 0 0 0.6 0 0] CT
0.149 GC
2 setlinecap
1 LJ
0.833 LW
N
460.627 74 M
460.627 88.81 L
S
GR
GS
[0.6 0 0 0.6 0 0] CT
0.149 GC
2 setlinecap
1 LJ
0.833 LW
N
672.253 74 M
672.253 88.81 L
S
GR
GS
[0.6 0 0 0.6 0 0] CT
0.149 GC
2 setlinecap
1 LJ
0.833 LW
N
883.687 74 M
883.687 88.81 L
S
GR
GS
[0.6 0 0 0.6 0 0] CT
0.149 GC
2 setlinecap
1 LJ
0.833 LW
N
1095.313 74 M
1095.313 88.81 L
S
GR
GS
[0.6 0 0 0.6 0 0] CT
0.149 GC
2 setlinecap
1 LJ
0.833 LW
N
1306.94 74 M
1306.94 88.81 L
S
GR
GS
[0.6 0 0 0.6 0 0] CT
0.149 GC
2 setlinecap
1 LJ
0.833 LW
N
1518.567 74 M
1518.567 88.81 L
S
GR
GS
[0.6 0 0 0.6 0 0] CT
0.149 GC
2 setlinecap
1 LJ
0.833 LW
N
1730 74 M
1730 88.81 L
S
GR
GS
[0.6 0 0 0.6 149.39999 534.6] CT
0.149 GC
/Helvetica 33.333 F
GS
[1 0 0 1 0 0] CT
-51 34 moveto 
1 -1 scale
(Jan-99) t 
GR
GR
GS
[0.6 0 0 0.6 276.37594 534.6] CT
0.149 GC
/Helvetica 33.333 F
GS
[1 0 0 1 0 0] CT
-51 34 moveto 
1 -1 scale
(Jan-02) t 
GR
GR
GS
[0.6 0 0 0.6 403.35189 534.6] CT
0.149 GC
/Helvetica 33.333 F
GS
[1 0 0 1 0 0] CT
-51 34 moveto 
1 -1 scale
(Jan-05) t 
GR
GR
GS
[0.6 0 0 0.6 530.212 534.6] CT
0.149 GC
/Helvetica 33.333 F
GS
[1 0 0 1 0 0] CT
-51 34 moveto 
1 -1 scale
(Jan-08) t 
GR
GR
GS
[0.6 0 0 0.6 657.18798 534.6] CT
0.149 GC
/Helvetica 33.333 F
GS
[1 0 0 1 0 0] CT
-51 34 moveto 
1 -1 scale
(Jan-11) t 
GR
GR
GS
[0.6 0 0 0.6 784.16393 534.6] CT
0.149 GC
/Helvetica 33.333 F
GS
[1 0 0 1 0 0] CT
-51 34 moveto 
1 -1 scale
(Jan-14) t 
GR
GR
GS
[0.6 0 0 0.6 911.13988 534.6] CT
0.149 GC
/Helvetica 33.333 F
GS
[1 0 0 1 0 0] CT
-51 34 moveto 
1 -1 scale
(Jan-17) t 
GR
GR
GS
[0.6 0 0 0.6 1037.99996 534.6] CT
0.149 GC
/Helvetica 33.333 F
GS
[1 0 0 1 0 0] CT
-51 34 moveto 
1 -1 scale
(Jan-20) t 
GR
GR
GS
[0.6 0 0 0.6 0 0] CT
0.149 GC
2 setlinecap
1 LJ
0.833 LW
N
249 881 M
249 74 L
S
GR
GS
[0.6 0 0 0.6 0 0] CT
0.149 GC
2 setlinecap
1 LJ
0.833 LW
N
1730 881 M
1730 74 L
S
GR
GS
[0.6 0 0 0.6 0 0] CT
0.149 GC
2 setlinecap
1 LJ
0.833 LW
N
249 881 M
263.808 881 L
S
GR
GS
[0.6 0 0 0.6 0 0] CT
0.149 GC
2 setlinecap
1 LJ
0.833 LW
N
249 780.125 M
263.808 780.125 L
S
GR
GS
[0.6 0 0 0.6 0 0] CT
0.149 GC
2 setlinecap
1 LJ
0.833 LW
N
249 679.25 M
263.808 679.25 L
S
GR
GS
[0.6 0 0 0.6 0 0] CT
0.149 GC
2 setlinecap
1 LJ
0.833 LW
N
249 578.375 M
263.808 578.375 L
S
GR
GS
[0.6 0 0 0.6 0 0] CT
0.149 GC
2 setlinecap
1 LJ
0.833 LW
N
249 477.5 M
263.808 477.5 L
S
GR
GS
[0.6 0 0 0.6 0 0] CT
0.149 GC
2 setlinecap
1 LJ
0.833 LW
N
249 376.625 M
263.808 376.625 L
S
GR
GS
[0.6 0 0 0.6 0 0] CT
0.149 GC
2 setlinecap
1 LJ
0.833 LW
N
249 275.75 M
263.808 275.75 L
S
GR
GS
[0.6 0 0 0.6 0 0] CT
0.149 GC
2 setlinecap
1 LJ
0.833 LW
N
249 174.875 M
263.808 174.875 L
S
GR
GS
[0.6 0 0 0.6 0 0] CT
0.149 GC
2 setlinecap
1 LJ
0.833 LW
N
249 74 M
263.808 74 L
S
GR
GS
[0.6 0 0 0.6 0 0] CT
0.149 GC
2 setlinecap
1 LJ
0.833 LW
N
1730 881 M
1715.192 881 L
S
GR
GS
[0.6 0 0 0.6 0 0] CT
0.149 GC
2 setlinecap
1 LJ
0.833 LW
N
1730 780.125 M
1715.192 780.125 L
S
GR
GS
[0.6 0 0 0.6 0 0] CT
0.149 GC
2 setlinecap
1 LJ
0.833 LW
N
1730 679.25 M
1715.192 679.25 L
S
GR
GS
[0.6 0 0 0.6 0 0] CT
0.149 GC
2 setlinecap
1 LJ
0.833 LW
N
1730 578.375 M
1715.192 578.375 L
S
GR
GS
[0.6 0 0 0.6 0 0] CT
0.149 GC
2 setlinecap
1 LJ
0.833 LW
N
1730 477.5 M
1715.192 477.5 L
S
GR
GS
[0.6 0 0 0.6 0 0] CT
0.149 GC
2 setlinecap
1 LJ
0.833 LW
N
1730 376.625 M
1715.192 376.625 L
S
GR
GS
[0.6 0 0 0.6 0 0] CT
0.149 GC
2 setlinecap
1 LJ
0.833 LW
N
1730 275.75 M
1715.192 275.75 L
S
GR
GS
[0.6 0 0 0.6 0 0] CT
0.149 GC
2 setlinecap
1 LJ
0.833 LW
N
1730 174.875 M
1715.192 174.875 L
S
GR
GS
[0.6 0 0 0.6 0 0] CT
0.149 GC
2 setlinecap
1 LJ
0.833 LW
N
1730 74 M
1715.192 74 L
S
GR
GS
[0.6 0 0 0.6 143.39731 528.6] CT
0.149 GC
/Helvetica 33.333 F
GS
[1 0 0 1 0 0] CT
-30 13 moveto 
1 -1 scale
(-1) t 
GR
GR
GS
[0.6 0 0 0.6 143.39731 468.075] CT
0.149 GC
/Helvetica 33.333 F
GS
[1 0 0 1 0 0] CT
-19 13 moveto 
1 -1 scale
(0) t 
GR
GR
GS
[0.6 0 0 0.6 143.39731 407.55] CT
0.149 GC
/Helvetica 33.333 F
GS
[1 0 0 1 0 0] CT
-19 13 moveto 
1 -1 scale
(1) t 
GR
GR
GS
[0.6 0 0 0.6 143.39731 347.025] CT
0.149 GC
/Helvetica 33.333 F
GS
[1 0 0 1 0 0] CT
-19 13 moveto 
1 -1 scale
(2) t 
GR
GR
GS
[0.6 0 0 0.6 143.39731 286.5] CT
0.149 GC
/Helvetica 33.333 F
GS
[1 0 0 1 0 0] CT
-19 13 moveto 
1 -1 scale
(3) t 
GR
GR
GS
[0.6 0 0 0.6 143.39731 225.975] CT
0.149 GC
/Helvetica 33.333 F
GS
[1 0 0 1 0 0] CT
-19 13 moveto 
1 -1 scale
(4) t 
GR
GR
GS
[0.6 0 0 0.6 143.39731 165.45] CT
0.149 GC
/Helvetica 33.333 F
GS
[1 0 0 1 0 0] CT
-19 13 moveto 
1 -1 scale
(5) t 
GR
GR
GS
[0.6 0 0 0.6 143.39731 104.925] CT
0.149 GC
/Helvetica 33.333 F
GS
[1 0 0 1 0 0] CT
-19 13 moveto 
1 -1 scale
(6) t 
GR
GR
GS
[0.6 0 0 0.6 143.39731 44.4] CT
0.149 GC
/Helvetica 33.333 F
GS
[1 0 0 1 0 0] CT
-19 13 moveto 
1 -1 scale
(7) t 
GR
GR
GS
[0.6 0 0 0.6 593.69997 41.1] CT
/Helvetica-Bold 36.667 F
GS
[1 0 0 1 0 0] CT
-110.5 -9 moveto 
1 -1 scale
(1 year yields) t 
GR
GR
GS
[0.6 0 0 0.6 0 0] CT
0 0.447 0.741 RC
1 LJ
3.333 LW
N
254.407 480.526 M
259.813 469.228 L
266.185 484.359 L
271.978 511.999 L
277.964 513.815 L
283.756 485.368 L
289.549 466.404 L
295.728 458.838 L
301.52 454.803 L
307.12 418.488 L
313.299 408.905 L
319.285 396.296 L
325.271 377.634 L
330.87 367.546 L
336.856 354.433 L
342.262 326.188 L
348.634 285.837 L
354.427 279.785 L
360.413 265.158 L
366.399 254.062 L
371.998 263.141 L
378.177 253.053 L
383.97 280.289 L
389.569 310.048 L
395.941 331.736 L
401.348 328.205 L
407.141 353.928 L
413.126 305.004 L
419.112 340.31 L
424.712 349.641 L
430.891 362.25 L
436.877 384.443 L
442.283 435.385 L
448.655 465.143 L
454.448 463.63 L
460.434 450.264 L
466.419 423.027 L
471.826 422.775 L
477.425 386.208 L
483.604 405.122 L
489.59 384.947 L
494.997 410.166 L
501.369 436.646 L
507.161 445.472 L
513.147 484.813 L
519.133 484.309 L
524.732 488.848 L
530.911 516.841 L
536.897 524.659 L
542.304 553.408 L
548.289 549.878 L
554.082 551.391 L
559.875 574.34 L
565.861 583.671 L
571.846 566.018 L
577.446 554.518 L
583.625 576.357 L
589.611 547.396 L
595.017 536.512 L
601.389 556.939 L
607.182 559.098 L
612.588 578.627 L
618.96 588.291 L
624.753 563.748 L
630.739 549.878 L
636.532 545.338 L
642.324 548.869 L
648.503 558.573 L
654.296 548.163 L
659.895 554.568 L
666.074 556.99 L
672.06 550.634 L
678.046 555.88 L
683.452 550.685 L
689.438 551.341 L
695.038 565.967 L
701.217 571.848 L
707.009 578.547 L
712.609 562.638 L
718.981 565.16 L
724.774 551.542 L
730.759 528.139 L
736.552 507.258 L
742.345 500.197 L
748.524 493.791 L
753.93 485.671 L
759.916 459.443 L
765.323 455.661 L
771.695 448.448 L
777.487 433.569 L
783.473 431.198 L
789.459 421.01 L
795.058 411.427 L
801.237 400.835 L
807.03 399.826 L
812.63 381.417 L
819.002 374.86 L
824.408 377.533 L
830.201 365.327 L
836.187 354.937 L
842.172 336.043 L
847.772 330.676 L
853.951 332.694 L
859.937 353.323 L
865.343 364.016 L
871.715 352.768 L
877.508 371.884 L
883.494 358.165 L
889.479 407.493 L
895.079 419.194 L
901.065 390.193 L
906.857 373.801 L
912.65 341.42 L
918.636 313.175 L
924.622 336.477 L
930.221 349.691 L
936.4 390.546 L
942.386 518.354 L
947.793 588.059 L
954.165 622.861 L
959.957 657.965 L
965.364 690.447 L
971.543 704.67 L
977.335 697.912 L
982.935 698.366 L
989.114 697.508 L
995.1 713.043 L
1001.085 712.034 L
1006.878 712.236 L
1012.671 702.855 L
1018.657 703.864 L
1024.642 699.122 L
1030.242 710.925 L
1035.649 722.929 L
1042.021 716.271 L
1047.813 713.144 L
1053.799 726.207 L
1059.592 715.868 L
1065.384 708.605 L
1071.563 721.214 L
1077.356 693.473 L
1082.956 681.772 L
1089.134 697.811 L
1095.12 703.763 L
1101.106 663.211 L
1106.513 656.099 L
1112.498 632.444 L
1118.098 620.339 L
1124.277 632.192 L
1130.069 623.315 L
1135.669 647.222 L
1142.041 695.995 L
1147.834 713.447 L
1153.82 715.161 L
1159.612 734.883 L
1165.405 742.902 L
1171.584 746.029 L
1177.183 745.021 L
1182.976 742.599 L
1188.962 751.577 L
1194.948 756.672 L
1200.547 759.446 L
1206.726 775.888 L
1212.712 774.476 L
1218.119 773.064 L
1224.49 771.601 L
1230.283 775.485 L
1236.269 775.081 L
1242.255 755.915 L
1247.661 772.055 L
1253.261 770.844 L
1259.44 772.156 L
1265.426 773.064 L
1270.832 763.128 L
1277.204 765.902 L
1282.997 762.472 L
1288.983 764.792 L
1294.968 766.305 L
1300.568 769.029 L
1306.747 764.187 L
1312.733 769.836 L
1318.139 768.02 L
1324.125 765.296 L
1329.918 766.003 L
1335.71 773.467 L
1341.696 775.888 L
1347.682 774.173 L
1353.281 781.638 L
1359.46 785.673 L
1365.446 783.656 L
1370.853 784.16 L
1377.225 787.186 L
1383.017 789.204 L
1388.424 791.221 L
1394.603 793.239 L
1400.395 792.734 L
1405.995 793.037 L
1412.174 792.734 L
1418.16 793.44 L
1424.146 794.449 L
1429.938 797.677 L
1435.731 804.638 L
1441.717 812.808 L
1447.703 807.765 L
1453.302 820.172 L
1459.288 826.023 L
1465.274 818.357 L
1470.873 818.155 L
1477.052 818.558 L
1482.845 822.795 L
1488.444 820.677 L
1494.816 819.971 L
1500.609 819.466 L
1506.595 816.541 L
1512.388 815.532 L
1518.18 814.725 L
1524.359 814.725 L
1529.766 815.633 L
1535.751 813.817 L
1541.158 814.624 L
1547.53 815.028 L
1553.323 813.515 L
1559.308 814.826 L
1565.294 815.835 L
1570.894 815.129 L
1577.073 815.936 L
1582.865 813.918 L
1588.465 813.817 L
1594.837 814.422 L
1600.244 815.058 L
1606.036 815.734 L
1612.022 815.613 L
1618.008 816.137 L
1623.607 815.936 L
1629.786 815.613 L
1635.772 815.361 L
1639.055 815.028 L
S
GR
GS
[0.6 0 0 0.6 0 0] CT
0.851 0.325 0.098 RC
1 LJ
3.333 LW
N
254.407 325.118 M
259.813 288.178 L
266.185 304.197 L
271.978 298.79 L
277.964 277.364 L
283.756 268.477 L
289.549 262.475 L
295.728 244.721 L
301.52 255.504 L
307.12 231.526 L
313.299 203.413 L
319.285 176.015 L
325.271 146.085 L
330.87 147.79 L
336.856 147.941 L
342.262 148.516 L
348.634 81.929 L
354.427 113.361 L
360.413 116.115 L
366.399 122.138 L
371.998 133.92 L
378.177 132.507 L
383.97 183.49 L
389.569 240.313 L
395.941 316.786 L
401.348 328.992 L
407.141 363.884 L
413.126 378.108 L
419.112 406.262 L
424.712 396.518 L
430.891 422.251 L
436.877 443.656 L
442.283 524.871 L
448.655 579.212 L
454.448 570.023 L
460.434 572.474 L
466.419 548.556 L
471.826 554.71 L
477.425 503.949 L
483.604 550.251 L
489.59 548.627 L
494.997 580.614 L
501.369 606.156 L
507.161 603.685 L
513.147 634.804 L
519.133 640.413 L
524.732 625.998 L
530.911 656.604 L
536.897 651.923 L
542.304 655.151 L
548.289 662.464 L
554.082 662.525 L
559.875 664.573 L
565.861 672.148 L
571.846 654.879 L
577.446 658.49 L
583.625 667.316 L
589.611 653.628 L
595.017 634.229 L
601.389 655.121 L
607.182 654.364 L
612.588 663.645 L
618.96 663.624 L
624.753 615.305 L
630.739 595.272 L
636.532 575.53 L
642.324 569.76 L
648.503 582.117 L
654.296 555.365 L
659.895 553.933 L
666.074 509.992 L
672.06 498.038 L
678.046 478.7 L
683.452 444.736 L
689.438 425.943 L
695.038 433.105 L
701.217 433.993 L
707.009 416.501 L
712.609 383.404 L
718.981 395.458 L
724.774 361.292 L
730.759 333.521 L
736.552 326.813 L
742.345 324.584 L
748.524 310.683 L
753.93 294.765 L
759.916 282.085 L
765.323 275.508 L
771.695 258.934 L
777.487 238.749 L
783.473 256.19 L
789.459 268.709 L
795.058 275.155 L
801.237 274.893 L
807.03 281.712 L
812.63 268.366 L
819.002 263.494 L
824.408 278.11 L
830.201 276.264 L
836.187 273.964 L
842.172 263.756 L
847.772 268.316 L
853.951 291.376 L
859.937 334.479 L
865.343 361.504 L
871.715 363.955 L
877.508 459.191 L
883.494 446.602 L
889.479 571.919 L
895.079 607.73 L
901.065 629.599 L
906.857 586.072 L
912.65 560.772 L
918.636 542.01 L
924.622 550.987 L
930.221 560.601 L
936.4 598.379 L
942.386 646.193 L
947.793 688.188 L
954.165 743.134 L
959.957 729.324 L
965.364 709.149 L
971.543 723.01 L
977.335 730.535 L
982.935 731.604 L
989.114 726.026 L
995.1 731.463 L
1001.085 736.426 L
1006.878 739.604 L
1012.671 742.761 L
1018.657 753.333 L
1024.642 732.31 L
1030.242 749.116 L
1035.649 747.361 L
1042.021 737.293 L
1047.813 737.707 L
1053.799 744.274 L
1059.592 748.319 L
1065.384 751.456 L
1071.563 755.744 L
1077.356 753.807 L
1082.956 758.386 L
1089.134 752.485 L
1095.12 751.234 L
1101.106 753.585 L
1106.513 752.99 L
1112.498 748.38 L
1118.098 758.104 L
1124.277 761.524 L
1130.069 761.029 L
1135.669 759.486 L
1142.041 769.664 L
1147.834 768.998 L
1153.82 768.403 L
1159.612 768.282 L
1165.405 768.766 L
1171.584 767.778 L
1177.183 762.946 L
1182.976 761.746 L
1188.962 761.635 L
1194.948 761.655 L
1200.547 759.062 L
1206.726 763.652 L
1212.712 763.581 L
1218.119 764.066 L
1224.49 762.29 L
1230.283 762.381 L
1236.269 765.236 L
1242.255 765.528 L
1247.661 763.763 L
1253.261 766.608 L
1259.44 768.645 L
1265.426 766.709 L
1270.832 765.145 L
1277.204 768.464 L
1282.997 767.142 L
1288.983 770.159 L
1294.968 769.543 L
1300.568 767.142 L
1306.747 766.931 L
1312.733 769.463 L
1318.139 768.081 L
1324.125 766.234 L
1329.918 769.352 L
1335.71 770.229 L
1341.696 768.867 L
1347.682 767.415 L
1353.281 769.916 L
1359.46 768.212 L
1365.446 768.686 L
1370.853 766.335 L
1377.225 755.592 L
1383.017 763.914 L
1388.424 758.074 L
1394.603 754.634 L
1400.395 756.873 L
1405.995 754.715 L
1412.174 752.243 L
1418.16 747.371 L
1424.146 740.4 L
1429.938 747.008 L
1435.731 745.343 L
1441.717 728.891 L
1447.703 716.725 L
1453.302 732.391 L
1459.288 718.147 L
1465.274 720.982 L
1470.873 723.988 L
1477.052 711.389 L
1482.845 735.659 L
1488.444 729.909 L
1494.816 718.874 L
1500.609 719.57 L
1506.595 713.386 L
1512.388 698.265 L
1518.18 693.655 L
1524.359 697.317 L
1529.766 691.244 L
1535.751 677.313 L
1541.158 673.087 L
1547.53 663.745 L
1553.323 655.827 L
1559.308 657.148 L
1565.294 656.503 L
1570.894 648.433 L
1577.073 635.036 L
1582.865 616.254 L
1588.465 604.169 L
1594.837 590.823 L
1600.244 573.493 L
1606.036 570.366 L
1612.022 555.234 L
1618.008 556.314 L
1623.607 547.114 L
1629.786 536.391 L
1635.772 533.042 L
1639.055 523.64 L
S
GR
GS
[0.6 0 0 0.6 0 0] CT
0.929 0.694 0.125 RC
1 LJ
3.333 LW
N
254.407 248.917 M
259.813 264.956 L
266.185 300.263 L
271.978 269.698 L
277.964 270.807 L
283.756 270.908 L
289.549 233.584 L
295.728 232.576 L
301.52 193.537 L
307.12 188.493 L
313.299 163.981 L
319.285 148.042 L
325.271 135.029 L
330.87 140.678 L
336.856 142.091 L
342.262 154.397 L
348.634 160.046 L
354.427 168.318 L
360.413 163.274 L
366.399 161.459 L
371.998 183.752 L
378.177 191.318 L
383.97 217.747 L
389.569 237.72 L
395.941 248.413 L
401.348 249.422 L
407.141 265.461 L
413.126 263.141 L
419.112 264.048 L
424.712 231.869 L
430.891 267.276 L
436.877 296.127 L
442.283 344.749 L
448.655 381.739 L
454.448 396.719 L
460.434 376.111 L
466.419 379.278 L
471.826 382.163 L
477.425 277.677 L
483.604 304.762 L
489.59 298.003 L
494.997 316.11 L
501.369 377.018 L
507.161 387.671 L
513.147 417.358 L
519.133 407.15 L
524.732 374.608 L
530.911 406.988 L
536.897 410.519 L
542.304 444.11 L
548.289 438.663 L
554.082 443.808 L
559.875 450.466 L
565.861 449.255 L
571.846 435.536 L
577.446 412.738 L
583.625 411.023 L
589.611 376.726 L
595.017 373.296 L
601.389 393.37 L
607.182 359.981 L
612.588 368.958 L
618.96 353.525 L
624.753 342.126 L
630.739 315.091 L
636.532 293.706 L
642.324 285.131 L
648.503 306.618 L
654.296 321.547 L
659.895 327.701 L
666.074 341.823 L
672.06 339.503 L
678.046 327.701 L
683.452 307.425 L
689.438 313.78 L
695.038 318.723 L
701.217 347.069 L
707.009 365.63 L
712.609 356.551 L
718.981 360.485 L
724.774 353.02 L
730.759 342.731 L
736.552 342.832 L
742.345 357.257 L
748.524 343.639 L
753.93 342.327 L
759.916 332.038 L
765.323 319.328 L
771.695 307.929 L
777.487 303.995 L
783.473 303.39 L
789.459 282.609 L
795.058 273.531 L
801.237 265.36 L
807.03 266.167 L
812.63 247.202 L
819.002 222.992 L
824.408 237.619 L
830.201 227.33 L
836.187 218.655 L
842.172 206.348 L
847.772 208.466 L
853.951 195.655 L
859.937 217.444 L
865.343 244.882 L
871.715 257.492 L
877.508 310.048 L
883.494 330.323 L
889.479 340.108 L
895.079 356.147 L
901.065 367.546 L
906.857 341.218 L
912.65 275.952 L
918.636 257.482 L
924.622 285.313 L
930.221 310.491 L
936.4 392.331 L
942.386 511.192 L
947.793 606.58 L
954.165 725.824 L
959.957 673.742 L
965.364 685.464 L
971.543 702.179 L
977.335 714.173 L
982.935 717.3 L
989.114 698.406 L
995.1 720.336 L
1001.085 739.311 L
1006.878 732.673 L
1012.671 734.348 L
1018.657 714.687 L
1024.642 721.335 L
1030.242 705.215 L
1035.649 717.169 L
1042.021 712.287 L
1047.813 717.623 L
1053.799 722.505 L
1059.592 723.806 L
1065.384 710.642 L
1071.563 720.367 L
1077.356 719.227 L
1082.956 717.431 L
1089.134 723.837 L
1095.12 719.297 L
1101.106 709.876 L
1106.513 689.832 L
1112.498 687.613 L
1118.098 713.467 L
1124.277 719.207 L
1130.069 717.229 L
1135.669 730.585 L
1142.041 726.318 L
1147.834 722.677 L
1153.82 729.869 L
1159.612 737.959 L
1165.405 747.31 L
1171.584 740.259 L
1177.183 737.838 L
1182.976 734.045 L
1188.962 736.033 L
1194.948 751.537 L
1200.547 750.7 L
1206.726 765.801 L
1212.712 760.041 L
1218.119 761.1 L
1224.49 753.454 L
1230.283 747.916 L
1236.269 746.16 L
1242.255 744.133 L
1247.661 755.461 L
1253.261 758.094 L
1259.44 755.128 L
1265.426 746.493 L
1270.832 748.733 L
1277.204 746.705 L
1282.997 741.853 L
1288.983 740.037 L
1294.968 742.075 L
1300.568 739.422 L
1306.747 743.346 L
1312.733 743.053 L
1318.139 746.322 L
1324.125 737.102 L
1329.918 742.135 L
1335.71 741.974 L
1341.696 730.212 L
1347.682 737.889 L
1353.281 726.006 L
1359.46 726.137 L
1365.446 738.645 L
1370.853 739.825 L
1377.225 752.616 L
1383.017 750.508 L
1388.424 748.319 L
1394.603 742.69 L
1400.395 735.044 L
1405.995 730.727 L
1412.174 729.748 L
1418.16 726.782 L
1424.146 730.787 L
1429.938 729.445 L
1435.731 727.226 L
1441.717 732.441 L
1447.703 752.697 L
1453.302 743.739 L
1459.288 748.319 L
1465.274 739.714 L
1470.873 731.987 L
1477.052 739.614 L
1482.845 765.357 L
1488.444 768.242 L
1494.816 765.206 L
1500.609 765.74 L
1506.595 758.013 L
1512.388 768.07 L
1518.18 768 L
1524.359 773.77 L
1529.766 771.258 L
1535.751 764.742 L
1541.158 775.384 L
1547.53 764.318 L
1553.323 745.848 L
1559.308 750.105 L
1565.294 765.377 L
1570.894 738.867 L
1577.073 734.913 L
1582.865 732.714 L
1588.465 745.041 L
1594.837 738.211 L
1600.244 710.763 L
1606.036 705.568 L
1612.022 710.743 L
1618.008 727.841 L
1623.607 710.935 L
1629.786 706.063 L
1635.772 707.202 L
1639.055 700.414 L
S
GR
GS
[0.6 0 0 0.6 0 0] CT
0.494 0.184 0.557 RC
1 LJ
3.333 LW
N
254.407 745.424 M
259.813 758.437 L
266.185 763.581 L
271.978 771.853 L
277.964 776.09 L
283.756 755.411 L
289.549 760.656 L
295.728 767.213 L
301.52 770.239 L
307.12 772.761 L
313.299 760.757 L
319.285 766.305 L
325.271 767.314 L
330.87 763.38 L
336.856 752.183 L
342.262 758.941 L
348.634 758.437 L
354.427 745.928 L
360.413 752.788 L
366.399 732.209 L
371.998 732.008 L
378.177 738.665 L
383.97 739.271 L
389.569 739.271 L
395.941 748.955 L
401.348 760.152 L
407.141 772.257 L
413.126 776.695 L
419.112 779.116 L
424.712 778.511 L
430.891 775.384 L
436.877 775.485 L
442.283 775.787 L
448.655 776.191 L
454.448 775.485 L
460.434 775.989 L
466.419 777.2 L
471.826 777.603 L
477.425 779.015 L
483.604 779.015 L
489.59 778.914 L
494.997 778.208 L
501.369 779.015 L
507.161 779.621 L
513.147 779.116 L
519.133 779.116 L
524.732 779.116 L
530.911 778.007 L
536.897 778.208 L
542.304 778.208 L
548.289 777.099 L
554.082 778.713 L
559.875 779.217 L
565.861 779.116 L
571.846 778.612 L
577.446 776.494 L
583.625 776.09 L
589.611 777.603 L
595.017 778.713 L
601.389 778.814 L
607.182 779.116 L
612.588 779.116 L
618.96 779.116 L
624.753 777.704 L
630.739 777.704 L
636.532 776.393 L
642.324 775.081 L
648.503 777.603 L
654.296 777.704 L
659.895 778.208 L
666.074 779.621 L
672.06 779.621 L
678.046 778.814 L
683.452 778.814 L
689.438 778.814 L
695.038 779.621 L
701.217 779.621 L
707.009 779.721 L
712.609 779.52 L
718.981 779.318 L
724.774 779.318 L
730.759 771.551 L
736.552 774.375 L
742.345 775.081 L
748.524 774.274 L
753.93 770.037 L
759.916 766.507 L
765.323 753.797 L
771.695 735.437 L
777.487 733.117 L
783.473 727.266 L
789.459 745.021 L
795.058 747.946 L
801.237 729.284 L
807.03 724.846 L
812.63 728.174 L
819.002 726.459 L
824.408 715.363 L
830.201 719.903 L
836.187 712.438 L
842.172 711.026 L
847.772 706.486 L
853.951 700.938 L
859.937 708.1 L
865.343 712.034 L
871.715 714.052 L
877.508 718.995 L
883.494 721.718 L
889.479 730.293 L
895.079 726.056 L
901.065 725.047 L
906.857 713.245 L
912.65 709.916 L
918.636 714.556 L
924.622 715.161 L
930.221 720.81 L
936.4 716.574 L
942.386 729.587 L
947.793 725.854 L
954.165 746.735 L
959.957 748.854 L
965.364 747.442 L
971.543 750.367 L
977.335 755.612 L
982.935 761.564 L
989.114 760.858 L
995.1 760.858 L
1001.085 762.774 L
1006.878 762.875 L
1012.671 761.968 L
1018.657 761.766 L
1024.642 766.103 L
1030.242 767.617 L
1035.649 767.717 L
1042.021 767.717 L
1047.813 766.81 L
1053.799 766.608 L
1059.592 766.608 L
1065.384 766.507 L
1071.563 768.524 L
1077.356 768.02 L
1082.956 768.02 L
1089.134 764.388 L
1095.12 765.599 L
1101.106 765.498 L
1106.513 761.867 L
1112.498 764.893 L
1118.098 763.481 L
1124.277 765.498 L
1130.069 767.011 L
1135.669 768.07 L
1142.041 769.281 L
1147.834 768.474 L
1153.82 768.575 L
1159.612 768.827 L
1165.405 768.978 L
1171.584 768.474 L
1177.183 769.432 L
1182.976 769.634 L
1188.962 770.239 L
1194.948 770.239 L
1200.547 770.239 L
1206.726 770.239 L
1212.712 770.744 L
1218.119 770.744 L
1224.49 770.744 L
1230.283 770.844 L
1236.269 770.844 L
1242.255 772.257 L
1247.661 773.871 L
1253.261 773.871 L
1259.44 770.34 L
1265.426 769.331 L
1270.832 770.34 L
1277.204 770.34 L
1282.997 770.34 L
1288.983 771.248 L
1294.968 772.257 L
1300.568 772.257 L
1306.747 771.601 L
1312.733 772.358 L
1318.139 773.871 L
1324.125 772.257 L
1329.918 772.761 L
1335.71 772.559 L
1341.696 773.266 L
1347.682 775.283 L
1353.281 775.283 L
1359.46 774.375 L
1365.446 778.309 L
1370.853 780.327 L
1377.225 783 L
1383.017 779.671 L
1388.424 780.276 L
1394.603 777.048 L
1400.395 780.125 L
1405.995 780.579 L
1412.174 780.276 L
1418.16 780.075 L
1424.146 780.327 L
1429.938 780.024 L
1435.731 779.822 L
1441.717 781.235 L
1447.703 785.673 L
1453.302 787.489 L
1459.288 798.081 L
1465.274 798.989 L
1470.873 807.159 L
1477.052 807.059 L
1482.845 813.111 L
1488.444 807.765 L
1494.816 802.721 L
1500.609 813.01 L
1506.595 810.993 L
1512.388 805.646 L
1518.18 809.177 L
1524.359 809.883 L
1529.766 806.352 L
1535.751 806.453 L
1541.158 801.712 L
1547.53 797.576 L
1553.323 793.44 L
1559.308 793.037 L
1565.294 795.862 L
1570.894 796.063 L
1577.073 797.677 L
1582.865 798.182 L
1588.465 795.559 L
1594.837 794.046 L
1600.244 796.87 L
1606.036 794.348 L
1612.022 794.348 L
1618.008 794.752 L
1623.607 793.138 L
1629.786 792.23 L
1635.772 792.129 L
1639.055 792.028 L
S
GR
GS
[0.6 0 0 0.6 0 0] CT
1 GC
N
1717 246 M
1717 87 L
1611 87 L
1611 246 L
cp
f
GR
GS
[0.6 0 0 0.6 1001.93331 65.11015] CT
/Helvetica 30 F
GS
[1 0 0 1 0 0] CT
0 12 moveto 
1 -1 scale
(EA) t 
GR
GR
GS
[0.6 0 0 0.6 0 0] CT
0 0.447 0.741 RC
1 LJ
3.333 LW
N
1616.012 108.517 M
1666.13 108.517 L
S
GR
GS
[0.6 0 0 0.6 1001.93331 88.30338] CT
/Helvetica 30 F
GS
[1 0 0 1 0 0] CT
0 12 moveto 
1 -1 scale
(US) t 
GR
GR
GS
[0.6 0 0 0.6 0 0] CT
0.851 0.325 0.098 RC
1 LJ
3.333 LW
N
1616.012 147.172 M
1666.13 147.172 L
S
GR
GS
[0.6 0 0 0.6 1001.93331 111.49662] CT
/Helvetica 30 F
GS
[1 0 0 1 0 0] CT
0 12 moveto 
1 -1 scale
(US) t 
GR
GR
GS
[0.6 0 0 0.6 0 0] CT
0.929 0.694 0.125 RC
1 LJ
3.333 LW
N
1616.012 185.828 M
1666.13 185.828 L
S
GR
GS
[0.6 0 0 0.6 1001.93331 134.68985] CT
/Helvetica 30 F
GS
[1 0 0 1 0 0] CT
0 12 moveto 
1 -1 scale
(JP) t 
GR
GR
GS
[0.6 0 0 0.6 0 0] CT
0.494 0.184 0.557 RC
1 LJ
3.333 LW
N
1616.012 224.483 M
1666.13 224.483 L
S
GR
GS
[0.6 0 0 0.6 0 0] CT
0.149 GC
10.0 ML
0.833 LW
N
1611 246 M
1611 87 L
1717 87 L
1717 246 L
cp
S
GR
%%Trailer
%%Pages: 1
%%EOF
