%!PS-Adobe-3.0 EPSF-3.0
%%Creator: (MATLAB, The Mathworks, Inc. Version 9.6.0.1072779 \(R2019a\). Operating System: Windows 7)
%%Title: ./Loadings_SS_SRB4.eps
%%CreationDate: 2020-09-18T11:25:19
%%Pages: (atend)
%%BoundingBox:    90    38  1053   559
%%LanguageLevel: 3
%%EndComments
%%BeginProlog
%%BeginResource: procset (Apache XML Graphics Std ProcSet) 1.2 0
%%Version: 1.2 0
%%Copyright: (Copyright 2001-2003,2010 The Apache Software Foundation. License terms: http://www.apache.org/licenses/LICENSE-2.0)
/bd{bind def}bind def
/ld{load def}bd
/GR/grestore ld
/GS/gsave ld
/RM/rmoveto ld
/C/curveto ld
/t/show ld
/L/lineto ld
/ML/setmiterlimit ld
/CT/concat ld
/f/fill ld
/N/newpath ld
/S/stroke ld
/CC/setcmykcolor ld
/A/ashow ld
/cp/closepath ld
/RC/setrgbcolor ld
/LJ/setlinejoin ld
/GC/setgray ld
/LW/setlinewidth ld
/M/moveto ld
/re {4 2 roll M
1 index 0 rlineto
0 exch rlineto
neg 0 rlineto
cp } bd
/_ctm matrix def
/_tm matrix def
/BT { _ctm currentmatrix pop matrix _tm copy pop 0 0 moveto } bd
/ET { _ctm setmatrix } bd
/iTm { _ctm setmatrix _tm concat } bd
/Tm { _tm astore pop iTm 0 0 moveto } bd
/ux 0.0 def
/uy 0.0 def
/F {
  /Tp exch def
  /Tf exch def
  Tf findfont Tp scalefont setfont
  /cf Tf def  /cs Tp def
} bd
/ULS {currentpoint /uy exch def /ux exch def} bd
/ULE {
  /Tcx currentpoint pop def
  gsave
  newpath
  cf findfont cs scalefont dup
  /FontMatrix get 0 get /Ts exch def /FontInfo get dup
  /UnderlinePosition get Ts mul /To exch def
  /UnderlineThickness get Ts mul /Tt exch def
  ux uy To add moveto  Tcx uy To add lineto
  Tt setlinewidth stroke
  grestore
} bd
/OLE {
  /Tcx currentpoint pop def
  gsave
  newpath
  cf findfont cs scalefont dup
  /FontMatrix get 0 get /Ts exch def /FontInfo get dup
  /UnderlinePosition get Ts mul /To exch def
  /UnderlineThickness get Ts mul /Tt exch def
  ux uy To add cs add moveto Tcx uy To add cs add lineto
  Tt setlinewidth stroke
  grestore
} bd
/SOE {
  /Tcx currentpoint pop def
  gsave
  newpath
  cf findfont cs scalefont dup
  /FontMatrix get 0 get /Ts exch def /FontInfo get dup
  /UnderlinePosition get Ts mul /To exch def
  /UnderlineThickness get Ts mul /Tt exch def
  ux uy To add cs 10 mul 26 idiv add moveto Tcx uy To add cs 10 mul 26 idiv add lineto
  Tt setlinewidth stroke
  grestore
} bd
/QT {
/Y22 exch store
/X22 exch store
/Y21 exch store
/X21 exch store
currentpoint
/Y21 load 2 mul add 3 div exch
/X21 load 2 mul add 3 div exch
/X21 load 2 mul /X22 load add 3 div
/Y21 load 2 mul /Y22 load add 3 div
/X22 load /Y22 load curveto
} bd
/SSPD {
dup length /d exch dict def
{
/v exch def
/k exch def
currentpagedevice k known {
/cpdv currentpagedevice k get def
v cpdv ne {
/upd false def
/nullv v type /nulltype eq def
/nullcpdv cpdv type /nulltype eq def
nullv nullcpdv or
{
/upd true def
} {
/sametype v type cpdv type eq def
sametype {
v type /arraytype eq {
/vlen v length def
/cpdvlen cpdv length def
vlen cpdvlen eq {
0 1 vlen 1 sub {
/i exch def
/obj v i get def
/cpdobj cpdv i get def
obj cpdobj ne {
/upd true def
exit
} if
} for
} {
/upd true def
} ifelse
} {
v type /dicttype eq {
v {
/dv exch def
/dk exch def
/cpddv cpdv dk get def
dv cpddv ne {
/upd true def
exit
} if
} forall
} {
/upd true def
} ifelse
} ifelse
} if
} ifelse
upd true eq {
d k v put
} if
} if
} if
} forall
d length 0 gt {
d setpagedevice
} if
} bd
/RE { % /NewFontName [NewEncodingArray] /FontName RE -
  findfont dup length dict begin
  {
    1 index /FID ne
    {def} {pop pop} ifelse
  } forall
  /Encoding exch def
  /FontName 1 index def
  currentdict definefont pop
  end
} bind def
%%EndResource
%%BeginResource: procset (Apache XML Graphics EPS ProcSet) 1.0 0
%%Version: 1.0 0
%%Copyright: (Copyright 2002-2003 The Apache Software Foundation. License terms: http://www.apache.org/licenses/LICENSE-2.0)
/BeginEPSF { %def
/b4_Inc_state save def         % Save state for cleanup
/dict_count countdictstack def % Count objects on dict stack
/op_count count 1 sub def      % Count objects on operand stack
userdict begin                 % Push userdict on dict stack
/showpage { } def              % Redefine showpage, { } = null proc
0 setgray 0 setlinecap         % Prepare graphics state
1 setlinewidth 0 setlinejoin
10 setmiterlimit [ ] 0 setdash newpath
/languagelevel where           % If level not equal to 1 then
{pop languagelevel             % set strokeadjust and
1 ne                           % overprint to their defaults.
{false setstrokeadjust false setoverprint
} if
} if
} bd
/EndEPSF { %def
count op_count sub {pop} repeat            % Clean up stacks
countdictstack dict_count sub {end} repeat
b4_Inc_state restore
} bd
%%EndResource
%FOPBeginFontDict
%%IncludeResource: font Courier-Oblique
%%IncludeResource: font Courier-BoldOblique
%%IncludeResource: font Courier-Bold
%%IncludeResource: font ZapfDingbats
%%IncludeResource: font Symbol
%%IncludeResource: font Helvetica
%%IncludeResource: font Helvetica-Oblique
%%IncludeResource: font Helvetica-Bold
%%IncludeResource: font Helvetica-BoldOblique
%%IncludeResource: font Times-Roman
%%IncludeResource: font Times-Italic
%%IncludeResource: font Times-Bold
%%IncludeResource: font Times-BoldItalic
%%IncludeResource: font Courier
%FOPEndFontDict
%%BeginResource: encoding WinAnsiEncoding
/WinAnsiEncoding [
/.notdef /.notdef /.notdef /.notdef /.notdef
/.notdef /.notdef /.notdef /.notdef /.notdef
/.notdef /.notdef /.notdef /.notdef /.notdef
/.notdef /.notdef /.notdef /.notdef /.notdef
/.notdef /.notdef /.notdef /.notdef /.notdef
/.notdef /.notdef /.notdef /.notdef /.notdef
/.notdef /.notdef /space /exclam /quotedbl
/numbersign /dollar /percent /ampersand /quotesingle
/parenleft /parenright /asterisk /plus /comma
/hyphen /period /slash /zero /one
/two /three /four /five /six
/seven /eight /nine /colon /semicolon
/less /equal /greater /question /at
/A /B /C /D /E
/F /G /H /I /J
/K /L /M /N /O
/P /Q /R /S /T
/U /V /W /X /Y
/Z /bracketleft /backslash /bracketright /asciicircum
/underscore /quoteleft /a /b /c
/d /e /f /g /h
/i /j /k /l /m
/n /o /p /q /r
/s /t /u /v /w
/x /y /z /braceleft /bar
/braceright /asciitilde /bullet /Euro /bullet
/quotesinglbase /florin /quotedblbase /ellipsis /dagger
/daggerdbl /circumflex /perthousand /Scaron /guilsinglleft
/OE /bullet /Zcaron /bullet /bullet
/quoteleft /quoteright /quotedblleft /quotedblright /bullet
/endash /emdash /asciitilde /trademark /scaron
/guilsinglright /oe /bullet /zcaron /Ydieresis
/space /exclamdown /cent /sterling /currency
/yen /brokenbar /section /dieresis /copyright
/ordfeminine /guillemotleft /logicalnot /sfthyphen /registered
/macron /degree /plusminus /twosuperior /threesuperior
/acute /mu /paragraph /middot /cedilla
/onesuperior /ordmasculine /guillemotright /onequarter /onehalf
/threequarters /questiondown /Agrave /Aacute /Acircumflex
/Atilde /Adieresis /Aring /AE /Ccedilla
/Egrave /Eacute /Ecircumflex /Edieresis /Igrave
/Iacute /Icircumflex /Idieresis /Eth /Ntilde
/Ograve /Oacute /Ocircumflex /Otilde /Odieresis
/multiply /Oslash /Ugrave /Uacute /Ucircumflex
/Udieresis /Yacute /Thorn /germandbls /agrave
/aacute /acircumflex /atilde /adieresis /aring
/ae /ccedilla /egrave /eacute /ecircumflex
/edieresis /igrave /iacute /icircumflex /idieresis
/eth /ntilde /ograve /oacute /ocircumflex
/otilde /odieresis /divide /oslash /ugrave
/uacute /ucircumflex /udieresis /yacute /thorn
/ydieresis
] def
%%EndResource
%FOPBeginFontReencode
/Courier-Oblique findfont
dup length dict begin
  {1 index /FID ne {def} {pop pop} ifelse} forall
  /Encoding WinAnsiEncoding def
  currentdict
end
/Courier-Oblique exch definefont pop
/Courier-BoldOblique findfont
dup length dict begin
  {1 index /FID ne {def} {pop pop} ifelse} forall
  /Encoding WinAnsiEncoding def
  currentdict
end
/Courier-BoldOblique exch definefont pop
/Courier-Bold findfont
dup length dict begin
  {1 index /FID ne {def} {pop pop} ifelse} forall
  /Encoding WinAnsiEncoding def
  currentdict
end
/Courier-Bold exch definefont pop
/Helvetica findfont
dup length dict begin
  {1 index /FID ne {def} {pop pop} ifelse} forall
  /Encoding WinAnsiEncoding def
  currentdict
end
/Helvetica exch definefont pop
/Helvetica-Oblique findfont
dup length dict begin
  {1 index /FID ne {def} {pop pop} ifelse} forall
  /Encoding WinAnsiEncoding def
  currentdict
end
/Helvetica-Oblique exch definefont pop
/Helvetica-Bold findfont
dup length dict begin
  {1 index /FID ne {def} {pop pop} ifelse} forall
  /Encoding WinAnsiEncoding def
  currentdict
end
/Helvetica-Bold exch definefont pop
/Helvetica-BoldOblique findfont
dup length dict begin
  {1 index /FID ne {def} {pop pop} ifelse} forall
  /Encoding WinAnsiEncoding def
  currentdict
end
/Helvetica-BoldOblique exch definefont pop
/Times-Roman findfont
dup length dict begin
  {1 index /FID ne {def} {pop pop} ifelse} forall
  /Encoding WinAnsiEncoding def
  currentdict
end
/Times-Roman exch definefont pop
/Times-Italic findfont
dup length dict begin
  {1 index /FID ne {def} {pop pop} ifelse} forall
  /Encoding WinAnsiEncoding def
  currentdict
end
/Times-Italic exch definefont pop
/Times-Bold findfont
dup length dict begin
  {1 index /FID ne {def} {pop pop} ifelse} forall
  /Encoding WinAnsiEncoding def
  currentdict
end
/Times-Bold exch definefont pop
/Times-BoldItalic findfont
dup length dict begin
  {1 index /FID ne {def} {pop pop} ifelse} forall
  /Encoding WinAnsiEncoding def
  currentdict
end
/Times-BoldItalic exch definefont pop
/Courier findfont
dup length dict begin
  {1 index /FID ne {def} {pop pop} ifelse} forall
  /Encoding WinAnsiEncoding def
  currentdict
end
/Courier exch definefont pop
%FOPEndFontReencode
%%EndProlog
%%Page: 1 1
%%PageBoundingBox: 0 0 1147 594
%%BeginPageSetup
[1 0 0 -1 0 594] CT
%%EndPageSetup
GS
[0.6 0 0 0.6 0 0] CT
1 GC
N
0 0 1912 990 re
f
GR
GS
[0.6 0 0 0.6 0 0] CT
1 GC
N
0 0 1912 990 re
f
GR
GS
[0.6 0 0 0.6 0 0] CT
1 GC
N
249 288 M
1730 288 L
1730 100 L
249 100 L
cp
f
GR
GS
[0.6 0 0 0.6 0 0] CT
0.873 GC
1 LJ
0.833 LW
N
286.025 288 M
286.025 100 L
S
GR
GS
[0.6 0 0 0.6 0 0] CT
0.873 GC
1 LJ
0.833 LW
N
397.1 288 M
397.1 100 L
S
GR
GS
[0.6 0 0 0.6 0 0] CT
0.873 GC
1 LJ
0.833 LW
N
545.2 288 M
545.2 100 L
S
GR
GS
[0.6 0 0 0.6 0 0] CT
0.873 GC
1 LJ
0.833 LW
N
693.3 288 M
693.3 100 L
S
GR
GS
[0.6 0 0 0.6 0 0] CT
0.873 GC
1 LJ
0.833 LW
N
841.4 288 M
841.4 100 L
S
GR
GS
[0.6 0 0 0.6 0 0] CT
0.873 GC
1 LJ
0.833 LW
N
989.5 288 M
989.5 100 L
S
GR
GS
[0.6 0 0 0.6 0 0] CT
0.873 GC
1 LJ
0.833 LW
N
1137.6 288 M
1137.6 100 L
S
GR
GS
[0.6 0 0 0.6 0 0] CT
0.873 GC
1 LJ
0.833 LW
N
1285.7 288 M
1285.7 100 L
S
GR
GS
[0.6 0 0 0.6 0 0] CT
0.873 GC
1 LJ
0.833 LW
N
1433.8 288 M
1433.8 100 L
S
GR
GS
[0.6 0 0 0.6 0 0] CT
0.873 GC
1 LJ
0.833 LW
N
1581.9 288 M
1581.9 100 L
S
GR
GS
[0.6 0 0 0.6 0 0] CT
0.873 GC
1 LJ
0.833 LW
N
1730 288 M
1730 100 L
S
GR
GS
[0.6 0 0 0.6 0 0] CT
0.873 GC
1 LJ
0.833 LW
N
1730 288 M
249 288 L
S
GR
GS
[0.6 0 0 0.6 0 0] CT
0.873 GC
1 LJ
0.833 LW
N
1730 194 M
249 194 L
S
GR
GS
[0.6 0 0 0.6 0 0] CT
0.873 GC
1 LJ
0.833 LW
N
1730 100 M
249 100 L
S
GR
GS
[0.6 0 0 0.6 0 0] CT
0.149 GC
2 setlinecap
1 LJ
0.833 LW
N
249 288 M
1730 288 L
S
GR
GS
[0.6 0 0 0.6 0 0] CT
0.149 GC
2 setlinecap
1 LJ
0.833 LW
N
249 100 M
1730 100 L
S
GR
GS
[0.6 0 0 0.6 0 0] CT
0.149 GC
2 setlinecap
1 LJ
0.833 LW
N
286.025 288 M
286.025 273.19 L
S
GR
GS
[0.6 0 0 0.6 0 0] CT
0.149 GC
2 setlinecap
1 LJ
0.833 LW
N
397.1 288 M
397.1 273.19 L
S
GR
GS
[0.6 0 0 0.6 0 0] CT
0.149 GC
2 setlinecap
1 LJ
0.833 LW
N
545.2 288 M
545.2 273.19 L
S
GR
GS
[0.6 0 0 0.6 0 0] CT
0.149 GC
2 setlinecap
1 LJ
0.833 LW
N
693.3 288 M
693.3 273.19 L
S
GR
GS
[0.6 0 0 0.6 0 0] CT
0.149 GC
2 setlinecap
1 LJ
0.833 LW
N
841.4 288 M
841.4 273.19 L
S
GR
GS
[0.6 0 0 0.6 0 0] CT
0.149 GC
2 setlinecap
1 LJ
0.833 LW
N
989.5 288 M
989.5 273.19 L
S
GR
GS
[0.6 0 0 0.6 0 0] CT
0.149 GC
2 setlinecap
1 LJ
0.833 LW
N
1137.6 288 M
1137.6 273.19 L
S
GR
GS
[0.6 0 0 0.6 0 0] CT
0.149 GC
2 setlinecap
1 LJ
0.833 LW
N
1285.7 288 M
1285.7 273.19 L
S
GR
GS
[0.6 0 0 0.6 0 0] CT
0.149 GC
2 setlinecap
1 LJ
0.833 LW
N
1433.8 288 M
1433.8 273.19 L
S
GR
GS
[0.6 0 0 0.6 0 0] CT
0.149 GC
2 setlinecap
1 LJ
0.833 LW
N
1581.9 288 M
1581.9 273.19 L
S
GR
GS
[0.6 0 0 0.6 0 0] CT
0.149 GC
2 setlinecap
1 LJ
0.833 LW
N
1730 288 M
1730 273.19 L
S
GR
GS
[0.6 0 0 0.6 0 0] CT
0.149 GC
2 setlinecap
1 LJ
0.833 LW
N
286.025 100 M
286.025 114.81 L
S
GR
GS
[0.6 0 0 0.6 0 0] CT
0.149 GC
2 setlinecap
1 LJ
0.833 LW
N
397.1 100 M
397.1 114.81 L
S
GR
GS
[0.6 0 0 0.6 0 0] CT
0.149 GC
2 setlinecap
1 LJ
0.833 LW
N
545.2 100 M
545.2 114.81 L
S
GR
GS
[0.6 0 0 0.6 0 0] CT
0.149 GC
2 setlinecap
1 LJ
0.833 LW
N
693.3 100 M
693.3 114.81 L
S
GR
GS
[0.6 0 0 0.6 0 0] CT
0.149 GC
2 setlinecap
1 LJ
0.833 LW
N
841.4 100 M
841.4 114.81 L
S
GR
GS
[0.6 0 0 0.6 0 0] CT
0.149 GC
2 setlinecap
1 LJ
0.833 LW
N
989.5 100 M
989.5 114.81 L
S
GR
GS
[0.6 0 0 0.6 0 0] CT
0.149 GC
2 setlinecap
1 LJ
0.833 LW
N
1137.6 100 M
1137.6 114.81 L
S
GR
GS
[0.6 0 0 0.6 0 0] CT
0.149 GC
2 setlinecap
1 LJ
0.833 LW
N
1285.7 100 M
1285.7 114.81 L
S
GR
GS
[0.6 0 0 0.6 0 0] CT
0.149 GC
2 setlinecap
1 LJ
0.833 LW
N
1433.8 100 M
1433.8 114.81 L
S
GR
GS
[0.6 0 0 0.6 0 0] CT
0.149 GC
2 setlinecap
1 LJ
0.833 LW
N
1581.9 100 M
1581.9 114.81 L
S
GR
GS
[0.6 0 0 0.6 0 0] CT
0.149 GC
2 setlinecap
1 LJ
0.833 LW
N
1730 100 M
1730 114.81 L
S
GR
GS
[0.6 0 0 0.6 171.61499 178.8] CT
0.149 GC
/Helvetica 33.333 F
GS
[1 0 0 1 0 0] CT
-9.5 34 moveto 
1 -1 scale
(3) t 
GR
GR
GS
[0.6 0 0 0.6 238.25999 178.8] CT
0.149 GC
/Helvetica 33.333 F
GS
[1 0 0 1 0 0] CT
-19 34 moveto 
1 -1 scale
(12) t 
GR
GR
GS
[0.6 0 0 0.6 327.11999 178.8] CT
0.149 GC
/Helvetica 33.333 F
GS
[1 0 0 1 0 0] CT
-19 34 moveto 
1 -1 scale
(24) t 
GR
GR
GS
[0.6 0 0 0.6 415.97997 178.8] CT
0.149 GC
/Helvetica 33.333 F
GS
[1 0 0 1 0 0] CT
-19 34 moveto 
1 -1 scale
(36) t 
GR
GR
GS
[0.6 0 0 0.6 504.83999 178.8] CT
0.149 GC
/Helvetica 33.333 F
GS
[1 0 0 1 0 0] CT
-19 34 moveto 
1 -1 scale
(48) t 
GR
GR
GS
[0.6 0 0 0.6 593.69997 178.8] CT
0.149 GC
/Helvetica 33.333 F
GS
[1 0 0 1 0 0] CT
-19 34 moveto 
1 -1 scale
(60) t 
GR
GR
GS
[0.6 0 0 0.6 682.55996 178.8] CT
0.149 GC
/Helvetica 33.333 F
GS
[1 0 0 1 0 0] CT
-19 34 moveto 
1 -1 scale
(72) t 
GR
GR
GS
[0.6 0 0 0.6 771.41994 178.8] CT
0.149 GC
/Helvetica 33.333 F
GS
[1 0 0 1 0 0] CT
-19 34 moveto 
1 -1 scale
(84) t 
GR
GR
GS
[0.6 0 0 0.6 860.27999 178.8] CT
0.149 GC
/Helvetica 33.333 F
GS
[1 0 0 1 0 0] CT
-19 34 moveto 
1 -1 scale
(96) t 
GR
GR
GS
[0.6 0 0 0.6 949.13997 178.8] CT
0.149 GC
/Helvetica 33.333 F
GS
[1 0 0 1 0 0] CT
-28 34 moveto 
1 -1 scale
(108) t 
GR
GR
GS
[0.6 0 0 0.6 1037.99996 178.8] CT
0.149 GC
/Helvetica 33.333 F
GS
[1 0 0 1 0 0] CT
-28 34 moveto 
1 -1 scale
(120) t 
GR
GR
GS
[0.6 0 0 0.6 0 0] CT
0.149 GC
2 setlinecap
1 LJ
0.833 LW
N
249 288 M
249 100 L
S
GR
GS
[0.6 0 0 0.6 0 0] CT
0.149 GC
2 setlinecap
1 LJ
0.833 LW
N
1730 288 M
1730 100 L
S
GR
GS
[0.6 0 0 0.6 0 0] CT
0.149 GC
2 setlinecap
1 LJ
0.833 LW
N
249 288 M
263.81 288 L
S
GR
GS
[0.6 0 0 0.6 0 0] CT
0.149 GC
2 setlinecap
1 LJ
0.833 LW
N
249 194 M
263.81 194 L
S
GR
GS
[0.6 0 0 0.6 0 0] CT
0.149 GC
2 setlinecap
1 LJ
0.833 LW
N
249 100 M
263.81 100 L
S
GR
GS
[0.6 0 0 0.6 0 0] CT
0.149 GC
2 setlinecap
1 LJ
0.833 LW
N
1730 288 M
1715.19 288 L
S
GR
GS
[0.6 0 0 0.6 0 0] CT
0.149 GC
2 setlinecap
1 LJ
0.833 LW
N
1730 194 M
1715.19 194 L
S
GR
GS
[0.6 0 0 0.6 0 0] CT
0.149 GC
2 setlinecap
1 LJ
0.833 LW
N
1730 100 M
1715.19 100 L
S
GR
GS
[0.6 0 0 0.6 143.39999 172.8] CT
0.149 GC
/Helvetica 33.333 F
GS
[1 0 0 1 0 0] CT
-19 13 moveto 
1 -1 scale
(0) t 
GR
GR
GS
[0.6 0 0 0.6 143.39999 116.4] CT
0.149 GC
/Helvetica 33.333 F
GS
[1 0 0 1 0 0] CT
-47 13 moveto 
1 -1 scale
(0.5) t 
GR
GR
GS
[0.6 0 0 0.6 143.39999 60] CT
0.149 GC
/Helvetica 33.333 F
GS
[1 0 0 1 0 0] CT
-19 13 moveto 
1 -1 scale
(1) t 
GR
GR
GS
[0 -0.6 0.6 0 112.2 116.39995] CT
0.149 GC
/Helvetica 36.667 F
GS
[1 0 0 1 0 0] CT
-47 -9 moveto 
1 -1 scale
(Value) t 
GR
GR
GS
[0.6 0 0 0.6 593.70052 56.7] CT
/Helvetica-Bold 36.667 F
GS
[1 0 0 1 0 0] CT
-50 -9 moveto 
1 -1 scale
(Slope) t 
GR
GR
GS
[0.6 0 0 0.6 0 0] CT
0 0.447 0.741 RC
1 LJ
3.333 LW
N
261.342 284.464 M
273.683 281.016 L
286.025 277.654 L
298.367 274.375 L
310.708 271.178 L
323.05 268.06 L
335.392 265.018 L
347.733 262.051 L
360.075 259.156 L
372.417 256.332 L
384.758 253.577 L
397.1 250.888 L
409.442 248.264 L
421.783 245.703 L
434.125 243.203 L
446.467 240.763 L
458.808 238.381 L
471.15 236.055 L
483.492 233.785 L
495.833 231.567 L
508.175 229.402 L
520.517 227.287 L
532.858 225.222 L
545.2 223.204 L
557.542 221.233 L
569.883 219.307 L
582.225 217.425 L
594.567 215.587 L
606.908 213.79 L
619.25 212.033 L
631.592 210.317 L
643.933 208.639 L
656.275 206.998 L
668.617 205.394 L
680.958 203.826 L
693.3 202.292 L
705.642 200.793 L
717.983 199.326 L
730.325 197.891 L
742.667 196.487 L
755.008 195.114 L
767.35 193.77 L
779.692 192.455 L
792.033 191.169 L
804.375 189.91 L
816.717 188.677 L
829.058 187.471 L
841.4 186.289 L
853.742 185.133 L
866.083 184.001 L
878.425 182.892 L
890.767 181.806 L
903.108 180.742 L
915.45 179.701 L
927.792 178.68 L
940.133 177.68 L
952.475 176.701 L
964.817 175.741 L
977.158 174.8 L
989.5 173.878 L
1001.842 172.975 L
1014.183 172.089 L
1026.525 171.22 L
1038.867 170.369 L
1051.208 169.534 L
1063.55 168.715 L
1075.892 167.912 L
1088.233 167.125 L
1100.575 166.353 L
1112.917 165.595 L
1125.258 164.851 L
1137.6 164.122 L
1149.942 163.406 L
1162.283 162.704 L
1174.625 162.015 L
1186.967 161.338 L
1199.308 160.674 L
1211.65 160.022 L
1223.992 159.381 L
1236.333 158.753 L
1248.675 158.136 L
1261.017 157.529 L
1273.358 156.934 L
1285.7 156.349 L
1298.042 155.775 L
1310.383 155.21 L
1322.725 154.656 L
1335.067 154.111 L
1347.408 153.575 L
1359.75 153.049 L
1372.092 152.532 L
1384.433 152.023 L
1396.775 151.524 L
1409.117 151.032 L
1421.458 150.549 L
1433.8 150.074 L
1446.142 149.607 L
1458.483 149.147 L
1470.825 148.695 L
1483.167 148.251 L
1495.508 147.814 L
1507.85 147.383 L
1520.192 146.96 L
1532.533 146.544 L
1544.875 146.134 L
1557.217 145.73 L
1569.558 145.333 L
1581.9 144.943 L
1594.242 144.558 L
1606.583 144.179 L
1618.925 143.806 L
1631.267 143.439 L
1643.608 143.078 L
1655.95 142.722 L
1668.292 142.371 L
1680.633 142.026 L
1692.975 141.685 L
1705.317 141.35 L
1717.658 141.02 L
1730 140.695 L
S
GR
GS
[0.6 0 0 0.6 0 0] CT
0.851 0.325 0.098 RC
1 LJ
3.333 LW
N
261.342 288 M
273.683 282.83 L
286.025 277.85 L
298.367 273.051 L
310.708 268.426 L
323.05 263.969 L
335.392 259.672 L
347.733 255.529 L
360.075 251.533 L
372.417 247.679 L
384.758 243.961 L
397.1 240.373 L
409.442 236.91 L
421.783 233.567 L
434.125 230.339 L
446.467 227.222 L
458.808 224.212 L
471.15 221.304 L
483.492 218.493 L
495.833 215.777 L
508.175 213.152 L
520.517 210.614 L
532.858 208.159 L
545.2 205.785 L
557.542 203.488 L
569.883 201.266 L
582.225 199.115 L
594.567 197.033 L
606.908 195.017 L
619.25 193.064 L
631.592 191.173 L
643.933 189.341 L
656.275 187.566 L
668.617 185.846 L
680.958 184.178 L
693.3 182.56 L
705.642 180.992 L
717.983 179.471 L
730.325 177.995 L
742.667 176.562 L
755.008 175.172 L
767.35 173.822 L
779.692 172.512 L
792.033 171.239 L
804.375 170.003 L
816.717 168.801 L
829.058 167.634 L
841.4 166.499 L
853.742 165.396 L
866.083 164.323 L
878.425 163.28 L
890.767 162.265 L
903.108 161.277 L
915.45 160.316 L
927.792 159.381 L
940.133 158.47 L
952.475 157.583 L
964.817 156.719 L
977.158 155.877 L
989.5 155.057 L
1001.842 154.258 L
1014.183 153.479 L
1026.525 152.72 L
1038.867 151.979 L
1051.208 151.257 L
1063.55 150.553 L
1075.892 149.865 L
1088.233 149.194 L
1100.575 148.539 L
1112.917 147.9 L
1125.258 147.276 L
1137.6 146.666 L
1149.942 146.071 L
1162.283 145.489 L
1174.625 144.921 L
1186.967 144.365 L
1199.308 143.822 L
1211.65 143.291 L
1223.992 142.772 L
1236.333 142.265 L
1248.675 141.768 L
1261.017 141.282 L
1273.358 140.807 L
1285.7 140.341 L
1298.042 139.886 L
1310.383 139.44 L
1322.725 139.003 L
1335.067 138.575 L
1347.408 138.157 L
1359.75 137.746 L
1372.092 137.344 L
1384.433 136.95 L
1396.775 136.564 L
1409.117 136.185 L
1421.458 135.814 L
1433.8 135.45 L
1446.142 135.093 L
1458.483 134.743 L
1470.825 134.399 L
1483.167 134.062 L
1495.508 133.732 L
1507.85 133.407 L
1520.192 133.088 L
1532.533 132.776 L
1544.875 132.468 L
1557.217 132.167 L
1569.558 131.871 L
1581.9 131.58 L
1594.242 131.294 L
1606.583 131.013 L
1618.925 130.737 L
1631.267 130.465 L
1643.608 130.199 L
1655.95 129.937 L
1668.292 129.679 L
1680.633 129.425 L
1692.975 129.176 L
1705.317 128.931 L
1717.658 128.69 L
1730 128.453 L
S
GR
GS
[0.6 0 0 0.6 0 0] CT
1 GC
N
1717 276 M
1717 194 L
1384 194 L
1384 276 L
cp
f
GR
GS
[0.6 0 0 0.6 865.67648 129.35926] CT
/Helvetica 30 F
GS
[1 0 0 1 0 0] CT
0 12 moveto 
1 -1 scale
(Svensson-Soderlind) t 
GR
GR
GS
[0.6 0 0 0.6 0 0] CT
0 0.447 0.741 RC
1 LJ
3.333 LW
N
1389.004 215.599 M
1439.041 215.599 L
S
GR
GS
[0.6 0 0 0.6 865.67648 152.64074] CT
/Helvetica 30 F
GS
[1 0 0 1 0 0] CT
0 12 moveto 
1 -1 scale
(4-factor SRB) t 
GR
GR
GS
[0.6 0 0 0.6 0 0] CT
0.851 0.325 0.098 RC
1 LJ
3.333 LW
N
1389.004 254.401 M
1439.041 254.401 L
S
GR
GS
[0.6 0 0 0.6 0 0] CT
0.149 GC
10.0 ML
0.833 LW
N
1384 276 M
1384 194 L
1717 194 L
1717 276 L
cp
S
GR
GS
[0.6 0 0 0.6 0 0] CT
1 GC
N
249 584 M
1730 584 L
1730 396 L
249 396 L
cp
f
GR
GS
[0.6 0 0 0.6 0 0] CT
0.873 GC
1 LJ
0.833 LW
N
286.025 584 M
286.025 396 L
S
GR
GS
[0.6 0 0 0.6 0 0] CT
0.873 GC
1 LJ
0.833 LW
N
397.1 584 M
397.1 396 L
S
GR
GS
[0.6 0 0 0.6 0 0] CT
0.873 GC
1 LJ
0.833 LW
N
545.2 584 M
545.2 396 L
S
GR
GS
[0.6 0 0 0.6 0 0] CT
0.873 GC
1 LJ
0.833 LW
N
693.3 584 M
693.3 396 L
S
GR
GS
[0.6 0 0 0.6 0 0] CT
0.873 GC
1 LJ
0.833 LW
N
841.4 584 M
841.4 396 L
S
GR
GS
[0.6 0 0 0.6 0 0] CT
0.873 GC
1 LJ
0.833 LW
N
989.5 584 M
989.5 396 L
S
GR
GS
[0.6 0 0 0.6 0 0] CT
0.873 GC
1 LJ
0.833 LW
N
1137.6 584 M
1137.6 396 L
S
GR
GS
[0.6 0 0 0.6 0 0] CT
0.873 GC
1 LJ
0.833 LW
N
1285.7 584 M
1285.7 396 L
S
GR
GS
[0.6 0 0 0.6 0 0] CT
0.873 GC
1 LJ
0.833 LW
N
1433.8 584 M
1433.8 396 L
S
GR
GS
[0.6 0 0 0.6 0 0] CT
0.873 GC
1 LJ
0.833 LW
N
1581.9 584 M
1581.9 396 L
S
GR
GS
[0.6 0 0 0.6 0 0] CT
0.873 GC
1 LJ
0.833 LW
N
1730 584 M
1730 396 L
S
GR
GS
[0.6 0 0 0.6 0 0] CT
0.873 GC
1 LJ
0.833 LW
N
1730 584 M
249 584 L
S
GR
GS
[0.6 0 0 0.6 0 0] CT
0.873 GC
1 LJ
0.833 LW
N
1730 396 M
249 396 L
S
GR
GS
[0.6 0 0 0.6 0 0] CT
0.149 GC
2 setlinecap
1 LJ
0.833 LW
N
249 584 M
1730 584 L
S
GR
GS
[0.6 0 0 0.6 0 0] CT
0.149 GC
2 setlinecap
1 LJ
0.833 LW
N
249 396 M
1730 396 L
S
GR
GS
[0.6 0 0 0.6 0 0] CT
0.149 GC
2 setlinecap
1 LJ
0.833 LW
N
286.025 584 M
286.025 569.19 L
S
GR
GS
[0.6 0 0 0.6 0 0] CT
0.149 GC
2 setlinecap
1 LJ
0.833 LW
N
397.1 584 M
397.1 569.19 L
S
GR
GS
[0.6 0 0 0.6 0 0] CT
0.149 GC
2 setlinecap
1 LJ
0.833 LW
N
545.2 584 M
545.2 569.19 L
S
GR
GS
[0.6 0 0 0.6 0 0] CT
0.149 GC
2 setlinecap
1 LJ
0.833 LW
N
693.3 584 M
693.3 569.19 L
S
GR
GS
[0.6 0 0 0.6 0 0] CT
0.149 GC
2 setlinecap
1 LJ
0.833 LW
N
841.4 584 M
841.4 569.19 L
S
GR
GS
[0.6 0 0 0.6 0 0] CT
0.149 GC
2 setlinecap
1 LJ
0.833 LW
N
989.5 584 M
989.5 569.19 L
S
GR
GS
[0.6 0 0 0.6 0 0] CT
0.149 GC
2 setlinecap
1 LJ
0.833 LW
N
1137.6 584 M
1137.6 569.19 L
S
GR
GS
[0.6 0 0 0.6 0 0] CT
0.149 GC
2 setlinecap
1 LJ
0.833 LW
N
1285.7 584 M
1285.7 569.19 L
S
GR
GS
[0.6 0 0 0.6 0 0] CT
0.149 GC
2 setlinecap
1 LJ
0.833 LW
N
1433.8 584 M
1433.8 569.19 L
S
GR
GS
[0.6 0 0 0.6 0 0] CT
0.149 GC
2 setlinecap
1 LJ
0.833 LW
N
1581.9 584 M
1581.9 569.19 L
S
GR
GS
[0.6 0 0 0.6 0 0] CT
0.149 GC
2 setlinecap
1 LJ
0.833 LW
N
1730 584 M
1730 569.19 L
S
GR
GS
[0.6 0 0 0.6 0 0] CT
0.149 GC
2 setlinecap
1 LJ
0.833 LW
N
286.025 396 M
286.025 410.81 L
S
GR
GS
[0.6 0 0 0.6 0 0] CT
0.149 GC
2 setlinecap
1 LJ
0.833 LW
N
397.1 396 M
397.1 410.81 L
S
GR
GS
[0.6 0 0 0.6 0 0] CT
0.149 GC
2 setlinecap
1 LJ
0.833 LW
N
545.2 396 M
545.2 410.81 L
S
GR
GS
[0.6 0 0 0.6 0 0] CT
0.149 GC
2 setlinecap
1 LJ
0.833 LW
N
693.3 396 M
693.3 410.81 L
S
GR
GS
[0.6 0 0 0.6 0 0] CT
0.149 GC
2 setlinecap
1 LJ
0.833 LW
N
841.4 396 M
841.4 410.81 L
S
GR
GS
[0.6 0 0 0.6 0 0] CT
0.149 GC
2 setlinecap
1 LJ
0.833 LW
N
989.5 396 M
989.5 410.81 L
S
GR
GS
[0.6 0 0 0.6 0 0] CT
0.149 GC
2 setlinecap
1 LJ
0.833 LW
N
1137.6 396 M
1137.6 410.81 L
S
GR
GS
[0.6 0 0 0.6 0 0] CT
0.149 GC
2 setlinecap
1 LJ
0.833 LW
N
1285.7 396 M
1285.7 410.81 L
S
GR
GS
[0.6 0 0 0.6 0 0] CT
0.149 GC
2 setlinecap
1 LJ
0.833 LW
N
1433.8 396 M
1433.8 410.81 L
S
GR
GS
[0.6 0 0 0.6 0 0] CT
0.149 GC
2 setlinecap
1 LJ
0.833 LW
N
1581.9 396 M
1581.9 410.81 L
S
GR
GS
[0.6 0 0 0.6 0 0] CT
0.149 GC
2 setlinecap
1 LJ
0.833 LW
N
1730 396 M
1730 410.81 L
S
GR
GS
[0.6 0 0 0.6 171.61499 356.4] CT
0.149 GC
/Helvetica 33.333 F
GS
[1 0 0 1 0 0] CT
-9.5 34 moveto 
1 -1 scale
(3) t 
GR
GR
GS
[0.6 0 0 0.6 238.25999 356.4] CT
0.149 GC
/Helvetica 33.333 F
GS
[1 0 0 1 0 0] CT
-19 34 moveto 
1 -1 scale
(12) t 
GR
GR
GS
[0.6 0 0 0.6 327.11999 356.4] CT
0.149 GC
/Helvetica 33.333 F
GS
[1 0 0 1 0 0] CT
-19 34 moveto 
1 -1 scale
(24) t 
GR
GR
GS
[0.6 0 0 0.6 415.97997 356.4] CT
0.149 GC
/Helvetica 33.333 F
GS
[1 0 0 1 0 0] CT
-19 34 moveto 
1 -1 scale
(36) t 
GR
GR
GS
[0.6 0 0 0.6 504.83999 356.4] CT
0.149 GC
/Helvetica 33.333 F
GS
[1 0 0 1 0 0] CT
-19 34 moveto 
1 -1 scale
(48) t 
GR
GR
GS
[0.6 0 0 0.6 593.69997 356.4] CT
0.149 GC
/Helvetica 33.333 F
GS
[1 0 0 1 0 0] CT
-19 34 moveto 
1 -1 scale
(60) t 
GR
GR
GS
[0.6 0 0 0.6 682.55996 356.4] CT
0.149 GC
/Helvetica 33.333 F
GS
[1 0 0 1 0 0] CT
-19 34 moveto 
1 -1 scale
(72) t 
GR
GR
GS
[0.6 0 0 0.6 771.41994 356.4] CT
0.149 GC
/Helvetica 33.333 F
GS
[1 0 0 1 0 0] CT
-19 34 moveto 
1 -1 scale
(84) t 
GR
GR
GS
[0.6 0 0 0.6 860.27999 356.4] CT
0.149 GC
/Helvetica 33.333 F
GS
[1 0 0 1 0 0] CT
-19 34 moveto 
1 -1 scale
(96) t 
GR
GR
GS
[0.6 0 0 0.6 949.13997 356.4] CT
0.149 GC
/Helvetica 33.333 F
GS
[1 0 0 1 0 0] CT
-28 34 moveto 
1 -1 scale
(108) t 
GR
GR
GS
[0.6 0 0 0.6 1037.99996 356.4] CT
0.149 GC
/Helvetica 33.333 F
GS
[1 0 0 1 0 0] CT
-28 34 moveto 
1 -1 scale
(120) t 
GR
GR
GS
[0.6 0 0 0.6 0 0] CT
0.149 GC
2 setlinecap
1 LJ
0.833 LW
N
249 584 M
249 396 L
S
GR
GS
[0.6 0 0 0.6 0 0] CT
0.149 GC
2 setlinecap
1 LJ
0.833 LW
N
1730 584 M
1730 396 L
S
GR
GS
[0.6 0 0 0.6 0 0] CT
0.149 GC
2 setlinecap
1 LJ
0.833 LW
N
249 584 M
263.81 584 L
S
GR
GS
[0.6 0 0 0.6 0 0] CT
0.149 GC
2 setlinecap
1 LJ
0.833 LW
N
249 396 M
263.81 396 L
S
GR
GS
[0.6 0 0 0.6 0 0] CT
0.149 GC
2 setlinecap
1 LJ
0.833 LW
N
1730 584 M
1715.19 584 L
S
GR
GS
[0.6 0 0 0.6 0 0] CT
0.149 GC
2 setlinecap
1 LJ
0.833 LW
N
1730 396 M
1715.19 396 L
S
GR
GS
[0.6 0 0 0.6 143.39999 350.4] CT
0.149 GC
/Helvetica 33.333 F
GS
[1 0 0 1 0 0] CT
-19 13 moveto 
1 -1 scale
(0) t 
GR
GR
GS
[0.6 0 0 0.6 143.39999 237.6] CT
0.149 GC
/Helvetica 33.333 F
GS
[1 0 0 1 0 0] CT
-47 13 moveto 
1 -1 scale
(0.5) t 
GR
GR
GS
[0 -0.6 0.6 0 112.2 293.99995] CT
0.149 GC
/Helvetica 36.667 F
GS
[1 0 0 1 0 0] CT
-47 -9 moveto 
1 -1 scale
(Value) t 
GR
GR
GS
[0.6 0 0 0.6 593.70052 234.3] CT
/Helvetica-Bold 36.667 F
GS
[1 0 0 1 0 0] CT
-102 -9 moveto 
1 -1 scale
(Curvature 1) t 
GR
GR
GS
[0.6 0 0 0.6 0 0] CT
0 0.447 0.741 RC
1 LJ
3.333 LW
N
261.342 577.017 M
273.683 570.382 L
286.025 564.081 L
298.367 558.1 L
310.708 552.425 L
323.05 547.044 L
335.392 541.944 L
347.733 537.112 L
360.075 532.538 L
372.417 528.211 L
384.758 524.119 L
397.1 520.253 L
409.442 516.602 L
421.783 513.159 L
434.125 509.913 L
446.467 506.856 L
458.808 503.979 L
471.15 501.275 L
483.492 498.737 L
495.833 496.356 L
508.175 494.127 L
520.517 492.041 L
532.858 490.093 L
545.2 488.277 L
557.542 486.586 L
569.883 485.015 L
582.225 483.559 L
594.567 482.212 L
606.908 480.969 L
619.25 479.825 L
631.592 478.776 L
643.933 477.818 L
656.275 476.946 L
668.617 476.156 L
680.958 475.444 L
693.3 474.807 L
705.642 474.24 L
717.983 473.741 L
730.325 473.307 L
742.667 472.933 L
755.008 472.618 L
767.35 472.358 L
779.692 472.15 L
792.033 471.992 L
804.375 471.881 L
816.717 471.815 L
829.058 471.792 L
841.4 471.809 L
853.742 471.864 L
866.083 471.956 L
878.425 472.082 L
890.767 472.24 L
903.108 472.428 L
915.45 472.646 L
927.792 472.891 L
940.133 473.161 L
952.475 473.456 L
964.817 473.774 L
977.158 474.113 L
989.5 474.472 L
1001.842 474.851 L
1014.183 475.247 L
1026.525 475.659 L
1038.867 476.087 L
1051.208 476.53 L
1063.55 476.986 L
1075.892 477.455 L
1088.233 477.935 L
1100.575 478.426 L
1112.917 478.927 L
1125.258 479.438 L
1137.6 479.957 L
1149.942 480.484 L
1162.283 481.017 L
1174.625 481.558 L
1186.967 482.104 L
1199.308 482.656 L
1211.65 483.212 L
1223.992 483.773 L
1236.333 484.337 L
1248.675 484.904 L
1261.017 485.475 L
1273.358 486.048 L
1285.7 486.622 L
1298.042 487.198 L
1310.383 487.776 L
1322.725 488.354 L
1335.067 488.933 L
1347.408 489.512 L
1359.75 490.092 L
1372.092 490.67 L
1384.433 491.249 L
1396.775 491.826 L
1409.117 492.402 L
1421.458 492.977 L
1433.8 493.551 L
1446.142 494.122 L
1458.483 494.692 L
1470.825 495.26 L
1483.167 495.826 L
1495.508 496.389 L
1507.85 496.95 L
1520.192 497.508 L
1532.533 498.063 L
1544.875 498.616 L
1557.217 499.165 L
1569.558 499.711 L
1581.9 500.254 L
1594.242 500.794 L
1606.583 501.331 L
1618.925 501.864 L
1631.267 502.393 L
1643.608 502.919 L
1655.95 503.442 L
1668.292 503.96 L
1680.633 504.475 L
1692.975 504.987 L
1705.317 505.494 L
1717.658 505.998 L
1730 506.497 L
S
GR
GS
[0.6 0 0 0.6 0 0] CT
0.851 0.325 0.098 RC
1 LJ
3.333 LW
N
261.342 584 M
273.683 573.66 L
286.025 564.078 L
298.367 555.208 L
310.708 547.005 L
323.05 539.427 L
335.392 532.436 L
347.733 525.995 L
360.075 520.068 L
372.417 514.624 L
384.758 509.632 L
397.1 505.063 L
409.442 500.889 L
421.783 497.086 L
434.125 493.629 L
446.467 490.496 L
458.808 487.665 L
471.15 485.117 L
483.492 482.832 L
495.833 480.794 L
508.175 478.986 L
520.517 477.391 L
532.858 475.997 L
545.2 474.788 L
557.542 473.752 L
569.883 472.877 L
582.225 472.151 L
594.567 471.564 L
606.908 471.107 L
619.25 470.768 L
631.592 470.541 L
643.933 470.416 L
656.275 470.386 L
668.617 470.444 L
680.958 470.582 L
693.3 470.795 L
705.642 471.076 L
717.983 471.421 L
730.325 471.823 L
742.667 472.278 L
755.008 472.781 L
767.35 473.329 L
779.692 473.916 L
792.033 474.54 L
804.375 475.197 L
816.717 475.883 L
829.058 476.596 L
841.4 477.333 L
853.742 478.091 L
866.083 478.868 L
878.425 479.662 L
890.767 480.47 L
903.108 481.29 L
915.45 482.121 L
927.792 482.96 L
940.133 483.807 L
952.475 484.66 L
964.817 485.518 L
977.158 486.378 L
989.5 487.241 L
1001.842 488.104 L
1014.183 488.968 L
1026.525 489.831 L
1038.867 490.692 L
1051.208 491.551 L
1063.55 492.407 L
1075.892 493.258 L
1088.233 494.106 L
1100.575 494.948 L
1112.917 495.785 L
1125.258 496.616 L
1137.6 497.441 L
1149.942 498.259 L
1162.283 499.071 L
1174.625 499.875 L
1186.967 500.671 L
1199.308 501.46 L
1211.65 502.241 L
1223.992 503.014 L
1236.333 503.779 L
1248.675 504.535 L
1261.017 505.283 L
1273.358 506.023 L
1285.7 506.753 L
1298.042 507.475 L
1310.383 508.189 L
1322.725 508.893 L
1335.067 509.589 L
1347.408 510.276 L
1359.75 510.954 L
1372.092 511.624 L
1384.433 512.285 L
1396.775 512.937 L
1409.117 513.581 L
1421.458 514.216 L
1433.8 514.842 L
1446.142 515.461 L
1458.483 516.07 L
1470.825 516.672 L
1483.167 517.265 L
1495.508 517.85 L
1507.85 518.427 L
1520.192 518.996 L
1532.533 519.557 L
1544.875 520.111 L
1557.217 520.656 L
1569.558 521.194 L
1581.9 521.725 L
1594.242 522.248 L
1606.583 522.764 L
1618.925 523.273 L
1631.267 523.774 L
1643.608 524.269 L
1655.95 524.756 L
1668.292 525.237 L
1680.633 525.711 L
1692.975 526.179 L
1705.317 526.64 L
1717.658 527.094 L
1730 527.543 L
S
GR
GS
[0.6 0 0 0.6 0 0] CT
1 GC
N
249 881 M
1730 881 L
1730 693 L
249 693 L
cp
f
GR
GS
[0.6 0 0 0.6 0 0] CT
0.873 GC
1 LJ
0.833 LW
N
286.025 881 M
286.025 693 L
S
GR
GS
[0.6 0 0 0.6 0 0] CT
0.873 GC
1 LJ
0.833 LW
N
397.1 881 M
397.1 693 L
S
GR
GS
[0.6 0 0 0.6 0 0] CT
0.873 GC
1 LJ
0.833 LW
N
545.2 881 M
545.2 693 L
S
GR
GS
[0.6 0 0 0.6 0 0] CT
0.873 GC
1 LJ
0.833 LW
N
693.3 881 M
693.3 693 L
S
GR
GS
[0.6 0 0 0.6 0 0] CT
0.873 GC
1 LJ
0.833 LW
N
841.4 881 M
841.4 693 L
S
GR
GS
[0.6 0 0 0.6 0 0] CT
0.873 GC
1 LJ
0.833 LW
N
989.5 881 M
989.5 693 L
S
GR
GS
[0.6 0 0 0.6 0 0] CT
0.873 GC
1 LJ
0.833 LW
N
1137.6 881 M
1137.6 693 L
S
GR
GS
[0.6 0 0 0.6 0 0] CT
0.873 GC
1 LJ
0.833 LW
N
1285.7 881 M
1285.7 693 L
S
GR
GS
[0.6 0 0 0.6 0 0] CT
0.873 GC
1 LJ
0.833 LW
N
1433.8 881 M
1433.8 693 L
S
GR
GS
[0.6 0 0 0.6 0 0] CT
0.873 GC
1 LJ
0.833 LW
N
1581.9 881 M
1581.9 693 L
S
GR
GS
[0.6 0 0 0.6 0 0] CT
0.873 GC
1 LJ
0.833 LW
N
1730 881 M
1730 693 L
S
GR
GS
[0.6 0 0 0.6 0 0] CT
0.873 GC
1 LJ
0.833 LW
N
1730 881 M
249 881 L
S
GR
GS
[0.6 0 0 0.6 0 0] CT
0.873 GC
1 LJ
0.833 LW
N
1730 693 M
249 693 L
S
GR
GS
[0.6 0 0 0.6 0 0] CT
0.149 GC
2 setlinecap
1 LJ
0.833 LW
N
249 881 M
1730 881 L
S
GR
GS
[0.6 0 0 0.6 0 0] CT
0.149 GC
2 setlinecap
1 LJ
0.833 LW
N
249 693 M
1730 693 L
S
GR
GS
[0.6 0 0 0.6 0 0] CT
0.149 GC
2 setlinecap
1 LJ
0.833 LW
N
286.025 881 M
286.025 866.19 L
S
GR
GS
[0.6 0 0 0.6 0 0] CT
0.149 GC
2 setlinecap
1 LJ
0.833 LW
N
397.1 881 M
397.1 866.19 L
S
GR
GS
[0.6 0 0 0.6 0 0] CT
0.149 GC
2 setlinecap
1 LJ
0.833 LW
N
545.2 881 M
545.2 866.19 L
S
GR
GS
[0.6 0 0 0.6 0 0] CT
0.149 GC
2 setlinecap
1 LJ
0.833 LW
N
693.3 881 M
693.3 866.19 L
S
GR
GS
[0.6 0 0 0.6 0 0] CT
0.149 GC
2 setlinecap
1 LJ
0.833 LW
N
841.4 881 M
841.4 866.19 L
S
GR
GS
[0.6 0 0 0.6 0 0] CT
0.149 GC
2 setlinecap
1 LJ
0.833 LW
N
989.5 881 M
989.5 866.19 L
S
GR
GS
[0.6 0 0 0.6 0 0] CT
0.149 GC
2 setlinecap
1 LJ
0.833 LW
N
1137.6 881 M
1137.6 866.19 L
S
GR
GS
[0.6 0 0 0.6 0 0] CT
0.149 GC
2 setlinecap
1 LJ
0.833 LW
N
1285.7 881 M
1285.7 866.19 L
S
GR
GS
[0.6 0 0 0.6 0 0] CT
0.149 GC
2 setlinecap
1 LJ
0.833 LW
N
1433.8 881 M
1433.8 866.19 L
S
GR
GS
[0.6 0 0 0.6 0 0] CT
0.149 GC
2 setlinecap
1 LJ
0.833 LW
N
1581.9 881 M
1581.9 866.19 L
S
GR
GS
[0.6 0 0 0.6 0 0] CT
0.149 GC
2 setlinecap
1 LJ
0.833 LW
N
1730 881 M
1730 866.19 L
S
GR
GS
[0.6 0 0 0.6 0 0] CT
0.149 GC
2 setlinecap
1 LJ
0.833 LW
N
286.025 693 M
286.025 707.81 L
S
GR
GS
[0.6 0 0 0.6 0 0] CT
0.149 GC
2 setlinecap
1 LJ
0.833 LW
N
397.1 693 M
397.1 707.81 L
S
GR
GS
[0.6 0 0 0.6 0 0] CT
0.149 GC
2 setlinecap
1 LJ
0.833 LW
N
545.2 693 M
545.2 707.81 L
S
GR
GS
[0.6 0 0 0.6 0 0] CT
0.149 GC
2 setlinecap
1 LJ
0.833 LW
N
693.3 693 M
693.3 707.81 L
S
GR
GS
[0.6 0 0 0.6 0 0] CT
0.149 GC
2 setlinecap
1 LJ
0.833 LW
N
841.4 693 M
841.4 707.81 L
S
GR
GS
[0.6 0 0 0.6 0 0] CT
0.149 GC
2 setlinecap
1 LJ
0.833 LW
N
989.5 693 M
989.5 707.81 L
S
GR
GS
[0.6 0 0 0.6 0 0] CT
0.149 GC
2 setlinecap
1 LJ
0.833 LW
N
1137.6 693 M
1137.6 707.81 L
S
GR
GS
[0.6 0 0 0.6 0 0] CT
0.149 GC
2 setlinecap
1 LJ
0.833 LW
N
1285.7 693 M
1285.7 707.81 L
S
GR
GS
[0.6 0 0 0.6 0 0] CT
0.149 GC
2 setlinecap
1 LJ
0.833 LW
N
1433.8 693 M
1433.8 707.81 L
S
GR
GS
[0.6 0 0 0.6 0 0] CT
0.149 GC
2 setlinecap
1 LJ
0.833 LW
N
1581.9 693 M
1581.9 707.81 L
S
GR
GS
[0.6 0 0 0.6 0 0] CT
0.149 GC
2 setlinecap
1 LJ
0.833 LW
N
1730 693 M
1730 707.81 L
S
GR
GS
[0.6 0 0 0.6 171.61499 534.6] CT
0.149 GC
/Helvetica 33.333 F
GS
[1 0 0 1 0 0] CT
-9.5 34 moveto 
1 -1 scale
(3) t 
GR
GR
GS
[0.6 0 0 0.6 238.25999 534.6] CT
0.149 GC
/Helvetica 33.333 F
GS
[1 0 0 1 0 0] CT
-19 34 moveto 
1 -1 scale
(12) t 
GR
GR
GS
[0.6 0 0 0.6 327.11999 534.6] CT
0.149 GC
/Helvetica 33.333 F
GS
[1 0 0 1 0 0] CT
-19 34 moveto 
1 -1 scale
(24) t 
GR
GR
GS
[0.6 0 0 0.6 415.97997 534.6] CT
0.149 GC
/Helvetica 33.333 F
GS
[1 0 0 1 0 0] CT
-19 34 moveto 
1 -1 scale
(36) t 
GR
GR
GS
[0.6 0 0 0.6 504.83999 534.6] CT
0.149 GC
/Helvetica 33.333 F
GS
[1 0 0 1 0 0] CT
-19 34 moveto 
1 -1 scale
(48) t 
GR
GR
GS
[0.6 0 0 0.6 593.69997 534.6] CT
0.149 GC
/Helvetica 33.333 F
GS
[1 0 0 1 0 0] CT
-19 34 moveto 
1 -1 scale
(60) t 
GR
GR
GS
[0.6 0 0 0.6 682.55996 534.6] CT
0.149 GC
/Helvetica 33.333 F
GS
[1 0 0 1 0 0] CT
-19 34 moveto 
1 -1 scale
(72) t 
GR
GR
GS
[0.6 0 0 0.6 771.41994 534.6] CT
0.149 GC
/Helvetica 33.333 F
GS
[1 0 0 1 0 0] CT
-19 34 moveto 
1 -1 scale
(84) t 
GR
GR
GS
[0.6 0 0 0.6 860.27999 534.6] CT
0.149 GC
/Helvetica 33.333 F
GS
[1 0 0 1 0 0] CT
-19 34 moveto 
1 -1 scale
(96) t 
GR
GR
GS
[0.6 0 0 0.6 949.13997 534.6] CT
0.149 GC
/Helvetica 33.333 F
GS
[1 0 0 1 0 0] CT
-28 34 moveto 
1 -1 scale
(108) t 
GR
GR
GS
[0.6 0 0 0.6 1037.99996 534.6] CT
0.149 GC
/Helvetica 33.333 F
GS
[1 0 0 1 0 0] CT
-28 34 moveto 
1 -1 scale
(120) t 
GR
GR
GS
[0.6 0 0 0.6 0 0] CT
0.149 GC
2 setlinecap
1 LJ
0.833 LW
N
249 881 M
249 693 L
S
GR
GS
[0.6 0 0 0.6 0 0] CT
0.149 GC
2 setlinecap
1 LJ
0.833 LW
N
1730 881 M
1730 693 L
S
GR
GS
[0.6 0 0 0.6 0 0] CT
0.149 GC
2 setlinecap
1 LJ
0.833 LW
N
249 881 M
263.81 881 L
S
GR
GS
[0.6 0 0 0.6 0 0] CT
0.149 GC
2 setlinecap
1 LJ
0.833 LW
N
249 693 M
263.81 693 L
S
GR
GS
[0.6 0 0 0.6 0 0] CT
0.149 GC
2 setlinecap
1 LJ
0.833 LW
N
1730 881 M
1715.19 881 L
S
GR
GS
[0.6 0 0 0.6 0 0] CT
0.149 GC
2 setlinecap
1 LJ
0.833 LW
N
1730 693 M
1715.19 693 L
S
GR
GS
[0.6 0 0 0.6 143.39999 528.6] CT
0.149 GC
/Helvetica 33.333 F
GS
[1 0 0 1 0 0] CT
-19 13 moveto 
1 -1 scale
(0) t 
GR
GR
GS
[0.6 0 0 0.6 143.39999 415.8] CT
0.149 GC
/Helvetica 33.333 F
GS
[1 0 0 1 0 0] CT
-47 13 moveto 
1 -1 scale
(0.5) t 
GR
GR
GS
[0 -0.6 0.6 0 112.2 472.19996] CT
0.149 GC
/Helvetica 36.667 F
GS
[1 0 0 1 0 0] CT
-47 -9 moveto 
1 -1 scale
(Value) t 
GR
GR
GS
[0.6 0 0 0.6 593.70052 412.5] CT
/Helvetica-Bold 36.667 F
GS
[1 0 0 1 0 0] CT
-102 -9 moveto 
1 -1 scale
(Curvature 2) t 
GR
GR
GS
[0.6 0 0 0.6 0 0] CT
0 0.447 0.741 RC
1 LJ
3.333 LW
N
261.342 855.606 M
273.683 834.93 L
286.025 818.236 L
298.367 804.894 L
310.708 794.368 L
323.05 786.205 L
335.392 780.016 L
347.733 775.473 L
360.075 772.297 L
372.417 770.253 L
384.758 769.141 L
397.1 768.792 L
409.442 769.064 L
421.783 769.837 L
434.125 771.009 L
446.467 772.498 L
458.808 774.232 L
471.15 776.151 L
483.492 778.208 L
495.833 780.362 L
508.175 782.578 L
520.517 784.831 L
532.858 787.096 L
545.2 789.357 L
557.542 791.598 L
569.883 793.809 L
582.225 795.979 L
594.567 798.103 L
606.908 800.175 L
619.25 802.191 L
631.592 804.148 L
643.933 806.046 L
656.275 807.883 L
668.617 809.659 L
680.958 811.375 L
693.3 813.031 L
705.642 814.628 L
717.983 816.169 L
730.325 817.653 L
742.667 819.083 L
755.008 820.461 L
767.35 821.789 L
779.692 823.068 L
792.033 824.3 L
804.375 825.487 L
816.717 826.631 L
829.058 827.734 L
841.4 828.797 L
853.742 829.822 L
866.083 830.811 L
878.425 831.765 L
890.767 832.686 L
903.108 833.576 L
915.45 834.435 L
927.792 835.265 L
940.133 836.067 L
952.475 836.844 L
964.817 837.594 L
977.158 838.321 L
989.5 839.024 L
1001.842 839.706 L
1014.183 840.366 L
1026.525 841.006 L
1038.867 841.627 L
1051.208 842.229 L
1063.55 842.813 L
1075.892 843.38 L
1088.233 843.931 L
1100.575 844.466 L
1112.917 844.986 L
1125.258 845.492 L
1137.6 845.984 L
1149.942 846.463 L
1162.283 846.928 L
1174.625 847.382 L
1186.967 847.823 L
1199.308 848.254 L
1211.65 848.673 L
1223.992 849.082 L
1236.333 849.48 L
1248.675 849.869 L
1261.017 850.248 L
1273.358 850.619 L
1285.7 850.98 L
1298.042 851.333 L
1310.383 851.678 L
1322.725 852.015 L
1335.067 852.344 L
1347.408 852.666 L
1359.75 852.981 L
1372.092 853.288 L
1384.433 853.59 L
1396.775 853.884 L
1409.117 854.173 L
1421.458 854.455 L
1433.8 854.732 L
1446.142 855.002 L
1458.483 855.268 L
1470.825 855.527 L
1483.167 855.782 L
1495.508 856.032 L
1507.85 856.277 L
1520.192 856.517 L
1532.533 856.752 L
1544.875 856.983 L
1557.217 857.21 L
1569.558 857.432 L
1581.9 857.65 L
1594.242 857.864 L
1606.583 858.075 L
1618.925 858.281 L
1631.267 858.484 L
1643.608 858.683 L
1655.95 858.879 L
1668.292 859.071 L
1680.633 859.26 L
1692.975 859.446 L
1705.317 859.629 L
1717.658 859.808 L
1730 859.985 L
S
GR
GS
[0.6 0 0 0.6 0 0] CT
0.851 0.325 0.098 RC
1 LJ
3.333 LW
N
261.342 881 M
273.683 870.66 L
286.025 861.457 L
298.367 853.298 L
310.708 846.096 L
323.05 839.77 L
335.392 834.245 L
347.733 829.452 L
360.075 825.328 L
372.417 821.814 L
384.758 818.855 L
397.1 816.4 L
409.442 814.403 L
421.783 812.822 L
434.125 811.616 L
446.467 810.748 L
458.808 810.186 L
471.15 809.899 L
483.492 809.857 L
495.833 810.035 L
508.175 810.408 L
520.517 810.955 L
532.858 811.656 L
545.2 812.491 L
557.542 813.444 L
569.883 814.5 L
582.225 815.643 L
594.567 816.863 L
606.908 818.145 L
619.25 819.481 L
631.592 820.86 L
643.933 822.273 L
656.275 823.713 L
668.617 825.172 L
680.958 826.644 L
693.3 828.123 L
705.642 829.603 L
717.983 831.081 L
730.325 832.551 L
742.667 834.011 L
755.008 835.457 L
767.35 836.886 L
779.692 838.295 L
792.033 839.683 L
804.375 841.048 L
816.717 842.387 L
829.058 843.7 L
841.4 844.985 L
853.742 846.242 L
866.083 847.469 L
878.425 848.667 L
890.767 849.834 L
903.108 850.971 L
915.45 852.077 L
927.792 853.152 L
940.133 854.196 L
952.475 855.21 L
964.817 856.193 L
977.158 857.146 L
989.5 858.069 L
1001.842 858.963 L
1014.183 859.828 L
1026.525 860.665 L
1038.867 861.473 L
1051.208 862.254 L
1063.55 863.008 L
1075.892 863.736 L
1088.233 864.439 L
1100.575 865.116 L
1112.917 865.769 L
1125.258 866.398 L
1137.6 867.004 L
1149.942 867.587 L
1162.283 868.149 L
1174.625 868.69 L
1186.967 869.209 L
1199.308 869.709 L
1211.65 870.19 L
1223.992 870.652 L
1236.333 871.096 L
1248.675 871.522 L
1261.017 871.931 L
1273.358 872.324 L
1285.7 872.701 L
1298.042 873.063 L
1310.383 873.411 L
1322.725 873.744 L
1335.067 874.063 L
1347.408 874.369 L
1359.75 874.663 L
1372.092 874.944 L
1384.433 875.213 L
1396.775 875.472 L
1409.117 875.719 L
1421.458 875.956 L
1433.8 876.182 L
1446.142 876.399 L
1458.483 876.607 L
1470.825 876.806 L
1483.167 876.996 L
1495.508 877.178 L
1507.85 877.352 L
1520.192 877.519 L
1532.533 877.678 L
1544.875 877.83 L
1557.217 877.976 L
1569.558 878.115 L
1581.9 878.248 L
1594.242 878.375 L
1606.583 878.496 L
1618.925 878.612 L
1631.267 878.723 L
1643.608 878.829 L
1655.95 878.93 L
1668.292 879.027 L
1680.633 879.119 L
1692.975 879.207 L
1705.317 879.291 L
1717.658 879.371 L
1730 879.448 L
S
GR
%%Trailer
%%Pages: 1
%%EOF
