%!PS-Adobe-3.0 EPSF-3.0
%%Creator: (MATLAB, The Mathworks, Inc. Version 9.6.0.1072779 \(R2019a\). Operating System: Windows 7)
%%Title: ./P_Q_distribution.eps
%%CreationDate: 2020-09-18T14:00:32
%%Pages: (atend)
%%BoundingBox:    25     5   387   296
%%LanguageLevel: 3
%%EndComments
%%BeginProlog
%%BeginResource: procset (Apache XML Graphics Std ProcSet) 1.2 0
%%Version: 1.2 0
%%Copyright: (Copyright 2001-2003,2010 The Apache Software Foundation. License terms: http://www.apache.org/licenses/LICENSE-2.0)
/bd{bind def}bind def
/ld{load def}bd
/GR/grestore ld
/GS/gsave ld
/RM/rmoveto ld
/C/curveto ld
/t/show ld
/L/lineto ld
/ML/setmiterlimit ld
/CT/concat ld
/f/fill ld
/N/newpath ld
/S/stroke ld
/CC/setcmykcolor ld
/A/ashow ld
/cp/closepath ld
/RC/setrgbcolor ld
/LJ/setlinejoin ld
/GC/setgray ld
/LW/setlinewidth ld
/M/moveto ld
/re {4 2 roll M
1 index 0 rlineto
0 exch rlineto
neg 0 rlineto
cp } bd
/_ctm matrix def
/_tm matrix def
/BT { _ctm currentmatrix pop matrix _tm copy pop 0 0 moveto } bd
/ET { _ctm setmatrix } bd
/iTm { _ctm setmatrix _tm concat } bd
/Tm { _tm astore pop iTm 0 0 moveto } bd
/ux 0.0 def
/uy 0.0 def
/F {
  /Tp exch def
  /Tf exch def
  Tf findfont Tp scalefont setfont
  /cf Tf def  /cs Tp def
} bd
/ULS {currentpoint /uy exch def /ux exch def} bd
/ULE {
  /Tcx currentpoint pop def
  gsave
  newpath
  cf findfont cs scalefont dup
  /FontMatrix get 0 get /Ts exch def /FontInfo get dup
  /UnderlinePosition get Ts mul /To exch def
  /UnderlineThickness get Ts mul /Tt exch def
  ux uy To add moveto  Tcx uy To add lineto
  Tt setlinewidth stroke
  grestore
} bd
/OLE {
  /Tcx currentpoint pop def
  gsave
  newpath
  cf findfont cs scalefont dup
  /FontMatrix get 0 get /Ts exch def /FontInfo get dup
  /UnderlinePosition get Ts mul /To exch def
  /UnderlineThickness get Ts mul /Tt exch def
  ux uy To add cs add moveto Tcx uy To add cs add lineto
  Tt setlinewidth stroke
  grestore
} bd
/SOE {
  /Tcx currentpoint pop def
  gsave
  newpath
  cf findfont cs scalefont dup
  /FontMatrix get 0 get /Ts exch def /FontInfo get dup
  /UnderlinePosition get Ts mul /To exch def
  /UnderlineThickness get Ts mul /Tt exch def
  ux uy To add cs 10 mul 26 idiv add moveto Tcx uy To add cs 10 mul 26 idiv add lineto
  Tt setlinewidth stroke
  grestore
} bd
/QT {
/Y22 exch store
/X22 exch store
/Y21 exch store
/X21 exch store
currentpoint
/Y21 load 2 mul add 3 div exch
/X21 load 2 mul add 3 div exch
/X21 load 2 mul /X22 load add 3 div
/Y21 load 2 mul /Y22 load add 3 div
/X22 load /Y22 load curveto
} bd
/SSPD {
dup length /d exch dict def
{
/v exch def
/k exch def
currentpagedevice k known {
/cpdv currentpagedevice k get def
v cpdv ne {
/upd false def
/nullv v type /nulltype eq def
/nullcpdv cpdv type /nulltype eq def
nullv nullcpdv or
{
/upd true def
} {
/sametype v type cpdv type eq def
sametype {
v type /arraytype eq {
/vlen v length def
/cpdvlen cpdv length def
vlen cpdvlen eq {
0 1 vlen 1 sub {
/i exch def
/obj v i get def
/cpdobj cpdv i get def
obj cpdobj ne {
/upd true def
exit
} if
} for
} {
/upd true def
} ifelse
} {
v type /dicttype eq {
v {
/dv exch def
/dk exch def
/cpddv cpdv dk get def
dv cpddv ne {
/upd true def
exit
} if
} forall
} {
/upd true def
} ifelse
} ifelse
} if
} ifelse
upd true eq {
d k v put
} if
} if
} if
} forall
d length 0 gt {
d setpagedevice
} if
} bd
/RE { % /NewFontName [NewEncodingArray] /FontName RE -
  findfont dup length dict begin
  {
    1 index /FID ne
    {def} {pop pop} ifelse
  } forall
  /Encoding exch def
  /FontName 1 index def
  currentdict definefont pop
  end
} bind def
%%EndResource
%%BeginResource: procset (Apache XML Graphics EPS ProcSet) 1.0 0
%%Version: 1.0 0
%%Copyright: (Copyright 2002-2003 The Apache Software Foundation. License terms: http://www.apache.org/licenses/LICENSE-2.0)
/BeginEPSF { %def
/b4_Inc_state save def         % Save state for cleanup
/dict_count countdictstack def % Count objects on dict stack
/op_count count 1 sub def      % Count objects on operand stack
userdict begin                 % Push userdict on dict stack
/showpage { } def              % Redefine showpage, { } = null proc
0 setgray 0 setlinecap         % Prepare graphics state
1 setlinewidth 0 setlinejoin
10 setmiterlimit [ ] 0 setdash newpath
/languagelevel where           % If level not equal to 1 then
{pop languagelevel             % set strokeadjust and
1 ne                           % overprint to their defaults.
{false setstrokeadjust false setoverprint
} if
} if
} bd
/EndEPSF { %def
count op_count sub {pop} repeat            % Clean up stacks
countdictstack dict_count sub {end} repeat
b4_Inc_state restore
} bd
%%EndResource
%FOPBeginFontDict
%%IncludeResource: font Courier-Oblique
%%IncludeResource: font Courier-BoldOblique
%%IncludeResource: font Courier-Bold
%%IncludeResource: font ZapfDingbats
%%IncludeResource: font Symbol
%%IncludeResource: font Helvetica
%%IncludeResource: font Helvetica-Oblique
%%IncludeResource: font Helvetica-Bold
%%IncludeResource: font Helvetica-BoldOblique
%%IncludeResource: font Times-Roman
%%IncludeResource: font Times-Italic
%%IncludeResource: font Times-Bold
%%IncludeResource: font Times-BoldItalic
%%IncludeResource: font Courier
%FOPEndFontDict
%%BeginResource: encoding WinAnsiEncoding
/WinAnsiEncoding [
/.notdef /.notdef /.notdef /.notdef /.notdef
/.notdef /.notdef /.notdef /.notdef /.notdef
/.notdef /.notdef /.notdef /.notdef /.notdef
/.notdef /.notdef /.notdef /.notdef /.notdef
/.notdef /.notdef /.notdef /.notdef /.notdef
/.notdef /.notdef /.notdef /.notdef /.notdef
/.notdef /.notdef /space /exclam /quotedbl
/numbersign /dollar /percent /ampersand /quotesingle
/parenleft /parenright /asterisk /plus /comma
/hyphen /period /slash /zero /one
/two /three /four /five /six
/seven /eight /nine /colon /semicolon
/less /equal /greater /question /at
/A /B /C /D /E
/F /G /H /I /J
/K /L /M /N /O
/P /Q /R /S /T
/U /V /W /X /Y
/Z /bracketleft /backslash /bracketright /asciicircum
/underscore /quoteleft /a /b /c
/d /e /f /g /h
/i /j /k /l /m
/n /o /p /q /r
/s /t /u /v /w
/x /y /z /braceleft /bar
/braceright /asciitilde /bullet /Euro /bullet
/quotesinglbase /florin /quotedblbase /ellipsis /dagger
/daggerdbl /circumflex /perthousand /Scaron /guilsinglleft
/OE /bullet /Zcaron /bullet /bullet
/quoteleft /quoteright /quotedblleft /quotedblright /bullet
/endash /emdash /asciitilde /trademark /scaron
/guilsinglright /oe /bullet /zcaron /Ydieresis
/space /exclamdown /cent /sterling /currency
/yen /brokenbar /section /dieresis /copyright
/ordfeminine /guillemotleft /logicalnot /sfthyphen /registered
/macron /degree /plusminus /twosuperior /threesuperior
/acute /mu /paragraph /middot /cedilla
/onesuperior /ordmasculine /guillemotright /onequarter /onehalf
/threequarters /questiondown /Agrave /Aacute /Acircumflex
/Atilde /Adieresis /Aring /AE /Ccedilla
/Egrave /Eacute /Ecircumflex /Edieresis /Igrave
/Iacute /Icircumflex /Idieresis /Eth /Ntilde
/Ograve /Oacute /Ocircumflex /Otilde /Odieresis
/multiply /Oslash /Ugrave /Uacute /Ucircumflex
/Udieresis /Yacute /Thorn /germandbls /agrave
/aacute /acircumflex /atilde /adieresis /aring
/ae /ccedilla /egrave /eacute /ecircumflex
/edieresis /igrave /iacute /icircumflex /idieresis
/eth /ntilde /ograve /oacute /ocircumflex
/otilde /odieresis /divide /oslash /ugrave
/uacute /ucircumflex /udieresis /yacute /thorn
/ydieresis
] def
%%EndResource
%FOPBeginFontReencode
/Courier-Oblique findfont
dup length dict begin
  {1 index /FID ne {def} {pop pop} ifelse} forall
  /Encoding WinAnsiEncoding def
  currentdict
end
/Courier-Oblique exch definefont pop
/Courier-BoldOblique findfont
dup length dict begin
  {1 index /FID ne {def} {pop pop} ifelse} forall
  /Encoding WinAnsiEncoding def
  currentdict
end
/Courier-BoldOblique exch definefont pop
/Courier-Bold findfont
dup length dict begin
  {1 index /FID ne {def} {pop pop} ifelse} forall
  /Encoding WinAnsiEncoding def
  currentdict
end
/Courier-Bold exch definefont pop
/Helvetica findfont
dup length dict begin
  {1 index /FID ne {def} {pop pop} ifelse} forall
  /Encoding WinAnsiEncoding def
  currentdict
end
/Helvetica exch definefont pop
/Helvetica-Oblique findfont
dup length dict begin
  {1 index /FID ne {def} {pop pop} ifelse} forall
  /Encoding WinAnsiEncoding def
  currentdict
end
/Helvetica-Oblique exch definefont pop
/Helvetica-Bold findfont
dup length dict begin
  {1 index /FID ne {def} {pop pop} ifelse} forall
  /Encoding WinAnsiEncoding def
  currentdict
end
/Helvetica-Bold exch definefont pop
/Helvetica-BoldOblique findfont
dup length dict begin
  {1 index /FID ne {def} {pop pop} ifelse} forall
  /Encoding WinAnsiEncoding def
  currentdict
end
/Helvetica-BoldOblique exch definefont pop
/Times-Roman findfont
dup length dict begin
  {1 index /FID ne {def} {pop pop} ifelse} forall
  /Encoding WinAnsiEncoding def
  currentdict
end
/Times-Roman exch definefont pop
/Times-Italic findfont
dup length dict begin
  {1 index /FID ne {def} {pop pop} ifelse} forall
  /Encoding WinAnsiEncoding def
  currentdict
end
/Times-Italic exch definefont pop
/Times-Bold findfont
dup length dict begin
  {1 index /FID ne {def} {pop pop} ifelse} forall
  /Encoding WinAnsiEncoding def
  currentdict
end
/Times-Bold exch definefont pop
/Times-BoldItalic findfont
dup length dict begin
  {1 index /FID ne {def} {pop pop} ifelse} forall
  /Encoding WinAnsiEncoding def
  currentdict
end
/Times-BoldItalic exch definefont pop
/Courier findfont
dup length dict begin
  {1 index /FID ne {def} {pop pop} ifelse} forall
  /Encoding WinAnsiEncoding def
  currentdict
end
/Courier exch definefont pop
%FOPEndFontReencode
%%EndProlog
%%Page: 1 1
%%PageBoundingBox: 0 0 420 315
%%BeginPageSetup
[1 0 0 -1 0 315] CT
%%EndPageSetup
GS
[0.6 0 0 0.6 0 0] CT
1 GC
N
0 0 700 525 re
f
GR
GS
[0.6 0 0 0.6 0 0] CT
1 GC
N
0 0 700 525 re
f
GR
GS
[0.6 0 0 0.6 0 0] CT
1 GC
N
91 467 M
634 467 L
634 39 L
91 39 L
cp
f
GR
GS
[0.6 0 0 0.6 0 0] CT
0.149 GC
2 setlinecap
1 LJ
0.833 LW
N
91 467 M
634 467 L
S
GR
GS
[0.6 0 0 0.6 0 0] CT
0.149 GC
2 setlinecap
1 LJ
0.833 LW
N
91 39 M
634 39 L
S
GR
GS
[0.6 0 0 0.6 0 0] CT
0.149 GC
2 setlinecap
1 LJ
0.833 LW
N
91 467 M
91 461.57 L
S
GR
GS
[0.6 0 0 0.6 0 0] CT
0.149 GC
2 setlinecap
1 LJ
0.833 LW
N
151.333 467 M
151.333 461.57 L
S
GR
GS
[0.6 0 0 0.6 0 0] CT
0.149 GC
2 setlinecap
1 LJ
0.833 LW
N
211.667 467 M
211.667 461.57 L
S
GR
GS
[0.6 0 0 0.6 0 0] CT
0.149 GC
2 setlinecap
1 LJ
0.833 LW
N
272 467 M
272 461.57 L
S
GR
GS
[0.6 0 0 0.6 0 0] CT
0.149 GC
2 setlinecap
1 LJ
0.833 LW
N
332.333 467 M
332.333 461.57 L
S
GR
GS
[0.6 0 0 0.6 0 0] CT
0.149 GC
2 setlinecap
1 LJ
0.833 LW
N
392.667 467 M
392.667 461.57 L
S
GR
GS
[0.6 0 0 0.6 0 0] CT
0.149 GC
2 setlinecap
1 LJ
0.833 LW
N
453 467 M
453 461.57 L
S
GR
GS
[0.6 0 0 0.6 0 0] CT
0.149 GC
2 setlinecap
1 LJ
0.833 LW
N
513.333 467 M
513.333 461.57 L
S
GR
GS
[0.6 0 0 0.6 0 0] CT
0.149 GC
2 setlinecap
1 LJ
0.833 LW
N
573.667 467 M
573.667 461.57 L
S
GR
GS
[0.6 0 0 0.6 0 0] CT
0.149 GC
2 setlinecap
1 LJ
0.833 LW
N
634 467 M
634 461.57 L
S
GR
GS
[0.6 0 0 0.6 0 0] CT
0.149 GC
2 setlinecap
1 LJ
0.833 LW
N
91 39 M
91 44.43 L
S
GR
GS
[0.6 0 0 0.6 0 0] CT
0.149 GC
2 setlinecap
1 LJ
0.833 LW
N
151.333 39 M
151.333 44.43 L
S
GR
GS
[0.6 0 0 0.6 0 0] CT
0.149 GC
2 setlinecap
1 LJ
0.833 LW
N
211.667 39 M
211.667 44.43 L
S
GR
GS
[0.6 0 0 0.6 0 0] CT
0.149 GC
2 setlinecap
1 LJ
0.833 LW
N
272 39 M
272 44.43 L
S
GR
GS
[0.6 0 0 0.6 0 0] CT
0.149 GC
2 setlinecap
1 LJ
0.833 LW
N
332.333 39 M
332.333 44.43 L
S
GR
GS
[0.6 0 0 0.6 0 0] CT
0.149 GC
2 setlinecap
1 LJ
0.833 LW
N
392.667 39 M
392.667 44.43 L
S
GR
GS
[0.6 0 0 0.6 0 0] CT
0.149 GC
2 setlinecap
1 LJ
0.833 LW
N
453 39 M
453 44.43 L
S
GR
GS
[0.6 0 0 0.6 0 0] CT
0.149 GC
2 setlinecap
1 LJ
0.833 LW
N
513.333 39 M
513.333 44.43 L
S
GR
GS
[0.6 0 0 0.6 0 0] CT
0.149 GC
2 setlinecap
1 LJ
0.833 LW
N
573.667 39 M
573.667 44.43 L
S
GR
GS
[0.6 0 0 0.6 0 0] CT
0.149 GC
2 setlinecap
1 LJ
0.833 LW
N
634 39 M
634 44.43 L
S
GR
GS
[0.6 0 0 0.6 54.6 284.19999] CT
0.149 GC
/Helvetica 16.667 F
GS
[1 0 0 1 0 0] CT
-5 17 moveto 
1 -1 scale
(3) t 
GR
GR
GS
[0.6 0 0 0.6 90.8 284.19999] CT
0.149 GC
/Helvetica 16.667 F
GS
[1 0 0 1 0 0] CT
-12 17 moveto 
1 -1 scale
(3.5) t 
GR
GR
GS
[0.6 0 0 0.6 127 284.19999] CT
0.149 GC
/Helvetica 16.667 F
GS
[1 0 0 1 0 0] CT
-5 17 moveto 
1 -1 scale
(4) t 
GR
GR
GS
[0.6 0 0 0.6 163.2 284.19999] CT
0.149 GC
/Helvetica 16.667 F
GS
[1 0 0 1 0 0] CT
-12 17 moveto 
1 -1 scale
(4.5) t 
GR
GR
GS
[0.6 0 0 0.6 199.40001 284.19999] CT
0.149 GC
/Helvetica 16.667 F
GS
[1 0 0 1 0 0] CT
-5 17 moveto 
1 -1 scale
(5) t 
GR
GR
GS
[0.6 0 0 0.6 235.59999 284.19999] CT
0.149 GC
/Helvetica 16.667 F
GS
[1 0 0 1 0 0] CT
-12 17 moveto 
1 -1 scale
(5.5) t 
GR
GR
GS
[0.6 0 0 0.6 271.8 284.19999] CT
0.149 GC
/Helvetica 16.667 F
GS
[1 0 0 1 0 0] CT
-5 17 moveto 
1 -1 scale
(6) t 
GR
GR
GS
[0.6 0 0 0.6 307.99999 284.19999] CT
0.149 GC
/Helvetica 16.667 F
GS
[1 0 0 1 0 0] CT
-12 17 moveto 
1 -1 scale
(6.5) t 
GR
GR
GS
[0.6 0 0 0.6 344.20001 284.19999] CT
0.149 GC
/Helvetica 16.667 F
GS
[1 0 0 1 0 0] CT
-5 17 moveto 
1 -1 scale
(7) t 
GR
GR
GS
[0.6 0 0 0.6 380.4 284.19999] CT
0.149 GC
/Helvetica 16.667 F
GS
[1 0 0 1 0 0] CT
-12 17 moveto 
1 -1 scale
(7.5) t 
GR
GR
GS
[0.6 0 0 0.6 217.50016 297.80001] CT
0.149 GC
/Helvetica 18.333 F
GS
[1 0 0 1 0 0] CT
-40.5 19 moveto 
1 -1 scale
(Short rate) t 
GR
GR
GS
[0.6 0 0 0.6 0 0] CT
0.149 GC
2 setlinecap
1 LJ
0.833 LW
N
91 467 M
91 39 L
S
GR
GS
[0.6 0 0 0.6 0 0] CT
0.149 GC
2 setlinecap
1 LJ
0.833 LW
N
634 467 M
634 39 L
S
GR
GS
[0.6 0 0 0.6 0 0] CT
0.149 GC
2 setlinecap
1 LJ
0.833 LW
N
91 467 M
96.43 467 L
S
GR
GS
[0.6 0 0 0.6 0 0] CT
0.149 GC
2 setlinecap
1 LJ
0.833 LW
N
91 405.857 M
96.43 405.857 L
S
GR
GS
[0.6 0 0 0.6 0 0] CT
0.149 GC
2 setlinecap
1 LJ
0.833 LW
N
91 344.714 M
96.43 344.714 L
S
GR
GS
[0.6 0 0 0.6 0 0] CT
0.149 GC
2 setlinecap
1 LJ
0.833 LW
N
91 283.571 M
96.43 283.571 L
S
GR
GS
[0.6 0 0 0.6 0 0] CT
0.149 GC
2 setlinecap
1 LJ
0.833 LW
N
91 222.429 M
96.43 222.429 L
S
GR
GS
[0.6 0 0 0.6 0 0] CT
0.149 GC
2 setlinecap
1 LJ
0.833 LW
N
91 161.286 M
96.43 161.286 L
S
GR
GS
[0.6 0 0 0.6 0 0] CT
0.149 GC
2 setlinecap
1 LJ
0.833 LW
N
91 100.143 M
96.43 100.143 L
S
GR
GS
[0.6 0 0 0.6 0 0] CT
0.149 GC
2 setlinecap
1 LJ
0.833 LW
N
91 39 M
96.43 39 L
S
GR
GS
[0.6 0 0 0.6 0 0] CT
0.149 GC
2 setlinecap
1 LJ
0.833 LW
N
634 467 M
628.57 467 L
S
GR
GS
[0.6 0 0 0.6 0 0] CT
0.149 GC
2 setlinecap
1 LJ
0.833 LW
N
634 405.857 M
628.57 405.857 L
S
GR
GS
[0.6 0 0 0.6 0 0] CT
0.149 GC
2 setlinecap
1 LJ
0.833 LW
N
634 344.714 M
628.57 344.714 L
S
GR
GS
[0.6 0 0 0.6 0 0] CT
0.149 GC
2 setlinecap
1 LJ
0.833 LW
N
634 283.571 M
628.57 283.571 L
S
GR
GS
[0.6 0 0 0.6 0 0] CT
0.149 GC
2 setlinecap
1 LJ
0.833 LW
N
634 222.429 M
628.57 222.429 L
S
GR
GS
[0.6 0 0 0.6 0 0] CT
0.149 GC
2 setlinecap
1 LJ
0.833 LW
N
634 161.286 M
628.57 161.286 L
S
GR
GS
[0.6 0 0 0.6 0 0] CT
0.149 GC
2 setlinecap
1 LJ
0.833 LW
N
634 100.143 M
628.57 100.143 L
S
GR
GS
[0.6 0 0 0.6 0 0] CT
0.149 GC
2 setlinecap
1 LJ
0.833 LW
N
634 39 M
628.57 39 L
S
GR
GS
[0.6 0 0 0.6 50.59999 280.2] CT
0.149 GC
/Helvetica 16.667 F
GS
[1 0 0 1 0 0] CT
-10 6.5 moveto 
1 -1 scale
(0) t 
GR
GR
GS
[0.6 0 0 0.6 50.59999 243.51429] CT
0.149 GC
/Helvetica 16.667 F
GS
[1 0 0 1 0 0] CT
-19 6.5 moveto 
1 -1 scale
(10) t 
GR
GR
GS
[0.6 0 0 0.6 50.59999 206.82858] CT
0.149 GC
/Helvetica 16.667 F
GS
[1 0 0 1 0 0] CT
-19 6.5 moveto 
1 -1 scale
(20) t 
GR
GR
GS
[0.6 0 0 0.6 50.59999 170.14286] CT
0.149 GC
/Helvetica 16.667 F
GS
[1 0 0 1 0 0] CT
-19 6.5 moveto 
1 -1 scale
(30) t 
GR
GR
GS
[0.6 0 0 0.6 50.59999 133.45714] CT
0.149 GC
/Helvetica 16.667 F
GS
[1 0 0 1 0 0] CT
-19 6.5 moveto 
1 -1 scale
(40) t 
GR
GR
GS
[0.6 0 0 0.6 50.59999 96.77143] CT
0.149 GC
/Helvetica 16.667 F
GS
[1 0 0 1 0 0] CT
-19 6.5 moveto 
1 -1 scale
(50) t 
GR
GR
GS
[0.6 0 0 0.6 50.59999 60.08572] CT
0.149 GC
/Helvetica 16.667 F
GS
[1 0 0 1 0 0] CT
-19 6.5 moveto 
1 -1 scale
(60) t 
GR
GR
GS
[0.6 0 0 0.6 50.59999 23.4] CT
0.149 GC
/Helvetica 16.667 F
GS
[1 0 0 1 0 0] CT
-19 6.5 moveto 
1 -1 scale
(70) t 
GR
GR
GS
[0 -0.6 0.6 0 36.19999 151.79987] CT
0.149 GC
/Helvetica 18.333 F
GS
[1 0 0 1 0 0] CT
-13 -5 moveto 
1 -1 scale
(pdf) t 
GR
GR
GS
[0.6 0 0 0.6 0 0] CT
[10 6] 0 setdash
2 LJ
0.833 LW
N
91 463.961 M
92.207 463.796 L
93.413 463.622 L
94.62 463.439 L
95.827 463.248 L
97.033 463.048 L
98.24 462.839 L
99.447 462.619 L
100.653 462.389 L
101.86 462.149 L
103.067 461.898 L
104.273 461.635 L
105.48 461.36 L
106.687 461.073 L
107.893 460.773 L
109.1 460.46 L
110.307 460.133 L
111.513 459.791 L
112.72 459.435 L
113.927 459.064 L
115.133 458.677 L
116.34 458.273 L
117.547 457.853 L
118.753 457.415 L
119.96 456.958 L
121.167 456.484 L
122.373 455.99 L
123.58 455.476 L
124.787 454.941 L
125.993 454.386 L
127.2 453.808 L
128.407 453.209 L
129.613 452.586 L
130.82 451.939 L
132.027 451.268 L
133.233 450.571 L
134.44 449.849 L
135.647 449.1 L
136.853 448.324 L
138.06 447.52 L
139.267 446.687 L
140.473 445.825 L
141.68 444.932 L
142.887 444.009 L
144.093 443.053 L
145.3 442.066 L
146.507 441.045 L
147.713 439.989 L
148.92 438.9 L
150.127 437.774 L
151.333 436.612 L
152.54 435.414 L
153.747 434.177 L
154.953 432.902 L
156.16 431.587 L
157.367 430.233 L
158.573 428.837 L
159.78 427.4 L
160.987 425.921 L
162.193 424.399 L
163.4 422.833 L
164.607 421.223 L
165.813 419.568 L
167.02 417.868 L
168.227 416.12 L
169.433 414.327 L
170.64 412.485 L
171.847 410.596 L
173.053 408.657 L
174.26 406.67 L
175.467 404.633 L
176.673 402.546 L
177.88 400.408 L
179.087 398.219 L
180.293 395.978 L
181.5 393.686 L
182.707 391.342 L
183.913 388.945 L
185.12 386.495 L
186.327 383.993 L
187.533 381.438 L
188.74 378.829 L
189.947 376.167 L
191.153 373.452 L
192.36 370.683 L
193.567 367.861 L
194.773 364.985 L
195.98 362.057 L
197.187 359.076 L
198.393 356.042 L
199.6 352.955 L
200.807 349.817 L
202.013 346.627 L
203.22 343.386 L
204.427 340.094 L
205.633 336.752 L
206.84 333.361 L
208.047 329.921 L
209.253 326.433 L
210.46 322.898 L
211.667 319.317 L
212.873 315.69 L
214.08 312.019 L
215.287 308.305 L
216.493 304.548 L
217.7 300.751 L
218.907 296.914 L
220.113 293.039 L
221.32 289.126 L
222.527 285.178 L
223.733 281.197 L
224.94 277.183 L
226.147 273.138 L
227.353 269.064 L
228.56 264.962 L
229.767 260.836 L
230.973 256.685 L
232.18 252.513 L
233.387 248.322 L
234.593 244.113 L
235.8 239.888 L
237.007 235.65 L
238.213 231.401 L
239.42 227.143 L
240.627 222.879 L
241.833 218.611 L
243.04 214.341 L
244.247 210.071 L
245.453 205.805 L
246.66 201.545 L
247.867 197.293 L
249.073 193.052 L
250.28 188.825 L
251.487 184.614 L
252.693 180.422 L
253.9 176.252 L
255.107 172.106 L
256.313 167.987 L
257.52 163.898 L
258.727 159.842 L
259.933 155.822 L
261.14 151.84 L
262.347 147.899 L
263.553 144.002 L
264.76 140.152 L
265.967 136.352 L
267.173 132.603 L
268.38 128.91 L
269.587 125.275 L
270.793 121.7 L
272 118.189 L
273.207 114.743 L
274.413 111.366 L
275.62 108.061 L
276.827 104.829 L
278.033 101.674 L
279.24 98.597 L
280.447 95.602 L
281.653 92.691 L
282.86 89.865 L
284.067 87.128 L
285.273 84.481 L
286.48 81.928 L
287.687 79.468 L
288.893 77.106 L
290.1 74.843 L
291.307 72.68 L
292.513 70.62 L
293.72 68.664 L
294.927 66.814 L
296.133 65.071 L
297.34 63.437 L
298.547 61.914 L
299.753 60.502 L
300.96 59.203 L
302.167 58.018 L
303.373 56.948 L
304.58 55.993 L
305.787 55.155 L
306.993 54.435 L
308.2 53.833 L
309.407 53.349 L
310.613 52.984 L
311.82 52.739 L
313.027 52.612 L
314.233 52.606 L
315.44 52.719 L
316.647 52.951 L
317.853 53.303 L
319.06 53.774 L
320.267 54.364 L
321.473 55.071 L
322.68 55.896 L
323.887 56.838 L
325.093 57.895 L
326.3 59.068 L
327.507 60.355 L
328.713 61.754 L
329.92 63.266 L
331.127 64.887 L
332.333 66.618 L
333.54 68.457 L
334.747 70.401 L
335.953 72.45 L
337.16 74.602 L
338.367 76.854 L
339.573 79.206 L
340.78 81.654 L
341.987 84.198 L
343.193 86.834 L
344.4 89.562 L
345.607 92.378 L
346.813 95.28 L
348.02 98.266 L
349.227 101.334 L
350.433 104.481 L
351.64 107.704 L
352.847 111.002 L
354.053 114.371 L
355.26 117.809 L
356.467 121.313 L
357.673 124.881 L
358.88 128.51 L
360.087 132.197 L
361.293 135.939 L
362.5 139.734 L
363.707 143.579 L
364.913 147.471 L
366.12 151.407 L
367.327 155.385 L
368.533 159.401 L
369.74 163.454 L
370.947 167.539 L
372.153 171.654 L
373.36 175.797 L
374.567 179.965 L
375.773 184.155 L
376.98 188.364 L
378.187 192.59 L
379.393 196.829 L
380.6 201.08 L
381.807 205.339 L
383.013 209.605 L
384.22 213.874 L
385.427 218.144 L
386.633 222.413 L
387.84 226.678 L
389.047 230.936 L
390.253 235.186 L
391.46 239.425 L
392.667 243.652 L
393.873 247.863 L
395.08 252.056 L
396.287 256.23 L
397.493 260.383 L
398.7 264.513 L
399.907 268.617 L
401.113 272.694 L
402.32 276.742 L
403.527 280.76 L
404.733 284.745 L
405.94 288.697 L
407.147 292.613 L
408.353 296.492 L
409.56 300.333 L
410.767 304.135 L
411.973 307.896 L
413.18 311.615 L
414.387 315.291 L
415.593 318.923 L
416.8 322.509 L
418.007 326.049 L
419.213 329.542 L
420.42 332.988 L
421.627 336.384 L
422.833 339.731 L
424.04 343.029 L
425.247 346.275 L
426.453 349.471 L
427.66 352.615 L
428.867 355.707 L
430.073 358.747 L
431.28 361.734 L
432.487 364.668 L
433.693 367.549 L
434.9 370.377 L
436.107 373.152 L
437.313 375.873 L
438.52 378.541 L
439.727 381.155 L
440.933 383.716 L
442.14 386.225 L
443.347 388.68 L
444.553 391.082 L
445.76 393.432 L
446.967 395.73 L
448.173 397.976 L
449.38 400.171 L
450.587 402.314 L
451.793 404.407 L
453 406.45 L
454.207 408.443 L
455.413 410.386 L
456.62 412.281 L
457.827 414.128 L
459.033 415.927 L
460.24 417.679 L
461.447 419.385 L
462.653 421.045 L
463.86 422.66 L
465.067 424.23 L
466.273 425.757 L
467.48 427.241 L
468.687 428.682 L
469.893 430.082 L
471.1 431.441 L
472.307 432.76 L
473.513 434.039 L
474.72 435.28 L
475.927 436.483 L
477.133 437.649 L
478.34 438.778 L
479.547 439.872 L
480.753 440.931 L
481.96 441.956 L
483.167 442.947 L
484.373 443.906 L
485.58 444.833 L
486.787 445.729 L
487.993 446.595 L
489.2 447.431 L
490.407 448.238 L
491.613 449.017 L
492.82 449.769 L
494.027 450.494 L
495.233 451.193 L
496.44 451.867 L
497.647 452.516 L
498.853 453.142 L
500.06 453.744 L
501.267 454.324 L
502.473 454.882 L
503.68 455.418 L
504.887 455.934 L
506.093 456.431 L
507.3 456.907 L
508.507 457.366 L
509.713 457.806 L
510.92 458.228 L
512.127 458.633 L
513.333 459.022 L
514.54 459.395 L
515.747 459.753 L
516.953 460.096 L
518.16 460.425 L
519.367 460.739 L
520.573 461.041 L
521.78 461.329 L
522.987 461.605 L
524.193 461.87 L
525.4 462.122 L
526.607 462.364 L
527.813 462.595 L
529.02 462.815 L
530.227 463.026 L
531.433 463.227 L
532.64 463.419 L
533.847 463.602 L
535.053 463.777 L
536.26 463.944 L
537.467 464.102 L
538.673 464.254 L
539.88 464.398 L
541.087 464.535 L
542.293 464.666 L
543.5 464.791 L
544.707 464.909 L
545.913 465.022 L
547.12 465.129 L
548.327 465.231 L
549.533 465.328 L
550.74 465.42 L
551.947 465.507 L
553.153 465.59 L
554.36 465.669 L
555.567 465.743 L
556.773 465.814 L
557.98 465.881 L
559.187 465.945 L
560.393 466.005 L
561.6 466.062 L
562.807 466.116 L
564.013 466.168 L
565.22 466.216 L
566.427 466.262 L
567.633 466.305 L
568.84 466.346 L
570.047 466.385 L
571.253 466.422 L
572.46 466.457 L
573.667 466.489 L
S
GR
GS
[0.6 0 0 0.6 0 0] CT
1 0 0 RC
1 LJ
0.833 LW
N
91 466.153 M
92.207 466.101 L
93.413 466.046 L
94.62 465.988 L
95.827 465.927 L
97.033 465.862 L
98.24 465.794 L
99.447 465.722 L
100.653 465.647 L
101.86 465.567 L
103.067 465.483 L
104.273 465.394 L
105.48 465.301 L
106.687 465.202 L
107.893 465.099 L
109.1 464.99 L
110.307 464.876 L
111.513 464.756 L
112.72 464.63 L
113.927 464.497 L
115.133 464.358 L
116.34 464.211 L
117.547 464.058 L
118.753 463.897 L
119.96 463.728 L
121.167 463.551 L
122.373 463.365 L
123.58 463.17 L
124.787 462.967 L
125.993 462.753 L
127.2 462.53 L
128.407 462.296 L
129.613 462.051 L
130.82 461.795 L
132.027 461.528 L
133.233 461.248 L
134.44 460.956 L
135.647 460.651 L
136.853 460.332 L
138.06 460 L
139.267 459.653 L
140.473 459.29 L
141.68 458.913 L
142.887 458.519 L
144.093 458.109 L
145.3 457.682 L
146.507 457.237 L
147.713 456.773 L
148.92 456.291 L
150.127 455.789 L
151.333 455.267 L
152.54 454.724 L
153.747 454.16 L
154.953 453.574 L
156.16 452.965 L
157.367 452.333 L
158.573 451.677 L
159.78 450.996 L
160.987 450.289 L
162.193 449.557 L
163.4 448.797 L
164.607 448.01 L
165.813 447.195 L
167.02 446.35 L
168.227 445.476 L
169.433 444.571 L
170.64 443.635 L
171.847 442.667 L
173.053 441.666 L
174.26 440.632 L
175.467 439.563 L
176.673 438.459 L
177.88 437.32 L
179.087 436.143 L
180.293 434.93 L
181.5 433.678 L
182.707 432.387 L
183.913 431.057 L
185.12 429.686 L
186.327 428.275 L
187.533 426.821 L
188.74 425.325 L
189.947 423.786 L
191.153 422.203 L
192.36 420.575 L
193.567 418.902 L
194.773 417.183 L
195.98 415.418 L
197.187 413.605 L
198.393 411.745 L
199.6 409.836 L
200.807 407.878 L
202.013 405.871 L
203.22 403.814 L
204.427 401.707 L
205.633 399.549 L
206.84 397.34 L
208.047 395.079 L
209.253 392.766 L
210.46 390.401 L
211.667 387.984 L
212.873 385.513 L
214.08 382.99 L
215.287 380.414 L
216.493 377.784 L
217.7 375.101 L
218.907 372.364 L
220.113 369.575 L
221.32 366.731 L
222.527 363.835 L
223.733 360.886 L
224.94 357.884 L
226.147 354.829 L
227.353 351.722 L
228.56 348.563 L
229.767 345.353 L
230.973 342.092 L
232.18 338.78 L
233.387 335.419 L
234.593 332.008 L
235.8 328.549 L
237.007 325.042 L
238.213 321.489 L
239.42 317.89 L
240.627 314.245 L
241.833 310.557 L
243.04 306.826 L
244.247 303.053 L
245.453 299.24 L
246.66 295.388 L
247.867 291.498 L
249.073 287.571 L
250.28 283.61 L
251.487 279.615 L
252.693 275.589 L
253.9 271.532 L
255.107 267.447 L
256.313 263.335 L
257.52 259.199 L
258.727 255.04 L
259.933 250.86 L
261.14 246.661 L
262.347 242.446 L
263.553 238.216 L
264.76 233.973 L
265.967 229.72 L
267.173 225.46 L
268.38 221.194 L
269.587 216.924 L
270.793 212.654 L
272 208.386 L
273.207 204.122 L
274.413 199.865 L
275.62 195.617 L
276.827 191.381 L
278.033 187.16 L
279.24 182.956 L
280.447 178.772 L
281.653 174.611 L
282.86 170.476 L
284.067 166.368 L
285.273 162.292 L
286.48 158.25 L
287.687 154.245 L
288.893 150.278 L
290.1 146.355 L
291.307 142.476 L
292.513 138.645 L
293.72 134.865 L
294.927 131.138 L
296.133 127.467 L
297.34 123.856 L
298.547 120.305 L
299.753 116.82 L
300.96 113.401 L
302.167 110.052 L
303.373 106.776 L
304.58 103.574 L
305.787 100.449 L
306.993 97.404 L
308.2 94.442 L
309.407 91.564 L
310.613 88.773 L
311.82 86.072 L
313.027 83.461 L
314.233 80.945 L
315.44 78.524 L
316.647 76.2 L
317.853 73.977 L
319.06 71.854 L
320.267 69.835 L
321.473 67.921 L
322.68 66.113 L
323.887 64.413 L
325.093 62.822 L
326.3 61.343 L
327.507 59.976 L
328.713 58.721 L
329.92 57.581 L
331.127 56.557 L
332.333 55.648 L
333.54 54.857 L
334.747 54.183 L
335.953 53.628 L
337.16 53.191 L
338.367 52.873 L
339.573 52.674 L
340.78 52.596 L
341.987 52.636 L
343.193 52.797 L
344.4 53.076 L
345.607 53.475 L
346.813 53.993 L
348.02 54.629 L
349.227 55.383 L
350.433 56.254 L
351.64 57.242 L
352.847 58.345 L
354.053 59.563 L
355.26 60.894 L
356.467 62.338 L
357.673 63.893 L
358.88 65.558 L
360.087 67.332 L
361.293 69.212 L
362.5 71.198 L
363.707 73.288 L
364.913 75.479 L
366.12 77.771 L
367.327 80.161 L
368.533 82.648 L
369.74 85.228 L
370.947 87.901 L
372.153 90.663 L
373.36 93.514 L
374.567 96.449 L
375.773 99.468 L
376.98 102.567 L
378.187 105.745 L
379.393 108.998 L
380.6 112.324 L
381.807 115.721 L
383.013 119.185 L
384.22 122.715 L
385.427 126.307 L
386.633 129.959 L
387.84 133.669 L
389.047 137.432 L
390.253 141.247 L
391.46 145.111 L
392.667 149.021 L
393.873 152.974 L
395.08 156.967 L
396.287 160.998 L
397.493 165.063 L
398.7 169.161 L
399.907 173.288 L
401.113 177.441 L
402.32 181.618 L
403.527 185.815 L
404.733 190.031 L
405.94 194.263 L
407.147 198.507 L
408.353 202.761 L
409.56 207.024 L
410.767 211.291 L
411.973 215.561 L
413.18 219.83 L
414.387 224.098 L
415.593 228.36 L
416.8 232.616 L
418.007 236.862 L
419.213 241.096 L
420.42 245.317 L
421.627 249.521 L
422.833 253.707 L
424.04 257.873 L
425.247 262.017 L
426.453 266.137 L
427.66 270.23 L
428.867 274.296 L
430.073 278.333 L
431.28 282.338 L
432.487 286.31 L
433.693 290.248 L
434.9 294.15 L
436.107 298.014 L
437.313 301.84 L
438.52 305.626 L
439.727 309.37 L
440.933 313.072 L
442.14 316.731 L
443.347 320.345 L
444.553 323.913 L
445.76 327.434 L
446.967 330.909 L
448.173 334.335 L
449.38 337.712 L
450.587 341.04 L
451.793 344.317 L
453 347.544 L
454.207 350.719 L
455.413 353.842 L
456.62 356.914 L
457.827 359.933 L
459.033 362.899 L
460.24 365.812 L
461.447 368.672 L
462.653 371.479 L
463.86 374.233 L
465.067 376.933 L
466.273 379.58 L
467.48 382.173 L
468.687 384.713 L
469.893 387.201 L
471.1 389.635 L
472.307 392.017 L
473.513 394.346 L
474.72 396.624 L
475.927 398.849 L
477.133 401.024 L
478.34 403.147 L
479.547 405.22 L
480.753 407.243 L
481.96 409.216 L
483.167 411.14 L
484.373 413.016 L
485.58 414.844 L
486.787 416.624 L
487.993 418.358 L
489.2 420.046 L
490.407 421.688 L
491.613 423.285 L
492.82 424.838 L
494.027 426.348 L
495.233 427.815 L
496.44 429.24 L
497.647 430.624 L
498.853 431.967 L
500.06 433.27 L
501.267 434.534 L
502.473 435.76 L
503.68 436.948 L
504.887 438.099 L
506.093 439.215 L
507.3 440.294 L
508.507 441.34 L
509.713 442.351 L
510.92 443.33 L
512.127 444.276 L
513.333 445.191 L
514.54 446.074 L
515.747 446.928 L
516.953 447.753 L
518.16 448.549 L
519.367 449.317 L
520.573 450.058 L
521.78 450.773 L
522.987 451.462 L
524.193 452.126 L
525.4 452.766 L
526.607 453.382 L
527.813 453.976 L
529.02 454.547 L
530.227 455.096 L
531.433 455.625 L
532.64 456.133 L
533.847 456.621 L
535.053 457.091 L
536.26 457.542 L
537.467 457.974 L
538.673 458.39 L
539.88 458.789 L
541.087 459.172 L
542.293 459.539 L
543.5 459.89 L
544.707 460.228 L
545.913 460.551 L
547.12 460.86 L
548.327 461.156 L
549.533 461.44 L
550.74 461.711 L
551.947 461.971 L
553.153 462.219 L
554.36 462.456 L
555.567 462.683 L
556.773 462.9 L
557.98 463.106 L
559.187 463.304 L
560.393 463.492 L
561.6 463.672 L
562.807 463.844 L
564.013 464.007 L
565.22 464.163 L
566.427 464.312 L
567.633 464.453 L
568.84 464.588 L
570.047 464.716 L
571.253 464.838 L
572.46 464.954 L
573.667 465.065 L
S
GR
GS
[0.6 0 0 0.6 0 0] CT
1 GC
N
621 100 M
621 52 L
544 52 L
544 100 L
cp
f
GR
GS
[0.6 0 0 0.6 361.76481 39.06142] CT
/Helvetica 16.667 F
GS
[1 0 0 1 0 0] CT
0 6.5 moveto 
1 -1 scale
(P) t 
GR
GR
GS
[0.6 0 0 0.6 0 0] CT
[10 6] 0 setdash
2 LJ
0.833 LW
N
549.016 65.102 M
599.179 65.102 L
S
GR
GS
[0.6 0 0 0.6 361.76481 52.13858] CT
/Helvetica 16.667 F
GS
[1 0 0 1 0 0] CT
0 6.5 moveto 
1 -1 scale
(Q) t 
GR
GR
GS
[0.6 0 0 0.6 0 0] CT
1 0 0 RC
1 LJ
0.833 LW
N
549.016 86.898 M
599.179 86.898 L
S
GR
GS
[0.6 0 0 0.6 0 0] CT
0.149 GC
10.0 ML
0.833 LW
N
544 100 M
544 52 L
621 52 L
621 100 L
cp
S
GR
%%Trailer
%%Pages: 1
%%EOF
