%!PS-Adobe-3.0 EPSF-3.0
%%Creator: (MATLAB, The Mathworks, Inc. Version 9.6.0.1072779 \(R2019a\). Operating System: Windows 7)
%%Title: ./ReturnDistributions.eps
%%CreationDate: 2020-09-18T10:50:35
%%Pages: (atend)
%%BoundingBox:   110    38  1039   570
%%LanguageLevel: 3
%%EndComments
%%BeginProlog
%%BeginResource: procset (Apache XML Graphics Std ProcSet) 1.2 0
%%Version: 1.2 0
%%Copyright: (Copyright 2001-2003,2010 The Apache Software Foundation. License terms: http://www.apache.org/licenses/LICENSE-2.0)
/bd{bind def}bind def
/ld{load def}bd
/GR/grestore ld
/GS/gsave ld
/RM/rmoveto ld
/C/curveto ld
/t/show ld
/L/lineto ld
/ML/setmiterlimit ld
/CT/concat ld
/f/fill ld
/N/newpath ld
/S/stroke ld
/CC/setcmykcolor ld
/A/ashow ld
/cp/closepath ld
/RC/setrgbcolor ld
/LJ/setlinejoin ld
/GC/setgray ld
/LW/setlinewidth ld
/M/moveto ld
/re {4 2 roll M
1 index 0 rlineto
0 exch rlineto
neg 0 rlineto
cp } bd
/_ctm matrix def
/_tm matrix def
/BT { _ctm currentmatrix pop matrix _tm copy pop 0 0 moveto } bd
/ET { _ctm setmatrix } bd
/iTm { _ctm setmatrix _tm concat } bd
/Tm { _tm astore pop iTm 0 0 moveto } bd
/ux 0.0 def
/uy 0.0 def
/F {
  /Tp exch def
  /Tf exch def
  Tf findfont Tp scalefont setfont
  /cf Tf def  /cs Tp def
} bd
/ULS {currentpoint /uy exch def /ux exch def} bd
/ULE {
  /Tcx currentpoint pop def
  gsave
  newpath
  cf findfont cs scalefont dup
  /FontMatrix get 0 get /Ts exch def /FontInfo get dup
  /UnderlinePosition get Ts mul /To exch def
  /UnderlineThickness get Ts mul /Tt exch def
  ux uy To add moveto  Tcx uy To add lineto
  Tt setlinewidth stroke
  grestore
} bd
/OLE {
  /Tcx currentpoint pop def
  gsave
  newpath
  cf findfont cs scalefont dup
  /FontMatrix get 0 get /Ts exch def /FontInfo get dup
  /UnderlinePosition get Ts mul /To exch def
  /UnderlineThickness get Ts mul /Tt exch def
  ux uy To add cs add moveto Tcx uy To add cs add lineto
  Tt setlinewidth stroke
  grestore
} bd
/SOE {
  /Tcx currentpoint pop def
  gsave
  newpath
  cf findfont cs scalefont dup
  /FontMatrix get 0 get /Ts exch def /FontInfo get dup
  /UnderlinePosition get Ts mul /To exch def
  /UnderlineThickness get Ts mul /Tt exch def
  ux uy To add cs 10 mul 26 idiv add moveto Tcx uy To add cs 10 mul 26 idiv add lineto
  Tt setlinewidth stroke
  grestore
} bd
/QT {
/Y22 exch store
/X22 exch store
/Y21 exch store
/X21 exch store
currentpoint
/Y21 load 2 mul add 3 div exch
/X21 load 2 mul add 3 div exch
/X21 load 2 mul /X22 load add 3 div
/Y21 load 2 mul /Y22 load add 3 div
/X22 load /Y22 load curveto
} bd
/SSPD {
dup length /d exch dict def
{
/v exch def
/k exch def
currentpagedevice k known {
/cpdv currentpagedevice k get def
v cpdv ne {
/upd false def
/nullv v type /nulltype eq def
/nullcpdv cpdv type /nulltype eq def
nullv nullcpdv or
{
/upd true def
} {
/sametype v type cpdv type eq def
sametype {
v type /arraytype eq {
/vlen v length def
/cpdvlen cpdv length def
vlen cpdvlen eq {
0 1 vlen 1 sub {
/i exch def
/obj v i get def
/cpdobj cpdv i get def
obj cpdobj ne {
/upd true def
exit
} if
} for
} {
/upd true def
} ifelse
} {
v type /dicttype eq {
v {
/dv exch def
/dk exch def
/cpddv cpdv dk get def
dv cpddv ne {
/upd true def
exit
} if
} forall
} {
/upd true def
} ifelse
} ifelse
} if
} ifelse
upd true eq {
d k v put
} if
} if
} if
} forall
d length 0 gt {
d setpagedevice
} if
} bd
/RE { % /NewFontName [NewEncodingArray] /FontName RE -
  findfont dup length dict begin
  {
    1 index /FID ne
    {def} {pop pop} ifelse
  } forall
  /Encoding exch def
  /FontName 1 index def
  currentdict definefont pop
  end
} bind def
%%EndResource
%%BeginResource: procset (Apache XML Graphics EPS ProcSet) 1.0 0
%%Version: 1.0 0
%%Copyright: (Copyright 2002-2003 The Apache Software Foundation. License terms: http://www.apache.org/licenses/LICENSE-2.0)
/BeginEPSF { %def
/b4_Inc_state save def         % Save state for cleanup
/dict_count countdictstack def % Count objects on dict stack
/op_count count 1 sub def      % Count objects on operand stack
userdict begin                 % Push userdict on dict stack
/showpage { } def              % Redefine showpage, { } = null proc
0 setgray 0 setlinecap         % Prepare graphics state
1 setlinewidth 0 setlinejoin
10 setmiterlimit [ ] 0 setdash newpath
/languagelevel where           % If level not equal to 1 then
{pop languagelevel             % set strokeadjust and
1 ne                           % overprint to their defaults.
{false setstrokeadjust false setoverprint
} if
} if
} bd
/EndEPSF { %def
count op_count sub {pop} repeat            % Clean up stacks
countdictstack dict_count sub {end} repeat
b4_Inc_state restore
} bd
%%EndResource
%FOPBeginFontDict
%%IncludeResource: font Courier-Oblique
%%IncludeResource: font Courier-BoldOblique
%%IncludeResource: font Courier-Bold
%%IncludeResource: font ZapfDingbats
%%IncludeResource: font Symbol
%%IncludeResource: font Helvetica
%%IncludeResource: font Helvetica-Oblique
%%IncludeResource: font Helvetica-Bold
%%IncludeResource: font Helvetica-BoldOblique
%%IncludeResource: font Times-Roman
%%IncludeResource: font Times-Italic
%%IncludeResource: font Times-Bold
%%IncludeResource: font Times-BoldItalic
%%IncludeResource: font Courier
%FOPEndFontDict
%%BeginResource: encoding WinAnsiEncoding
/WinAnsiEncoding [
/.notdef /.notdef /.notdef /.notdef /.notdef
/.notdef /.notdef /.notdef /.notdef /.notdef
/.notdef /.notdef /.notdef /.notdef /.notdef
/.notdef /.notdef /.notdef /.notdef /.notdef
/.notdef /.notdef /.notdef /.notdef /.notdef
/.notdef /.notdef /.notdef /.notdef /.notdef
/.notdef /.notdef /space /exclam /quotedbl
/numbersign /dollar /percent /ampersand /quotesingle
/parenleft /parenright /asterisk /plus /comma
/hyphen /period /slash /zero /one
/two /three /four /five /six
/seven /eight /nine /colon /semicolon
/less /equal /greater /question /at
/A /B /C /D /E
/F /G /H /I /J
/K /L /M /N /O
/P /Q /R /S /T
/U /V /W /X /Y
/Z /bracketleft /backslash /bracketright /asciicircum
/underscore /quoteleft /a /b /c
/d /e /f /g /h
/i /j /k /l /m
/n /o /p /q /r
/s /t /u /v /w
/x /y /z /braceleft /bar
/braceright /asciitilde /bullet /Euro /bullet
/quotesinglbase /florin /quotedblbase /ellipsis /dagger
/daggerdbl /circumflex /perthousand /Scaron /guilsinglleft
/OE /bullet /Zcaron /bullet /bullet
/quoteleft /quoteright /quotedblleft /quotedblright /bullet
/endash /emdash /asciitilde /trademark /scaron
/guilsinglright /oe /bullet /zcaron /Ydieresis
/space /exclamdown /cent /sterling /currency
/yen /brokenbar /section /dieresis /copyright
/ordfeminine /guillemotleft /logicalnot /sfthyphen /registered
/macron /degree /plusminus /twosuperior /threesuperior
/acute /mu /paragraph /middot /cedilla
/onesuperior /ordmasculine /guillemotright /onequarter /onehalf
/threequarters /questiondown /Agrave /Aacute /Acircumflex
/Atilde /Adieresis /Aring /AE /Ccedilla
/Egrave /Eacute /Ecircumflex /Edieresis /Igrave
/Iacute /Icircumflex /Idieresis /Eth /Ntilde
/Ograve /Oacute /Ocircumflex /Otilde /Odieresis
/multiply /Oslash /Ugrave /Uacute /Ucircumflex
/Udieresis /Yacute /Thorn /germandbls /agrave
/aacute /acircumflex /atilde /adieresis /aring
/ae /ccedilla /egrave /eacute /ecircumflex
/edieresis /igrave /iacute /icircumflex /idieresis
/eth /ntilde /ograve /oacute /ocircumflex
/otilde /odieresis /divide /oslash /ugrave
/uacute /ucircumflex /udieresis /yacute /thorn
/ydieresis
] def
%%EndResource
%FOPBeginFontReencode
/Courier-Oblique findfont
dup length dict begin
  {1 index /FID ne {def} {pop pop} ifelse} forall
  /Encoding WinAnsiEncoding def
  currentdict
end
/Courier-Oblique exch definefont pop
/Courier-BoldOblique findfont
dup length dict begin
  {1 index /FID ne {def} {pop pop} ifelse} forall
  /Encoding WinAnsiEncoding def
  currentdict
end
/Courier-BoldOblique exch definefont pop
/Courier-Bold findfont
dup length dict begin
  {1 index /FID ne {def} {pop pop} ifelse} forall
  /Encoding WinAnsiEncoding def
  currentdict
end
/Courier-Bold exch definefont pop
/Helvetica findfont
dup length dict begin
  {1 index /FID ne {def} {pop pop} ifelse} forall
  /Encoding WinAnsiEncoding def
  currentdict
end
/Helvetica exch definefont pop
/Helvetica-Oblique findfont
dup length dict begin
  {1 index /FID ne {def} {pop pop} ifelse} forall
  /Encoding WinAnsiEncoding def
  currentdict
end
/Helvetica-Oblique exch definefont pop
/Helvetica-Bold findfont
dup length dict begin
  {1 index /FID ne {def} {pop pop} ifelse} forall
  /Encoding WinAnsiEncoding def
  currentdict
end
/Helvetica-Bold exch definefont pop
/Helvetica-BoldOblique findfont
dup length dict begin
  {1 index /FID ne {def} {pop pop} ifelse} forall
  /Encoding WinAnsiEncoding def
  currentdict
end
/Helvetica-BoldOblique exch definefont pop
/Times-Roman findfont
dup length dict begin
  {1 index /FID ne {def} {pop pop} ifelse} forall
  /Encoding WinAnsiEncoding def
  currentdict
end
/Times-Roman exch definefont pop
/Times-Italic findfont
dup length dict begin
  {1 index /FID ne {def} {pop pop} ifelse} forall
  /Encoding WinAnsiEncoding def
  currentdict
end
/Times-Italic exch definefont pop
/Times-Bold findfont
dup length dict begin
  {1 index /FID ne {def} {pop pop} ifelse} forall
  /Encoding WinAnsiEncoding def
  currentdict
end
/Times-Bold exch definefont pop
/Times-BoldItalic findfont
dup length dict begin
  {1 index /FID ne {def} {pop pop} ifelse} forall
  /Encoding WinAnsiEncoding def
  currentdict
end
/Times-BoldItalic exch definefont pop
/Courier findfont
dup length dict begin
  {1 index /FID ne {def} {pop pop} ifelse} forall
  /Encoding WinAnsiEncoding def
  currentdict
end
/Courier exch definefont pop
%FOPEndFontReencode
%%EndProlog
%%Page: 1 1
%%PageBoundingBox: 0 0 1147 594
%%BeginPageSetup
[1 0 0 -1 0 594] CT
%%EndPageSetup
GS
[0.6 0 0 0.6 0 0] CT
1 GC
N
0 0 1912 990 re
f
GR
GS
[0.6 0 0 0.6 0 0] CT
1 GC
N
0 0 1912 990 re
f
GR
GS
[0.6 0 0 0.6 0 0] CT
1 GC
N
249 412 M
888 412 L
888 83 L
249 83 L
cp
f
GR
GS
[0.6 0 0 0.6 341.10032 46.5] CT
/Helvetica-Bold 36.667 F
GS
[1 0 0 1 0 0] CT
-46 -9 moveto 
1 -1 scale
(US60) t 
GR
GR
GS
[0.6 0 0 0.6 0 0] CT
0.149 GC
1 LJ
0.833 LW
N
249 412 M
888 412 L
S
GR
GS
[0.6 0 0 0.6 0 0] CT
0 0.447 0.741 RC
N
271.291 412 M
271.291 411.478 L
258.907 411.478 L
258.907 412 L
cp
320.826 412 M
320.826 410.434 L
308.442 410.434 L
308.442 412 L
cp
333.209 412 M
333.209 410.956 L
320.826 410.956 L
320.826 412 L
cp
345.593 412 M
345.593 409.912 L
333.209 409.912 L
333.209 412 L
cp
357.977 412 M
357.977 411.478 L
345.593 411.478 L
345.593 412 L
cp
370.36 412 M
370.36 407.302 L
357.977 407.302 L
357.977 412 L
cp
382.744 412 M
382.744 399.995 L
370.36 399.995 L
370.36 412 L
cp
395.128 412 M
395.128 395.298 L
382.744 395.298 L
382.744 412 L
cp
407.512 412 M
407.512 394.776 L
395.128 394.776 L
395.128 412 L
cp
419.895 412 M
419.895 384.337 L
407.512 384.337 L
407.512 412 L
cp
432.279 412 M
432.279 368.678 L
419.895 368.678 L
419.895 412 L
cp
444.663 412 M
444.663 360.849 L
432.279 360.849 L
432.279 412 L
cp
457.047 412 M
457.047 336.317 L
444.663 336.317 L
444.663 412 L
cp
469.43 412 M
469.43 320.136 L
457.047 320.136 L
457.047 412 L
cp
481.814 412 M
481.814 297.692 L
469.43 297.692 L
469.43 412 L
cp
494.198 412 M
494.198 261.678 L
481.814 261.678 L
481.814 412 L
cp
506.581 412 M
506.581 215.746 L
494.198 215.746 L
494.198 412 L
cp
518.965 412 M
518.965 172.946 L
506.581 172.946 L
506.581 412 L
cp
531.349 412 M
531.349 151.024 L
518.965 151.024 L
518.965 412 L
cp
543.733 412 M
543.733 157.287 L
531.349 157.287 L
531.349 412 L
cp
556.116 412 M
556.116 151.024 L
543.733 151.024 L
543.733 412 L
cp
568.5 412 M
568.5 95.175 L
556.116 95.175 L
556.116 412 L
cp
580.884 412 M
580.884 90.999 L
568.5 90.999 L
568.5 412 L
cp
593.267 412 M
593.267 94.131 L
580.884 94.131 L
580.884 412 L
cp
605.651 412 M
605.651 93.087 L
593.267 93.087 L
593.267 412 L
cp
618.035 412 M
618.035 89.955 L
605.651 89.955 L
605.651 412 L
cp
630.419 412 M
630.419 99.872 L
618.035 99.872 L
618.035 412 L
cp
642.802 412 M
642.802 138.497 L
630.419 138.497 L
630.419 412 L
cp
655.186 412 M
655.186 175.556 L
642.802 175.556 L
642.802 412 L
cp
667.57 412 M
667.57 219.4 L
655.186 219.4 L
655.186 412 L
cp
679.953 412 M
679.953 244.975 L
667.57 244.975 L
667.57 412 L
cp
692.337 412 M
692.337 256.458 L
679.953 256.458 L
679.953 412 L
cp
704.721 412 M
704.721 297.17 L
692.337 297.17 L
692.337 412 L
cp
717.105 412 M
717.105 312.829 L
704.721 312.829 L
704.721 412 L
cp
729.488 412 M
729.488 341.014 L
717.105 341.014 L
717.105 412 L
cp
741.872 412 M
741.872 361.371 L
729.488 361.371 L
729.488 412 L
cp
754.256 412 M
754.256 366.068 L
741.872 366.068 L
741.872 412 L
cp
766.64 412 M
766.64 389.034 L
754.256 389.034 L
754.256 412 L
cp
779.023 412 M
779.023 389.556 L
766.64 389.556 L
766.64 412 L
cp
791.407 412 M
791.407 398.951 L
779.023 398.951 L
779.023 412 L
cp
803.791 412 M
803.791 402.083 L
791.407 402.083 L
791.407 412 L
cp
816.174 412 M
816.174 407.824 L
803.791 407.824 L
803.791 412 L
cp
828.558 412 M
828.558 408.346 L
816.174 408.346 L
816.174 412 L
cp
840.942 412 M
840.942 409.912 L
828.558 409.912 L
828.558 412 L
cp
853.326 412 M
853.326 410.434 L
840.942 410.434 L
840.942 412 L
cp
865.709 412 M
865.709 410.956 L
853.326 410.956 L
853.326 412 L
cp
878.093 412 M
878.093 411.478 L
865.709 411.478 L
865.709 412 L
cp
f
GR
GS
[0.6 0 0 0.6 0 0] CT
10.0 ML
0.833 LW
N
258.907 412 M
258.907 411.478 L
271.291 411.478 L
271.291 412 L
cp
S
GR
GS
[0.6 0 0 0.6 0 0] CT
10.0 ML
0.833 LW
N
271.291 412 M
271.291 412 L
283.674 412 L
283.674 412 L
cp
S
GR
GS
[0.6 0 0 0.6 0 0] CT
10.0 ML
0.833 LW
N
283.674 412 M
283.674 412 L
296.058 412 L
296.058 412 L
cp
S
GR
GS
[0.6 0 0 0.6 0 0] CT
10.0 ML
0.833 LW
N
296.058 412 M
296.058 412 L
308.442 412 L
308.442 412 L
cp
S
GR
GS
[0.6 0 0 0.6 0 0] CT
10.0 ML
0.833 LW
N
308.442 412 M
308.442 410.434 L
320.826 410.434 L
320.826 412 L
cp
S
GR
GS
[0.6 0 0 0.6 0 0] CT
10.0 ML
0.833 LW
N
320.826 412 M
320.826 410.956 L
333.209 410.956 L
333.209 412 L
cp
S
GR
GS
[0.6 0 0 0.6 0 0] CT
10.0 ML
0.833 LW
N
333.209 412 M
333.209 409.912 L
345.593 409.912 L
345.593 412 L
cp
S
GR
GS
[0.6 0 0 0.6 0 0] CT
10.0 ML
0.833 LW
N
345.593 412 M
345.593 411.478 L
357.977 411.478 L
357.977 412 L
cp
S
GR
GS
[0.6 0 0 0.6 0 0] CT
10.0 ML
0.833 LW
N
357.977 412 M
357.977 407.302 L
370.36 407.302 L
370.36 412 L
cp
S
GR
GS
[0.6 0 0 0.6 0 0] CT
10.0 ML
0.833 LW
N
370.36 412 M
370.36 399.995 L
382.744 399.995 L
382.744 412 L
cp
S
GR
GS
[0.6 0 0 0.6 0 0] CT
10.0 ML
0.833 LW
N
382.744 412 M
382.744 395.298 L
395.128 395.298 L
395.128 412 L
cp
S
GR
GS
[0.6 0 0 0.6 0 0] CT
10.0 ML
0.833 LW
N
395.128 412 M
395.128 394.776 L
407.512 394.776 L
407.512 412 L
cp
S
GR
GS
[0.6 0 0 0.6 0 0] CT
10.0 ML
0.833 LW
N
407.512 412 M
407.512 384.337 L
419.895 384.337 L
419.895 412 L
cp
S
GR
GS
[0.6 0 0 0.6 0 0] CT
10.0 ML
0.833 LW
N
419.895 412 M
419.895 368.678 L
432.279 368.678 L
432.279 412 L
cp
S
GR
GS
[0.6 0 0 0.6 0 0] CT
10.0 ML
0.833 LW
N
432.279 412 M
432.279 360.849 L
444.663 360.849 L
444.663 412 L
cp
S
GR
GS
[0.6 0 0 0.6 0 0] CT
10.0 ML
0.833 LW
N
444.663 412 M
444.663 336.317 L
457.047 336.317 L
457.047 412 L
cp
S
GR
GS
[0.6 0 0 0.6 0 0] CT
10.0 ML
0.833 LW
N
457.047 412 M
457.047 320.136 L
469.43 320.136 L
469.43 412 L
cp
S
GR
GS
[0.6 0 0 0.6 0 0] CT
10.0 ML
0.833 LW
N
469.43 412 M
469.43 297.692 L
481.814 297.692 L
481.814 412 L
cp
S
GR
GS
[0.6 0 0 0.6 0 0] CT
10.0 ML
0.833 LW
N
481.814 412 M
481.814 261.678 L
494.198 261.678 L
494.198 412 L
cp
S
GR
GS
[0.6 0 0 0.6 0 0] CT
10.0 ML
0.833 LW
N
494.198 412 M
494.198 215.746 L
506.581 215.746 L
506.581 412 L
cp
S
GR
GS
[0.6 0 0 0.6 0 0] CT
10.0 ML
0.833 LW
N
506.581 412 M
506.581 172.946 L
518.965 172.946 L
518.965 412 L
cp
S
GR
GS
[0.6 0 0 0.6 0 0] CT
10.0 ML
0.833 LW
N
518.965 412 M
518.965 151.024 L
531.349 151.024 L
531.349 412 L
cp
S
GR
GS
[0.6 0 0 0.6 0 0] CT
10.0 ML
0.833 LW
N
531.349 412 M
531.349 157.287 L
543.733 157.287 L
543.733 412 L
cp
S
GR
GS
[0.6 0 0 0.6 0 0] CT
10.0 ML
0.833 LW
N
543.733 412 M
543.733 151.024 L
556.116 151.024 L
556.116 412 L
cp
S
GR
GS
[0.6 0 0 0.6 0 0] CT
10.0 ML
0.833 LW
N
556.116 412 M
556.116 95.175 L
568.5 95.175 L
568.5 412 L
cp
S
GR
GS
[0.6 0 0 0.6 0 0] CT
10.0 ML
0.833 LW
N
568.5 412 M
568.5 90.999 L
580.884 90.999 L
580.884 412 L
cp
S
GR
GS
[0.6 0 0 0.6 0 0] CT
10.0 ML
0.833 LW
N
580.884 412 M
580.884 94.131 L
593.267 94.131 L
593.267 412 L
cp
S
GR
GS
[0.6 0 0 0.6 0 0] CT
10.0 ML
0.833 LW
N
593.267 412 M
593.267 93.087 L
605.651 93.087 L
605.651 412 L
cp
S
GR
GS
[0.6 0 0 0.6 0 0] CT
10.0 ML
0.833 LW
N
605.651 412 M
605.651 89.955 L
618.035 89.955 L
618.035 412 L
cp
S
GR
GS
[0.6 0 0 0.6 0 0] CT
10.0 ML
0.833 LW
N
618.035 412 M
618.035 99.872 L
630.419 99.872 L
630.419 412 L
cp
S
GR
GS
[0.6 0 0 0.6 0 0] CT
10.0 ML
0.833 LW
N
630.419 412 M
630.419 138.497 L
642.802 138.497 L
642.802 412 L
cp
S
GR
GS
[0.6 0 0 0.6 0 0] CT
10.0 ML
0.833 LW
N
642.802 412 M
642.802 175.556 L
655.186 175.556 L
655.186 412 L
cp
S
GR
GS
[0.6 0 0 0.6 0 0] CT
10.0 ML
0.833 LW
N
655.186 412 M
655.186 219.4 L
667.57 219.4 L
667.57 412 L
cp
S
GR
GS
[0.6 0 0 0.6 0 0] CT
10.0 ML
0.833 LW
N
667.57 412 M
667.57 244.975 L
679.953 244.975 L
679.953 412 L
cp
S
GR
GS
[0.6 0 0 0.6 0 0] CT
10.0 ML
0.833 LW
N
679.953 412 M
679.953 256.458 L
692.337 256.458 L
692.337 412 L
cp
S
GR
GS
[0.6 0 0 0.6 0 0] CT
10.0 ML
0.833 LW
N
692.337 412 M
692.337 297.17 L
704.721 297.17 L
704.721 412 L
cp
S
GR
GS
[0.6 0 0 0.6 0 0] CT
10.0 ML
0.833 LW
N
704.721 412 M
704.721 312.829 L
717.105 312.829 L
717.105 412 L
cp
S
GR
GS
[0.6 0 0 0.6 0 0] CT
10.0 ML
0.833 LW
N
717.105 412 M
717.105 341.014 L
729.488 341.014 L
729.488 412 L
cp
S
GR
GS
[0.6 0 0 0.6 0 0] CT
10.0 ML
0.833 LW
N
729.488 412 M
729.488 361.371 L
741.872 361.371 L
741.872 412 L
cp
S
GR
GS
[0.6 0 0 0.6 0 0] CT
10.0 ML
0.833 LW
N
741.872 412 M
741.872 366.068 L
754.256 366.068 L
754.256 412 L
cp
S
GR
GS
[0.6 0 0 0.6 0 0] CT
10.0 ML
0.833 LW
N
754.256 412 M
754.256 389.034 L
766.64 389.034 L
766.64 412 L
cp
S
GR
GS
[0.6 0 0 0.6 0 0] CT
10.0 ML
0.833 LW
N
766.64 412 M
766.64 389.556 L
779.023 389.556 L
779.023 412 L
cp
S
GR
GS
[0.6 0 0 0.6 0 0] CT
10.0 ML
0.833 LW
N
779.023 412 M
779.023 398.951 L
791.407 398.951 L
791.407 412 L
cp
S
GR
GS
[0.6 0 0 0.6 0 0] CT
10.0 ML
0.833 LW
N
791.407 412 M
791.407 402.083 L
803.791 402.083 L
803.791 412 L
cp
S
GR
GS
[0.6 0 0 0.6 0 0] CT
10.0 ML
0.833 LW
N
803.791 412 M
803.791 407.824 L
816.174 407.824 L
816.174 412 L
cp
S
GR
GS
[0.6 0 0 0.6 0 0] CT
10.0 ML
0.833 LW
N
816.174 412 M
816.174 408.346 L
828.558 408.346 L
828.558 412 L
cp
S
GR
GS
[0.6 0 0 0.6 0 0] CT
10.0 ML
0.833 LW
N
828.558 412 M
828.558 409.912 L
840.942 409.912 L
840.942 412 L
cp
S
GR
GS
[0.6 0 0 0.6 0 0] CT
10.0 ML
0.833 LW
N
840.942 412 M
840.942 410.434 L
853.326 410.434 L
853.326 412 L
cp
S
GR
GS
[0.6 0 0 0.6 0 0] CT
10.0 ML
0.833 LW
N
853.326 412 M
853.326 410.956 L
865.709 410.956 L
865.709 412 L
cp
S
GR
GS
[0.6 0 0 0.6 0 0] CT
10.0 ML
0.833 LW
N
865.709 412 M
865.709 411.478 L
878.093 411.478 L
878.093 412 L
cp
S
GR
GS
[0.6 0 0 0.6 0 0] CT
1 0 0 RC
1 LJ
3.333 LW
N
351.353 408.343 M
356.101 407.622 L
360.849 406.778 L
365.597 405.794 L
370.345 404.652 L
375.093 403.332 L
379.841 401.811 L
384.589 400.068 L
389.337 398.077 L
394.085 395.815 L
398.833 393.253 L
403.581 390.366 L
408.329 387.125 L
413.077 383.504 L
417.825 379.475 L
422.573 375.013 L
427.321 370.093 L
432.069 364.693 L
436.817 358.793 L
441.565 352.376 L
446.313 345.43 L
451.061 337.948 L
455.809 329.926 L
460.557 321.369 L
465.305 312.287 L
470.053 302.697 L
474.801 292.624 L
479.549 282.101 L
484.297 271.168 L
489.045 259.875 L
493.793 248.279 L
498.541 236.445 L
503.289 224.446 L
508.037 212.361 L
512.785 200.277 L
517.534 188.284 L
522.281 176.479 L
527.029 164.96 L
531.778 153.828 L
536.526 143.183 L
541.273 133.125 L
546.022 123.752 L
550.77 115.156 L
555.518 107.425 L
560.266 100.638 L
565.014 94.866 L
569.762 90.172 L
574.51 86.606 L
579.258 84.207 L
584.006 83 L
588.754 83 L
593.502 84.206 L
598.25 86.605 L
602.998 90.171 L
607.746 94.864 L
612.494 100.635 L
617.242 107.422 L
621.99 115.153 L
626.738 123.749 L
631.486 133.122 L
636.234 143.179 L
640.982 153.824 L
645.73 164.956 L
650.478 176.475 L
655.226 188.28 L
659.974 200.273 L
664.722 212.357 L
669.47 224.442 L
674.218 236.441 L
678.966 248.275 L
683.714 259.871 L
688.462 271.164 L
693.21 282.097 L
697.958 292.621 L
702.706 302.694 L
707.454 312.284 L
712.202 321.366 L
716.95 329.923 L
721.698 337.945 L
726.446 345.427 L
731.194 352.373 L
735.942 358.79 L
740.69 364.691 L
745.438 370.091 L
750.186 375.012 L
754.934 379.474 L
759.682 383.502 L
764.43 387.124 L
769.178 390.364 L
773.926 393.252 L
778.674 395.814 L
783.422 398.077 L
788.17 400.067 L
792.918 401.81 L
797.666 403.331 L
802.414 404.652 L
807.162 405.794 L
811.91 406.778 L
816.658 407.622 L
821.406 408.343 L
S
GR
GS
[0.6 0 0 0.6 0 0] CT
0.149 GC
2 setlinecap
1 LJ
0.833 LW
N
249 412 M
888 412 L
S
GR
GS
[0.6 0 0 0.6 0 0] CT
0.149 GC
2 setlinecap
1 LJ
0.833 LW
N
249 83 M
888 83 L
S
GR
GS
[0.6 0 0 0.6 0 0] CT
0.149 GC
2 setlinecap
1 LJ
0.833 LW
N
258.907 412 M
258.907 405.61 L
S
GR
GS
[0.6 0 0 0.6 0 0] CT
0.149 GC
2 setlinecap
1 LJ
0.833 LW
N
411.792 412 M
411.792 405.61 L
S
GR
GS
[0.6 0 0 0.6 0 0] CT
0.149 GC
2 setlinecap
1 LJ
0.833 LW
N
564.678 412 M
564.678 405.61 L
S
GR
GS
[0.6 0 0 0.6 0 0] CT
0.149 GC
2 setlinecap
1 LJ
0.833 LW
N
717.563 412 M
717.563 405.61 L
S
GR
GS
[0.6 0 0 0.6 0 0] CT
0.149 GC
2 setlinecap
1 LJ
0.833 LW
N
870.449 412 M
870.449 405.61 L
S
GR
GS
[0.6 0 0 0.6 0 0] CT
0.149 GC
2 setlinecap
1 LJ
0.833 LW
N
258.907 83 M
258.907 89.39 L
S
GR
GS
[0.6 0 0 0.6 0 0] CT
0.149 GC
2 setlinecap
1 LJ
0.833 LW
N
411.792 83 M
411.792 89.39 L
S
GR
GS
[0.6 0 0 0.6 0 0] CT
0.149 GC
2 setlinecap
1 LJ
0.833 LW
N
564.678 83 M
564.678 89.39 L
S
GR
GS
[0.6 0 0 0.6 0 0] CT
0.149 GC
2 setlinecap
1 LJ
0.833 LW
N
717.563 83 M
717.563 89.39 L
S
GR
GS
[0.6 0 0 0.6 0 0] CT
0.149 GC
2 setlinecap
1 LJ
0.833 LW
N
870.449 83 M
870.449 89.39 L
S
GR
GS
[0.6 0 0 0.6 155.34418 253.2] CT
0.149 GC
/Helvetica 33.333 F
GS
[1 0 0 1 0 0] CT
-24.5 34 moveto 
1 -1 scale
(-20) t 
GR
GR
GS
[0.6 0 0 0.6 247.07544 253.2] CT
0.149 GC
/Helvetica 33.333 F
GS
[1 0 0 1 0 0] CT
-24.5 34 moveto 
1 -1 scale
(-10) t 
GR
GR
GS
[0.6 0 0 0.6 338.8067 253.2] CT
0.149 GC
/Helvetica 33.333 F
GS
[1 0 0 1 0 0] CT
-9.5 34 moveto 
1 -1 scale
(0) t 
GR
GR
GS
[0.6 0 0 0.6 430.53796 253.2] CT
0.149 GC
/Helvetica 33.333 F
GS
[1 0 0 1 0 0] CT
-19 34 moveto 
1 -1 scale
(10) t 
GR
GR
GS
[0.6 0 0 0.6 522.26922 253.2] CT
0.149 GC
/Helvetica 33.333 F
GS
[1 0 0 1 0 0] CT
-19 34 moveto 
1 -1 scale
(20) t 
GR
GR
GS
[0.6 0 0 0.6 0 0] CT
0.149 GC
2 setlinecap
1 LJ
0.833 LW
N
249 412 M
249 83 L
S
GR
GS
[0.6 0 0 0.6 0 0] CT
0.149 GC
2 setlinecap
1 LJ
0.833 LW
N
888 412 M
888 83 L
S
GR
GS
[0.6 0 0 0.6 0 0] CT
0.149 GC
2 setlinecap
1 LJ
0.833 LW
N
249 412 M
255.39 412 L
S
GR
GS
[0.6 0 0 0.6 0 0] CT
0.149 GC
2 setlinecap
1 LJ
0.833 LW
N
249 307.61 M
255.39 307.61 L
S
GR
GS
[0.6 0 0 0.6 0 0] CT
0.149 GC
2 setlinecap
1 LJ
0.833 LW
N
249 203.219 M
255.39 203.219 L
S
GR
GS
[0.6 0 0 0.6 0 0] CT
0.149 GC
2 setlinecap
1 LJ
0.833 LW
N
249 98.829 M
255.39 98.829 L
S
GR
GS
[0.6 0 0 0.6 0 0] CT
0.149 GC
2 setlinecap
1 LJ
0.833 LW
N
888 412 M
881.61 412 L
S
GR
GS
[0.6 0 0 0.6 0 0] CT
0.149 GC
2 setlinecap
1 LJ
0.833 LW
N
888 307.61 M
881.61 307.61 L
S
GR
GS
[0.6 0 0 0.6 0 0] CT
0.149 GC
2 setlinecap
1 LJ
0.833 LW
N
888 203.219 M
881.61 203.219 L
S
GR
GS
[0.6 0 0 0.6 0 0] CT
0.149 GC
2 setlinecap
1 LJ
0.833 LW
N
888 98.829 M
881.61 98.829 L
S
GR
GS
[0.6 0 0 0.6 143.39998 247.2] CT
0.149 GC
/Helvetica 33.333 F
GS
[1 0 0 1 0 0] CT
-19 13 moveto 
1 -1 scale
(0) t 
GR
GR
GS
[0.6 0 0 0.6 143.39998 184.56572] CT
0.149 GC
/Helvetica 33.333 F
GS
[1 0 0 1 0 0] CT
-56 13 moveto 
1 -1 scale
(200) t 
GR
GR
GS
[0.6 0 0 0.6 143.39998 121.93142] CT
0.149 GC
/Helvetica 33.333 F
GS
[1 0 0 1 0 0] CT
-56 13 moveto 
1 -1 scale
(400) t 
GR
GR
GS
[0.6 0 0 0.6 143.39998 59.29714] CT
0.149 GC
/Helvetica 33.333 F
GS
[1 0 0 1 0 0] CT
-56 13 moveto 
1 -1 scale
(600) t 
GR
GR
GS
[0.6 0 0 0.6 0 0] CT
1 GC
N
1090 412 M
1730 412 L
1730 83 L
1090 83 L
cp
f
GR
GS
[0.6 0 0 0.6 846.00077 46.5] CT
/Helvetica-Bold 36.667 F
GS
[1 0 0 1 0 0] CT
-56.5 -9 moveto 
1 -1 scale
(US120) t 
GR
GR
GS
[0.6 0 0 0.6 0 0] CT
0.149 GC
1 LJ
0.833 LW
N
1090 412 M
1730 412 L
S
GR
GS
[0.6 0 0 0.6 0 0] CT
0 0.447 0.741 RC
N
1112.326 412 M
1112.326 411.474 L
1099.922 411.474 L
1099.922 412 L
cp
1137.132 411.474 M
1124.729 411.474 L
1124.729 412 L
1137.132 412 L
1149.535 412 L
1149.535 411.474 L
cp
1161.938 412 M
1161.938 410.422 L
1149.535 410.422 L
1149.535 412 L
cp
1174.341 412 M
1174.341 410.948 L
1161.938 410.948 L
1161.938 412 L
cp
1186.744 412 M
1186.744 410.422 L
1174.341 410.422 L
1174.341 412 L
cp
1199.147 412 M
1199.147 409.896 L
1186.744 409.896 L
1186.744 412 L
cp
1211.55 412 M
1211.55 405.161 L
1199.147 405.161 L
1199.147 412 L
cp
1223.953 412 M
1223.953 400.953 L
1211.55 400.953 L
1211.55 412 L
cp
1236.357 412 M
1236.357 397.27 L
1223.953 397.27 L
1223.953 412 L
cp
1248.76 412 M
1248.76 388.328 L
1236.357 388.328 L
1236.357 412 L
cp
1261.163 412 M
1261.163 383.593 L
1248.76 383.593 L
1248.76 412 L
cp
1273.566 412 M
1273.566 356.238 L
1261.163 356.238 L
1261.163 412 L
cp
1285.969 412 M
1285.969 361.499 L
1273.566 361.499 L
1273.566 412 L
cp
1298.372 412 M
1298.372 344.139 L
1285.969 344.139 L
1285.969 412 L
cp
1310.775 412 M
1310.775 315.732 L
1298.372 315.732 L
1298.372 412 L
cp
1323.178 412 M
1323.178 284.169 L
1310.775 284.169 L
1310.775 412 L
cp
1335.581 412 M
1335.581 255.762 L
1323.178 255.762 L
1323.178 412 L
cp
1347.984 412 M
1347.984 228.407 L
1335.581 228.407 L
1335.581 412 L
cp
1360.388 412 M
1360.388 195.265 L
1347.984 195.265 L
1347.984 412 L
cp
1372.791 412 M
1372.791 161.598 L
1360.388 161.598 L
1360.388 412 L
cp
1385.194 412 M
1385.194 141.082 L
1372.791 141.082 L
1372.791 412 L
cp
1397.597 412 M
1397.597 126.878 L
1385.194 126.878 L
1385.194 412 L
cp
1410 412 M
1410 87.95 L
1397.597 87.95 L
1397.597 412 L
cp
1422.403 412 M
1422.403 98.997 L
1410 98.997 L
1410 412 L
cp
1434.806 412 M
1434.806 83.742 L
1422.403 83.742 L
1422.403 412 L
cp
1447.209 412 M
1447.209 92.159 L
1434.806 92.159 L
1434.806 412 L
cp
1459.612 412 M
1459.612 88.476 L
1447.209 88.476 L
1447.209 412 L
cp
1472.016 412 M
1472.016 115.831 L
1459.612 115.831 L
1459.612 412 L
cp
1484.419 412 M
1484.419 142.66 L
1472.016 142.66 L
1472.016 412 L
cp
1496.822 412 M
1496.822 176.327 L
1484.419 176.327 L
1484.419 412 L
cp
1509.225 412 M
1509.225 205.26 L
1496.822 205.26 L
1496.822 412 L
cp
1521.628 412 M
1521.628 242.61 L
1509.225 242.61 L
1509.225 412 L
cp
1534.031 412 M
1534.031 260.496 L
1521.628 260.496 L
1521.628 412 L
cp
1546.434 412 M
1546.434 304.159 L
1534.031 304.159 L
1534.031 412 L
cp
1558.837 412 M
1558.837 313.102 L
1546.434 313.102 L
1546.434 412 L
cp
1571.24 412 M
1571.24 324.149 L
1558.837 324.149 L
1558.837 412 L
cp
1583.643 412 M
1583.643 356.764 L
1571.24 356.764 L
1571.24 412 L
cp
1596.047 412 M
1596.047 366.233 L
1583.643 366.233 L
1583.643 412 L
cp
1608.45 412 M
1608.45 394.64 L
1596.047 394.64 L
1596.047 412 L
cp
1620.853 412 M
1620.853 394.114 L
1608.45 394.114 L
1608.45 412 L
cp
1633.256 412 M
1633.256 397.27 L
1620.853 397.27 L
1620.853 412 L
cp
1645.659 412 M
1645.659 402.531 L
1633.256 402.531 L
1633.256 412 L
cp
1658.062 412 M
1658.062 406.213 L
1645.659 406.213 L
1645.659 412 L
cp
1670.465 412 M
1670.465 410.422 L
1658.062 410.422 L
1658.062 412 L
cp
1682.868 412 M
1682.868 408.318 L
1670.465 408.318 L
1670.465 412 L
cp
1695.271 410.948 M
1682.868 410.948 L
1682.868 412 L
1695.271 412 L
1707.674 412 L
1720.078 412 L
1720.078 410.948 L
1707.674 410.948 L
cp
f
GR
GS
[0.6 0 0 0.6 0 0] CT
10.0 ML
0.833 LW
N
1099.922 412 M
1099.922 411.474 L
1112.326 411.474 L
1112.326 412 L
cp
S
GR
GS
[0.6 0 0 0.6 0 0] CT
10.0 ML
0.833 LW
N
1112.326 412 M
1112.326 412 L
1124.729 412 L
1124.729 412 L
cp
S
GR
GS
[0.6 0 0 0.6 0 0] CT
10.0 ML
0.833 LW
N
1124.729 412 M
1124.729 411.474 L
1137.132 411.474 L
1137.132 412 L
cp
S
GR
GS
[0.6 0 0 0.6 0 0] CT
10.0 ML
0.833 LW
N
1137.132 412 M
1137.132 411.474 L
1149.535 411.474 L
1149.535 412 L
cp
S
GR
GS
[0.6 0 0 0.6 0 0] CT
10.0 ML
0.833 LW
N
1149.535 412 M
1149.535 410.422 L
1161.938 410.422 L
1161.938 412 L
cp
S
GR
GS
[0.6 0 0 0.6 0 0] CT
10.0 ML
0.833 LW
N
1161.938 412 M
1161.938 410.948 L
1174.341 410.948 L
1174.341 412 L
cp
S
GR
GS
[0.6 0 0 0.6 0 0] CT
10.0 ML
0.833 LW
N
1174.341 412 M
1174.341 410.422 L
1186.744 410.422 L
1186.744 412 L
cp
S
GR
GS
[0.6 0 0 0.6 0 0] CT
10.0 ML
0.833 LW
N
1186.744 412 M
1186.744 409.896 L
1199.147 409.896 L
1199.147 412 L
cp
S
GR
GS
[0.6 0 0 0.6 0 0] CT
10.0 ML
0.833 LW
N
1199.147 412 M
1199.147 405.161 L
1211.55 405.161 L
1211.55 412 L
cp
S
GR
GS
[0.6 0 0 0.6 0 0] CT
10.0 ML
0.833 LW
N
1211.55 412 M
1211.55 400.953 L
1223.953 400.953 L
1223.953 412 L
cp
S
GR
GS
[0.6 0 0 0.6 0 0] CT
10.0 ML
0.833 LW
N
1223.953 412 M
1223.953 397.27 L
1236.357 397.27 L
1236.357 412 L
cp
S
GR
GS
[0.6 0 0 0.6 0 0] CT
10.0 ML
0.833 LW
N
1236.357 412 M
1236.357 388.328 L
1248.76 388.328 L
1248.76 412 L
cp
S
GR
GS
[0.6 0 0 0.6 0 0] CT
10.0 ML
0.833 LW
N
1248.76 412 M
1248.76 383.593 L
1261.163 383.593 L
1261.163 412 L
cp
S
GR
GS
[0.6 0 0 0.6 0 0] CT
10.0 ML
0.833 LW
N
1261.163 412 M
1261.163 356.238 L
1273.566 356.238 L
1273.566 412 L
cp
S
GR
GS
[0.6 0 0 0.6 0 0] CT
10.0 ML
0.833 LW
N
1273.566 412 M
1273.566 361.499 L
1285.969 361.499 L
1285.969 412 L
cp
S
GR
GS
[0.6 0 0 0.6 0 0] CT
10.0 ML
0.833 LW
N
1285.969 412 M
1285.969 344.139 L
1298.372 344.139 L
1298.372 412 L
cp
S
GR
GS
[0.6 0 0 0.6 0 0] CT
10.0 ML
0.833 LW
N
1298.372 412 M
1298.372 315.732 L
1310.775 315.732 L
1310.775 412 L
cp
S
GR
GS
[0.6 0 0 0.6 0 0] CT
10.0 ML
0.833 LW
N
1310.775 412 M
1310.775 284.169 L
1323.178 284.169 L
1323.178 412 L
cp
S
GR
GS
[0.6 0 0 0.6 0 0] CT
10.0 ML
0.833 LW
N
1323.178 412 M
1323.178 255.762 L
1335.581 255.762 L
1335.581 412 L
cp
S
GR
GS
[0.6 0 0 0.6 0 0] CT
10.0 ML
0.833 LW
N
1335.581 412 M
1335.581 228.407 L
1347.984 228.407 L
1347.984 412 L
cp
S
GR
GS
[0.6 0 0 0.6 0 0] CT
10.0 ML
0.833 LW
N
1347.984 412 M
1347.984 195.265 L
1360.388 195.265 L
1360.388 412 L
cp
S
GR
GS
[0.6 0 0 0.6 0 0] CT
10.0 ML
0.833 LW
N
1360.388 412 M
1360.388 161.598 L
1372.791 161.598 L
1372.791 412 L
cp
S
GR
GS
[0.6 0 0 0.6 0 0] CT
10.0 ML
0.833 LW
N
1372.791 412 M
1372.791 141.082 L
1385.194 141.082 L
1385.194 412 L
cp
S
GR
GS
[0.6 0 0 0.6 0 0] CT
10.0 ML
0.833 LW
N
1385.194 412 M
1385.194 126.878 L
1397.597 126.878 L
1397.597 412 L
cp
S
GR
GS
[0.6 0 0 0.6 0 0] CT
10.0 ML
0.833 LW
N
1397.597 412 M
1397.597 87.95 L
1410 87.95 L
1410 412 L
cp
S
GR
GS
[0.6 0 0 0.6 0 0] CT
10.0 ML
0.833 LW
N
1410 412 M
1410 98.997 L
1422.403 98.997 L
1422.403 412 L
cp
S
GR
GS
[0.6 0 0 0.6 0 0] CT
10.0 ML
0.833 LW
N
1422.403 412 M
1422.403 83.742 L
1434.806 83.742 L
1434.806 412 L
cp
S
GR
GS
[0.6 0 0 0.6 0 0] CT
10.0 ML
0.833 LW
N
1434.806 412 M
1434.806 92.159 L
1447.209 92.159 L
1447.209 412 L
cp
S
GR
GS
[0.6 0 0 0.6 0 0] CT
10.0 ML
0.833 LW
N
1447.209 412 M
1447.209 88.476 L
1459.612 88.476 L
1459.612 412 L
cp
S
GR
GS
[0.6 0 0 0.6 0 0] CT
10.0 ML
0.833 LW
N
1459.612 412 M
1459.612 115.831 L
1472.016 115.831 L
1472.016 412 L
cp
S
GR
GS
[0.6 0 0 0.6 0 0] CT
10.0 ML
0.833 LW
N
1472.016 412 M
1472.016 142.66 L
1484.419 142.66 L
1484.419 412 L
cp
S
GR
GS
[0.6 0 0 0.6 0 0] CT
10.0 ML
0.833 LW
N
1484.419 412 M
1484.419 176.327 L
1496.822 176.327 L
1496.822 412 L
cp
S
GR
GS
[0.6 0 0 0.6 0 0] CT
10.0 ML
0.833 LW
N
1496.822 412 M
1496.822 205.26 L
1509.225 205.26 L
1509.225 412 L
cp
S
GR
GS
[0.6 0 0 0.6 0 0] CT
10.0 ML
0.833 LW
N
1509.225 412 M
1509.225 242.61 L
1521.628 242.61 L
1521.628 412 L
cp
S
GR
GS
[0.6 0 0 0.6 0 0] CT
10.0 ML
0.833 LW
N
1521.628 412 M
1521.628 260.496 L
1534.031 260.496 L
1534.031 412 L
cp
S
GR
GS
[0.6 0 0 0.6 0 0] CT
10.0 ML
0.833 LW
N
1534.031 412 M
1534.031 304.159 L
1546.434 304.159 L
1546.434 412 L
cp
S
GR
GS
[0.6 0 0 0.6 0 0] CT
10.0 ML
0.833 LW
N
1546.434 412 M
1546.434 313.102 L
1558.837 313.102 L
1558.837 412 L
cp
S
GR
GS
[0.6 0 0 0.6 0 0] CT
10.0 ML
0.833 LW
N
1558.837 412 M
1558.837 324.149 L
1571.24 324.149 L
1571.24 412 L
cp
S
GR
GS
[0.6 0 0 0.6 0 0] CT
10.0 ML
0.833 LW
N
1571.24 412 M
1571.24 356.764 L
1583.643 356.764 L
1583.643 412 L
cp
S
GR
GS
[0.6 0 0 0.6 0 0] CT
10.0 ML
0.833 LW
N
1583.643 412 M
1583.643 366.233 L
1596.047 366.233 L
1596.047 412 L
cp
S
GR
GS
[0.6 0 0 0.6 0 0] CT
10.0 ML
0.833 LW
N
1596.047 412 M
1596.047 394.64 L
1608.45 394.64 L
1608.45 412 L
cp
S
GR
GS
[0.6 0 0 0.6 0 0] CT
10.0 ML
0.833 LW
N
1608.45 412 M
1608.45 394.114 L
1620.853 394.114 L
1620.853 412 L
cp
S
GR
GS
[0.6 0 0 0.6 0 0] CT
10.0 ML
0.833 LW
N
1620.853 412 M
1620.853 397.27 L
1633.256 397.27 L
1633.256 412 L
cp
S
GR
GS
[0.6 0 0 0.6 0 0] CT
10.0 ML
0.833 LW
N
1633.256 412 M
1633.256 402.531 L
1645.659 402.531 L
1645.659 412 L
cp
S
GR
GS
[0.6 0 0 0.6 0 0] CT
10.0 ML
0.833 LW
N
1645.659 412 M
1645.659 406.213 L
1658.062 406.213 L
1658.062 412 L
cp
S
GR
GS
[0.6 0 0 0.6 0 0] CT
10.0 ML
0.833 LW
N
1658.062 412 M
1658.062 410.422 L
1670.465 410.422 L
1670.465 412 L
cp
S
GR
GS
[0.6 0 0 0.6 0 0] CT
10.0 ML
0.833 LW
N
1670.465 412 M
1670.465 408.318 L
1682.868 408.318 L
1682.868 412 L
cp
S
GR
GS
[0.6 0 0 0.6 0 0] CT
10.0 ML
0.833 LW
N
1682.868 412 M
1682.868 410.948 L
1695.271 410.948 L
1695.271 412 L
cp
S
GR
GS
[0.6 0 0 0.6 0 0] CT
10.0 ML
0.833 LW
N
1695.271 412 M
1695.271 410.948 L
1707.674 410.948 L
1707.674 412 L
cp
S
GR
GS
[0.6 0 0 0.6 0 0] CT
10.0 ML
0.833 LW
N
1707.674 412 M
1707.674 410.948 L
1720.078 410.948 L
1720.078 412 L
cp
S
GR
GS
[0.6 0 0 0.6 0 0] CT
1 0 0 RC
1 LJ
3.333 LW
N
1190.064 408.343 M
1194.857 407.622 L
1199.65 406.778 L
1204.443 405.794 L
1209.236 404.652 L
1214.028 403.332 L
1218.821 401.811 L
1223.614 400.068 L
1228.407 398.077 L
1233.2 395.815 L
1237.993 393.253 L
1242.785 390.366 L
1247.578 387.125 L
1252.371 383.504 L
1257.164 379.475 L
1261.957 375.013 L
1266.749 370.093 L
1271.542 364.693 L
1276.335 358.793 L
1281.128 352.376 L
1285.921 345.43 L
1290.714 337.948 L
1295.506 329.926 L
1300.299 321.369 L
1305.092 312.287 L
1309.885 302.697 L
1314.678 292.624 L
1319.47 282.101 L
1324.263 271.168 L
1329.056 259.875 L
1333.849 248.279 L
1338.642 236.445 L
1343.435 224.446 L
1348.227 212.361 L
1353.02 200.277 L
1357.813 188.284 L
1362.606 176.479 L
1367.399 164.96 L
1372.191 153.828 L
1376.984 143.183 L
1381.777 133.125 L
1386.57 123.752 L
1391.363 115.156 L
1396.156 107.425 L
1400.948 100.638 L
1405.741 94.866 L
1410.534 90.172 L
1415.327 86.606 L
1420.12 84.207 L
1424.912 83 L
1429.705 83 L
1434.498 84.206 L
1439.291 86.605 L
1444.084 90.171 L
1448.876 94.864 L
1453.669 100.635 L
1458.462 107.422 L
1463.255 115.153 L
1468.048 123.749 L
1472.841 133.122 L
1477.633 143.179 L
1482.426 153.824 L
1487.219 164.956 L
1492.012 176.475 L
1496.805 188.28 L
1501.597 200.272 L
1506.39 212.357 L
1511.183 224.442 L
1515.976 236.441 L
1520.769 248.275 L
1525.562 259.871 L
1530.354 271.164 L
1535.147 282.097 L
1539.94 292.621 L
1544.733 302.694 L
1549.526 312.284 L
1554.318 321.366 L
1559.111 329.923 L
1563.904 337.945 L
1568.697 345.427 L
1573.49 352.373 L
1578.282 358.79 L
1583.075 364.691 L
1587.868 370.091 L
1592.661 375.012 L
1597.454 379.474 L
1602.247 383.502 L
1607.039 387.124 L
1611.832 390.364 L
1616.625 393.252 L
1621.418 395.814 L
1626.211 398.077 L
1631.004 400.067 L
1635.796 401.81 L
1640.589 403.331 L
1645.382 404.652 L
1650.175 405.794 L
1654.968 406.778 L
1659.76 407.622 L
1664.553 408.343 L
S
GR
GS
[0.6 0 0 0.6 0 0] CT
0.149 GC
2 setlinecap
1 LJ
0.833 LW
N
1090 412 M
1730 412 L
S
GR
GS
[0.6 0 0 0.6 0 0] CT
0.149 GC
2 setlinecap
1 LJ
0.833 LW
N
1090 83 M
1730 83 L
S
GR
GS
[0.6 0 0 0.6 0 0] CT
0.149 GC
2 setlinecap
1 LJ
0.833 LW
N
1108.082 412 M
1108.082 405.6 L
S
GR
GS
[0.6 0 0 0.6 0 0] CT
0.149 GC
2 setlinecap
1 LJ
0.833 LW
N
1271.281 412 M
1271.281 405.6 L
S
GR
GS
[0.6 0 0 0.6 0 0] CT
0.149 GC
2 setlinecap
1 LJ
0.833 LW
N
1434.48 412 M
1434.48 405.6 L
S
GR
GS
[0.6 0 0 0.6 0 0] CT
0.149 GC
2 setlinecap
1 LJ
0.833 LW
N
1597.678 412 M
1597.678 405.6 L
S
GR
GS
[0.6 0 0 0.6 0 0] CT
0.149 GC
2 setlinecap
1 LJ
0.833 LW
N
1108.082 83 M
1108.082 89.4 L
S
GR
GS
[0.6 0 0 0.6 0 0] CT
0.149 GC
2 setlinecap
1 LJ
0.833 LW
N
1271.281 83 M
1271.281 89.4 L
S
GR
GS
[0.6 0 0 0.6 0 0] CT
0.149 GC
2 setlinecap
1 LJ
0.833 LW
N
1434.48 83 M
1434.48 89.4 L
S
GR
GS
[0.6 0 0 0.6 0 0] CT
0.149 GC
2 setlinecap
1 LJ
0.833 LW
N
1597.678 83 M
1597.678 89.4 L
S
GR
GS
[0.6 0 0 0.6 664.84941 253.2] CT
0.149 GC
/Helvetica 33.333 F
GS
[1 0 0 1 0 0] CT
-24.5 34 moveto 
1 -1 scale
(-40) t 
GR
GR
GS
[0.6 0 0 0.6 762.76864 253.2] CT
0.149 GC
/Helvetica 33.333 F
GS
[1 0 0 1 0 0] CT
-24.5 34 moveto 
1 -1 scale
(-20) t 
GR
GR
GS
[0.6 0 0 0.6 860.68788 253.2] CT
0.149 GC
/Helvetica 33.333 F
GS
[1 0 0 1 0 0] CT
-9.5 34 moveto 
1 -1 scale
(0) t 
GR
GR
GS
[0.6 0 0 0.6 958.60704 253.2] CT
0.149 GC
/Helvetica 33.333 F
GS
[1 0 0 1 0 0] CT
-19 34 moveto 
1 -1 scale
(20) t 
GR
GR
GS
[0.6 0 0 0.6 0 0] CT
0.149 GC
2 setlinecap
1 LJ
0.833 LW
N
1090 412 M
1090 83 L
S
GR
GS
[0.6 0 0 0.6 0 0] CT
0.149 GC
2 setlinecap
1 LJ
0.833 LW
N
1730 412 M
1730 83 L
S
GR
GS
[0.6 0 0 0.6 0 0] CT
0.149 GC
2 setlinecap
1 LJ
0.833 LW
N
1090 412 M
1096.4 412 L
S
GR
GS
[0.6 0 0 0.6 0 0] CT
0.149 GC
2 setlinecap
1 LJ
0.833 LW
N
1090 306.789 M
1096.4 306.789 L
S
GR
GS
[0.6 0 0 0.6 0 0] CT
0.149 GC
2 setlinecap
1 LJ
0.833 LW
N
1090 201.578 M
1096.4 201.578 L
S
GR
GS
[0.6 0 0 0.6 0 0] CT
0.149 GC
2 setlinecap
1 LJ
0.833 LW
N
1090 96.367 M
1096.4 96.367 L
S
GR
GS
[0.6 0 0 0.6 0 0] CT
0.149 GC
2 setlinecap
1 LJ
0.833 LW
N
1730 412 M
1723.6 412 L
S
GR
GS
[0.6 0 0 0.6 0 0] CT
0.149 GC
2 setlinecap
1 LJ
0.833 LW
N
1730 306.789 M
1723.6 306.789 L
S
GR
GS
[0.6 0 0 0.6 0 0] CT
0.149 GC
2 setlinecap
1 LJ
0.833 LW
N
1730 201.578 M
1723.6 201.578 L
S
GR
GS
[0.6 0 0 0.6 0 0] CT
0.149 GC
2 setlinecap
1 LJ
0.833 LW
N
1730 96.367 M
1723.6 96.367 L
S
GR
GS
[0.6 0 0 0.6 647.99997 247.2] CT
0.149 GC
/Helvetica 33.333 F
GS
[1 0 0 1 0 0] CT
-19 13 moveto 
1 -1 scale
(0) t 
GR
GR
GS
[0.6 0 0 0.6 647.99997 184.07338] CT
0.149 GC
/Helvetica 33.333 F
GS
[1 0 0 1 0 0] CT
-56 13 moveto 
1 -1 scale
(200) t 
GR
GR
GS
[0.6 0 0 0.6 647.99997 120.94678] CT
0.149 GC
/Helvetica 33.333 F
GS
[1 0 0 1 0 0] CT
-56 13 moveto 
1 -1 scale
(400) t 
GR
GR
GS
[0.6 0 0 0.6 647.99997 57.82017] CT
0.149 GC
/Helvetica 33.333 F
GS
[1 0 0 1 0 0] CT
-56 13 moveto 
1 -1 scale
(600) t 
GR
GR
GS
[0.6 0 0 0.6 0 0] CT
1 GC
N
249 881 M
888 881 L
888 552 L
249 552 L
cp
f
GR
GS
[0.6 0 0 0.6 341.10032 327.9] CT
/Helvetica-Bold 36.667 F
GS
[1 0 0 1 0 0] CT
-46 -9 moveto 
1 -1 scale
(DE60) t 
GR
GR
GS
[0.6 0 0 0.6 0 0] CT
0.149 GC
1 LJ
0.833 LW
N
249 881 M
888 881 L
S
GR
GS
[0.6 0 0 0.6 0 0] CT
0 0.447 0.741 RC
N
271.291 881 M
271.291 880.589 L
258.907 880.589 L
258.907 881 L
cp
283.674 880.177 M
271.291 880.177 L
271.291 881 L
283.674 881 L
296.058 881 L
296.058 880.177 L
cp
308.442 879.766 M
296.058 879.766 L
296.058 881 L
308.442 881 L
320.826 881 L
320.826 879.766 L
cp
333.209 881 M
333.209 876.476 L
320.826 876.476 L
320.826 881 L
cp
345.593 881 M
345.593 873.597 L
333.209 873.597 L
333.209 881 L
cp
357.977 881 M
357.977 869.896 L
345.593 869.896 L
345.593 881 L
cp
370.36 881 M
370.36 871.13 L
357.977 871.13 L
357.977 881 L
cp
382.744 881 M
382.744 864.55 L
370.36 864.55 L
370.36 881 L
cp
395.128 881 M
395.128 859.204 L
382.744 859.204 L
382.744 881 L
cp
407.512 881 M
407.512 848.1 L
395.128 848.1 L
395.128 881 L
cp
419.895 881 M
419.895 829.594 L
407.512 829.594 L
407.512 881 L
cp
432.279 881 M
432.279 822.602 L
419.895 822.602 L
419.895 881 L
cp
444.663 881 M
444.663 813.144 L
432.279 813.144 L
432.279 881 L
cp
457.047 881 M
457.047 776.131 L
444.663 776.131 L
444.663 881 L
cp
469.43 881 M
469.43 772.841 L
457.047 772.841 L
457.047 881 L
cp
481.814 881 M
481.814 742.409 L
469.43 742.409 L
469.43 881 L
cp
494.198 881 M
494.198 721.846 L
481.814 721.846 L
481.814 881 L
cp
506.581 881 M
506.581 700.461 L
494.198 700.461 L
494.198 881 L
cp
518.965 881 M
518.965 665.505 L
506.581 665.505 L
506.581 881 L
cp
531.349 660.57 M
518.965 660.57 L
518.965 881 L
531.349 881 L
543.733 881 L
543.733 660.57 L
cp
556.116 881 M
556.116 638.774 L
543.733 638.774 L
543.733 881 L
cp
568.5 881 M
568.5 624.38 L
556.116 624.38 L
556.116 881 L
cp
580.884 881 M
580.884 617.389 L
568.5 617.389 L
568.5 881 L
cp
593.267 881 M
593.267 641.653 L
580.884 641.653 L
580.884 881 L
cp
605.651 881 M
605.651 660.159 L
593.267 660.159 L
593.267 881 L
cp
618.035 881 M
618.035 663.86 L
605.651 663.86 L
605.651 881 L
cp
630.419 881 M
630.419 688.946 L
618.035 688.946 L
618.035 881 L
cp
642.802 881 M
642.802 726.781 L
630.419 726.781 L
630.419 881 L
cp
655.186 881 M
655.186 723.491 L
642.802 723.491 L
642.802 881 L
cp
667.57 881 M
667.57 768.729 L
655.186 768.729 L
655.186 881 L
cp
679.953 881 M
679.953 777.365 L
667.57 777.365 L
667.57 881 L
cp
692.337 881 M
692.337 794.226 L
679.953 794.226 L
679.953 881 L
cp
704.721 881 M
704.721 808.209 L
692.337 808.209 L
692.337 881 L
cp
717.105 881 M
717.105 831.65 L
704.721 831.65 L
704.721 881 L
cp
729.488 881 M
729.488 848.922 L
717.105 848.922 L
717.105 881 L
cp
741.872 881 M
741.872 854.269 L
729.488 854.269 L
729.488 881 L
cp
754.256 881 M
754.256 861.26 L
741.872 861.26 L
741.872 881 L
cp
766.64 881 M
766.64 870.719 L
754.256 870.719 L
754.256 881 L
cp
779.023 881 M
779.023 874.009 L
766.64 874.009 L
766.64 881 L
cp
791.407 881 M
791.407 876.476 L
779.023 876.476 L
779.023 881 L
cp
803.791 881 M
803.791 876.888 L
791.407 876.888 L
791.407 881 L
cp
816.174 881 M
816.174 878.121 L
803.791 878.121 L
803.791 881 L
cp
828.558 881 M
828.558 878.944 L
816.174 878.944 L
816.174 881 L
cp
840.942 881 M
840.942 880.589 L
828.558 880.589 L
828.558 881 L
cp
878.093 881 M
878.093 880.589 L
865.709 880.589 L
865.709 881 L
cp
f
GR
GS
[0.6 0 0 0.6 0 0] CT
10.0 ML
0.833 LW
N
258.907 881 M
258.907 880.589 L
271.291 880.589 L
271.291 881 L
cp
S
GR
GS
[0.6 0 0 0.6 0 0] CT
10.0 ML
0.833 LW
N
271.291 881 M
271.291 880.177 L
283.674 880.177 L
283.674 881 L
cp
S
GR
GS
[0.6 0 0 0.6 0 0] CT
10.0 ML
0.833 LW
N
283.674 881 M
283.674 880.177 L
296.058 880.177 L
296.058 881 L
cp
S
GR
GS
[0.6 0 0 0.6 0 0] CT
10.0 ML
0.833 LW
N
296.058 881 M
296.058 879.766 L
308.442 879.766 L
308.442 881 L
cp
S
GR
GS
[0.6 0 0 0.6 0 0] CT
10.0 ML
0.833 LW
N
308.442 881 M
308.442 879.766 L
320.826 879.766 L
320.826 881 L
cp
S
GR
GS
[0.6 0 0 0.6 0 0] CT
10.0 ML
0.833 LW
N
320.826 881 M
320.826 876.476 L
333.209 876.476 L
333.209 881 L
cp
S
GR
GS
[0.6 0 0 0.6 0 0] CT
10.0 ML
0.833 LW
N
333.209 881 M
333.209 873.597 L
345.593 873.597 L
345.593 881 L
cp
S
GR
GS
[0.6 0 0 0.6 0 0] CT
10.0 ML
0.833 LW
N
345.593 881 M
345.593 869.896 L
357.977 869.896 L
357.977 881 L
cp
S
GR
GS
[0.6 0 0 0.6 0 0] CT
10.0 ML
0.833 LW
N
357.977 881 M
357.977 871.13 L
370.36 871.13 L
370.36 881 L
cp
S
GR
GS
[0.6 0 0 0.6 0 0] CT
10.0 ML
0.833 LW
N
370.36 881 M
370.36 864.55 L
382.744 864.55 L
382.744 881 L
cp
S
GR
GS
[0.6 0 0 0.6 0 0] CT
10.0 ML
0.833 LW
N
382.744 881 M
382.744 859.204 L
395.128 859.204 L
395.128 881 L
cp
S
GR
GS
[0.6 0 0 0.6 0 0] CT
10.0 ML
0.833 LW
N
395.128 881 M
395.128 848.1 L
407.512 848.1 L
407.512 881 L
cp
S
GR
GS
[0.6 0 0 0.6 0 0] CT
10.0 ML
0.833 LW
N
407.512 881 M
407.512 829.594 L
419.895 829.594 L
419.895 881 L
cp
S
GR
GS
[0.6 0 0 0.6 0 0] CT
10.0 ML
0.833 LW
N
419.895 881 M
419.895 822.602 L
432.279 822.602 L
432.279 881 L
cp
S
GR
GS
[0.6 0 0 0.6 0 0] CT
10.0 ML
0.833 LW
N
432.279 881 M
432.279 813.144 L
444.663 813.144 L
444.663 881 L
cp
S
GR
GS
[0.6 0 0 0.6 0 0] CT
10.0 ML
0.833 LW
N
444.663 881 M
444.663 776.131 L
457.047 776.131 L
457.047 881 L
cp
S
GR
GS
[0.6 0 0 0.6 0 0] CT
10.0 ML
0.833 LW
N
457.047 881 M
457.047 772.841 L
469.43 772.841 L
469.43 881 L
cp
S
GR
GS
[0.6 0 0 0.6 0 0] CT
10.0 ML
0.833 LW
N
469.43 881 M
469.43 742.409 L
481.814 742.409 L
481.814 881 L
cp
S
GR
GS
[0.6 0 0 0.6 0 0] CT
10.0 ML
0.833 LW
N
481.814 881 M
481.814 721.846 L
494.198 721.846 L
494.198 881 L
cp
S
GR
GS
[0.6 0 0 0.6 0 0] CT
10.0 ML
0.833 LW
N
494.198 881 M
494.198 700.461 L
506.581 700.461 L
506.581 881 L
cp
S
GR
GS
[0.6 0 0 0.6 0 0] CT
10.0 ML
0.833 LW
N
506.581 881 M
506.581 665.505 L
518.965 665.505 L
518.965 881 L
cp
S
GR
GS
[0.6 0 0 0.6 0 0] CT
10.0 ML
0.833 LW
N
518.965 881 M
518.965 660.57 L
531.349 660.57 L
531.349 881 L
cp
S
GR
GS
[0.6 0 0 0.6 0 0] CT
10.0 ML
0.833 LW
N
531.349 881 M
531.349 660.57 L
543.733 660.57 L
543.733 881 L
cp
S
GR
GS
[0.6 0 0 0.6 0 0] CT
10.0 ML
0.833 LW
N
543.733 881 M
543.733 638.774 L
556.116 638.774 L
556.116 881 L
cp
S
GR
GS
[0.6 0 0 0.6 0 0] CT
10.0 ML
0.833 LW
N
556.116 881 M
556.116 624.38 L
568.5 624.38 L
568.5 881 L
cp
S
GR
GS
[0.6 0 0 0.6 0 0] CT
10.0 ML
0.833 LW
N
568.5 881 M
568.5 617.389 L
580.884 617.389 L
580.884 881 L
cp
S
GR
GS
[0.6 0 0 0.6 0 0] CT
10.0 ML
0.833 LW
N
580.884 881 M
580.884 641.653 L
593.267 641.653 L
593.267 881 L
cp
S
GR
GS
[0.6 0 0 0.6 0 0] CT
10.0 ML
0.833 LW
N
593.267 881 M
593.267 660.159 L
605.651 660.159 L
605.651 881 L
cp
S
GR
GS
[0.6 0 0 0.6 0 0] CT
10.0 ML
0.833 LW
N
605.651 881 M
605.651 663.86 L
618.035 663.86 L
618.035 881 L
cp
S
GR
GS
[0.6 0 0 0.6 0 0] CT
10.0 ML
0.833 LW
N
618.035 881 M
618.035 688.946 L
630.419 688.946 L
630.419 881 L
cp
S
GR
GS
[0.6 0 0 0.6 0 0] CT
10.0 ML
0.833 LW
N
630.419 881 M
630.419 726.781 L
642.802 726.781 L
642.802 881 L
cp
S
GR
GS
[0.6 0 0 0.6 0 0] CT
10.0 ML
0.833 LW
N
642.802 881 M
642.802 723.491 L
655.186 723.491 L
655.186 881 L
cp
S
GR
GS
[0.6 0 0 0.6 0 0] CT
10.0 ML
0.833 LW
N
655.186 881 M
655.186 768.729 L
667.57 768.729 L
667.57 881 L
cp
S
GR
GS
[0.6 0 0 0.6 0 0] CT
10.0 ML
0.833 LW
N
667.57 881 M
667.57 777.365 L
679.953 777.365 L
679.953 881 L
cp
S
GR
GS
[0.6 0 0 0.6 0 0] CT
10.0 ML
0.833 LW
N
679.953 881 M
679.953 794.226 L
692.337 794.226 L
692.337 881 L
cp
S
GR
GS
[0.6 0 0 0.6 0 0] CT
10.0 ML
0.833 LW
N
692.337 881 M
692.337 808.209 L
704.721 808.209 L
704.721 881 L
cp
S
GR
GS
[0.6 0 0 0.6 0 0] CT
10.0 ML
0.833 LW
N
704.721 881 M
704.721 831.65 L
717.105 831.65 L
717.105 881 L
cp
S
GR
GS
[0.6 0 0 0.6 0 0] CT
10.0 ML
0.833 LW
N
717.105 881 M
717.105 848.922 L
729.488 848.922 L
729.488 881 L
cp
S
GR
GS
[0.6 0 0 0.6 0 0] CT
10.0 ML
0.833 LW
N
729.488 881 M
729.488 854.269 L
741.872 854.269 L
741.872 881 L
cp
S
GR
GS
[0.6 0 0 0.6 0 0] CT
10.0 ML
0.833 LW
N
741.872 881 M
741.872 861.26 L
754.256 861.26 L
754.256 881 L
cp
S
GR
GS
[0.6 0 0 0.6 0 0] CT
10.0 ML
0.833 LW
N
754.256 881 M
754.256 870.719 L
766.64 870.719 L
766.64 881 L
cp
S
GR
GS
[0.6 0 0 0.6 0 0] CT
10.0 ML
0.833 LW
N
766.64 881 M
766.64 874.009 L
779.023 874.009 L
779.023 881 L
cp
S
GR
GS
[0.6 0 0 0.6 0 0] CT
10.0 ML
0.833 LW
N
779.023 881 M
779.023 876.476 L
791.407 876.476 L
791.407 881 L
cp
S
GR
GS
[0.6 0 0 0.6 0 0] CT
10.0 ML
0.833 LW
N
791.407 881 M
791.407 876.888 L
803.791 876.888 L
803.791 881 L
cp
S
GR
GS
[0.6 0 0 0.6 0 0] CT
10.0 ML
0.833 LW
N
803.791 881 M
803.791 878.121 L
816.174 878.121 L
816.174 881 L
cp
S
GR
GS
[0.6 0 0 0.6 0 0] CT
10.0 ML
0.833 LW
N
816.174 881 M
816.174 878.944 L
828.558 878.944 L
828.558 881 L
cp
S
GR
GS
[0.6 0 0 0.6 0 0] CT
10.0 ML
0.833 LW
N
828.558 881 M
828.558 880.589 L
840.942 880.589 L
840.942 881 L
cp
S
GR
GS
[0.6 0 0 0.6 0 0] CT
10.0 ML
0.833 LW
N
840.942 881 M
840.942 881 L
853.326 881 L
853.326 881 L
cp
S
GR
GS
[0.6 0 0 0.6 0 0] CT
10.0 ML
0.833 LW
N
853.326 881 M
853.326 881 L
865.709 881 L
865.709 881 L
cp
S
GR
GS
[0.6 0 0 0.6 0 0] CT
10.0 ML
0.833 LW
N
865.709 881 M
865.709 880.589 L
878.093 880.589 L
878.093 881 L
cp
S
GR
GS
[0.6 0 0 0.6 0 0] CT
1 0 0 RC
1 LJ
3.333 LW
N
321.568 878.207 M
326.466 877.657 L
331.364 877.012 L
336.263 876.261 L
341.161 875.388 L
346.06 874.38 L
350.958 873.219 L
355.856 871.887 L
360.755 870.367 L
365.653 868.639 L
370.552 866.683 L
375.45 864.477 L
380.348 862.003 L
385.247 859.237 L
390.145 856.16 L
395.044 852.753 L
399.942 848.995 L
404.84 844.871 L
409.739 840.365 L
414.637 835.464 L
419.536 830.159 L
424.434 824.445 L
429.332 818.319 L
434.231 811.784 L
439.129 804.848 L
444.028 797.524 L
448.926 789.831 L
453.825 781.794 L
458.723 773.445 L
463.621 764.82 L
468.52 755.964 L
473.418 746.926 L
478.317 737.762 L
483.215 728.533 L
488.113 719.304 L
493.012 710.145 L
497.91 701.129 L
502.809 692.332 L
507.707 683.83 L
512.605 675.7 L
517.504 668.019 L
522.402 660.86 L
527.301 654.296 L
532.199 648.391 L
537.097 643.207 L
541.996 638.8 L
546.894 635.215 L
551.793 632.491 L
556.691 630.659 L
561.589 629.738 L
566.488 629.737 L
571.386 630.658 L
576.285 632.491 L
581.183 635.214 L
586.081 638.798 L
590.98 643.206 L
595.878 648.389 L
600.777 654.293 L
605.675 660.858 L
610.573 668.016 L
615.472 675.697 L
620.37 683.827 L
625.269 692.328 L
630.167 701.126 L
635.065 710.141 L
639.964 719.3 L
644.862 728.529 L
649.761 737.759 L
654.659 746.923 L
659.557 755.961 L
664.456 764.817 L
669.354 773.442 L
674.253 781.791 L
679.151 789.828 L
684.049 797.521 L
688.948 804.845 L
693.846 811.781 L
698.745 818.317 L
703.643 824.443 L
708.541 830.157 L
713.44 835.462 L
718.338 840.363 L
723.237 844.869 L
728.135 848.994 L
733.033 852.751 L
737.932 856.159 L
742.83 859.236 L
747.729 862.002 L
752.627 864.477 L
757.525 866.682 L
762.424 868.638 L
767.322 870.366 L
772.221 871.887 L
777.119 873.218 L
782.017 874.379 L
786.916 875.388 L
791.814 876.26 L
796.713 877.012 L
801.611 877.657 L
806.509 878.207 L
S
GR
GS
[0.6 0 0 0.6 0 0] CT
0.149 GC
2 setlinecap
1 LJ
0.833 LW
N
249 881 M
888 881 L
S
GR
GS
[0.6 0 0 0.6 0 0] CT
0.149 GC
2 setlinecap
1 LJ
0.833 LW
N
249 552 M
888 552 L
S
GR
GS
[0.6 0 0 0.6 0 0] CT
0.149 GC
2 setlinecap
1 LJ
0.833 LW
N
271.048 881 M
271.048 874.61 L
S
GR
GS
[0.6 0 0 0.6 0 0] CT
0.149 GC
2 setlinecap
1 LJ
0.833 LW
N
392.457 881 M
392.457 874.61 L
S
GR
GS
[0.6 0 0 0.6 0 0] CT
0.149 GC
2 setlinecap
1 LJ
0.833 LW
N
513.866 881 M
513.866 874.61 L
S
GR
GS
[0.6 0 0 0.6 0 0] CT
0.149 GC
2 setlinecap
1 LJ
0.833 LW
N
635.275 881 M
635.275 874.61 L
S
GR
GS
[0.6 0 0 0.6 0 0] CT
0.149 GC
2 setlinecap
1 LJ
0.833 LW
N
756.684 881 M
756.684 874.61 L
S
GR
GS
[0.6 0 0 0.6 0 0] CT
0.149 GC
2 setlinecap
1 LJ
0.833 LW
N
878.093 881 M
878.093 874.61 L
S
GR
GS
[0.6 0 0 0.6 0 0] CT
0.149 GC
2 setlinecap
1 LJ
0.833 LW
N
271.048 552 M
271.048 558.39 L
S
GR
GS
[0.6 0 0 0.6 0 0] CT
0.149 GC
2 setlinecap
1 LJ
0.833 LW
N
392.457 552 M
392.457 558.39 L
S
GR
GS
[0.6 0 0 0.6 0 0] CT
0.149 GC
2 setlinecap
1 LJ
0.833 LW
N
513.866 552 M
513.866 558.39 L
S
GR
GS
[0.6 0 0 0.6 0 0] CT
0.149 GC
2 setlinecap
1 LJ
0.833 LW
N
635.275 552 M
635.275 558.39 L
S
GR
GS
[0.6 0 0 0.6 0 0] CT
0.149 GC
2 setlinecap
1 LJ
0.833 LW
N
756.684 552 M
756.684 558.39 L
S
GR
GS
[0.6 0 0 0.6 0 0] CT
0.149 GC
2 setlinecap
1 LJ
0.833 LW
N
878.093 552 M
878.093 558.39 L
S
GR
GS
[0.6 0 0 0.6 162.62872 534.6] CT
0.149 GC
/Helvetica 33.333 F
GS
[1 0 0 1 0 0] CT
-24.5 34 moveto 
1 -1 scale
(-15) t 
GR
GR
GS
[0.6 0 0 0.6 235.47414 534.6] CT
0.149 GC
/Helvetica 33.333 F
GS
[1 0 0 1 0 0] CT
-24.5 34 moveto 
1 -1 scale
(-10) t 
GR
GR
GS
[0.6 0 0 0.6 308.31957 534.6] CT
0.149 GC
/Helvetica 33.333 F
GS
[1 0 0 1 0 0] CT
-15 34 moveto 
1 -1 scale
(-5) t 
GR
GR
GS
[0.6 0 0 0.6 381.16496 534.6] CT
0.149 GC
/Helvetica 33.333 F
GS
[1 0 0 1 0 0] CT
-9.5 34 moveto 
1 -1 scale
(0) t 
GR
GR
GS
[0.6 0 0 0.6 454.01039 534.6] CT
0.149 GC
/Helvetica 33.333 F
GS
[1 0 0 1 0 0] CT
-9.5 34 moveto 
1 -1 scale
(5) t 
GR
GR
GS
[0.6 0 0 0.6 526.85579 534.6] CT
0.149 GC
/Helvetica 33.333 F
GS
[1 0 0 1 0 0] CT
-19 34 moveto 
1 -1 scale
(10) t 
GR
GR
GS
[0.6 0 0 0.6 0 0] CT
0.149 GC
2 setlinecap
1 LJ
0.833 LW
N
249 881 M
249 552 L
S
GR
GS
[0.6 0 0 0.6 0 0] CT
0.149 GC
2 setlinecap
1 LJ
0.833 LW
N
888 881 M
888 552 L
S
GR
GS
[0.6 0 0 0.6 0 0] CT
0.149 GC
2 setlinecap
1 LJ
0.833 LW
N
249 881 M
255.39 881 L
S
GR
GS
[0.6 0 0 0.6 0 0] CT
0.149 GC
2 setlinecap
1 LJ
0.833 LW
N
249 798.75 M
255.39 798.75 L
S
GR
GS
[0.6 0 0 0.6 0 0] CT
0.149 GC
2 setlinecap
1 LJ
0.833 LW
N
249 716.5 M
255.39 716.5 L
S
GR
GS
[0.6 0 0 0.6 0 0] CT
0.149 GC
2 setlinecap
1 LJ
0.833 LW
N
249 634.25 M
255.39 634.25 L
S
GR
GS
[0.6 0 0 0.6 0 0] CT
0.149 GC
2 setlinecap
1 LJ
0.833 LW
N
249 552 M
255.39 552 L
S
GR
GS
[0.6 0 0 0.6 0 0] CT
0.149 GC
2 setlinecap
1 LJ
0.833 LW
N
888 881 M
881.61 881 L
S
GR
GS
[0.6 0 0 0.6 0 0] CT
0.149 GC
2 setlinecap
1 LJ
0.833 LW
N
888 798.75 M
881.61 798.75 L
S
GR
GS
[0.6 0 0 0.6 0 0] CT
0.149 GC
2 setlinecap
1 LJ
0.833 LW
N
888 716.5 M
881.61 716.5 L
S
GR
GS
[0.6 0 0 0.6 0 0] CT
0.149 GC
2 setlinecap
1 LJ
0.833 LW
N
888 634.25 M
881.61 634.25 L
S
GR
GS
[0.6 0 0 0.6 0 0] CT
0.149 GC
2 setlinecap
1 LJ
0.833 LW
N
888 552 M
881.61 552 L
S
GR
GS
[0.6 0 0 0.6 143.39998 528.6] CT
0.149 GC
/Helvetica 33.333 F
GS
[1 0 0 1 0 0] CT
-19 13 moveto 
1 -1 scale
(0) t 
GR
GR
GS
[0.6 0 0 0.6 143.39998 479.25] CT
0.149 GC
/Helvetica 33.333 F
GS
[1 0 0 1 0 0] CT
-56 13 moveto 
1 -1 scale
(200) t 
GR
GR
GS
[0.6 0 0 0.6 143.39998 429.9] CT
0.149 GC
/Helvetica 33.333 F
GS
[1 0 0 1 0 0] CT
-56 13 moveto 
1 -1 scale
(400) t 
GR
GR
GS
[0.6 0 0 0.6 143.39998 380.55] CT
0.149 GC
/Helvetica 33.333 F
GS
[1 0 0 1 0 0] CT
-56 13 moveto 
1 -1 scale
(600) t 
GR
GR
GS
[0.6 0 0 0.6 143.39998 331.2] CT
0.149 GC
/Helvetica 33.333 F
GS
[1 0 0 1 0 0] CT
-56 13 moveto 
1 -1 scale
(800) t 
GR
GR
GS
[0.6 0 0 0.6 0 0] CT
1 GC
N
1090 881 M
1730 881 L
1730 552 L
1090 552 L
cp
f
GR
GS
[0.6 0 0 0.6 846.00077 327.9] CT
/Helvetica-Bold 36.667 F
GS
[1 0 0 1 0 0] CT
-56.5 -9 moveto 
1 -1 scale
(DE120) t 
GR
GR
GS
[0.6 0 0 0.6 0 0] CT
0.149 GC
1 LJ
0.833 LW
N
1090 881 M
1730 881 L
S
GR
GS
[0.6 0 0 0.6 0 0] CT
0 0.447 0.741 RC
N
1112.326 880.589 M
1099.922 880.589 L
1099.922 881 L
1112.326 881 L
1124.729 881 L
1124.729 880.589 L
cp
1149.535 881 M
1149.535 880.177 L
1137.132 880.177 L
1137.132 881 L
cp
1161.938 878.944 M
1149.535 878.944 L
1149.535 881 L
1161.938 881 L
1174.341 881 L
1174.341 878.944 L
cp
1186.744 881 M
1186.744 876.476 L
1174.341 876.476 L
1174.341 881 L
cp
1199.147 881 M
1199.147 874.42 L
1186.744 874.42 L
1186.744 881 L
cp
1211.55 881 M
1211.55 874.009 L
1199.147 874.009 L
1199.147 881 L
cp
1223.953 881 M
1223.953 866.606 L
1211.55 866.606 L
1211.55 881 L
cp
1236.357 881 M
1236.357 861.671 L
1223.953 861.671 L
1223.953 881 L
cp
1248.76 881 M
1248.76 855.091 L
1236.357 855.091 L
1236.357 881 L
cp
1261.163 881 M
1261.163 846.455 L
1248.76 846.455 L
1248.76 881 L
cp
1273.566 881 M
1273.566 829.594 L
1261.163 829.594 L
1261.163 881 L
cp
1285.969 881 M
1285.969 804.508 L
1273.566 804.508 L
1273.566 881 L
cp
1298.372 881 M
1298.372 782.711 L
1285.969 782.711 L
1285.969 881 L
cp
1310.775 881 M
1310.775 768.729 L
1298.372 768.729 L
1298.372 881 L
cp
1323.178 881 M
1323.178 749.811 L
1310.775 749.811 L
1310.775 881 L
cp
1335.581 881 M
1335.581 715.677 L
1323.178 715.677 L
1323.178 881 L
cp
1347.984 881 M
1347.984 694.704 L
1335.581 694.704 L
1335.581 881 L
cp
1360.388 881 M
1360.388 655.635 L
1347.984 655.635 L
1347.984 881 L
cp
1372.791 881 M
1372.791 644.531 L
1360.388 644.531 L
1360.388 881 L
cp
1385.194 881 M
1385.194 640.008 L
1372.791 640.008 L
1372.791 881 L
cp
1397.597 881 M
1397.597 608.341 L
1385.194 608.341 L
1385.194 881 L
cp
1410 881 M
1410 609.986 L
1397.597 609.986 L
1397.597 881 L
cp
1422.403 881 M
1422.403 605.874 L
1410 605.874 L
1410 881 L
cp
1434.806 881 M
1434.806 616.155 L
1422.403 616.155 L
1422.403 881 L
cp
1447.209 881 M
1447.209 650.7 L
1434.806 650.7 L
1434.806 881 L
cp
1459.612 881 M
1459.612 662.215 L
1447.209 662.215 L
1447.209 881 L
cp
1472.016 881 M
1472.016 692.648 L
1459.612 692.648 L
1459.612 881 L
cp
1484.419 881 M
1484.419 714.032 L
1472.016 714.032 L
1472.016 881 L
cp
1496.822 881 M
1496.822 743.231 L
1484.419 743.231 L
1484.419 881 L
cp
1509.225 881 M
1509.225 771.607 L
1496.822 771.607 L
1496.822 881 L
cp
1521.628 881 M
1521.628 779.833 L
1509.225 779.833 L
1509.225 881 L
cp
1534.031 881 M
1534.031 810.676 L
1521.628 810.676 L
1521.628 881 L
cp
1546.434 881 M
1546.434 827.949 L
1534.031 827.949 L
1534.031 881 L
cp
1558.837 881 M
1558.837 845.221 L
1546.434 845.221 L
1546.434 881 L
cp
1571.24 881 M
1571.24 858.381 L
1558.837 858.381 L
1558.837 881 L
cp
1583.643 881 M
1583.643 860.438 L
1571.24 860.438 L
1571.24 881 L
cp
1596.047 881 M
1596.047 866.195 L
1583.643 866.195 L
1583.643 881 L
cp
1608.45 881 M
1608.45 872.775 L
1596.047 872.775 L
1596.047 881 L
cp
1620.853 881 M
1620.853 877.299 L
1608.45 877.299 L
1608.45 881 L
cp
1633.256 881 M
1633.256 879.355 L
1620.853 879.355 L
1620.853 881 L
cp
1645.659 881 M
1645.659 880.177 L
1633.256 880.177 L
1633.256 881 L
cp
1658.062 881 M
1658.062 878.944 L
1645.659 878.944 L
1645.659 881 L
cp
1720.078 881 M
1720.078 880.589 L
1707.674 880.589 L
1707.674 881 L
cp
f
GR
GS
[0.6 0 0 0.6 0 0] CT
10.0 ML
0.833 LW
N
1099.922 881 M
1099.922 880.589 L
1112.326 880.589 L
1112.326 881 L
cp
S
GR
GS
[0.6 0 0 0.6 0 0] CT
10.0 ML
0.833 LW
N
1112.326 881 M
1112.326 880.589 L
1124.729 880.589 L
1124.729 881 L
cp
S
GR
GS
[0.6 0 0 0.6 0 0] CT
10.0 ML
0.833 LW
N
1124.729 881 M
1124.729 881 L
1137.132 881 L
1137.132 881 L
cp
S
GR
GS
[0.6 0 0 0.6 0 0] CT
10.0 ML
0.833 LW
N
1137.132 881 M
1137.132 880.177 L
1149.535 880.177 L
1149.535 881 L
cp
S
GR
GS
[0.6 0 0 0.6 0 0] CT
10.0 ML
0.833 LW
N
1149.535 881 M
1149.535 878.944 L
1161.938 878.944 L
1161.938 881 L
cp
S
GR
GS
[0.6 0 0 0.6 0 0] CT
10.0 ML
0.833 LW
N
1161.938 881 M
1161.938 878.944 L
1174.341 878.944 L
1174.341 881 L
cp
S
GR
GS
[0.6 0 0 0.6 0 0] CT
10.0 ML
0.833 LW
N
1174.341 881 M
1174.341 876.476 L
1186.744 876.476 L
1186.744 881 L
cp
S
GR
GS
[0.6 0 0 0.6 0 0] CT
10.0 ML
0.833 LW
N
1186.744 881 M
1186.744 874.42 L
1199.147 874.42 L
1199.147 881 L
cp
S
GR
GS
[0.6 0 0 0.6 0 0] CT
10.0 ML
0.833 LW
N
1199.147 881 M
1199.147 874.009 L
1211.55 874.009 L
1211.55 881 L
cp
S
GR
GS
[0.6 0 0 0.6 0 0] CT
10.0 ML
0.833 LW
N
1211.55 881 M
1211.55 866.606 L
1223.953 866.606 L
1223.953 881 L
cp
S
GR
GS
[0.6 0 0 0.6 0 0] CT
10.0 ML
0.833 LW
N
1223.953 881 M
1223.953 861.671 L
1236.357 861.671 L
1236.357 881 L
cp
S
GR
GS
[0.6 0 0 0.6 0 0] CT
10.0 ML
0.833 LW
N
1236.357 881 M
1236.357 855.091 L
1248.76 855.091 L
1248.76 881 L
cp
S
GR
GS
[0.6 0 0 0.6 0 0] CT
10.0 ML
0.833 LW
N
1248.76 881 M
1248.76 846.455 L
1261.163 846.455 L
1261.163 881 L
cp
S
GR
GS
[0.6 0 0 0.6 0 0] CT
10.0 ML
0.833 LW
N
1261.163 881 M
1261.163 829.594 L
1273.566 829.594 L
1273.566 881 L
cp
S
GR
GS
[0.6 0 0 0.6 0 0] CT
10.0 ML
0.833 LW
N
1273.566 881 M
1273.566 804.508 L
1285.969 804.508 L
1285.969 881 L
cp
S
GR
GS
[0.6 0 0 0.6 0 0] CT
10.0 ML
0.833 LW
N
1285.969 881 M
1285.969 782.711 L
1298.372 782.711 L
1298.372 881 L
cp
S
GR
GS
[0.6 0 0 0.6 0 0] CT
10.0 ML
0.833 LW
N
1298.372 881 M
1298.372 768.729 L
1310.775 768.729 L
1310.775 881 L
cp
S
GR
GS
[0.6 0 0 0.6 0 0] CT
10.0 ML
0.833 LW
N
1310.775 881 M
1310.775 749.811 L
1323.178 749.811 L
1323.178 881 L
cp
S
GR
GS
[0.6 0 0 0.6 0 0] CT
10.0 ML
0.833 LW
N
1323.178 881 M
1323.178 715.677 L
1335.581 715.677 L
1335.581 881 L
cp
S
GR
GS
[0.6 0 0 0.6 0 0] CT
10.0 ML
0.833 LW
N
1335.581 881 M
1335.581 694.704 L
1347.984 694.704 L
1347.984 881 L
cp
S
GR
GS
[0.6 0 0 0.6 0 0] CT
10.0 ML
0.833 LW
N
1347.984 881 M
1347.984 655.635 L
1360.388 655.635 L
1360.388 881 L
cp
S
GR
GS
[0.6 0 0 0.6 0 0] CT
10.0 ML
0.833 LW
N
1360.388 881 M
1360.388 644.531 L
1372.791 644.531 L
1372.791 881 L
cp
S
GR
GS
[0.6 0 0 0.6 0 0] CT
10.0 ML
0.833 LW
N
1372.791 881 M
1372.791 640.008 L
1385.194 640.008 L
1385.194 881 L
cp
S
GR
GS
[0.6 0 0 0.6 0 0] CT
10.0 ML
0.833 LW
N
1385.194 881 M
1385.194 608.341 L
1397.597 608.341 L
1397.597 881 L
cp
S
GR
GS
[0.6 0 0 0.6 0 0] CT
10.0 ML
0.833 LW
N
1397.597 881 M
1397.597 609.986 L
1410 609.986 L
1410 881 L
cp
S
GR
GS
[0.6 0 0 0.6 0 0] CT
10.0 ML
0.833 LW
N
1410 881 M
1410 605.874 L
1422.403 605.874 L
1422.403 881 L
cp
S
GR
GS
[0.6 0 0 0.6 0 0] CT
10.0 ML
0.833 LW
N
1422.403 881 M
1422.403 616.155 L
1434.806 616.155 L
1434.806 881 L
cp
S
GR
GS
[0.6 0 0 0.6 0 0] CT
10.0 ML
0.833 LW
N
1434.806 881 M
1434.806 650.7 L
1447.209 650.7 L
1447.209 881 L
cp
S
GR
GS
[0.6 0 0 0.6 0 0] CT
10.0 ML
0.833 LW
N
1447.209 881 M
1447.209 662.215 L
1459.612 662.215 L
1459.612 881 L
cp
S
GR
GS
[0.6 0 0 0.6 0 0] CT
10.0 ML
0.833 LW
N
1459.612 881 M
1459.612 692.648 L
1472.016 692.648 L
1472.016 881 L
cp
S
GR
GS
[0.6 0 0 0.6 0 0] CT
10.0 ML
0.833 LW
N
1472.016 881 M
1472.016 714.032 L
1484.419 714.032 L
1484.419 881 L
cp
S
GR
GS
[0.6 0 0 0.6 0 0] CT
10.0 ML
0.833 LW
N
1484.419 881 M
1484.419 743.231 L
1496.822 743.231 L
1496.822 881 L
cp
S
GR
GS
[0.6 0 0 0.6 0 0] CT
10.0 ML
0.833 LW
N
1496.822 881 M
1496.822 771.607 L
1509.225 771.607 L
1509.225 881 L
cp
S
GR
GS
[0.6 0 0 0.6 0 0] CT
10.0 ML
0.833 LW
N
1509.225 881 M
1509.225 779.833 L
1521.628 779.833 L
1521.628 881 L
cp
S
GR
GS
[0.6 0 0 0.6 0 0] CT
10.0 ML
0.833 LW
N
1521.628 881 M
1521.628 810.676 L
1534.031 810.676 L
1534.031 881 L
cp
S
GR
GS
[0.6 0 0 0.6 0 0] CT
10.0 ML
0.833 LW
N
1534.031 881 M
1534.031 827.949 L
1546.434 827.949 L
1546.434 881 L
cp
S
GR
GS
[0.6 0 0 0.6 0 0] CT
10.0 ML
0.833 LW
N
1546.434 881 M
1546.434 845.221 L
1558.837 845.221 L
1558.837 881 L
cp
S
GR
GS
[0.6 0 0 0.6 0 0] CT
10.0 ML
0.833 LW
N
1558.837 881 M
1558.837 858.381 L
1571.24 858.381 L
1571.24 881 L
cp
S
GR
GS
[0.6 0 0 0.6 0 0] CT
10.0 ML
0.833 LW
N
1571.24 881 M
1571.24 860.438 L
1583.643 860.438 L
1583.643 881 L
cp
S
GR
GS
[0.6 0 0 0.6 0 0] CT
10.0 ML
0.833 LW
N
1583.643 881 M
1583.643 866.195 L
1596.047 866.195 L
1596.047 881 L
cp
S
GR
GS
[0.6 0 0 0.6 0 0] CT
10.0 ML
0.833 LW
N
1596.047 881 M
1596.047 872.775 L
1608.45 872.775 L
1608.45 881 L
cp
S
GR
GS
[0.6 0 0 0.6 0 0] CT
10.0 ML
0.833 LW
N
1608.45 881 M
1608.45 877.299 L
1620.853 877.299 L
1620.853 881 L
cp
S
GR
GS
[0.6 0 0 0.6 0 0] CT
10.0 ML
0.833 LW
N
1620.853 881 M
1620.853 879.355 L
1633.256 879.355 L
1633.256 881 L
cp
S
GR
GS
[0.6 0 0 0.6 0 0] CT
10.0 ML
0.833 LW
N
1633.256 881 M
1633.256 880.177 L
1645.659 880.177 L
1645.659 881 L
cp
S
GR
GS
[0.6 0 0 0.6 0 0] CT
10.0 ML
0.833 LW
N
1645.659 881 M
1645.659 878.944 L
1658.062 878.944 L
1658.062 881 L
cp
S
GR
GS
[0.6 0 0 0.6 0 0] CT
10.0 ML
0.833 LW
N
1658.062 881 M
1658.062 881 L
1670.465 881 L
1670.465 881 L
cp
S
GR
GS
[0.6 0 0 0.6 0 0] CT
10.0 ML
0.833 LW
N
1670.465 881 M
1670.465 881 L
1682.868 881 L
1682.868 881 L
cp
S
GR
GS
[0.6 0 0 0.6 0 0] CT
10.0 ML
0.833 LW
N
1682.868 881 M
1682.868 881 L
1695.271 881 L
1695.271 881 L
cp
S
GR
GS
[0.6 0 0 0.6 0 0] CT
10.0 ML
0.833 LW
N
1695.271 881 M
1695.271 881 L
1707.674 881 L
1707.674 881 L
cp
S
GR
GS
[0.6 0 0 0.6 0 0] CT
10.0 ML
0.833 LW
N
1707.674 881 M
1707.674 880.589 L
1720.078 880.589 L
1720.078 881 L
cp
S
GR
GS
[0.6 0 0 0.6 0 0] CT
1 0 0 RC
1 LJ
3.333 LW
N
1177.987 877.992 M
1182.542 877.399 L
1187.098 876.705 L
1191.653 875.896 L
1196.208 874.956 L
1200.763 873.87 L
1205.318 872.619 L
1209.873 871.185 L
1214.428 869.548 L
1218.984 867.687 L
1223.539 865.58 L
1228.094 863.205 L
1232.649 860.539 L
1237.204 857.56 L
1241.759 854.247 L
1246.315 850.577 L
1250.87 846.53 L
1255.425 842.088 L
1259.98 837.234 L
1264.535 831.956 L
1269.09 826.243 L
1273.646 820.088 L
1278.201 813.49 L
1282.756 806.452 L
1287.311 798.981 L
1291.866 791.093 L
1296.421 782.808 L
1300.976 774.152 L
1305.532 765.159 L
1310.087 755.87 L
1314.642 746.332 L
1319.197 736.598 L
1323.752 726.728 L
1328.307 716.787 L
1332.863 706.847 L
1337.418 696.983 L
1341.973 687.272 L
1346.528 677.797 L
1351.083 668.64 L
1355.638 659.884 L
1360.193 651.612 L
1364.749 643.902 L
1369.304 636.831 L
1373.859 630.472 L
1378.414 624.889 L
1382.969 620.142 L
1387.524 616.281 L
1392.08 613.347 L
1396.635 611.374 L
1401.19 610.381 L
1405.745 610.381 L
1410.3 611.373 L
1414.855 613.346 L
1419.411 616.279 L
1423.966 620.14 L
1428.521 624.887 L
1433.076 630.469 L
1437.631 636.829 L
1442.186 643.899 L
1446.741 651.609 L
1451.297 659.881 L
1455.852 668.637 L
1460.407 677.794 L
1464.962 687.269 L
1469.517 696.979 L
1474.072 706.844 L
1478.628 716.784 L
1483.183 726.724 L
1487.738 736.594 L
1492.293 746.328 L
1496.848 755.866 L
1501.403 765.156 L
1505.958 774.148 L
1510.514 782.804 L
1515.069 791.09 L
1519.624 798.978 L
1524.179 806.449 L
1528.734 813.488 L
1533.289 820.086 L
1537.844 826.241 L
1542.4 831.954 L
1546.955 837.232 L
1551.51 842.086 L
1556.065 846.528 L
1560.62 850.575 L
1565.175 854.245 L
1569.731 857.559 L
1574.286 860.538 L
1578.841 863.204 L
1583.396 865.579 L
1587.951 867.686 L
1592.506 869.547 L
1597.062 871.185 L
1601.617 872.619 L
1606.172 873.869 L
1610.727 874.956 L
1615.282 875.895 L
1619.837 876.705 L
1624.392 877.399 L
1628.948 877.992 L
S
GR
GS
[0.6 0 0 0.6 0 0] CT
0.149 GC
2 setlinecap
1 LJ
0.833 LW
N
1090 881 M
1730 881 L
S
GR
GS
[0.6 0 0 0.6 0 0] CT
0.149 GC
2 setlinecap
1 LJ
0.833 LW
N
1090 552 M
1730 552 L
S
GR
GS
[0.6 0 0 0.6 0 0] CT
0.149 GC
2 setlinecap
1 LJ
0.833 LW
N
1142.326 881 M
1142.326 874.6 L
S
GR
GS
[0.6 0 0 0.6 0 0] CT
0.149 GC
2 setlinecap
1 LJ
0.833 LW
N
1248.336 881 M
1248.336 874.6 L
S
GR
GS
[0.6 0 0 0.6 0 0] CT
0.149 GC
2 setlinecap
1 LJ
0.833 LW
N
1354.345 881 M
1354.345 874.6 L
S
GR
GS
[0.6 0 0 0.6 0 0] CT
0.149 GC
2 setlinecap
1 LJ
0.833 LW
N
1460.354 881 M
1460.354 874.6 L
S
GR
GS
[0.6 0 0 0.6 0 0] CT
0.149 GC
2 setlinecap
1 LJ
0.833 LW
N
1566.364 881 M
1566.364 874.6 L
S
GR
GS
[0.6 0 0 0.6 0 0] CT
0.149 GC
2 setlinecap
1 LJ
0.833 LW
N
1672.373 881 M
1672.373 874.6 L
S
GR
GS
[0.6 0 0 0.6 0 0] CT
0.149 GC
2 setlinecap
1 LJ
0.833 LW
N
1142.326 552 M
1142.326 558.4 L
S
GR
GS
[0.6 0 0 0.6 0 0] CT
0.149 GC
2 setlinecap
1 LJ
0.833 LW
N
1248.336 552 M
1248.336 558.4 L
S
GR
GS
[0.6 0 0 0.6 0 0] CT
0.149 GC
2 setlinecap
1 LJ
0.833 LW
N
1354.345 552 M
1354.345 558.4 L
S
GR
GS
[0.6 0 0 0.6 0 0] CT
0.149 GC
2 setlinecap
1 LJ
0.833 LW
N
1460.354 552 M
1460.354 558.4 L
S
GR
GS
[0.6 0 0 0.6 0 0] CT
0.149 GC
2 setlinecap
1 LJ
0.833 LW
N
1566.364 552 M
1566.364 558.4 L
S
GR
GS
[0.6 0 0 0.6 0 0] CT
0.149 GC
2 setlinecap
1 LJ
0.833 LW
N
1672.373 552 M
1672.373 558.4 L
S
GR
GS
[0.6 0 0 0.6 685.39575 534.6] CT
0.149 GC
/Helvetica 33.333 F
GS
[1 0 0 1 0 0] CT
-24.5 34 moveto 
1 -1 scale
(-30) t 
GR
GR
GS
[0.6 0 0 0.6 749.00138 534.6] CT
0.149 GC
/Helvetica 33.333 F
GS
[1 0 0 1 0 0] CT
-24.5 34 moveto 
1 -1 scale
(-20) t 
GR
GR
GS
[0.6 0 0 0.6 812.60702 534.6] CT
0.149 GC
/Helvetica 33.333 F
GS
[1 0 0 1 0 0] CT
-24.5 34 moveto 
1 -1 scale
(-10) t 
GR
GR
GS
[0.6 0 0 0.6 876.21266 534.6] CT
0.149 GC
/Helvetica 33.333 F
GS
[1 0 0 1 0 0] CT
-9.5 34 moveto 
1 -1 scale
(0) t 
GR
GR
GS
[0.6 0 0 0.6 939.81829 534.6] CT
0.149 GC
/Helvetica 33.333 F
GS
[1 0 0 1 0 0] CT
-19 34 moveto 
1 -1 scale
(10) t 
GR
GR
GS
[0.6 0 0 0.6 1003.42393 534.6] CT
0.149 GC
/Helvetica 33.333 F
GS
[1 0 0 1 0 0] CT
-19 34 moveto 
1 -1 scale
(20) t 
GR
GR
GS
[0.6 0 0 0.6 0 0] CT
0.149 GC
2 setlinecap
1 LJ
0.833 LW
N
1090 881 M
1090 552 L
S
GR
GS
[0.6 0 0 0.6 0 0] CT
0.149 GC
2 setlinecap
1 LJ
0.833 LW
N
1730 881 M
1730 552 L
S
GR
GS
[0.6 0 0 0.6 0 0] CT
0.149 GC
2 setlinecap
1 LJ
0.833 LW
N
1090 881 M
1096.4 881 L
S
GR
GS
[0.6 0 0 0.6 0 0] CT
0.149 GC
2 setlinecap
1 LJ
0.833 LW
N
1090 798.75 M
1096.4 798.75 L
S
GR
GS
[0.6 0 0 0.6 0 0] CT
0.149 GC
2 setlinecap
1 LJ
0.833 LW
N
1090 716.5 M
1096.4 716.5 L
S
GR
GS
[0.6 0 0 0.6 0 0] CT
0.149 GC
2 setlinecap
1 LJ
0.833 LW
N
1090 634.25 M
1096.4 634.25 L
S
GR
GS
[0.6 0 0 0.6 0 0] CT
0.149 GC
2 setlinecap
1 LJ
0.833 LW
N
1090 552 M
1096.4 552 L
S
GR
GS
[0.6 0 0 0.6 0 0] CT
0.149 GC
2 setlinecap
1 LJ
0.833 LW
N
1730 881 M
1723.6 881 L
S
GR
GS
[0.6 0 0 0.6 0 0] CT
0.149 GC
2 setlinecap
1 LJ
0.833 LW
N
1730 798.75 M
1723.6 798.75 L
S
GR
GS
[0.6 0 0 0.6 0 0] CT
0.149 GC
2 setlinecap
1 LJ
0.833 LW
N
1730 716.5 M
1723.6 716.5 L
S
GR
GS
[0.6 0 0 0.6 0 0] CT
0.149 GC
2 setlinecap
1 LJ
0.833 LW
N
1730 634.25 M
1723.6 634.25 L
S
GR
GS
[0.6 0 0 0.6 0 0] CT
0.149 GC
2 setlinecap
1 LJ
0.833 LW
N
1730 552 M
1723.6 552 L
S
GR
GS
[0.6 0 0 0.6 647.99997 528.6] CT
0.149 GC
/Helvetica 33.333 F
GS
[1 0 0 1 0 0] CT
-19 13 moveto 
1 -1 scale
(0) t 
GR
GR
GS
[0.6 0 0 0.6 647.99997 479.25] CT
0.149 GC
/Helvetica 33.333 F
GS
[1 0 0 1 0 0] CT
-56 13 moveto 
1 -1 scale
(200) t 
GR
GR
GS
[0.6 0 0 0.6 647.99997 429.9] CT
0.149 GC
/Helvetica 33.333 F
GS
[1 0 0 1 0 0] CT
-56 13 moveto 
1 -1 scale
(400) t 
GR
GR
GS
[0.6 0 0 0.6 647.99997 380.55] CT
0.149 GC
/Helvetica 33.333 F
GS
[1 0 0 1 0 0] CT
-56 13 moveto 
1 -1 scale
(600) t 
GR
GR
GS
[0.6 0 0 0.6 647.99997 331.2] CT
0.149 GC
/Helvetica 33.333 F
GS
[1 0 0 1 0 0] CT
-56 13 moveto 
1 -1 scale
(800) t 
GR
GR
%%Trailer
%%Pages: 1
%%EOF
