%!PS-Adobe-3.0 EPSF-3.0
%%Creator: (MATLAB, The Mathworks, Inc. Version 9.6.0.1072779 \(R2019a\). Operating System: Windows 7)
%%Title: ./WrongProjections.eps
%%CreationDate: 2020-09-18T10:50:15
%%Pages: (atend)
%%BoundingBox:   109    38  1067   557
%%LanguageLevel: 3
%%EndComments
%%BeginProlog
%%BeginResource: procset (Apache XML Graphics Std ProcSet) 1.2 0
%%Version: 1.2 0
%%Copyright: (Copyright 2001-2003,2010 The Apache Software Foundation. License terms: http://www.apache.org/licenses/LICENSE-2.0)
/bd{bind def}bind def
/ld{load def}bd
/GR/grestore ld
/GS/gsave ld
/RM/rmoveto ld
/C/curveto ld
/t/show ld
/L/lineto ld
/ML/setmiterlimit ld
/CT/concat ld
/f/fill ld
/N/newpath ld
/S/stroke ld
/CC/setcmykcolor ld
/A/ashow ld
/cp/closepath ld
/RC/setrgbcolor ld
/LJ/setlinejoin ld
/GC/setgray ld
/LW/setlinewidth ld
/M/moveto ld
/re {4 2 roll M
1 index 0 rlineto
0 exch rlineto
neg 0 rlineto
cp } bd
/_ctm matrix def
/_tm matrix def
/BT { _ctm currentmatrix pop matrix _tm copy pop 0 0 moveto } bd
/ET { _ctm setmatrix } bd
/iTm { _ctm setmatrix _tm concat } bd
/Tm { _tm astore pop iTm 0 0 moveto } bd
/ux 0.0 def
/uy 0.0 def
/F {
  /Tp exch def
  /Tf exch def
  Tf findfont Tp scalefont setfont
  /cf Tf def  /cs Tp def
} bd
/ULS {currentpoint /uy exch def /ux exch def} bd
/ULE {
  /Tcx currentpoint pop def
  gsave
  newpath
  cf findfont cs scalefont dup
  /FontMatrix get 0 get /Ts exch def /FontInfo get dup
  /UnderlinePosition get Ts mul /To exch def
  /UnderlineThickness get Ts mul /Tt exch def
  ux uy To add moveto  Tcx uy To add lineto
  Tt setlinewidth stroke
  grestore
} bd
/OLE {
  /Tcx currentpoint pop def
  gsave
  newpath
  cf findfont cs scalefont dup
  /FontMatrix get 0 get /Ts exch def /FontInfo get dup
  /UnderlinePosition get Ts mul /To exch def
  /UnderlineThickness get Ts mul /Tt exch def
  ux uy To add cs add moveto Tcx uy To add cs add lineto
  Tt setlinewidth stroke
  grestore
} bd
/SOE {
  /Tcx currentpoint pop def
  gsave
  newpath
  cf findfont cs scalefont dup
  /FontMatrix get 0 get /Ts exch def /FontInfo get dup
  /UnderlinePosition get Ts mul /To exch def
  /UnderlineThickness get Ts mul /Tt exch def
  ux uy To add cs 10 mul 26 idiv add moveto Tcx uy To add cs 10 mul 26 idiv add lineto
  Tt setlinewidth stroke
  grestore
} bd
/QT {
/Y22 exch store
/X22 exch store
/Y21 exch store
/X21 exch store
currentpoint
/Y21 load 2 mul add 3 div exch
/X21 load 2 mul add 3 div exch
/X21 load 2 mul /X22 load add 3 div
/Y21 load 2 mul /Y22 load add 3 div
/X22 load /Y22 load curveto
} bd
/SSPD {
dup length /d exch dict def
{
/v exch def
/k exch def
currentpagedevice k known {
/cpdv currentpagedevice k get def
v cpdv ne {
/upd false def
/nullv v type /nulltype eq def
/nullcpdv cpdv type /nulltype eq def
nullv nullcpdv or
{
/upd true def
} {
/sametype v type cpdv type eq def
sametype {
v type /arraytype eq {
/vlen v length def
/cpdvlen cpdv length def
vlen cpdvlen eq {
0 1 vlen 1 sub {
/i exch def
/obj v i get def
/cpdobj cpdv i get def
obj cpdobj ne {
/upd true def
exit
} if
} for
} {
/upd true def
} ifelse
} {
v type /dicttype eq {
v {
/dv exch def
/dk exch def
/cpddv cpdv dk get def
dv cpddv ne {
/upd true def
exit
} if
} forall
} {
/upd true def
} ifelse
} ifelse
} if
} ifelse
upd true eq {
d k v put
} if
} if
} if
} forall
d length 0 gt {
d setpagedevice
} if
} bd
/RE { % /NewFontName [NewEncodingArray] /FontName RE -
  findfont dup length dict begin
  {
    1 index /FID ne
    {def} {pop pop} ifelse
  } forall
  /Encoding exch def
  /FontName 1 index def
  currentdict definefont pop
  end
} bind def
%%EndResource
%%BeginResource: procset (Apache XML Graphics EPS ProcSet) 1.0 0
%%Version: 1.0 0
%%Copyright: (Copyright 2002-2003 The Apache Software Foundation. License terms: http://www.apache.org/licenses/LICENSE-2.0)
/BeginEPSF { %def
/b4_Inc_state save def         % Save state for cleanup
/dict_count countdictstack def % Count objects on dict stack
/op_count count 1 sub def      % Count objects on operand stack
userdict begin                 % Push userdict on dict stack
/showpage { } def              % Redefine showpage, { } = null proc
0 setgray 0 setlinecap         % Prepare graphics state
1 setlinewidth 0 setlinejoin
10 setmiterlimit [ ] 0 setdash newpath
/languagelevel where           % If level not equal to 1 then
{pop languagelevel             % set strokeadjust and
1 ne                           % overprint to their defaults.
{false setstrokeadjust false setoverprint
} if
} if
} bd
/EndEPSF { %def
count op_count sub {pop} repeat            % Clean up stacks
countdictstack dict_count sub {end} repeat
b4_Inc_state restore
} bd
%%EndResource
%FOPBeginFontDict
%%IncludeResource: font Courier-Oblique
%%IncludeResource: font Courier-BoldOblique
%%IncludeResource: font Courier-Bold
%%IncludeResource: font ZapfDingbats
%%IncludeResource: font Symbol
%%IncludeResource: font Helvetica
%%IncludeResource: font Helvetica-Oblique
%%IncludeResource: font Helvetica-Bold
%%IncludeResource: font Helvetica-BoldOblique
%%IncludeResource: font Times-Roman
%%IncludeResource: font Times-Italic
%%IncludeResource: font Times-Bold
%%IncludeResource: font Times-BoldItalic
%%IncludeResource: font Courier
%FOPEndFontDict
%%BeginResource: encoding WinAnsiEncoding
/WinAnsiEncoding [
/.notdef /.notdef /.notdef /.notdef /.notdef
/.notdef /.notdef /.notdef /.notdef /.notdef
/.notdef /.notdef /.notdef /.notdef /.notdef
/.notdef /.notdef /.notdef /.notdef /.notdef
/.notdef /.notdef /.notdef /.notdef /.notdef
/.notdef /.notdef /.notdef /.notdef /.notdef
/.notdef /.notdef /space /exclam /quotedbl
/numbersign /dollar /percent /ampersand /quotesingle
/parenleft /parenright /asterisk /plus /comma
/hyphen /period /slash /zero /one
/two /three /four /five /six
/seven /eight /nine /colon /semicolon
/less /equal /greater /question /at
/A /B /C /D /E
/F /G /H /I /J
/K /L /M /N /O
/P /Q /R /S /T
/U /V /W /X /Y
/Z /bracketleft /backslash /bracketright /asciicircum
/underscore /quoteleft /a /b /c
/d /e /f /g /h
/i /j /k /l /m
/n /o /p /q /r
/s /t /u /v /w
/x /y /z /braceleft /bar
/braceright /asciitilde /bullet /Euro /bullet
/quotesinglbase /florin /quotedblbase /ellipsis /dagger
/daggerdbl /circumflex /perthousand /Scaron /guilsinglleft
/OE /bullet /Zcaron /bullet /bullet
/quoteleft /quoteright /quotedblleft /quotedblright /bullet
/endash /emdash /asciitilde /trademark /scaron
/guilsinglright /oe /bullet /zcaron /Ydieresis
/space /exclamdown /cent /sterling /currency
/yen /brokenbar /section /dieresis /copyright
/ordfeminine /guillemotleft /logicalnot /sfthyphen /registered
/macron /degree /plusminus /twosuperior /threesuperior
/acute /mu /paragraph /middot /cedilla
/onesuperior /ordmasculine /guillemotright /onequarter /onehalf
/threequarters /questiondown /Agrave /Aacute /Acircumflex
/Atilde /Adieresis /Aring /AE /Ccedilla
/Egrave /Eacute /Ecircumflex /Edieresis /Igrave
/Iacute /Icircumflex /Idieresis /Eth /Ntilde
/Ograve /Oacute /Ocircumflex /Otilde /Odieresis
/multiply /Oslash /Ugrave /Uacute /Ucircumflex
/Udieresis /Yacute /Thorn /germandbls /agrave
/aacute /acircumflex /atilde /adieresis /aring
/ae /ccedilla /egrave /eacute /ecircumflex
/edieresis /igrave /iacute /icircumflex /idieresis
/eth /ntilde /ograve /oacute /ocircumflex
/otilde /odieresis /divide /oslash /ugrave
/uacute /ucircumflex /udieresis /yacute /thorn
/ydieresis
] def
%%EndResource
%FOPBeginFontReencode
/Courier-Oblique findfont
dup length dict begin
  {1 index /FID ne {def} {pop pop} ifelse} forall
  /Encoding WinAnsiEncoding def
  currentdict
end
/Courier-Oblique exch definefont pop
/Courier-BoldOblique findfont
dup length dict begin
  {1 index /FID ne {def} {pop pop} ifelse} forall
  /Encoding WinAnsiEncoding def
  currentdict
end
/Courier-BoldOblique exch definefont pop
/Courier-Bold findfont
dup length dict begin
  {1 index /FID ne {def} {pop pop} ifelse} forall
  /Encoding WinAnsiEncoding def
  currentdict
end
/Courier-Bold exch definefont pop
/Helvetica findfont
dup length dict begin
  {1 index /FID ne {def} {pop pop} ifelse} forall
  /Encoding WinAnsiEncoding def
  currentdict
end
/Helvetica exch definefont pop
/Helvetica-Oblique findfont
dup length dict begin
  {1 index /FID ne {def} {pop pop} ifelse} forall
  /Encoding WinAnsiEncoding def
  currentdict
end
/Helvetica-Oblique exch definefont pop
/Helvetica-Bold findfont
dup length dict begin
  {1 index /FID ne {def} {pop pop} ifelse} forall
  /Encoding WinAnsiEncoding def
  currentdict
end
/Helvetica-Bold exch definefont pop
/Helvetica-BoldOblique findfont
dup length dict begin
  {1 index /FID ne {def} {pop pop} ifelse} forall
  /Encoding WinAnsiEncoding def
  currentdict
end
/Helvetica-BoldOblique exch definefont pop
/Times-Roman findfont
dup length dict begin
  {1 index /FID ne {def} {pop pop} ifelse} forall
  /Encoding WinAnsiEncoding def
  currentdict
end
/Times-Roman exch definefont pop
/Times-Italic findfont
dup length dict begin
  {1 index /FID ne {def} {pop pop} ifelse} forall
  /Encoding WinAnsiEncoding def
  currentdict
end
/Times-Italic exch definefont pop
/Times-Bold findfont
dup length dict begin
  {1 index /FID ne {def} {pop pop} ifelse} forall
  /Encoding WinAnsiEncoding def
  currentdict
end
/Times-Bold exch definefont pop
/Times-BoldItalic findfont
dup length dict begin
  {1 index /FID ne {def} {pop pop} ifelse} forall
  /Encoding WinAnsiEncoding def
  currentdict
end
/Times-BoldItalic exch definefont pop
/Courier findfont
dup length dict begin
  {1 index /FID ne {def} {pop pop} ifelse} forall
  /Encoding WinAnsiEncoding def
  currentdict
end
/Courier exch definefont pop
%FOPEndFontReencode
%%EndProlog
%%Page: 1 1
%%PageBoundingBox: 0 0 1147 594
%%BeginPageSetup
[1 0 0 -1 0 594] CT
%%EndPageSetup
GS
[0.6 0 0 0.6 0 0] CT
1 GC
N
0 0 1912 990 re
f
GR
GS
[0.6 0 0 0.6 0 0] CT
1 GC
N
0 0 1912 990 re
f
GR
GS
[0.6 0 0 0.6 0 0] CT
1 GC
N
249 881 M
1730 881 L
1730 74 L
249 74 L
cp
f
GR
GS
[0.6 0 0 0.6 0 0] CT
0.873 GC
1 LJ
0.833 LW
N
249 881 M
249 74 L
S
GR
GS
[0.6 0 0 0.6 0 0] CT
0.873 GC
1 LJ
0.833 LW
N
545.038 881 M
545.038 74 L
S
GR
GS
[0.6 0 0 0.6 0 0] CT
0.873 GC
1 LJ
0.833 LW
N
841.076 881 M
841.076 74 L
S
GR
GS
[0.6 0 0 0.6 0 0] CT
0.873 GC
1 LJ
0.833 LW
N
1137.924 881 M
1137.924 74 L
S
GR
GS
[0.6 0 0 0.6 0 0] CT
0.873 GC
1 LJ
0.833 LW
N
1433.962 881 M
1433.962 74 L
S
GR
GS
[0.6 0 0 0.6 0 0] CT
0.873 GC
1 LJ
0.833 LW
N
1730 881 M
1730 74 L
S
GR
GS
[0.6 0 0 0.6 0 0] CT
0.873 GC
1 LJ
0.833 LW
N
1730 881 M
249 881 L
S
GR
GS
[0.6 0 0 0.6 0 0] CT
0.873 GC
1 LJ
0.833 LW
N
1730 800.3 M
249 800.3 L
S
GR
GS
[0.6 0 0 0.6 0 0] CT
0.873 GC
1 LJ
0.833 LW
N
1730 719.6 M
249 719.6 L
S
GR
GS
[0.6 0 0 0.6 0 0] CT
0.873 GC
1 LJ
0.833 LW
N
1730 638.9 M
249 638.9 L
S
GR
GS
[0.6 0 0 0.6 0 0] CT
0.873 GC
1 LJ
0.833 LW
N
1730 558.2 M
249 558.2 L
S
GR
GS
[0.6 0 0 0.6 0 0] CT
0.873 GC
1 LJ
0.833 LW
N
1730 477.5 M
249 477.5 L
S
GR
GS
[0.6 0 0 0.6 0 0] CT
0.873 GC
1 LJ
0.833 LW
N
1730 396.8 M
249 396.8 L
S
GR
GS
[0.6 0 0 0.6 0 0] CT
0.873 GC
1 LJ
0.833 LW
N
1730 316.1 M
249 316.1 L
S
GR
GS
[0.6 0 0 0.6 0 0] CT
0.873 GC
1 LJ
0.833 LW
N
1730 235.4 M
249 235.4 L
S
GR
GS
[0.6 0 0 0.6 0 0] CT
0.873 GC
1 LJ
0.833 LW
N
1730 154.7 M
249 154.7 L
S
GR
GS
[0.6 0 0 0.6 0 0] CT
0.873 GC
1 LJ
0.833 LW
N
1730 74 M
249 74 L
S
GR
GS
[0.6 0 0 0.6 0 0] CT
0.149 GC
2 setlinecap
1 LJ
0.833 LW
N
249 881 M
1730 881 L
S
GR
GS
[0.6 0 0 0.6 0 0] CT
0.149 GC
2 setlinecap
1 LJ
0.833 LW
N
249 74 M
1730 74 L
S
GR
GS
[0.6 0 0 0.6 0 0] CT
0.149 GC
2 setlinecap
1 LJ
0.833 LW
N
249 881 M
249 866.19 L
S
GR
GS
[0.6 0 0 0.6 0 0] CT
0.149 GC
2 setlinecap
1 LJ
0.833 LW
N
545.038 881 M
545.038 866.19 L
S
GR
GS
[0.6 0 0 0.6 0 0] CT
0.149 GC
2 setlinecap
1 LJ
0.833 LW
N
841.076 881 M
841.076 866.19 L
S
GR
GS
[0.6 0 0 0.6 0 0] CT
0.149 GC
2 setlinecap
1 LJ
0.833 LW
N
1137.924 881 M
1137.924 866.19 L
S
GR
GS
[0.6 0 0 0.6 0 0] CT
0.149 GC
2 setlinecap
1 LJ
0.833 LW
N
1433.962 881 M
1433.962 866.19 L
S
GR
GS
[0.6 0 0 0.6 0 0] CT
0.149 GC
2 setlinecap
1 LJ
0.833 LW
N
1730 881 M
1730 866.19 L
S
GR
GS
[0.6 0 0 0.6 0 0] CT
0.149 GC
2 setlinecap
1 LJ
0.833 LW
N
249 74 M
249 88.81 L
S
GR
GS
[0.6 0 0 0.6 0 0] CT
0.149 GC
2 setlinecap
1 LJ
0.833 LW
N
545.038 74 M
545.038 88.81 L
S
GR
GS
[0.6 0 0 0.6 0 0] CT
0.149 GC
2 setlinecap
1 LJ
0.833 LW
N
841.076 74 M
841.076 88.81 L
S
GR
GS
[0.6 0 0 0.6 0 0] CT
0.149 GC
2 setlinecap
1 LJ
0.833 LW
N
1137.924 74 M
1137.924 88.81 L
S
GR
GS
[0.6 0 0 0.6 0 0] CT
0.149 GC
2 setlinecap
1 LJ
0.833 LW
N
1433.962 74 M
1433.962 88.81 L
S
GR
GS
[0.6 0 0 0.6 0 0] CT
0.149 GC
2 setlinecap
1 LJ
0.833 LW
N
1730 74 M
1730 88.81 L
S
GR
GS
[0.6 0 0 0.6 149.39999 534.6] CT
0.149 GC
/Helvetica 33.333 F
GS
[1 0 0 1 0 0] CT
-51 34 moveto 
1 -1 scale
(Jan-18) t 
GR
GR
GS
[0.6 0 0 0.6 327.02265 534.6] CT
0.149 GC
/Helvetica 33.333 F
GS
[1 0 0 1 0 0] CT
-51 34 moveto 
1 -1 scale
(Jan-19) t 
GR
GR
GS
[0.6 0 0 0.6 504.64532 534.6] CT
0.149 GC
/Helvetica 33.333 F
GS
[1 0 0 1 0 0] CT
-51 34 moveto 
1 -1 scale
(Jan-20) t 
GR
GR
GS
[0.6 0 0 0.6 682.75463 534.6] CT
0.149 GC
/Helvetica 33.333 F
GS
[1 0 0 1 0 0] CT
-51 34 moveto 
1 -1 scale
(Jan-21) t 
GR
GR
GS
[0.6 0 0 0.6 860.37726 534.6] CT
0.149 GC
/Helvetica 33.333 F
GS
[1 0 0 1 0 0] CT
-51 34 moveto 
1 -1 scale
(Jan-22) t 
GR
GR
GS
[0.6 0 0 0.6 1037.99996 534.6] CT
0.149 GC
/Helvetica 33.333 F
GS
[1 0 0 1 0 0] CT
-51 34 moveto 
1 -1 scale
(Jan-23) t 
GR
GR
GS
[0.6 0 0 0.6 0 0] CT
0.149 GC
2 setlinecap
1 LJ
0.833 LW
N
249 881 M
249 74 L
S
GR
GS
[0.6 0 0 0.6 0 0] CT
0.149 GC
2 setlinecap
1 LJ
0.833 LW
N
1730 881 M
1730 74 L
S
GR
GS
[0.6 0 0 0.6 0 0] CT
0.149 GC
2 setlinecap
1 LJ
0.833 LW
N
249 881 M
263.802 881 L
S
GR
GS
[0.6 0 0 0.6 0 0] CT
0.149 GC
2 setlinecap
1 LJ
0.833 LW
N
249 800.3 M
263.802 800.3 L
S
GR
GS
[0.6 0 0 0.6 0 0] CT
0.149 GC
2 setlinecap
1 LJ
0.833 LW
N
249 719.6 M
263.802 719.6 L
S
GR
GS
[0.6 0 0 0.6 0 0] CT
0.149 GC
2 setlinecap
1 LJ
0.833 LW
N
249 638.9 M
263.802 638.9 L
S
GR
GS
[0.6 0 0 0.6 0 0] CT
0.149 GC
2 setlinecap
1 LJ
0.833 LW
N
249 558.2 M
263.802 558.2 L
S
GR
GS
[0.6 0 0 0.6 0 0] CT
0.149 GC
2 setlinecap
1 LJ
0.833 LW
N
249 477.5 M
263.802 477.5 L
S
GR
GS
[0.6 0 0 0.6 0 0] CT
0.149 GC
2 setlinecap
1 LJ
0.833 LW
N
249 396.8 M
263.802 396.8 L
S
GR
GS
[0.6 0 0 0.6 0 0] CT
0.149 GC
2 setlinecap
1 LJ
0.833 LW
N
249 316.1 M
263.802 316.1 L
S
GR
GS
[0.6 0 0 0.6 0 0] CT
0.149 GC
2 setlinecap
1 LJ
0.833 LW
N
249 235.4 M
263.802 235.4 L
S
GR
GS
[0.6 0 0 0.6 0 0] CT
0.149 GC
2 setlinecap
1 LJ
0.833 LW
N
249 154.7 M
263.802 154.7 L
S
GR
GS
[0.6 0 0 0.6 0 0] CT
0.149 GC
2 setlinecap
1 LJ
0.833 LW
N
249 74 M
263.802 74 L
S
GR
GS
[0.6 0 0 0.6 0 0] CT
0.149 GC
2 setlinecap
1 LJ
0.833 LW
N
1730 881 M
1715.198 881 L
S
GR
GS
[0.6 0 0 0.6 0 0] CT
0.149 GC
2 setlinecap
1 LJ
0.833 LW
N
1730 800.3 M
1715.198 800.3 L
S
GR
GS
[0.6 0 0 0.6 0 0] CT
0.149 GC
2 setlinecap
1 LJ
0.833 LW
N
1730 719.6 M
1715.198 719.6 L
S
GR
GS
[0.6 0 0 0.6 0 0] CT
0.149 GC
2 setlinecap
1 LJ
0.833 LW
N
1730 638.9 M
1715.198 638.9 L
S
GR
GS
[0.6 0 0 0.6 0 0] CT
0.149 GC
2 setlinecap
1 LJ
0.833 LW
N
1730 558.2 M
1715.198 558.2 L
S
GR
GS
[0.6 0 0 0.6 0 0] CT
0.149 GC
2 setlinecap
1 LJ
0.833 LW
N
1730 477.5 M
1715.198 477.5 L
S
GR
GS
[0.6 0 0 0.6 0 0] CT
0.149 GC
2 setlinecap
1 LJ
0.833 LW
N
1730 396.8 M
1715.198 396.8 L
S
GR
GS
[0.6 0 0 0.6 0 0] CT
0.149 GC
2 setlinecap
1 LJ
0.833 LW
N
1730 316.1 M
1715.198 316.1 L
S
GR
GS
[0.6 0 0 0.6 0 0] CT
0.149 GC
2 setlinecap
1 LJ
0.833 LW
N
1730 235.4 M
1715.198 235.4 L
S
GR
GS
[0.6 0 0 0.6 0 0] CT
0.149 GC
2 setlinecap
1 LJ
0.833 LW
N
1730 154.7 M
1715.198 154.7 L
S
GR
GS
[0.6 0 0 0.6 0 0] CT
0.149 GC
2 setlinecap
1 LJ
0.833 LW
N
1730 74 M
1715.198 74 L
S
GR
GS
[0.6 0 0 0.6 143.40827 528.6] CT
0.149 GC
/Helvetica 33.333 F
GS
[1 0 0 1 0 0] CT
-30 13 moveto 
1 -1 scale
(-4) t 
GR
GR
GS
[0.6 0 0 0.6 143.40827 480.17999] CT
0.149 GC
/Helvetica 33.333 F
GS
[1 0 0 1 0 0] CT
-58 13 moveto 
1 -1 scale
(-3.5) t 
GR
GR
GS
[0.6 0 0 0.6 143.40827 431.75999] CT
0.149 GC
/Helvetica 33.333 F
GS
[1 0 0 1 0 0] CT
-30 13 moveto 
1 -1 scale
(-3) t 
GR
GR
GS
[0.6 0 0 0.6 143.40827 383.34001] CT
0.149 GC
/Helvetica 33.333 F
GS
[1 0 0 1 0 0] CT
-58 13 moveto 
1 -1 scale
(-2.5) t 
GR
GR
GS
[0.6 0 0 0.6 143.40827 334.92001] CT
0.149 GC
/Helvetica 33.333 F
GS
[1 0 0 1 0 0] CT
-30 13 moveto 
1 -1 scale
(-2) t 
GR
GR
GS
[0.6 0 0 0.6 143.40827 286.5] CT
0.149 GC
/Helvetica 33.333 F
GS
[1 0 0 1 0 0] CT
-58 13 moveto 
1 -1 scale
(-1.5) t 
GR
GR
GS
[0.6 0 0 0.6 143.40827 238.07999] CT
0.149 GC
/Helvetica 33.333 F
GS
[1 0 0 1 0 0] CT
-30 13 moveto 
1 -1 scale
(-1) t 
GR
GR
GS
[0.6 0 0 0.6 143.40827 189.66] CT
0.149 GC
/Helvetica 33.333 F
GS
[1 0 0 1 0 0] CT
-58 13 moveto 
1 -1 scale
(-0.5) t 
GR
GR
GS
[0.6 0 0 0.6 143.40827 141.24] CT
0.149 GC
/Helvetica 33.333 F
GS
[1 0 0 1 0 0] CT
-19 13 moveto 
1 -1 scale
(0) t 
GR
GR
GS
[0.6 0 0 0.6 143.40827 92.82] CT
0.149 GC
/Helvetica 33.333 F
GS
[1 0 0 1 0 0] CT
-47 13 moveto 
1 -1 scale
(0.5) t 
GR
GR
GS
[0.6 0 0 0.6 143.40827 44.4] CT
0.149 GC
/Helvetica 33.333 F
GS
[1 0 0 1 0 0] CT
-19 13 moveto 
1 -1 scale
(1) t 
GR
GR
GS
[0.6 0 0 0.6 0 0] CT
0 0.447 0.741 RC
[12 12] 0 setdash
2 LJ
3.333 LW
N
273.332 335.293 M
296.042 336.376 L
319.562 344.232 L
345.516 341.958 L
370.659 335.625 L
394.18 336.721 L
420.134 344.818 L
445.277 342.881 L
467.987 339.797 L
494.752 356.426 L
519.084 347.966 L
544.227 363.027 L
569.37 565.704 L
594.513 547.514 L
619.656 552.835 L
644.798 628.897 L
669.941 575.392 L
695.084 628.452 L
720.227 582.956 L
745.37 708.477 L
770.513 655.564 L
795.656 617.137 L
820.799 485.082 L
845.942 495.354 L
871.085 560.83 L
896.228 434.525 L
921.371 522.388 L
946.514 636.243 L
971.657 633.986 L
996.8 659.586 L
1021.943 691.79 L
1047.085 605.663 L
1072.228 608.519 L
1097.371 699.365 L
1122.514 634.936 L
1147.657 425.18 L
1172.8 498.979 L
1197.943 483.059 L
1223.086 554.369 L
1248.229 631.723 L
1273.372 493.243 L
1298.515 413.504 L
1323.658 448.153 L
1348.801 380.428 L
1373.944 401.354 L
1399.087 505.378 L
1424.229 401.699 L
1449.372 513.01 L
1474.515 627.783 L
1499.658 769.699 L
1524.801 577.34 L
1549.944 694.153 L
1575.087 735.219 L
1600.23 753.056 L
S
GR
GS
[0.6 0 0 0.6 0 0] CT
0.851 0.325 0.098 RC
[12 12] 0 setdash
2 LJ
3.333 LW
N
273.332 341.924 M
296.042 341.924 L
319.562 346.766 L
345.516 341.924 L
370.659 345.152 L
394.18 346.766 L
420.134 343.538 L
445.277 340.31 L
467.987 335.468 L
494.752 351.608 L
519.084 345.152 L
544.227 348.38 L
569.37 427.504 L
594.513 434.197 L
619.656 509.81 L
644.798 578.735 L
669.941 560.311 L
695.084 546.092 L
720.227 554.586 L
745.37 575.183 L
770.513 571.137 L
795.656 584.864 L
820.799 560.388 L
845.942 531.519 L
871.085 541.244 L
896.228 510.288 L
921.371 526.877 L
946.514 565.394 L
971.657 672.009 L
996.8 695.526 L
1021.943 683.943 L
1047.085 675.471 L
1072.228 697.242 L
1097.371 696.412 L
1122.514 637.304 L
1147.657 589.462 L
1172.8 607.539 L
1197.943 593.748 L
1223.086 544.981 L
1248.229 574.68 L
1273.372 526.387 L
1298.515 521.932 L
1323.658 472.274 L
1348.801 419.119 L
1373.944 433.297 L
1399.087 439.78 L
1424.229 505.645 L
1449.372 534.599 L
1474.515 555.326 L
1499.658 571.731 L
1524.801 595.749 L
1549.944 663.014 L
1575.087 753.781 L
1600.23 785.353 L
S
GR
GS
[0.6 0 0 0.6 0 0] CT
0.929 0.694 0.125 RC
[12 12] 0 setdash
2 LJ
3.333 LW
N
273.332 322.556 M
296.042 325.784 L
319.562 332.24 L
345.516 325.784 L
370.659 340.31 L
394.18 340.31 L
420.134 332.24 L
445.277 333.854 L
467.987 322.556 L
494.752 340.31 L
519.084 338.696 L
544.227 340.31 L
569.37 379.441 L
594.513 349.104 L
619.656 409.071 L
644.798 485.351 L
669.941 478.035 L
695.084 480.729 L
720.227 493.395 L
745.37 536.867 L
770.513 516.3 L
795.656 545.796 L
820.799 558.045 L
845.942 551.331 L
871.085 553.604 L
896.228 545.459 L
921.371 532.002 L
946.514 573.155 L
971.657 676.744 L
996.8 691.826 L
1021.943 696.507 L
1047.085 701.605 L
1072.228 715.361 L
1097.371 695.351 L
1122.514 627.438 L
1147.657 612.6 L
1172.8 621.699 L
1197.943 614.896 L
1223.086 572.64 L
1248.229 583.871 L
1273.372 506.744 L
1298.515 527.606 L
1323.658 475.951 L
1348.801 426.419 L
1373.944 454.533 L
1399.087 446.997 L
1424.229 535.975 L
1449.372 548.188 L
1474.515 563.899 L
1499.658 600.421 L
1524.801 646.357 L
1549.944 709.13 L
1575.087 805.84 L
1600.23 805.896 L
S
GR
GS
[0.6 0 0 0.6 0 0] CT
0.494 0.184 0.557 RC
[12 12] 0 setdash
2 LJ
3.333 LW
N
273.332 230.558 M
296.042 232.172 L
319.562 253.154 L
345.516 245.084 L
370.659 272.522 L
394.18 275.75 L
420.134 266.066 L
445.277 275.75 L
467.987 249.926 L
494.752 267.68 L
519.084 277.364 L
544.227 285.434 L
569.37 288.753 L
594.513 239.774 L
619.656 292.331 L
644.798 357.208 L
669.941 340.133 L
695.084 355.814 L
720.227 381.157 L
745.37 423.678 L
770.513 404.833 L
795.656 452.421 L
820.799 490.064 L
845.942 499.625 L
871.085 516.098 L
896.228 512.668 L
921.371 479.175 L
946.514 519.905 L
971.657 586.797 L
996.8 607.524 L
1021.943 640.151 L
1047.085 639.469 L
1072.228 647.829 L
1097.371 625.296 L
1122.514 569.977 L
1147.657 589.826 L
1172.8 592.926 L
1197.943 566.756 L
1223.086 542.959 L
1248.229 532.734 L
1273.372 440.014 L
1298.515 460.945 L
1323.658 404.807 L
1348.801 403.031 L
1373.944 450.134 L
1399.087 420.106 L
1424.229 494.268 L
1449.372 515.903 L
1474.515 535.248 L
1499.658 563.486 L
1524.801 591.848 L
1549.944 625.523 L
1575.087 689.036 L
1600.23 704.985 L
S
GR
GS
[0.6 0 0 0.6 0 0] CT
0.467 0.675 0.188 RC
[12 12] 0 setdash
2 LJ
3.333 LW
N
273.332 180.524 M
296.042 178.91 L
319.562 204.734 L
345.516 193.436 L
370.659 220.874 L
394.18 228.944 L
420.134 220.874 L
445.277 230.558 L
467.987 206.348 L
494.752 222.488 L
519.084 233.786 L
544.227 245.084 L
569.37 235.835 L
594.513 178.261 L
619.656 226.857 L
644.798 284.254 L
669.941 262.797 L
695.084 273.283 L
720.227 306.544 L
745.37 352.782 L
770.513 341.665 L
795.656 378.561 L
820.799 421.87 L
845.942 439.925 L
871.085 455.403 L
896.228 458.756 L
921.371 431.616 L
946.514 477.049 L
971.657 535.599 L
996.8 539.698 L
1021.943 573.434 L
1047.085 572.301 L
1072.228 582.377 L
1097.371 568.579 L
1122.514 519.877 L
1147.657 539.646 L
1172.8 540.711 L
1197.943 515.023 L
1223.086 497.487 L
1248.229 479.561 L
1273.372 390.439 L
1298.515 411.774 L
1323.658 353.858 L
1348.801 362.955 L
1373.944 411.145 L
1399.087 378.41 L
1424.229 441.933 L
1449.372 462.082 L
1474.515 477.093 L
1499.658 506.994 L
1524.801 525.379 L
1549.944 544.654 L
1575.087 589.242 L
1600.23 610.514 L
S
GR
GS
[0.6 0 0 0.6 0 0] CT
0.302 0.745 0.933 RC
[12 12] 0 setdash
2 LJ
3.333 LW
N
273.332 124.034 M
296.042 122.42 L
319.562 149.858 L
345.516 138.56 L
370.659 164.384 L
394.18 174.068 L
420.134 165.998 L
445.277 178.91 L
467.987 156.314 L
494.752 170.84 L
519.084 182.138 L
544.227 195.05 L
569.37 174.189 L
594.513 102.063 L
619.656 146.618 L
644.798 187.104 L
669.941 158.286 L
695.084 159.983 L
720.227 205.326 L
745.37 263.737 L
770.513 263.445 L
795.656 283.057 L
820.799 324.581 L
845.942 350.014 L
871.085 365.51 L
896.228 381.451 L
921.371 359.777 L
946.514 411.491 L
971.657 462.895 L
996.8 454.551 L
1021.943 489.655 L
1047.085 485.174 L
1072.228 489.766 L
1097.371 481.888 L
1122.514 445.496 L
1147.657 451.141 L
1172.8 463.611 L
1197.943 435.744 L
1223.086 429.215 L
1248.229 410.915 L
1273.372 321.278 L
1298.515 339.082 L
1323.658 291.813 L
1348.801 308.551 L
1373.944 350.862 L
1399.087 313.127 L
1424.229 361.645 L
1449.372 371.351 L
1474.515 383.914 L
1499.658 437.756 L
1524.801 439.95 L
1549.944 443.509 L
1575.087 477.401 L
1600.23 503.88 L
S
GR
GS
[0.6 0 0 0.6 0 0] CT
0.635 0.078 0.184 RC
1 LJ
3.333 LW
N
273.332 335.293 M
296.042 336.376 L
319.562 344.232 L
345.516 341.958 L
370.659 335.625 L
394.18 336.721 L
420.134 344.818 L
445.277 342.881 L
467.987 339.797 L
494.752 356.426 L
519.084 347.966 L
544.227 363.027 L
S
GR
GS
[0.6 0 0 0.6 0 0] CT
0 0.447 0.741 RC
1 LJ
3.333 LW
N
273.332 341.924 M
296.042 341.924 L
319.562 346.766 L
345.516 341.924 L
370.659 345.152 L
394.18 346.766 L
420.134 343.538 L
445.277 340.31 L
467.987 335.468 L
494.752 351.608 L
519.084 345.152 L
544.227 348.38 L
S
GR
GS
[0.6 0 0 0.6 0 0] CT
0.851 0.325 0.098 RC
1 LJ
3.333 LW
N
273.332 322.556 M
296.042 325.784 L
319.562 332.24 L
345.516 325.784 L
370.659 340.31 L
394.18 340.31 L
420.134 332.24 L
445.277 333.854 L
467.987 322.556 L
494.752 340.31 L
519.084 338.696 L
544.227 340.31 L
S
GR
GS
[0.6 0 0 0.6 0 0] CT
0.929 0.694 0.125 RC
1 LJ
3.333 LW
N
273.332 230.558 M
296.042 232.172 L
319.562 253.154 L
345.516 245.084 L
370.659 272.522 L
394.18 275.75 L
420.134 266.066 L
445.277 275.75 L
467.987 249.926 L
494.752 267.68 L
519.084 277.364 L
544.227 285.434 L
S
GR
GS
[0.6 0 0 0.6 0 0] CT
0.494 0.184 0.557 RC
1 LJ
3.333 LW
N
273.332 180.524 M
296.042 178.91 L
319.562 204.734 L
345.516 193.436 L
370.659 220.874 L
394.18 228.944 L
420.134 220.874 L
445.277 230.558 L
467.987 206.348 L
494.752 222.488 L
519.084 233.786 L
544.227 245.084 L
S
GR
GS
[0.6 0 0 0.6 0 0] CT
0.467 0.675 0.188 RC
1 LJ
3.333 LW
N
273.332 124.034 M
296.042 122.42 L
319.562 149.858 L
345.516 138.56 L
370.659 164.384 L
394.18 174.068 L
420.134 165.998 L
445.277 178.91 L
467.987 156.314 L
494.752 170.84 L
519.084 182.138 L
544.227 195.05 L
S
GR
%%Trailer
%%Pages: 1
%%EOF
