DKSWC CMPN Curncy,0MX3M
S0339FS 3M3M BLC Curncy,3MX3M
S0339FS 6M3M BLC Curncy,6MX3M
S0339FS 1Y3M BLC Curncy,1YX3M
S0339FS 18M3M BLC Curncy,18MX3M
S0339FS 2Y3M BLC Curncy,2YX3M
S0339FS 3Y3M BLC Curncy,3YX3M
S0339FS 4Y3M BLC Curncy,4YX3M
S0339FS 5Y3M BLC Curncy,5YX3M
S0339FS 10Y3M BLC Curncy,10YX3M
DKSWF CMPN Curncy,0MX6M
S0339FS 3M6M BLC Curncy,3MX6M
S0339FS 6M6M BLC Curncy,6MX6M
S0339FS 1Y6M BLC Curncy,1YX6M
S0339FS 18M6M BLC Curncy,18MX6M
S0339FS 2Y6M BLC Curncy,2YX6M
S0339FS 3Y6M BLC Curncy,3YX6M
S0339FS 4Y6M BLC Curncy,4YX6M
S0339FS 5Y6M BLC Curncy,5YX6M
S0339FS 10Y6M BLC Curncy,10YX6M
DKSW1 CMPN Curncy,0MX1Y
S0339FS 3M1Y BLC Curncy,3MX1Y
S0339FS 6M1Y BLC Curncy,6MX1Y
S0339FS 1Y1Y BLC Curncy,1YX1Y
S0339FS 18M1Y BLC Curncy,18MX1Y
S0339FS 2Y1Y BLC Curncy,2YX1Y
S0339FS 3Y1Y BLC Curncy,3YX1Y
S0339FS 4Y1Y BLC Curncy,4YX1Y
S0339FS 5Y1Y BLC Curncy,5YX1Y
S0339FS 10Y1Y BLC Curncy,10YX1Y
DKSW2 CMPN Curncy,0MX2Y
S0339FS 3M2Y BLC Curncy,3MX2Y
S0339FS 6M2Y BLC Curncy,6MX2Y
S0339FS 1Y2Y BLC Curncy,1YX2Y
S0339FS 18M2Y BLC Curncy,18MX2Y
S0339FS 2Y2Y BLC Curncy,2YX2Y
S0339FS 3Y2Y BLC Curncy,3YX2Y
S0339FS 4Y2Y BLC Curncy,4YX2Y
S0339FS 5Y2Y BLC Curncy,5YX2Y
S0339FS 10Y2Y BLC Curncy,10YX2Y
DKSW3 CMPN Curncy,0MX3Y
S0339FS 3M3Y BLC Curncy,3MX3Y
S0339FS 6M3Y BLC Curncy,6MX3Y
S0339FS 1Y3Y BLC Curncy,1YX3Y
S0339FS 18M3Y BLC Curncy,18MX3Y
S0339FS 2Y3Y BLC Curncy,2YX3Y
S0339FS 3Y3Y BLC Curncy,3YX3Y
S0339FS 4Y3Y BLC Curncy,4YX3Y
S0339FS 5Y3Y BLC Curncy,5YX3Y
S0339FS 10Y3Y BLC Curncy,10YX3Y
DKSW5 CMPN Curncy,0MX5Y
S0339FS 3M5Y BLC Curncy,3MX5Y
S0339FS 6M5Y BLC Curncy,6MX5Y
S0339FS 1Y5Y BLC Curncy,1YX5Y
S0339FS 18M5Y BLC Curncy,18MX5Y
S0339FS 2Y5Y BLC Curncy,2YX5Y
S0339FS 3Y5Y BLC Curncy,3YX5Y
S0339FS 4Y5Y BLC Curncy,4YX5Y
S0339FS 5Y5Y BLC Curncy,5YX5Y
S0339FS 10Y5Y BLC Curncy,10YX5Y
DKSW10 CMPN Curncy,0MX10Y
S0339FS 3M10Y BLC Curncy,3MX10Y
S0339FS 6M10Y BLC Curncy,6MX10Y
S0339FS 1Y10Y BLC Curncy,1YX10Y
S0339FS 18M10Y BLC Curncy,18MX10Y
S0339FS 2Y10Y BLC Curncy,2YX10Y
S0339FS 3Y10Y BLC Curncy,3YX10Y
S0339FS 4Y10Y BLC Curncy,4YX10Y
S0339FS 5Y10Y BLC Curncy,5YX10Y
S0339FS 10Y10Y BLC Curncy,10YX10Y
