CADSEK Curncy,SPOT
CADSEKVON BGN Curncy,ATM1D
CADSEKV1W BGN Curncy,ATM1W
CADSEKV2W BGN Curncy,ATM2W
CADSEKV3W BGN Curncy,ATM3W
CADSEKV1M BGN Curncy,ATM1M
CADSEKV2M BGN Curncy,ATM2M
CADSEKV3M BGN Curncy,ATM3M
CADSEKV6M BGN Curncy,ATM6M
CADSEKV1Y BGN Curncy,ATM1Y
CADSEKV18M BGN Curncy,ATM18M
CADSEKV2Y BGN Curncy,ATM2Y
CADSEKV3Y BGN Curncy,ATM3Y
CADSEK25RON BGN Curncy,RR251D
CADSEK25R1W BGN Curncy,RR251W
CADSEK25R2W BGN Curncy,RR252W
CADSEK25R3W BGN Curncy,RR253W
CADSEK25R1M BGN Curncy,RR251M
CADSEK25R2M BGN Curncy,RR252M
CADSEK25R3M BGN Curncy,RR253M
CADSEK25R6M BGN Curncy,RR256M
CADSEK25R1Y BGN Curncy,RR251Y
CADSEK25R18M BGN Curncy,RR2518M
CADSEK25R2Y BGN Curncy,RR252Y
CADSEK25R3Y BGN Curncy,RR253Y
CADSEK25BON BGN Curncy,BF251D
CADSEK25B1W BGN Curncy,BF251W
CADSEK25B2W BGN Curncy,BF252W
CADSEK25B3W BGN Curncy,BF253W
CADSEK25B1M BGN Curncy,BF251M
CADSEK25B2M BGN Curncy,BF252M
CADSEK25B3M BGN Curncy,BF253M
CADSEK25B6M BGN Curncy,BF256M
CADSEK25B1Y BGN Curncy,BF251Y
CADSEK25B18M BGN Curncy,BF2518M
CADSEK25B2Y BGN Curncy,BF252Y
CADSEK25B3Y BGN Curncy,BF253Y
CADSEK10RON BGN Curncy,RR101D
CADSEK10R1W BGN Curncy,RR101W
CADSEK10R2W BGN Curncy,RR102W
CADSEK10R3W BGN Curncy,RR103W
CADSEK10R1M BGN Curncy,RR101M
CADSEK10R2M BGN Curncy,RR102M
CADSEK10R3M BGN Curncy,RR103M
CADSEK10R6M BGN Curncy,RR106M
CADSEK10R1Y BGN Curncy,RR101Y
CADSEK10R18M BGN Curncy,RR1018M
CADSEK10R2Y BGN Curncy,RR102Y
CADSEK10R3Y BGN Curncy,RR103Y
CADSEK10BON BGN Curncy,BF101D
CADSEK10B1W BGN Curncy,BF101W
CADSEK10B2W BGN Curncy,BF102W
CADSEK10B3W BGN Curncy,BF103W
CADSEK10B1M BGN Curncy,BF101M
CADSEK10B2M BGN Curncy,BF102M
CADSEK10B3M BGN Curncy,BF103M
CADSEK10B6M BGN Curncy,BF106M
CADSEK10B1Y BGN Curncy,BF101Y
CADSEK10B18M BGN Curncy,BF1018M
CADSEK10B2Y BGN Curncy,BF102Y
CADSEK10B3Y BGN Curncy,BF103Y
