EDU8 Comdty,EDU8
EDZ8 Comdty,EDZ8
EDH9 Comdty,EDH9
EDM9 Comdty,EDM9
EDZ9 Comdty,EDZ9
EDH0 Comdty,EDH0
EDM0 Comdty,EDM0
EDU0 Comdty,EDU0
EDZ0 Comdty,EDZ0
BAU8 Comdty,BAU8
BAZ8 Comdty,BAZ8
BAH9 Comdty,BAH9
BAM9 Comdty,BAM9
BAU9 Comdty,BAU9
BAZ9 Comdty,BAZ9
