USSFVF1 Curncy,SOFRFF_1Y
USSFVF2 Curncy,SOFRFF_2Y
USSFVF3 Curncy,SOFRFF_3Y
USSFVF4 Curncy,SOFRFF_4Y
USSFVF5 Curncy,SOFRFF_5Y
USSFVF6 Curncy,SOFRFF_6Y
USSFVF7 Curncy,SOFRFF_7Y
USSFVF8 Curncy,SOFRFF_8Y
USSFVF9 Curncy,SOFRFF_9Y
USSFVF10 Curncy,SOFRFF_10Y
USSFVF11 Curncy,SOFRFF_11Y
USSFVF12 Curncy,SOFRFF_12Y
USSFVF15 Curncy,SOFRFF_15Y
USSFVF20 Curncy,SOFRFF_20Y
USSFVF25 Curncy,SOFRFF_25Y
USSFVF30 Curncy,SOFRFF_30Y
USSFVF35 Curncy,SOFRFF_35Y
USSFVF40 Curncy,SOFRFF_40Y
USSFVF45 Curncy,SOFRFF_45Y
USSFVF50 Curncy,SOFRFF_50Y