ED1 Comdty,ED01
ED2 Comdty,ED02
ED3 Comdty,ED03
ED4 Comdty,ED04
ED5 Comdty,ED05
ED6 Comdty,ED06
ED7 Comdty,ED07
ED8 Comdty,ED08
ED9 Comdty,ED09
ED10 Comdty,ED10
ED11 Comdty,ED11
ED12 Comdty,ED12
ED13 Comdty,ED13
ED14 Comdty,ED14
ED15 Comdty,ED15
ED16 Comdty,ED16
ED17 Comdty,ED17
ED18 Comdty,ED18
ED19 Comdty,ED19
ED20 Comdty,ED20
ED21 Comdty,ED21
ED22 Comdty,ED22
ED23 Comdty,ED23
ED24 Comdty,ED24
BA1 Comdty,BA01
BA2 Comdty,BA02
BA3 Comdty,BA03
BA4 Comdty,BA04
BA5 Comdty,BA05
BA6 Comdty,BA06
BA7 Comdty,BA07
BA8 Comdty,BA08
BA9 Comdty,BA09
BA10 Comdty,BA10
BA11 Comdty,BA11
BA12 Comdty,BA12
IR1 Comdty,IR01
IR2 Comdty,IR02
IR3 Comdty,IR03
IR4 Comdty,IR04
IR5 Comdty,IR05
IR6 Comdty,IR06
IR7 Comdty,IR07
IR8 Comdty,IR08
IR9 Comdty,IR09
IR10 Comdty,IR10
IR11 Comdty,IR11
IR12 Comdty,IR12
L 1 Comdty,L01
L 2 Comdty,L02
L 3 Comdty,L03
L 4 Comdty,L04
L 5 Comdty,L05
L 6 Comdty,L06
L 7 Comdty,L07
L 8 Comdty,L08
L 9 Comdty,L09
L 10 Comdty,L10
L 11 Comdty,L11
L 12 Comdty,L12
L 13 Comdty,L13
L 14 Comdty,L14
L 15 Comdty,L15
L 16 Comdty,L16
L 17 Comdty,L17
L 18 Comdty,L18
L 19 Comdty,L19
L 20 Comdty,L20
L 21 Comdty,L21
L 22 Comdty,L22
L 23 Comdty,L23
L 24 Comdty,L24
ZB1 Comdty,ZB01
ZB2 Comdty,ZB02
ZB3 Comdty,ZB03
ZB4 Comdty,ZB04
ZB5 Comdty,ZB05
ZB6 Comdty,ZB06
ZB7 Comdty,ZB07
ZB8 Comdty,ZB08
ZB9 Comdty,ZB09
ZB10 Comdty,ZB10
ZB11 Comdty,ZB11
ZB12 Comdty,ZB12
FF1 Comdty, FF0101
FF2 Comdty, FF0102
FF3 Comdty, FF0103
FF4 Comdty, FF0104
FF5 Comdty, FF0105
FF6 Comdty, FF0106
FF7 Comdty, FF0107
FF8 Comdty, FF0108
FF9 Comdty, FF0109
FF10 Comdty, FF0110
FF11 Comdty, FF0111
FF12 Comdty, FF0112
FF13 Comdty, FF0201
FF14 Comdty, FF0202
FF15 Comdty, FF0203
FF16 Comdty, FF0204
FF17 Comdty, FF0205
FF18 Comdty, FF0206
FF19 Comdty, FF0207
FF20 Comdty, FF0208
FF21 Comdty, FF0209
FF22 Comdty, FF0210
FF23 Comdty, FF0211
FF24 Comdty, FF0212
FF25 Comdty, FF0301
FF26 Comdty, FF0302
FF27 Comdty, FF0303
FF28 Comdty, FF0304
FF29 Comdty, FF0305
FF30 Comdty, FF0306
FF31 Comdty, FF0307
FF32 Comdty, FF0308
FF33 Comdty, FF0309
FF34 Comdty, FF0310
FF35 Comdty, FF0311
FF36 Comdty, FF0312