AsOfDate,Security Name, Field,Overrides,DateRange,DataProjectionType
,BISBAUR Index,PX_LAST,,365,0
,BISBCAR Index, ,,,
,BISBEUR Index,,,,
,BISBJPR Index,,,,
,BISBNZR Index, ,,,
,BISBNOR Index,,,,
,BISBSER Index,,,,
,BISBCHR Index,,,,
,BISBGBR Index,,,,
,BISBUSR Index,,,,
,BISBCNR Index,,,,
,BISBHKR Index,,,,
,BISBINR Index,,,,
,BISBIDR Index,,,,
,BISBMYR Index,,,,
,BISBPHR Index,,,,
,BISBSGR Index,,,,
,BISBKRR Index,,,,
,BISBTWR Index,,,,
,BISBTHR Index,,,,
,BISBDKR Index,,,,
,BISBBRR Index,,,,
,BISBCLR Index,,,,
,BISBMXR Index,,,,
,BISBILR Index,,,,
,BISBPLR Index,,,,
,BISBRUR Index,,,,
,BISBZAR Index,,,,
,BISBTRR Index,,,,
