AsOfDate,Security Name, Field,Overrides,DateRange,DataProjectionType
,WSURAUDP Index,PX_LAST,,365,0
,WSURCADP Index, ,,,
,WSUREURP Index,,,,
,WSURJPYP Index,,,,
,WSURNZDP Index, ,,,
,WSURNOKP Index,,,,
,WSURSEKP Index,,,,
,WSURCHFP Index,,,,
,WSURUKP Index,,,,
,WSURUSAP Index,,,,
,WSURDMRP Index,,,,
,WSURGLBP Index,,,,
,WSURASIP Index,,,,
,WSURAUDS Index,,,,
,WSURCADS Index,,,,
,WSUREURS Index,,,,
,WSURJPYS Index,,,,
,WSURNZDS Index,,,,
,WSURNOKS Index,,,,
,WSURSEKS Index,,,,
,WSURCHFS Index,,,,
,WSURUKS Index,,,,
,WSURUSAS Index,,,,
,WSURDMRS Index,,,,
,WSURGLBS Index,,,,
,WSURASIS Index,,,,
