AsOfDate,Security Name, Field,Overrides,DateRange,DataProjectionType
,UBSUAUD Index,PX_LAST,,365,0
,UBSUCAD Index, ,,,
,UBSUEU Index,,,,
,UBSUJPY Index,,,,
,UBSUNZD Index, ,,,
,UBSUNOK Index,,,,
,UBSUSEK Index,,,,
,UBSUCHF Index,,,,
,UBSUGBP Index,,,,
,UBSUUSD Index,,,,
,UBSUCNY Index,,,,
,UBSUSGD Index,,,,
,UBSUKRW Index,,,,
,UBSUTWD Index,,,,
,UBSUGLOB Index,,,,
,UBSUASIA Index,,,,
