AsOfDate,Security Name, Field,Overrides,DateRange,DataProjectionType,FutureProjectionRangeInMonths
,WSURAUDS Index,PX_LAST,,10,0,0
,WSURCADS Index, ,,,,
,WSUREURS Index,,,,,
,WSURJPYS Index,,,,,
,WSURNZDS Index, ,,,,
,WSURNOKS Index,,,,,
,WSURSEKS Index,,,,,
,WSURCHFS Index,,,,,
,WSURUKS Index,,,,,
,WSURUSAS Index,,,,,
,WSURDMRS Index,,,,,
,WSURGLBS Index,,,,,
,WSURASIS Index,,,,,
