AsOfDate,Security Name, Field,Overrides,DateRange,DataProjectionType
,ATWI Index,PX_LAST,,365,0
,TWI CDSP Index, ,,,
,TWI EUSP Index,,,,
,TWI JPSP Index,,,,
,NZTW Index, ,,,
,TWI NKSP Index,,,,
,TWI SKSP Index,,,,
,TWI SFSP Index,,,,
,TWI BPSP Index,,,,
,TWI USSP Index,,,,
,ATWICNY Index,,,,
,ATWIHKD Index,,,,
,ATWIINR Index,,,,
,ATWIIDR Index,,,,
,ATWIMYR Index,,,,
,ATWIPHP Index,,,,
,ATWISGD Index,,,,
,ATWIKRW Index,,,,
,ATWITWD Index,,,,
,ATWITHB Index,,,,
