AsOfDate,Security Name, Field,Overrides,DateRange,DataProjectionType,FutureProjectionRangeInMonths
,PCE CMOM Index,PX_LAST,periodicityAdjustment=CALENDAR,100,0,0
,RBCPTRIQ Index,,nonTradingDayFillMethod=PREVIOUS_VALUE,,,
,,,nonTradingDayFillOption=NON_TRADING_WEEKDAYS,,,


