%!PS-Adobe-3.0 EPSF-3.0
%%Creator: (MATLAB, The Mathworks, Inc. Version 9.8.0.1359463 \(R2020a\) Update 1. Operating System: Windows 10)
%%Title: ./EmpiricalLoadingStructures.eps
%%CreationDate: 2021-03-09T11:28:59
%%Pages: (atend)
%%BoundingBox:   121    55  1310   715
%%LanguageLevel: 3
%%EndComments
%%BeginProlog
%%BeginResource: procset (Apache XML Graphics Std ProcSet) 1.2 0
%%Version: 1.2 0
%%Copyright: (Copyright 2001-2003,2010 The Apache Software Foundation. License terms: http://www.apache.org/licenses/LICENSE-2.0)
/bd{bind def}bind def
/ld{load def}bd
/GR/grestore ld
/GS/gsave ld
/RM/rmoveto ld
/C/curveto ld
/t/show ld
/L/lineto ld
/ML/setmiterlimit ld
/CT/concat ld
/f/fill ld
/N/newpath ld
/S/stroke ld
/CC/setcmykcolor ld
/A/ashow ld
/cp/closepath ld
/RC/setrgbcolor ld
/LJ/setlinejoin ld
/GC/setgray ld
/LW/setlinewidth ld
/M/moveto ld
/re {4 2 roll M
1 index 0 rlineto
0 exch rlineto
neg 0 rlineto
cp } bd
/_ctm matrix def
/_tm matrix def
/BT { _ctm currentmatrix pop matrix _tm copy pop 0 0 moveto } bd
/ET { _ctm setmatrix } bd
/iTm { _ctm setmatrix _tm concat } bd
/Tm { _tm astore pop iTm 0 0 moveto } bd
/ux 0.0 def
/uy 0.0 def
/F {
  /Tp exch def
  /Tf exch def
  Tf findfont Tp scalefont setfont
  /cf Tf def  /cs Tp def
} bd
/ULS {currentpoint /uy exch def /ux exch def} bd
/ULE {
  /Tcx currentpoint pop def
  gsave
  newpath
  cf findfont cs scalefont dup
  /FontMatrix get 0 get /Ts exch def /FontInfo get dup
  /UnderlinePosition get Ts mul /To exch def
  /UnderlineThickness get Ts mul /Tt exch def
  ux uy To add moveto  Tcx uy To add lineto
  Tt setlinewidth stroke
  grestore
} bd
/OLE {
  /Tcx currentpoint pop def
  gsave
  newpath
  cf findfont cs scalefont dup
  /FontMatrix get 0 get /Ts exch def /FontInfo get dup
  /UnderlinePosition get Ts mul /To exch def
  /UnderlineThickness get Ts mul /Tt exch def
  ux uy To add cs add moveto Tcx uy To add cs add lineto
  Tt setlinewidth stroke
  grestore
} bd
/SOE {
  /Tcx currentpoint pop def
  gsave
  newpath
  cf findfont cs scalefont dup
  /FontMatrix get 0 get /Ts exch def /FontInfo get dup
  /UnderlinePosition get Ts mul /To exch def
  /UnderlineThickness get Ts mul /Tt exch def
  ux uy To add cs 10 mul 26 idiv add moveto Tcx uy To add cs 10 mul 26 idiv add lineto
  Tt setlinewidth stroke
  grestore
} bd
/QT {
/Y22 exch store
/X22 exch store
/Y21 exch store
/X21 exch store
currentpoint
/Y21 load 2 mul add 3 div exch
/X21 load 2 mul add 3 div exch
/X21 load 2 mul /X22 load add 3 div
/Y21 load 2 mul /Y22 load add 3 div
/X22 load /Y22 load curveto
} bd
/SSPD {
dup length /d exch dict def
{
/v exch def
/k exch def
currentpagedevice k known {
/cpdv currentpagedevice k get def
v cpdv ne {
/upd false def
/nullv v type /nulltype eq def
/nullcpdv cpdv type /nulltype eq def
nullv nullcpdv or
{
/upd true def
} {
/sametype v type cpdv type eq def
sametype {
v type /arraytype eq {
/vlen v length def
/cpdvlen cpdv length def
vlen cpdvlen eq {
0 1 vlen 1 sub {
/i exch def
/obj v i get def
/cpdobj cpdv i get def
obj cpdobj ne {
/upd true def
exit
} if
} for
} {
/upd true def
} ifelse
} {
v type /dicttype eq {
v {
/dv exch def
/dk exch def
/cpddv cpdv dk get def
dv cpddv ne {
/upd true def
exit
} if
} forall
} {
/upd true def
} ifelse
} ifelse
} if
} ifelse
upd true eq {
d k v put
} if
} if
} if
} forall
d length 0 gt {
d setpagedevice
} if
} bd
/RE { % /NewFontName [NewEncodingArray] /FontName RE -
  findfont dup length dict begin
  {
    1 index /FID ne
    {def} {pop pop} ifelse
  } forall
  /Encoding exch def
  /FontName 1 index def
  currentdict definefont pop
  end
} bind def
%%EndResource
%%BeginResource: procset (Apache XML Graphics EPS ProcSet) 1.0 0
%%Version: 1.0 0
%%Copyright: (Copyright 2002-2003 The Apache Software Foundation. License terms: http://www.apache.org/licenses/LICENSE-2.0)
/BeginEPSF { %def
/b4_Inc_state save def         % Save state for cleanup
/dict_count countdictstack def % Count objects on dict stack
/op_count count 1 sub def      % Count objects on operand stack
userdict begin                 % Push userdict on dict stack
/showpage { } def              % Redefine showpage, { } = null proc
0 setgray 0 setlinecap         % Prepare graphics state
1 setlinewidth 0 setlinejoin
10 setmiterlimit [ ] 0 setdash newpath
/languagelevel where           % If level not equal to 1 then
{pop languagelevel             % set strokeadjust and
1 ne                           % overprint to their defaults.
{false setstrokeadjust false setoverprint
} if
} if
} bd
/EndEPSF { %def
count op_count sub {pop} repeat            % Clean up stacks
countdictstack dict_count sub {end} repeat
b4_Inc_state restore
} bd
%%EndResource
%FOPBeginFontDict
%%IncludeResource: font Courier-Oblique
%%IncludeResource: font Courier-BoldOblique
%%IncludeResource: font Courier-Bold
%%IncludeResource: font ZapfDingbats
%%IncludeResource: font Symbol
%%IncludeResource: font Helvetica
%%IncludeResource: font Helvetica-Oblique
%%IncludeResource: font Helvetica-Bold
%%IncludeResource: font Helvetica-BoldOblique
%%IncludeResource: font Times-Roman
%%IncludeResource: font Times-Italic
%%IncludeResource: font Times-Bold
%%IncludeResource: font Times-BoldItalic
%%IncludeResource: font Courier
%FOPEndFontDict
%%BeginResource: encoding WinAnsiEncoding
/WinAnsiEncoding [
/.notdef /.notdef /.notdef /.notdef /.notdef
/.notdef /.notdef /.notdef /.notdef /.notdef
/.notdef /.notdef /.notdef /.notdef /.notdef
/.notdef /.notdef /.notdef /.notdef /.notdef
/.notdef /.notdef /.notdef /.notdef /.notdef
/.notdef /.notdef /.notdef /.notdef /.notdef
/.notdef /.notdef /space /exclam /quotedbl
/numbersign /dollar /percent /ampersand /quotesingle
/parenleft /parenright /asterisk /plus /comma
/hyphen /period /slash /zero /one
/two /three /four /five /six
/seven /eight /nine /colon /semicolon
/less /equal /greater /question /at
/A /B /C /D /E
/F /G /H /I /J
/K /L /M /N /O
/P /Q /R /S /T
/U /V /W /X /Y
/Z /bracketleft /backslash /bracketright /asciicircum
/underscore /quoteleft /a /b /c
/d /e /f /g /h
/i /j /k /l /m
/n /o /p /q /r
/s /t /u /v /w
/x /y /z /braceleft /bar
/braceright /asciitilde /bullet /Euro /bullet
/quotesinglbase /florin /quotedblbase /ellipsis /dagger
/daggerdbl /circumflex /perthousand /Scaron /guilsinglleft
/OE /bullet /Zcaron /bullet /bullet
/quoteleft /quoteright /quotedblleft /quotedblright /bullet
/endash /emdash /asciitilde /trademark /scaron
/guilsinglright /oe /bullet /zcaron /Ydieresis
/space /exclamdown /cent /sterling /currency
/yen /brokenbar /section /dieresis /copyright
/ordfeminine /guillemotleft /logicalnot /sfthyphen /registered
/macron /degree /plusminus /twosuperior /threesuperior
/acute /mu /paragraph /middot /cedilla
/onesuperior /ordmasculine /guillemotright /onequarter /onehalf
/threequarters /questiondown /Agrave /Aacute /Acircumflex
/Atilde /Adieresis /Aring /AE /Ccedilla
/Egrave /Eacute /Ecircumflex /Edieresis /Igrave
/Iacute /Icircumflex /Idieresis /Eth /Ntilde
/Ograve /Oacute /Ocircumflex /Otilde /Odieresis
/multiply /Oslash /Ugrave /Uacute /Ucircumflex
/Udieresis /Yacute /Thorn /germandbls /agrave
/aacute /acircumflex /atilde /adieresis /aring
/ae /ccedilla /egrave /eacute /ecircumflex
/edieresis /igrave /iacute /icircumflex /idieresis
/eth /ntilde /ograve /oacute /ocircumflex
/otilde /odieresis /divide /oslash /ugrave
/uacute /ucircumflex /udieresis /yacute /thorn
/ydieresis
] def
%%EndResource
%FOPBeginFontReencode
/Courier-Oblique findfont
dup length dict begin
  {1 index /FID ne {def} {pop pop} ifelse} forall
  /Encoding WinAnsiEncoding def
  currentdict
end
/Courier-Oblique exch definefont pop
/Courier-BoldOblique findfont
dup length dict begin
  {1 index /FID ne {def} {pop pop} ifelse} forall
  /Encoding WinAnsiEncoding def
  currentdict
end
/Courier-BoldOblique exch definefont pop
/Courier-Bold findfont
dup length dict begin
  {1 index /FID ne {def} {pop pop} ifelse} forall
  /Encoding WinAnsiEncoding def
  currentdict
end
/Courier-Bold exch definefont pop
/Helvetica findfont
dup length dict begin
  {1 index /FID ne {def} {pop pop} ifelse} forall
  /Encoding WinAnsiEncoding def
  currentdict
end
/Helvetica exch definefont pop
/Helvetica-Oblique findfont
dup length dict begin
  {1 index /FID ne {def} {pop pop} ifelse} forall
  /Encoding WinAnsiEncoding def
  currentdict
end
/Helvetica-Oblique exch definefont pop
/Helvetica-Bold findfont
dup length dict begin
  {1 index /FID ne {def} {pop pop} ifelse} forall
  /Encoding WinAnsiEncoding def
  currentdict
end
/Helvetica-Bold exch definefont pop
/Helvetica-BoldOblique findfont
dup length dict begin
  {1 index /FID ne {def} {pop pop} ifelse} forall
  /Encoding WinAnsiEncoding def
  currentdict
end
/Helvetica-BoldOblique exch definefont pop
/Times-Roman findfont
dup length dict begin
  {1 index /FID ne {def} {pop pop} ifelse} forall
  /Encoding WinAnsiEncoding def
  currentdict
end
/Times-Roman exch definefont pop
/Times-Italic findfont
dup length dict begin
  {1 index /FID ne {def} {pop pop} ifelse} forall
  /Encoding WinAnsiEncoding def
  currentdict
end
/Times-Italic exch definefont pop
/Times-Bold findfont
dup length dict begin
  {1 index /FID ne {def} {pop pop} ifelse} forall
  /Encoding WinAnsiEncoding def
  currentdict
end
/Times-Bold exch definefont pop
/Times-BoldItalic findfont
dup length dict begin
  {1 index /FID ne {def} {pop pop} ifelse} forall
  /Encoding WinAnsiEncoding def
  currentdict
end
/Times-BoldItalic exch definefont pop
/Courier findfont
dup length dict begin
  {1 index /FID ne {def} {pop pop} ifelse} forall
  /Encoding WinAnsiEncoding def
  currentdict
end
/Courier exch definefont pop
%FOPEndFontReencode
%%EndProlog
%%Page: 1 1
%%PageBoundingBox: 0 0 1430 748
%%BeginPageSetup
[1 0 0 -1 0 748] CT
%%EndPageSetup
GS
[0.375 0 0 0.375 0 0.25] CT
N
0 0 M
3814 0 L
3814 1994 L
0 1994 L
0 0 L
cp
clip
1 GC
N
0 0 3814 1994 re
f
GR
GS
[0.375 0 0 0.375 0 0.25] CT
1 GC
N
0 0 3814 1994 re
f
GR
GS
[0.375 0 0 0.375 0 0.25] CT
1 GC
N
496 830 M
3452 830 L
3452 150 L
496 150 L
cp
f
GR
GS
[0.375 0 0 0.375 0 0.25] CT
0.873 GC
1 LJ
1.333 LW
N
569.9 830 M
569.9 150 L
S
GR
GS
[0.375 0 0 0.375 0 0.25] CT
0.873 GC
1 LJ
1.333 LW
N
791.6 830 M
791.6 150 L
S
GR
GS
[0.375 0 0 0.375 0 0.25] CT
0.873 GC
1 LJ
1.333 LW
N
1087.2 830 M
1087.2 150 L
S
GR
GS
[0.375 0 0 0.375 0 0.25] CT
0.873 GC
1 LJ
1.333 LW
N
1974 830 M
1974 150 L
S
GR
GS
[0.375 0 0 0.375 0 0.25] CT
0.873 GC
1 LJ
1.333 LW
N
2565.2 830 M
2565.2 150 L
S
GR
GS
[0.375 0 0 0.375 0 0.25] CT
0.873 GC
1 LJ
1.333 LW
N
3452 830 M
3452 150 L
S
GR
GS
[0.375 0 0 0.375 0 0.25] CT
0.873 GC
1 LJ
1.333 LW
N
3452 830 M
496 830 L
S
GR
GS
[0.375 0 0 0.375 0 0.25] CT
0.873 GC
1 LJ
1.333 LW
N
3452 660 M
496 660 L
S
GR
GS
[0.375 0 0 0.375 0 0.25] CT
0.873 GC
1 LJ
1.333 LW
N
3452 490 M
496 490 L
S
GR
GS
[0.375 0 0 0.375 0 0.25] CT
0.873 GC
1 LJ
1.333 LW
N
3452 320 M
496 320 L
S
GR
GS
[0.375 0 0 0.375 0 0.25] CT
0.873 GC
1 LJ
1.333 LW
N
3452 150 M
496 150 L
S
GR
GS
[0.375 0 0 0.375 0 0.25] CT
0.149 GC
2 setlinecap
1 LJ
1.333 LW
N
496 830 M
3452 830 L
S
GR
GS
[0.375 0 0 0.375 0 0.25] CT
0.149 GC
2 setlinecap
1 LJ
1.333 LW
N
496 150 M
3452 150 L
S
GR
GS
[0.375 0 0 0.375 0 0.25] CT
0.149 GC
2 setlinecap
1 LJ
1.333 LW
N
569.9 830 M
569.9 800.44 L
S
GR
GS
[0.375 0 0 0.375 0 0.25] CT
0.149 GC
2 setlinecap
1 LJ
1.333 LW
N
791.6 830 M
791.6 800.44 L
S
GR
GS
[0.375 0 0 0.375 0 0.25] CT
0.149 GC
2 setlinecap
1 LJ
1.333 LW
N
1087.2 830 M
1087.2 800.44 L
S
GR
GS
[0.375 0 0 0.375 0 0.25] CT
0.149 GC
2 setlinecap
1 LJ
1.333 LW
N
1974 830 M
1974 800.44 L
S
GR
GS
[0.375 0 0 0.375 0 0.25] CT
0.149 GC
2 setlinecap
1 LJ
1.333 LW
N
2565.2 830 M
2565.2 800.44 L
S
GR
GS
[0.375 0 0 0.375 0 0.25] CT
0.149 GC
2 setlinecap
1 LJ
1.333 LW
N
3452 830 M
3452 800.44 L
S
GR
GS
[0.375 0 0 0.375 0 0.25] CT
0.149 GC
2 setlinecap
1 LJ
1.333 LW
N
569.9 150 M
569.9 179.56 L
S
GR
GS
[0.375 0 0 0.375 0 0.25] CT
0.149 GC
2 setlinecap
1 LJ
1.333 LW
N
791.6 150 M
791.6 179.56 L
S
GR
GS
[0.375 0 0 0.375 0 0.25] CT
0.149 GC
2 setlinecap
1 LJ
1.333 LW
N
1087.2 150 M
1087.2 179.56 L
S
GR
GS
[0.375 0 0 0.375 0 0.25] CT
0.149 GC
2 setlinecap
1 LJ
1.333 LW
N
1974 150 M
1974 179.56 L
S
GR
GS
[0.375 0 0 0.375 0 0.25] CT
0.149 GC
2 setlinecap
1 LJ
1.333 LW
N
2565.2 150 M
2565.2 179.56 L
S
GR
GS
[0.375 0 0 0.375 0 0.25] CT
0.149 GC
2 setlinecap
1 LJ
1.333 LW
N
3452 150 M
3452 179.56 L
S
GR
GS
[0.375 0 0 0.375 213.71251 317.5] CT
0.149 GC
/Helvetica 53.333 F
GS
[1 0 0 1 0 0] CT
-15 54 moveto 
1 -1 scale
(3) t 
GR
GR
GS
[0.375 0 0 0.375 296.84999 317.5] CT
0.149 GC
/Helvetica 53.333 F
GS
[1 0 0 1 0 0] CT
-30 54 moveto 
1 -1 scale
(12) t 
GR
GR
GS
[0.375 0 0 0.375 407.69998 317.5] CT
0.149 GC
/Helvetica 53.333 F
GS
[1 0 0 1 0 0] CT
-30 54 moveto 
1 -1 scale
(24) t 
GR
GR
GS
[0.375 0 0 0.375 740.25 317.5] CT
0.149 GC
/Helvetica 53.333 F
GS
[1 0 0 1 0 0] CT
-30 54 moveto 
1 -1 scale
(60) t 
GR
GR
GS
[0.375 0 0 0.375 961.94998 317.5] CT
0.149 GC
/Helvetica 53.333 F
GS
[1 0 0 1 0 0] CT
-30 54 moveto 
1 -1 scale
(84) t 
GR
GR
GS
[0.375 0 0 0.375 1294.5 317.5] CT
0.149 GC
/Helvetica 53.333 F
GS
[1 0 0 1 0 0] CT
-44.5 54 moveto 
1 -1 scale
(120) t 
GR
GR
GS
[0.375 0 0 0.375 0 0.25] CT
0.149 GC
2 setlinecap
1 LJ
1.333 LW
N
496 830 M
496 150 L
S
GR
GS
[0.375 0 0 0.375 0 0.25] CT
0.149 GC
2 setlinecap
1 LJ
1.333 LW
N
3452 830 M
3452 150 L
S
GR
GS
[0.375 0 0 0.375 0 0.25] CT
0.149 GC
2 setlinecap
1 LJ
1.333 LW
N
496 830 M
525.56 830 L
S
GR
GS
[0.375 0 0 0.375 0 0.25] CT
0.149 GC
2 setlinecap
1 LJ
1.333 LW
N
496 660 M
525.56 660 L
S
GR
GS
[0.375 0 0 0.375 0 0.25] CT
0.149 GC
2 setlinecap
1 LJ
1.333 LW
N
496 490 M
525.56 490 L
S
GR
GS
[0.375 0 0 0.375 0 0.25] CT
0.149 GC
2 setlinecap
1 LJ
1.333 LW
N
496 320 M
525.56 320 L
S
GR
GS
[0.375 0 0 0.375 0 0.25] CT
0.149 GC
2 setlinecap
1 LJ
1.333 LW
N
496 150 M
525.56 150 L
S
GR
GS
[0.375 0 0 0.375 0 0.25] CT
0.149 GC
2 setlinecap
1 LJ
1.333 LW
N
3452 830 M
3422.44 830 L
S
GR
GS
[0.375 0 0 0.375 0 0.25] CT
0.149 GC
2 setlinecap
1 LJ
1.333 LW
N
3452 660 M
3422.44 660 L
S
GR
GS
[0.375 0 0 0.375 0 0.25] CT
0.149 GC
2 setlinecap
1 LJ
1.333 LW
N
3452 490 M
3422.44 490 L
S
GR
GS
[0.375 0 0 0.375 0 0.25] CT
0.149 GC
2 setlinecap
1 LJ
1.333 LW
N
3452 320 M
3422.44 320 L
S
GR
GS
[0.375 0 0 0.375 0 0.25] CT
0.149 GC
2 setlinecap
1 LJ
1.333 LW
N
3452 150 M
3422.44 150 L
S
GR
GS
[0.375 0 0 0.375 180 311.5] CT
0.149 GC
/Helvetica 53.333 F
GS
[1 0 0 1 0 0] CT
-48 21 moveto 
1 -1 scale
(-1) t 
GR
GR
GS
[0.375 0 0 0.375 180 247.75] CT
0.149 GC
/Helvetica 53.333 F
GS
[1 0 0 1 0 0] CT
-92 21 moveto 
1 -1 scale
(-0.5) t 
GR
GR
GS
[0.375 0 0 0.375 180 184] CT
0.149 GC
/Helvetica 53.333 F
GS
[1 0 0 1 0 0] CT
-30 21 moveto 
1 -1 scale
(0) t 
GR
GR
GS
[0.375 0 0 0.375 180 120.25] CT
0.149 GC
/Helvetica 53.333 F
GS
[1 0 0 1 0 0] CT
-75 21 moveto 
1 -1 scale
(0.5) t 
GR
GR
GS
[0.375 0 0 0.375 180 56.5] CT
0.149 GC
/Helvetica 53.333 F
GS
[1 0 0 1 0 0] CT
-30 21 moveto 
1 -1 scale
(1) t 
GR
GR
GS
[0 -0.375 0.375 0 142.5 183.99987] CT
0.149 GC
/Helvetica 58.667 F
GS
[1 0 0 1 0 0] CT
-75.5 -13 moveto 
1 -1 scale
(Value) t 
GR
GR
GS
[0.375 0 0 0.375 740.25069 54.4375] CT
/Helvetica-Bold 58.667 F
GS
[1 0 0 1 0 0] CT
-288.5 -13 moveto 
1 -1 scale
(US loading structure) t 
GR
GR
GS
[0.375 0 0 0.375 0 0.25] CT
0 0.447 0.741 RC
1 LJ
5.333 LW
N
569.9 343.693 M
791.6 340.662 L
1087.2 342.418 L
1974 353.887 L
2565.2 360.676 L
3452 368.096 L
S
GR
GS
[0.375 0 0 0.375 213.71251 129.13502] CT
0 0.447 0.741 RC
N
0 -5.333 M
2.946 -5.333 5.333 -2.946 5.333 0 C
5.333 0 L
5.333 2.946 2.946 5.333 0 5.333 C
-2.946 5.333 -5.333 2.946 -5.333 0 C
-5.333 -2.946 -2.946 -5.333 0 -5.333 C
cp
0 -10.667 M
-5.891 -10.667 -10.667 -5.891 -10.667 0 C
-10.667 5.891 -5.891 10.667 0 10.667 C
5.891 10.667 10.667 5.891 10.667 0 C
10.667 0 L
10.667 -5.891 5.891 -10.667 0 -10.667 C
cp
f
GR
GS
[0.375 0 0 0.375 296.84999 127.99842] CT
0 0.447 0.741 RC
N
/f-685726124{0 -5.333 M
2.946 -5.333 5.333 -2.946 5.333 0 C
5.333 0 L
5.333 2.946 2.946 5.333 0 5.333 C
-2.946 5.333 -5.333 2.946 -5.333 0 C
-5.333 -2.946 -2.946 -5.333 0 -5.333 C
cp
0 -10.667 M
-5.891 -10.667 -10.667 -5.891 -10.667 0 C
-10.667 5.891 -5.891 10.667 0 10.667 C
5.891 10.667 10.667 5.891 10.667 0 C
10.667 0 L
10.667 -5.891 5.891 -10.667 0 -10.667 C
cp}def
f-685726124
f
GR
GS
[0.375 0 0 0.375 407.69998 128.65674] CT
0 0.447 0.741 RC
N
f-685726124
f
GR
GS
[0.375 0 0 0.375 740.25 132.9575] CT
0 0.447 0.741 RC
N
f-685726124
f
GR
GS
[0.375 0 0 0.375 961.94998 135.50335] CT
0 0.447 0.741 RC
N
f-685726124
f
GR
GS
[0.375 0 0 0.375 1294.5 138.28603] CT
0 0.447 0.741 RC
N
f-685726124
f
GR
GS
[0.375 0 0 0.375 0 0.25] CT
0.851 0.325 0.098 RC
1 LJ
5.333 LW
N
569.9 283.98 M
791.6 373.075 L
1087.2 457.802 L
1974 589.243 L
2565.2 629.402 L
3452 660.779 L
S
GR
GS
[0.375 0 0 0.375 213.71251 106.74262] CT
0.851 0.325 0.098 RC
N
f-685726124
f
GR
GS
[0.375 0 0 0.375 296.84999 140.15324] CT
0.851 0.325 0.098 RC
N
f-685726124
f
GR
GS
[0.375 0 0 0.375 407.69998 171.92575] CT
0.851 0.325 0.098 RC
N
f-685726124
f
GR
GS
[0.375 0 0 0.375 740.25 221.21626] CT
0.851 0.325 0.098 RC
N
f-685726124
f
GR
GS
[0.375 0 0 0.375 961.94998 236.27586] CT
0.851 0.325 0.098 RC
N
f-685726124
f
GR
GS
[0.375 0 0 0.375 1294.5 248.04224] CT
0.851 0.325 0.098 RC
N
f-685726124
f
GR
GS
[0.375 0 0 0.375 0 0.25] CT
0.929 0.694 0.125 RC
1 LJ
5.333 LW
N
569.9 285.455 M
791.6 596.63 L
1087.2 677.437 L
1974 555.855 L
2565.2 453.586 L
3452 343.044 L
S
GR
GS
[0.375 0 0 0.375 213.71251 107.29565] CT
0.929 0.694 0.125 RC
N
f-685726124
f
GR
GS
[0.375 0 0 0.375 296.84999 223.98634] CT
0.929 0.694 0.125 RC
N
f-685726124
f
GR
GS
[0.375 0 0 0.375 407.69998 254.28872] CT
0.929 0.694 0.125 RC
N
f-685726124
f
GR
GS
[0.375 0 0 0.375 740.25 208.69578] CT
0.929 0.694 0.125 RC
N
f-685726124
f
GR
GS
[0.375 0 0 0.375 961.94998 170.34472] CT
0.929 0.694 0.125 RC
N
f-685726124
f
GR
GS
[0.375 0 0 0.375 1294.5 128.89162] CT
0.929 0.694 0.125 RC
N
f-685726124
f
GR
GS
[0.375 0 0 0.375 0 0.25] CT
1 GC
N
496 1775 M
3452 1775 L
3452 1094 L
496 1094 L
cp
f
GR
GS
[0.375 0 0 0.375 0 0.25] CT
0.873 GC
1 LJ
1.333 LW
N
569.9 1775 M
569.9 1094 L
S
GR
GS
[0.375 0 0 0.375 0 0.25] CT
0.873 GC
1 LJ
1.333 LW
N
791.6 1775 M
791.6 1094 L
S
GR
GS
[0.375 0 0 0.375 0 0.25] CT
0.873 GC
1 LJ
1.333 LW
N
1087.2 1775 M
1087.2 1094 L
S
GR
GS
[0.375 0 0 0.375 0 0.25] CT
0.873 GC
1 LJ
1.333 LW
N
1974 1775 M
1974 1094 L
S
GR
GS
[0.375 0 0 0.375 0 0.25] CT
0.873 GC
1 LJ
1.333 LW
N
2565.2 1775 M
2565.2 1094 L
S
GR
GS
[0.375 0 0 0.375 0 0.25] CT
0.873 GC
1 LJ
1.333 LW
N
3452 1775 M
3452 1094 L
S
GR
GS
[0.375 0 0 0.375 0 0.25] CT
0.873 GC
1 LJ
1.333 LW
N
3452 1775 M
496 1775 L
S
GR
GS
[0.375 0 0 0.375 0 0.25] CT
0.873 GC
1 LJ
1.333 LW
N
3452 1604.75 M
496 1604.75 L
S
GR
GS
[0.375 0 0 0.375 0 0.25] CT
0.873 GC
1 LJ
1.333 LW
N
3452 1434.5 M
496 1434.5 L
S
GR
GS
[0.375 0 0 0.375 0 0.25] CT
0.873 GC
1 LJ
1.333 LW
N
3452 1264.25 M
496 1264.25 L
S
GR
GS
[0.375 0 0 0.375 0 0.25] CT
0.873 GC
1 LJ
1.333 LW
N
3452 1094 M
496 1094 L
S
GR
GS
[0.375 0 0 0.375 0 0.25] CT
0.149 GC
2 setlinecap
1 LJ
1.333 LW
N
496 1775 M
3452 1775 L
S
GR
GS
[0.375 0 0 0.375 0 0.25] CT
0.149 GC
2 setlinecap
1 LJ
1.333 LW
N
496 1094 M
3452 1094 L
S
GR
GS
[0.375 0 0 0.375 0 0.25] CT
0.149 GC
2 setlinecap
1 LJ
1.333 LW
N
569.9 1775 M
569.9 1745.44 L
S
GR
GS
[0.375 0 0 0.375 0 0.25] CT
0.149 GC
2 setlinecap
1 LJ
1.333 LW
N
791.6 1775 M
791.6 1745.44 L
S
GR
GS
[0.375 0 0 0.375 0 0.25] CT
0.149 GC
2 setlinecap
1 LJ
1.333 LW
N
1087.2 1775 M
1087.2 1745.44 L
S
GR
GS
[0.375 0 0 0.375 0 0.25] CT
0.149 GC
2 setlinecap
1 LJ
1.333 LW
N
1974 1775 M
1974 1745.44 L
S
GR
GS
[0.375 0 0 0.375 0 0.25] CT
0.149 GC
2 setlinecap
1 LJ
1.333 LW
N
2565.2 1775 M
2565.2 1745.44 L
S
GR
GS
[0.375 0 0 0.375 0 0.25] CT
0.149 GC
2 setlinecap
1 LJ
1.333 LW
N
3452 1775 M
3452 1745.44 L
S
GR
GS
[0.375 0 0 0.375 0 0.25] CT
0.149 GC
2 setlinecap
1 LJ
1.333 LW
N
569.9 1094 M
569.9 1123.56 L
S
GR
GS
[0.375 0 0 0.375 0 0.25] CT
0.149 GC
2 setlinecap
1 LJ
1.333 LW
N
791.6 1094 M
791.6 1123.56 L
S
GR
GS
[0.375 0 0 0.375 0 0.25] CT
0.149 GC
2 setlinecap
1 LJ
1.333 LW
N
1087.2 1094 M
1087.2 1123.56 L
S
GR
GS
[0.375 0 0 0.375 0 0.25] CT
0.149 GC
2 setlinecap
1 LJ
1.333 LW
N
1974 1094 M
1974 1123.56 L
S
GR
GS
[0.375 0 0 0.375 0 0.25] CT
0.149 GC
2 setlinecap
1 LJ
1.333 LW
N
2565.2 1094 M
2565.2 1123.56 L
S
GR
GS
[0.375 0 0 0.375 0 0.25] CT
0.149 GC
2 setlinecap
1 LJ
1.333 LW
N
3452 1094 M
3452 1123.56 L
S
GR
GS
[0.375 0 0 0.375 213.71251 671.875] CT
0.149 GC
/Helvetica 53.333 F
GS
[1 0 0 1 0 0] CT
-15 54 moveto 
1 -1 scale
(3) t 
GR
GR
GS
[0.375 0 0 0.375 296.84999 671.875] CT
0.149 GC
/Helvetica 53.333 F
GS
[1 0 0 1 0 0] CT
-30 54 moveto 
1 -1 scale
(12) t 
GR
GR
GS
[0.375 0 0 0.375 407.69998 671.875] CT
0.149 GC
/Helvetica 53.333 F
GS
[1 0 0 1 0 0] CT
-30 54 moveto 
1 -1 scale
(24) t 
GR
GR
GS
[0.375 0 0 0.375 740.25 671.875] CT
0.149 GC
/Helvetica 53.333 F
GS
[1 0 0 1 0 0] CT
-30 54 moveto 
1 -1 scale
(60) t 
GR
GR
GS
[0.375 0 0 0.375 961.94998 671.875] CT
0.149 GC
/Helvetica 53.333 F
GS
[1 0 0 1 0 0] CT
-30 54 moveto 
1 -1 scale
(84) t 
GR
GR
GS
[0.375 0 0 0.375 1294.5 671.875] CT
0.149 GC
/Helvetica 53.333 F
GS
[1 0 0 1 0 0] CT
-44.5 54 moveto 
1 -1 scale
(120) t 
GR
GR
GS
[0.375 0 0 0.375 0 0.25] CT
0.149 GC
2 setlinecap
1 LJ
1.333 LW
N
496 1775 M
496 1094 L
S
GR
GS
[0.375 0 0 0.375 0 0.25] CT
0.149 GC
2 setlinecap
1 LJ
1.333 LW
N
3452 1775 M
3452 1094 L
S
GR
GS
[0.375 0 0 0.375 0 0.25] CT
0.149 GC
2 setlinecap
1 LJ
1.333 LW
N
496 1775 M
525.56 1775 L
S
GR
GS
[0.375 0 0 0.375 0 0.25] CT
0.149 GC
2 setlinecap
1 LJ
1.333 LW
N
496 1604.75 M
525.56 1604.75 L
S
GR
GS
[0.375 0 0 0.375 0 0.25] CT
0.149 GC
2 setlinecap
1 LJ
1.333 LW
N
496 1434.5 M
525.56 1434.5 L
S
GR
GS
[0.375 0 0 0.375 0 0.25] CT
0.149 GC
2 setlinecap
1 LJ
1.333 LW
N
496 1264.25 M
525.56 1264.25 L
S
GR
GS
[0.375 0 0 0.375 0 0.25] CT
0.149 GC
2 setlinecap
1 LJ
1.333 LW
N
496 1094 M
525.56 1094 L
S
GR
GS
[0.375 0 0 0.375 0 0.25] CT
0.149 GC
2 setlinecap
1 LJ
1.333 LW
N
3452 1775 M
3422.44 1775 L
S
GR
GS
[0.375 0 0 0.375 0 0.25] CT
0.149 GC
2 setlinecap
1 LJ
1.333 LW
N
3452 1604.75 M
3422.44 1604.75 L
S
GR
GS
[0.375 0 0 0.375 0 0.25] CT
0.149 GC
2 setlinecap
1 LJ
1.333 LW
N
3452 1434.5 M
3422.44 1434.5 L
S
GR
GS
[0.375 0 0 0.375 0 0.25] CT
0.149 GC
2 setlinecap
1 LJ
1.333 LW
N
3452 1264.25 M
3422.44 1264.25 L
S
GR
GS
[0.375 0 0 0.375 0 0.25] CT
0.149 GC
2 setlinecap
1 LJ
1.333 LW
N
3452 1094 M
3422.44 1094 L
S
GR
GS
[0.375 0 0 0.375 180 665.875] CT
0.149 GC
/Helvetica 53.333 F
GS
[1 0 0 1 0 0] CT
-48 21 moveto 
1 -1 scale
(-1) t 
GR
GR
GS
[0.375 0 0 0.375 180 602.03125] CT
0.149 GC
/Helvetica 53.333 F
GS
[1 0 0 1 0 0] CT
-92 21 moveto 
1 -1 scale
(-0.5) t 
GR
GR
GS
[0.375 0 0 0.375 180 538.1875] CT
0.149 GC
/Helvetica 53.333 F
GS
[1 0 0 1 0 0] CT
-30 21 moveto 
1 -1 scale
(0) t 
GR
GR
GS
[0.375 0 0 0.375 180 474.34375] CT
0.149 GC
/Helvetica 53.333 F
GS
[1 0 0 1 0 0] CT
-75 21 moveto 
1 -1 scale
(0.5) t 
GR
GR
GS
[0.375 0 0 0.375 180 410.5] CT
0.149 GC
/Helvetica 53.333 F
GS
[1 0 0 1 0 0] CT
-30 21 moveto 
1 -1 scale
(1) t 
GR
GR
GS
[0 -0.375 0.375 0 142.5 538.18736] CT
0.149 GC
/Helvetica 58.667 F
GS
[1 0 0 1 0 0] CT
-75.5 -13 moveto 
1 -1 scale
(Value) t 
GR
GR
GS
[0.375 0 0 0.375 740.25069 408.4375] CT
/Helvetica-Bold 58.667 F
GS
[1 0 0 1 0 0] CT
-466.5 -13 moveto 
1 -1 scale
(Spread loading structure \(US-DE\)) t 
GR
GR
GS
[0.375 0 0 0.375 0 0.25] CT
0 0.447 0.741 RC
1 LJ
5.333 LW
N
569.9 1259.47 M
791.6 1266.308 L
1087.2 1282.038 L
1974 1315.236 L
2565.2 1329.123 L
3452 1342.614 L
S
GR
GS
[0.375 0 0 0.375 213.71251 472.55115] CT
0 0.447 0.741 RC
N
f-685726124
f
GR
GS
[0.375 0 0 0.375 296.84999 475.11549] CT
0 0.447 0.741 RC
N
f-685726124
f
GR
GS
[0.375 0 0 0.375 407.69998 481.01419] CT
0 0.447 0.741 RC
N
f-685726124
f
GR
GS
[0.375 0 0 0.375 740.25 493.46339] CT
0 0.447 0.741 RC
N
f-685726124
f
GR
GS
[0.375 0 0 0.375 961.94998 498.67114] CT
0 0.447 0.741 RC
N
f-685726124
f
GR
GS
[0.375 0 0 0.375 1294.5 503.73016] CT
0 0.447 0.741 RC
N
f-685726124
f
GR
GS
[0.375 0 0 0.375 0 0.25] CT
0.851 0.325 0.098 RC
1 LJ
5.333 LW
N
569.9 1615.279 M
791.6 1523.796 L
1087.2 1444.921 L
1974 1316.492 L
2565.2 1275.727 L
3452 1244.653 L
S
GR
GS
[0.375 0 0 0.375 213.71251 605.9796] CT
0.851 0.325 0.098 RC
N
f-685726124
f
GR
GS
[0.375 0 0 0.375 296.84999 571.67351] CT
0.851 0.325 0.098 RC
N
f-685726124
f
GR
GS
[0.375 0 0 0.375 407.69998 542.09547] CT
0.851 0.325 0.098 RC
N
f-685726124
f
GR
GS
[0.375 0 0 0.375 740.25 493.93448] CT
0.851 0.325 0.098 RC
N
f-685726124
f
GR
GS
[0.375 0 0 0.375 961.94998 478.64751] CT
0.851 0.325 0.098 RC
N
f-685726124
f
GR
GS
[0.375 0 0 0.375 1294.5 466.99477] CT
0.851 0.325 0.098 RC
N
f-685726124
f
GR
GS
[0.375 0 0 0.375 0 0.25] CT
0.929 0.694 0.125 RC
1 LJ
5.333 LW
N
569.9 1211.022 M
791.6 1583.716 L
1087.2 1607.65 L
1974 1454.607 L
2565.2 1385.479 L
3452 1329.885 L
S
GR
GS
[0.375 0 0 0.375 213.71251 454.38324] CT
0.929 0.694 0.125 RC
N
f-685726124
f
GR
GS
[0.375 0 0 0.375 296.84999 594.14348] CT
0.929 0.694 0.125 RC
N
f-685726124
f
GR
GS
[0.375 0 0 0.375 407.69998 603.11871] CT
0.929 0.694 0.125 RC
N
f-685726124
f
GR
GS
[0.375 0 0 0.375 740.25 545.72746] CT
0.929 0.694 0.125 RC
N
f-685726124
f
GR
GS
[0.375 0 0 0.375 961.94998 519.80467] CT
0.929 0.694 0.125 RC
N
f-685726124
f
GR
GS
[0.375 0 0 0.375 1294.5 498.95702] CT
0.929 0.694 0.125 RC
N
f-685726124
f
GR
%%Trailer
%%Pages: 1
%%EOF
