%!PS-Adobe-3.0 EPSF-3.0
%%Creator: (MATLAB, The Mathworks, Inc. Version 9.8.0.1359463 \(R2020a\) Update 1. Operating System: Windows 10)
%%Title: ./EstFactors_Emp.eps
%%CreationDate: 2021-03-15T21:58:59
%%Pages: (atend)
%%BoundingBox:   135    43  1340   702
%%LanguageLevel: 3
%%EndComments
%%BeginProlog
%%BeginResource: procset (Apache XML Graphics Std ProcSet) 1.2 0
%%Version: 1.2 0
%%Copyright: (Copyright 2001-2003,2010 The Apache Software Foundation. License terms: http://www.apache.org/licenses/LICENSE-2.0)
/bd{bind def}bind def
/ld{load def}bd
/GR/grestore ld
/GS/gsave ld
/RM/rmoveto ld
/C/curveto ld
/t/show ld
/L/lineto ld
/ML/setmiterlimit ld
/CT/concat ld
/f/fill ld
/N/newpath ld
/S/stroke ld
/CC/setcmykcolor ld
/A/ashow ld
/cp/closepath ld
/RC/setrgbcolor ld
/LJ/setlinejoin ld
/GC/setgray ld
/LW/setlinewidth ld
/M/moveto ld
/re {4 2 roll M
1 index 0 rlineto
0 exch rlineto
neg 0 rlineto
cp } bd
/_ctm matrix def
/_tm matrix def
/BT { _ctm currentmatrix pop matrix _tm copy pop 0 0 moveto } bd
/ET { _ctm setmatrix } bd
/iTm { _ctm setmatrix _tm concat } bd
/Tm { _tm astore pop iTm 0 0 moveto } bd
/ux 0.0 def
/uy 0.0 def
/F {
  /Tp exch def
  /Tf exch def
  Tf findfont Tp scalefont setfont
  /cf Tf def  /cs Tp def
} bd
/ULS {currentpoint /uy exch def /ux exch def} bd
/ULE {
  /Tcx currentpoint pop def
  gsave
  newpath
  cf findfont cs scalefont dup
  /FontMatrix get 0 get /Ts exch def /FontInfo get dup
  /UnderlinePosition get Ts mul /To exch def
  /UnderlineThickness get Ts mul /Tt exch def
  ux uy To add moveto  Tcx uy To add lineto
  Tt setlinewidth stroke
  grestore
} bd
/OLE {
  /Tcx currentpoint pop def
  gsave
  newpath
  cf findfont cs scalefont dup
  /FontMatrix get 0 get /Ts exch def /FontInfo get dup
  /UnderlinePosition get Ts mul /To exch def
  /UnderlineThickness get Ts mul /Tt exch def
  ux uy To add cs add moveto Tcx uy To add cs add lineto
  Tt setlinewidth stroke
  grestore
} bd
/SOE {
  /Tcx currentpoint pop def
  gsave
  newpath
  cf findfont cs scalefont dup
  /FontMatrix get 0 get /Ts exch def /FontInfo get dup
  /UnderlinePosition get Ts mul /To exch def
  /UnderlineThickness get Ts mul /Tt exch def
  ux uy To add cs 10 mul 26 idiv add moveto Tcx uy To add cs 10 mul 26 idiv add lineto
  Tt setlinewidth stroke
  grestore
} bd
/QT {
/Y22 exch store
/X22 exch store
/Y21 exch store
/X21 exch store
currentpoint
/Y21 load 2 mul add 3 div exch
/X21 load 2 mul add 3 div exch
/X21 load 2 mul /X22 load add 3 div
/Y21 load 2 mul /Y22 load add 3 div
/X22 load /Y22 load curveto
} bd
/SSPD {
dup length /d exch dict def
{
/v exch def
/k exch def
currentpagedevice k known {
/cpdv currentpagedevice k get def
v cpdv ne {
/upd false def
/nullv v type /nulltype eq def
/nullcpdv cpdv type /nulltype eq def
nullv nullcpdv or
{
/upd true def
} {
/sametype v type cpdv type eq def
sametype {
v type /arraytype eq {
/vlen v length def
/cpdvlen cpdv length def
vlen cpdvlen eq {
0 1 vlen 1 sub {
/i exch def
/obj v i get def
/cpdobj cpdv i get def
obj cpdobj ne {
/upd true def
exit
} if
} for
} {
/upd true def
} ifelse
} {
v type /dicttype eq {
v {
/dv exch def
/dk exch def
/cpddv cpdv dk get def
dv cpddv ne {
/upd true def
exit
} if
} forall
} {
/upd true def
} ifelse
} ifelse
} if
} ifelse
upd true eq {
d k v put
} if
} if
} if
} forall
d length 0 gt {
d setpagedevice
} if
} bd
/RE { % /NewFontName [NewEncodingArray] /FontName RE -
  findfont dup length dict begin
  {
    1 index /FID ne
    {def} {pop pop} ifelse
  } forall
  /Encoding exch def
  /FontName 1 index def
  currentdict definefont pop
  end
} bind def
%%EndResource
%%BeginResource: procset (Apache XML Graphics EPS ProcSet) 1.0 0
%%Version: 1.0 0
%%Copyright: (Copyright 2002-2003 The Apache Software Foundation. License terms: http://www.apache.org/licenses/LICENSE-2.0)
/BeginEPSF { %def
/b4_Inc_state save def         % Save state for cleanup
/dict_count countdictstack def % Count objects on dict stack
/op_count count 1 sub def      % Count objects on operand stack
userdict begin                 % Push userdict on dict stack
/showpage { } def              % Redefine showpage, { } = null proc
0 setgray 0 setlinecap         % Prepare graphics state
1 setlinewidth 0 setlinejoin
10 setmiterlimit [ ] 0 setdash newpath
/languagelevel where           % If level not equal to 1 then
{pop languagelevel             % set strokeadjust and
1 ne                           % overprint to their defaults.
{false setstrokeadjust false setoverprint
} if
} if
} bd
/EndEPSF { %def
count op_count sub {pop} repeat            % Clean up stacks
countdictstack dict_count sub {end} repeat
b4_Inc_state restore
} bd
%%EndResource
%FOPBeginFontDict
%%IncludeResource: font Courier-Oblique
%%IncludeResource: font Courier-BoldOblique
%%IncludeResource: font Courier-Bold
%%IncludeResource: font ZapfDingbats
%%IncludeResource: font Symbol
%%IncludeResource: font Helvetica
%%IncludeResource: font Helvetica-Oblique
%%IncludeResource: font Helvetica-Bold
%%IncludeResource: font Helvetica-BoldOblique
%%IncludeResource: font Times-Roman
%%IncludeResource: font Times-Italic
%%IncludeResource: font Times-Bold
%%IncludeResource: font Times-BoldItalic
%%IncludeResource: font Courier
%FOPEndFontDict
%%BeginResource: encoding WinAnsiEncoding
/WinAnsiEncoding [
/.notdef /.notdef /.notdef /.notdef /.notdef
/.notdef /.notdef /.notdef /.notdef /.notdef
/.notdef /.notdef /.notdef /.notdef /.notdef
/.notdef /.notdef /.notdef /.notdef /.notdef
/.notdef /.notdef /.notdef /.notdef /.notdef
/.notdef /.notdef /.notdef /.notdef /.notdef
/.notdef /.notdef /space /exclam /quotedbl
/numbersign /dollar /percent /ampersand /quotesingle
/parenleft /parenright /asterisk /plus /comma
/hyphen /period /slash /zero /one
/two /three /four /five /six
/seven /eight /nine /colon /semicolon
/less /equal /greater /question /at
/A /B /C /D /E
/F /G /H /I /J
/K /L /M /N /O
/P /Q /R /S /T
/U /V /W /X /Y
/Z /bracketleft /backslash /bracketright /asciicircum
/underscore /quoteleft /a /b /c
/d /e /f /g /h
/i /j /k /l /m
/n /o /p /q /r
/s /t /u /v /w
/x /y /z /braceleft /bar
/braceright /asciitilde /bullet /Euro /bullet
/quotesinglbase /florin /quotedblbase /ellipsis /dagger
/daggerdbl /circumflex /perthousand /Scaron /guilsinglleft
/OE /bullet /Zcaron /bullet /bullet
/quoteleft /quoteright /quotedblleft /quotedblright /bullet
/endash /emdash /asciitilde /trademark /scaron
/guilsinglright /oe /bullet /zcaron /Ydieresis
/space /exclamdown /cent /sterling /currency
/yen /brokenbar /section /dieresis /copyright
/ordfeminine /guillemotleft /logicalnot /sfthyphen /registered
/macron /degree /plusminus /twosuperior /threesuperior
/acute /mu /paragraph /middot /cedilla
/onesuperior /ordmasculine /guillemotright /onequarter /onehalf
/threequarters /questiondown /Agrave /Aacute /Acircumflex
/Atilde /Adieresis /Aring /AE /Ccedilla
/Egrave /Eacute /Ecircumflex /Edieresis /Igrave
/Iacute /Icircumflex /Idieresis /Eth /Ntilde
/Ograve /Oacute /Ocircumflex /Otilde /Odieresis
/multiply /Oslash /Ugrave /Uacute /Ucircumflex
/Udieresis /Yacute /Thorn /germandbls /agrave
/aacute /acircumflex /atilde /adieresis /aring
/ae /ccedilla /egrave /eacute /ecircumflex
/edieresis /igrave /iacute /icircumflex /idieresis
/eth /ntilde /ograve /oacute /ocircumflex
/otilde /odieresis /divide /oslash /ugrave
/uacute /ucircumflex /udieresis /yacute /thorn
/ydieresis
] def
%%EndResource
%FOPBeginFontReencode
/Courier-Oblique findfont
dup length dict begin
  {1 index /FID ne {def} {pop pop} ifelse} forall
  /Encoding WinAnsiEncoding def
  currentdict
end
/Courier-Oblique exch definefont pop
/Courier-BoldOblique findfont
dup length dict begin
  {1 index /FID ne {def} {pop pop} ifelse} forall
  /Encoding WinAnsiEncoding def
  currentdict
end
/Courier-BoldOblique exch definefont pop
/Courier-Bold findfont
dup length dict begin
  {1 index /FID ne {def} {pop pop} ifelse} forall
  /Encoding WinAnsiEncoding def
  currentdict
end
/Courier-Bold exch definefont pop
/Helvetica findfont
dup length dict begin
  {1 index /FID ne {def} {pop pop} ifelse} forall
  /Encoding WinAnsiEncoding def
  currentdict
end
/Helvetica exch definefont pop
/Helvetica-Oblique findfont
dup length dict begin
  {1 index /FID ne {def} {pop pop} ifelse} forall
  /Encoding WinAnsiEncoding def
  currentdict
end
/Helvetica-Oblique exch definefont pop
/Helvetica-Bold findfont
dup length dict begin
  {1 index /FID ne {def} {pop pop} ifelse} forall
  /Encoding WinAnsiEncoding def
  currentdict
end
/Helvetica-Bold exch definefont pop
/Helvetica-BoldOblique findfont
dup length dict begin
  {1 index /FID ne {def} {pop pop} ifelse} forall
  /Encoding WinAnsiEncoding def
  currentdict
end
/Helvetica-BoldOblique exch definefont pop
/Times-Roman findfont
dup length dict begin
  {1 index /FID ne {def} {pop pop} ifelse} forall
  /Encoding WinAnsiEncoding def
  currentdict
end
/Times-Roman exch definefont pop
/Times-Italic findfont
dup length dict begin
  {1 index /FID ne {def} {pop pop} ifelse} forall
  /Encoding WinAnsiEncoding def
  currentdict
end
/Times-Italic exch definefont pop
/Times-Bold findfont
dup length dict begin
  {1 index /FID ne {def} {pop pop} ifelse} forall
  /Encoding WinAnsiEncoding def
  currentdict
end
/Times-Bold exch definefont pop
/Times-BoldItalic findfont
dup length dict begin
  {1 index /FID ne {def} {pop pop} ifelse} forall
  /Encoding WinAnsiEncoding def
  currentdict
end
/Times-BoldItalic exch definefont pop
/Courier findfont
dup length dict begin
  {1 index /FID ne {def} {pop pop} ifelse} forall
  /Encoding WinAnsiEncoding def
  currentdict
end
/Courier exch definefont pop
%FOPEndFontReencode
%%EndProlog
%%Page: 1 1
%%PageBoundingBox: 0 0 1430 748
%%BeginPageSetup
[1 0 0 -1 0 748] CT
%%EndPageSetup
GS
[0.375 0 0 0.375 0 0.25] CT
N
0 0 M
3814 0 L
3814 1994 L
0 1994 L
0 0 L
cp
clip
1 GC
N
0 0 3814 1994 re
f
GR
GS
[0.375 0 0 0.375 0 0.25] CT
1 GC
N
0 0 3814 1994 re
f
GR
GS
[0.375 0 0 0.375 0 0.25] CT
1 GC
N
496 1775 M
3452 1775 L
3452 150 L
496 150 L
cp
f
GR
GS
[0.375 0 0 0.375 0 0.25] CT
0.149 GC
2 setlinecap
1 LJ
1.333 LW
N
496 1775 M
3452 1775 L
S
GR
GS
[0.375 0 0 0.375 0 0.25] CT
0.149 GC
2 setlinecap
1 LJ
1.333 LW
N
496 150 M
3452 150 L
S
GR
GS
[0.375 0 0 0.375 0 0.25] CT
0.149 GC
2 setlinecap
1 LJ
1.333 LW
N
496 1775 M
496 1745.44 L
S
GR
GS
[0.375 0 0 0.375 0 0.25] CT
0.149 GC
2 setlinecap
1 LJ
1.333 LW
N
988.734 1775 M
988.734 1745.44 L
S
GR
GS
[0.375 0 0 0.375 0 0.25] CT
0.149 GC
2 setlinecap
1 LJ
1.333 LW
N
1481.333 1775 M
1481.333 1745.44 L
S
GR
GS
[0.375 0 0 0.375 0 0.25] CT
0.149 GC
2 setlinecap
1 LJ
1.333 LW
N
1974.067 1775 M
1974.067 1745.44 L
S
GR
GS
[0.375 0 0 0.375 0 0.25] CT
0.149 GC
2 setlinecap
1 LJ
1.333 LW
N
2466.667 1775 M
2466.667 1745.44 L
S
GR
GS
[0.375 0 0 0.375 0 0.25] CT
0.149 GC
2 setlinecap
1 LJ
1.333 LW
N
2959.401 1775 M
2959.401 1745.44 L
S
GR
GS
[0.375 0 0 0.375 0 0.25] CT
0.149 GC
2 setlinecap
1 LJ
1.333 LW
N
3452 1775 M
3452 1745.44 L
S
GR
GS
[0.375 0 0 0.375 0 0.25] CT
0.149 GC
2 setlinecap
1 LJ
1.333 LW
N
496 150 M
496 179.56 L
S
GR
GS
[0.375 0 0 0.375 0 0.25] CT
0.149 GC
2 setlinecap
1 LJ
1.333 LW
N
988.734 150 M
988.734 179.56 L
S
GR
GS
[0.375 0 0 0.375 0 0.25] CT
0.149 GC
2 setlinecap
1 LJ
1.333 LW
N
1481.333 150 M
1481.333 179.56 L
S
GR
GS
[0.375 0 0 0.375 0 0.25] CT
0.149 GC
2 setlinecap
1 LJ
1.333 LW
N
1974.067 150 M
1974.067 179.56 L
S
GR
GS
[0.375 0 0 0.375 0 0.25] CT
0.149 GC
2 setlinecap
1 LJ
1.333 LW
N
2466.667 150 M
2466.667 179.56 L
S
GR
GS
[0.375 0 0 0.375 0 0.25] CT
0.149 GC
2 setlinecap
1 LJ
1.333 LW
N
2959.401 150 M
2959.401 179.56 L
S
GR
GS
[0.375 0 0 0.375 0 0.25] CT
0.149 GC
2 setlinecap
1 LJ
1.333 LW
N
3452 150 M
3452 179.56 L
S
GR
GS
[0.375 0 0 0.375 186 673.87502] CT
0.149 GC
/Helvetica 80 F
GS
[1 0 0 1 0 0] CT
-122.5 81 moveto 
1 -1 scale
(Jan-60) t 
GR
GR
GS
[0.375 0 0 0.375 370.7753 673.87502] CT
0.149 GC
/Helvetica 80 F
GS
[1 0 0 1 0 0] CT
-122.5 81 moveto 
1 -1 scale
(Jan-70) t 
GR
GR
GS
[0.375 0 0 0.375 555.50002 673.87502] CT
0.149 GC
/Helvetica 80 F
GS
[1 0 0 1 0 0] CT
-122.5 81 moveto 
1 -1 scale
(Jan-80) t 
GR
GR
GS
[0.375 0 0 0.375 740.27527 673.87502] CT
0.149 GC
/Helvetica 80 F
GS
[1 0 0 1 0 0] CT
-122.5 81 moveto 
1 -1 scale
(Jan-90) t 
GR
GR
GS
[0.375 0 0 0.375 925.00003 673.87502] CT
0.149 GC
/Helvetica 80 F
GS
[1 0 0 1 0 0] CT
-122.5 81 moveto 
1 -1 scale
(Jan-00) t 
GR
GR
GS
[0.375 0 0 0.375 1109.77533 673.87502] CT
0.149 GC
/Helvetica 80 F
GS
[1 0 0 1 0 0] CT
-122.5 81 moveto 
1 -1 scale
(Jan-10) t 
GR
GR
GS
[0.375 0 0 0.375 1294.5 673.87502] CT
0.149 GC
/Helvetica 80 F
GS
[1 0 0 1 0 0] CT
-122.5 81 moveto 
1 -1 scale
(Jan-20) t 
GR
GR
GS
[0.375 0 0 0.375 0 0.25] CT
0.149 GC
2 setlinecap
1 LJ
1.333 LW
N
496 1775 M
496 150 L
S
GR
GS
[0.375 0 0 0.375 0 0.25] CT
0.149 GC
2 setlinecap
1 LJ
1.333 LW
N
3452 1775 M
3452 150 L
S
GR
GS
[0.375 0 0 0.375 0 0.25] CT
0.149 GC
2 setlinecap
1 LJ
1.333 LW
N
496 1775 M
525.557 1775 L
S
GR
GS
[0.375 0 0 0.375 0 0.25] CT
0.149 GC
2 setlinecap
1 LJ
1.333 LW
N
496 1571.875 M
525.557 1571.875 L
S
GR
GS
[0.375 0 0 0.375 0 0.25] CT
0.149 GC
2 setlinecap
1 LJ
1.333 LW
N
496 1368.75 M
525.557 1368.75 L
S
GR
GS
[0.375 0 0 0.375 0 0.25] CT
0.149 GC
2 setlinecap
1 LJ
1.333 LW
N
496 1165.625 M
525.557 1165.625 L
S
GR
GS
[0.375 0 0 0.375 0 0.25] CT
0.149 GC
2 setlinecap
1 LJ
1.333 LW
N
496 962.5 M
525.557 962.5 L
S
GR
GS
[0.375 0 0 0.375 0 0.25] CT
0.149 GC
2 setlinecap
1 LJ
1.333 LW
N
496 759.375 M
525.557 759.375 L
S
GR
GS
[0.375 0 0 0.375 0 0.25] CT
0.149 GC
2 setlinecap
1 LJ
1.333 LW
N
496 556.25 M
525.557 556.25 L
S
GR
GS
[0.375 0 0 0.375 0 0.25] CT
0.149 GC
2 setlinecap
1 LJ
1.333 LW
N
496 353.125 M
525.557 353.125 L
S
GR
GS
[0.375 0 0 0.375 0 0.25] CT
0.149 GC
2 setlinecap
1 LJ
1.333 LW
N
496 150 M
525.557 150 L
S
GR
GS
[0.375 0 0 0.375 0 0.25] CT
0.149 GC
2 setlinecap
1 LJ
1.333 LW
N
3452 1775 M
3422.443 1775 L
S
GR
GS
[0.375 0 0 0.375 0 0.25] CT
0.149 GC
2 setlinecap
1 LJ
1.333 LW
N
3452 1571.875 M
3422.443 1571.875 L
S
GR
GS
[0.375 0 0 0.375 0 0.25] CT
0.149 GC
2 setlinecap
1 LJ
1.333 LW
N
3452 1368.75 M
3422.443 1368.75 L
S
GR
GS
[0.375 0 0 0.375 0 0.25] CT
0.149 GC
2 setlinecap
1 LJ
1.333 LW
N
3452 1165.625 M
3422.443 1165.625 L
S
GR
GS
[0.375 0 0 0.375 0 0.25] CT
0.149 GC
2 setlinecap
1 LJ
1.333 LW
N
3452 962.5 M
3422.443 962.5 L
S
GR
GS
[0.375 0 0 0.375 0 0.25] CT
0.149 GC
2 setlinecap
1 LJ
1.333 LW
N
3452 759.375 M
3422.443 759.375 L
S
GR
GS
[0.375 0 0 0.375 0 0.25] CT
0.149 GC
2 setlinecap
1 LJ
1.333 LW
N
3452 556.25 M
3422.443 556.25 L
S
GR
GS
[0.375 0 0 0.375 0 0.25] CT
0.149 GC
2 setlinecap
1 LJ
1.333 LW
N
3452 353.125 M
3422.443 353.125 L
S
GR
GS
[0.375 0 0 0.375 0 0.25] CT
0.149 GC
2 setlinecap
1 LJ
1.333 LW
N
3452 150 M
3422.443 150 L
S
GR
GS
[0.375 0 0 0.375 177.99859 665.875] CT
0.149 GC
/Helvetica 80 F
GS
[1 0 0 1 0 0] CT
-116 31.5 moveto 
1 -1 scale
(-20) t 
GR
GR
GS
[0.375 0 0 0.375 177.99859 589.70313] CT
0.149 GC
/Helvetica 80 F
GS
[1 0 0 1 0 0] CT
-116 31.5 moveto 
1 -1 scale
(-10) t 
GR
GR
GS
[0.375 0 0 0.375 177.99859 513.53125] CT
0.149 GC
/Helvetica 80 F
GS
[1 0 0 1 0 0] CT
-45 31.5 moveto 
1 -1 scale
(0) t 
GR
GR
GS
[0.375 0 0 0.375 177.99859 437.35938] CT
0.149 GC
/Helvetica 80 F
GS
[1 0 0 1 0 0] CT
-89 31.5 moveto 
1 -1 scale
(10) t 
GR
GR
GS
[0.375 0 0 0.375 177.99859 361.1875] CT
0.149 GC
/Helvetica 80 F
GS
[1 0 0 1 0 0] CT
-89 31.5 moveto 
1 -1 scale
(20) t 
GR
GR
GS
[0.375 0 0 0.375 177.99859 285.01563] CT
0.149 GC
/Helvetica 80 F
GS
[1 0 0 1 0 0] CT
-89 31.5 moveto 
1 -1 scale
(30) t 
GR
GR
GS
[0.375 0 0 0.375 177.99859 208.84375] CT
0.149 GC
/Helvetica 80 F
GS
[1 0 0 1 0 0] CT
-89 31.5 moveto 
1 -1 scale
(40) t 
GR
GR
GS
[0.375 0 0 0.375 177.99859 132.67188] CT
0.149 GC
/Helvetica 80 F
GS
[1 0 0 1 0 0] CT
-89 31.5 moveto 
1 -1 scale
(50) t 
GR
GR
GS
[0.375 0 0 0.375 177.99859 56.5] CT
0.149 GC
/Helvetica 80 F
GS
[1 0 0 1 0 0] CT
-89 31.5 moveto 
1 -1 scale
(60) t 
GR
GR
GS
[0.375 0 0 0.375 0 0.25] CT
0 0.447 0.741 RC
1 LJ
5.333 LW
N
569.647 1043.198 M
573.828 1031.371 L
578.01 1029.162 L
581.922 1042.67 L
586.238 1039.677 L
590.284 1041.022 L
594.196 1045.573 L
598.647 1037.425 L
602.424 1046.51 L
606.471 1044.924 L
610.652 1055.99 L
614.833 1042.102 L
618.745 1035.767 L
623.061 1034.546 L
627.243 1031.946 L
631.02 1030.021 L
635.471 1033.209 L
639.517 1037.3 L
643.699 1043.688 L
647.88 1040.762 L
651.657 1036.368 L
655.569 1034.069 L
659.885 1036.938 L
664.066 1036.477 L
667.843 1032.321 L
672.294 1039.648 L
676.341 1037.92 L
680.522 1034.642 L
684.704 1031.527 L
688.615 1036.348 L
692.932 1034.543 L
697.113 1032.186 L
700.89 1019.303 L
705.206 1020.414 L
709.253 1027.092 L
713.03 1034.881 L
717.481 1037.677 L
721.662 1024.882 L
725.844 1026.622 L
729.89 1034.581 L
733.937 1035.291 L
738.118 1035.678 L
742.3 1030.391 L
746.211 1026.776 L
749.988 1028.216 L
754.439 1030.354 L
758.486 1032.43 L
762.263 1030.465 L
766.714 1028.691 L
770.76 1028.416 L
775.077 1026.762 L
779.123 1019.821 L
783.035 1015.152 L
787.216 1011.419 L
791.533 992.789 L
795.714 988.143 L
799.491 958.102 L
803.672 983.748 L
807.584 987.58 L
811.9 994.355 L
815.947 980.031 L
819.858 964.308 L
824.31 924.573 L
828.356 952.596 L
832.538 968.121 L
836.584 961.775 L
840.631 993.225 L
844.947 1001.097 L
848.724 981.932 L
852.905 1007.181 L
856.682 984.106 L
861.133 987.226 L
865.18 961.994 L
869.361 981.371 L
873.542 955.074 L
877.454 958.229 L
881.77 933.245 L
885.817 925.117 L
889.729 926.159 L
894.18 940.648 L
898.092 923.83 L
902.003 916.578 L
906.32 912.987 L
910.501 914.444 L
914.278 911.62 L
918.729 914.329 L
922.775 933.029 L
926.957 933.044 L
931.138 924.118 L
935.05 917.422 L
939.366 886.8 L
943.548 896.825 L
947.324 907.577 L
951.101 892.571 L
955.552 897.113 L
959.464 894.423 L
963.78 897.236 L
967.962 915.765 L
971.874 888.041 L
976.19 834.423 L
980.371 886.821 L
984.148 849.245 L
988.599 851.349 L
992.646 810.828 L
996.423 865.723 L
1000.739 846.245 L
1004.785 797.395 L
1008.697 819.99 L
1013.013 811.285 L
1017.195 818.599 L
1021.376 815.314 L
1025.423 821.68 L
1029.469 840.185 L
1033.651 855.973 L
1037.832 883.711 L
1041.744 852.234 L
1045.521 866.169 L
1049.972 899.615 L
1054.018 874.17 L
1057.795 862.619 L
1062.246 851.244 L
1066.293 840.217 L
1070.609 887.537 L
1074.656 895.028 L
1078.567 896.269 L
1082.884 887.608 L
1087.065 893.789 L
1091.247 880.218 L
1095.158 880.271 L
1099.205 891.028 L
1103.116 887.003 L
1107.568 884.953 L
1111.614 892.95 L
1115.796 892.531 L
1119.977 878.539 L
1123.889 881.04 L
1128.205 887.089 L
1132.251 889.622 L
1136.163 888.334 L
1140.614 885.452 L
1144.391 880.901 L
1148.438 880.577 L
1152.619 877.916 L
1156.801 894.125 L
1160.712 901.181 L
1165.029 850.148 L
1169.21 860.318 L
1172.987 867.348 L
1177.438 868.134 L
1181.484 875.051 L
1185.666 860.439 L
1189.847 843.993 L
1193.624 843.773 L
1197.536 823.236 L
1201.852 806.968 L
1206.033 807.716 L
1209.81 806.828 L
1214.261 808.249 L
1218.308 790.893 L
1222.489 797.844 L
1226.671 812.8 L
1230.583 825.511 L
1234.899 828.447 L
1239.08 812.523 L
1242.857 809.548 L
1247.038 799.553 L
1251.085 771.229 L
1255.132 783.464 L
1259.313 793.321 L
1263.494 794.698 L
1267.406 782.506 L
1271.722 766.141 L
1275.904 778.943 L
1279.681 769.905 L
1284.132 784.963 L
1288.178 775.242 L
1291.955 793.599 L
1296.406 796.266 L
1300.453 796.579 L
1304.23 788.957 L
1308.681 788.658 L
1312.727 784.587 L
1317.044 789.509 L
1321.09 792.749 L
1325.002 800.183 L
1329.318 819.809 L
1333.5 836.629 L
1337.681 810.049 L
1341.458 801.838 L
1345.639 798.049 L
1349.551 798.237 L
1353.867 801.931 L
1357.914 812.364 L
1361.825 808.36 L
1366.277 819.068 L
1370.323 816.949 L
1374.505 809.508 L
1378.551 810.273 L
1382.598 789.579 L
1386.914 779.977 L
1390.691 775.042 L
1394.872 773.764 L
1398.649 772.969 L
1403.1 768.084 L
1407.147 754.363 L
1411.328 760.507 L
1415.51 768.643 L
1419.421 765.893 L
1423.738 746.12 L
1427.784 761.342 L
1431.696 747.725 L
1436.147 760.039 L
1439.924 739.415 L
1443.97 737.939 L
1448.152 726.247 L
1452.333 739.001 L
1456.245 747.952 L
1460.561 737.767 L
1464.743 729.287 L
1468.519 720.229 L
1472.97 652.179 L
1477.017 663.511 L
1481.198 664.681 L
1485.38 605.732 L
1489.292 557.221 L
1493.473 573.118 L
1497.52 606.618 L
1501.566 623.125 L
1505.747 646.31 L
1509.929 608.068 L
1513.841 582.096 L
1518.157 557.708 L
1522.338 518.381 L
1526.115 522.493 L
1530.566 515.734 L
1534.613 503.475 L
1538.39 455.89 L
1542.706 444.702 L
1546.752 424.15 L
1550.664 471.623 L
1554.98 447.155 L
1559.162 418.345 L
1563.343 372.154 L
1567.39 341.031 L
1571.436 363.935 L
1575.618 467.312 L
1579.799 414.045 L
1583.711 403.772 L
1587.488 427.077 L
1591.939 422.145 L
1595.985 448.454 L
1599.762 441.72 L
1604.213 413.395 L
1608.26 440.351 L
1612.576 500.3 L
1616.623 540.354 L
1620.534 590.486 L
1624.851 568.947 L
1629.032 585.984 L
1633.214 554.929 L
1636.99 595.208 L
1641.172 582.629 L
1645.083 599.486 L
1649.4 569.981 L
1653.446 562.888 L
1657.358 512.971 L
1661.809 505.067 L
1665.856 530.792 L
1670.037 511.21 L
1674.084 522.201 L
1678.13 511.393 L
1682.447 518.427 L
1686.358 496.602 L
1690.405 470.338 L
1694.586 448.286 L
1698.768 392.294 L
1702.679 402.739 L
1706.996 465.32 L
1711.177 476.549 L
1714.954 494.254 L
1719.405 532.218 L
1723.452 525.995 L
1727.633 515.845 L
1731.814 545.319 L
1735.591 496.696 L
1739.503 510.918 L
1743.819 518.199 L
1748 592.79 L
1751.777 585.765 L
1756.229 564.789 L
1760.275 588.817 L
1764.457 585.772 L
1768.638 605.548 L
1772.55 631.252 L
1776.866 678.662 L
1781.047 669.809 L
1784.824 751.436 L
1789.005 801.365 L
1793.052 797.113 L
1797.099 744.739 L
1801.28 781.395 L
1805.461 772.951 L
1809.373 799.268 L
1813.689 760.864 L
1817.871 774.299 L
1821.648 788.04 L
1826.099 790.655 L
1830.145 796.501 L
1833.922 803.912 L
1838.239 785.148 L
1842.285 742.117 L
1846.197 730.898 L
1850.513 727.235 L
1854.694 707.148 L
1858.876 689.485 L
1862.922 650.784 L
1866.969 690.332 L
1871.15 685.13 L
1875.332 698.735 L
1879.243 728.557 L
1883.425 737.55 L
1887.606 707.369 L
1891.518 689.234 L
1895.834 678.492 L
1899.881 707.102 L
1903.792 684.757 L
1908.244 687.771 L
1912.29 714.363 L
1916.472 729.163 L
1920.518 710.189 L
1924.565 712.243 L
1928.881 724.293 L
1932.658 706.108 L
1936.839 716.191 L
1940.616 723.207 L
1945.067 745.703 L
1949.114 770.432 L
1953.295 787.826 L
1957.477 766.608 L
1961.388 762.418 L
1965.705 780.361 L
1969.751 785.989 L
1973.663 780.537 L
1978.114 749.912 L
1981.891 742.107 L
1985.937 737.838 L
1990.119 714.524 L
1994.3 736.681 L
1998.212 746.067 L
2002.528 747.856 L
2006.71 705.576 L
2010.486 704.869 L
2014.938 717.112 L
2018.984 745.038 L
2023.166 746.49 L
2027.347 749.876 L
2031.124 748.62 L
2034.901 744.565 L
2039.352 742.9 L
2043.533 736.412 L
2047.31 721.795 L
2051.761 728.595 L
2055.808 742.119 L
2059.989 766.517 L
2064.17 759.582 L
2068.082 755.669 L
2072.398 796.072 L
2076.58 755.898 L
2080.357 757.86 L
2084.673 750.642 L
2088.719 740.761 L
2092.631 756.982 L
2096.948 760.191 L
2101.129 787.825 L
2105.31 785.496 L
2109.357 796.44 L
2113.403 779.864 L
2117.585 777.48 L
2121.631 788.73 L
2125.678 811.266 L
2129.455 834.385 L
2133.906 832.85 L
2137.818 836.721 L
2141.729 843.443 L
2146.18 873.164 L
2150.227 875.292 L
2154.543 900.34 L
2158.59 906.104 L
2162.501 905.18 L
2166.818 879.24 L
2170.999 878.083 L
2175.181 893.175 L
2178.958 857.048 L
2183.139 817.543 L
2187.051 809.309 L
2191.367 807.198 L
2195.413 791.981 L
2199.325 812.034 L
2203.776 809.874 L
2207.823 782.707 L
2212.004 773.629 L
2216.051 782.97 L
2220.097 796.206 L
2224.414 804.25 L
2228.19 820.972 L
2232.372 821.365 L
2236.149 833.138 L
2240.6 878.985 L
2244.646 886.992 L
2248.828 868.309 L
2253.009 880.312 L
2256.921 892.091 L
2261.237 901.57 L
2265.284 915.2 L
2269.195 927.944 L
2273.646 920.283 L
2277.558 886.279 L
2281.47 872.035 L
2285.786 854.278 L
2289.968 844.083 L
2293.744 855.605 L
2298.196 851.574 L
2302.242 839.567 L
2306.424 853.735 L
2310.605 875.342 L
2314.517 899.344 L
2318.833 875.675 L
2323.014 868.581 L
2326.791 865.398 L
2330.973 841.823 L
2335.019 854.859 L
2339.066 859.391 L
2343.247 867.971 L
2347.428 902.315 L
2351.34 879.172 L
2355.656 893.881 L
2359.838 913.948 L
2363.615 920.07 L
2368.066 927.166 L
2372.113 936.622 L
2375.889 929.929 L
2380.206 928.367 L
2384.252 925.631 L
2388.164 933.727 L
2392.48 945.241 L
2396.661 942.156 L
2400.843 968.526 L
2404.889 1002.461 L
2408.936 984.836 L
2413.117 982.557 L
2417.299 977.854 L
2421.21 982.294 L
2424.987 940.181 L
2429.438 935.029 L
2433.485 934.184 L
2437.127 913.335 L
2441.713 902.454 L
2445.76 892.443 L
2450.076 886.2 L
2454.122 889.085 L
2458.034 886.472 L
2462.35 880.517 L
2466.532 863.363 L
2470.713 866.606 L
2474.625 876.039 L
2478.806 908.024 L
2482.583 899.297 L
2487.034 897.723 L
2491.081 909.657 L
2495.262 912.29 L
2499.444 925.66 L
2503.355 917.335 L
2507.672 923.378 L
2511.718 943.396 L
2515.63 956.751 L
2520.081 944.59 L
2523.858 953.613 L
2527.904 945.983 L
2532.086 917.537 L
2536.267 908.597 L
2540.179 909.044 L
2544.495 930.638 L
2548.677 938.875 L
2552.453 940.952 L
2556.905 958.894 L
2560.951 920.182 L
2565.133 897.928 L
2569.314 906.118 L
2573.091 915.097 L
2576.867 887.237 L
2581.319 905.824 L
2585.5 913.26 L
2589.277 921.888 L
2593.728 938.683 L
2597.775 968.051 L
2601.956 1002.722 L
2606.137 979.539 L
2610.049 960.663 L
2614.365 987.878 L
2618.547 977.068 L
2622.324 1000.273 L
2626.505 989.287 L
2630.552 986.256 L
2634.598 1033.329 L
2638.78 1019.747 L
2642.961 940.985 L
2646.873 942.653 L
2651.189 981.148 L
2655.37 957.934 L
2659.147 961.506 L
2663.598 964.496 L
2667.645 973.389 L
2671.422 983.505 L
2675.873 996.96 L
2679.919 952.062 L
2683.696 945.217 L
2688.147 953.498 L
2692.194 964.729 L
2696.51 991.337 L
2700.557 998.425 L
2704.469 1005.025 L
2708.785 989.763 L
2712.966 1003.785 L
2717.148 1017.4 L
2720.925 1006.63 L
2724.971 995.364 L
2729.018 1022.726 L
2733.334 1039.4 L
2737.38 1046.899 L
2741.292 1025.686 L
2745.743 1042.563 L
2749.79 1021.711 L
2753.971 1006.196 L
2758.018 1009.223 L
2762.064 1020.932 L
2766.381 1010.857 L
2770.157 1010.547 L
2774.339 988.941 L
2778.116 972.721 L
2782.567 970.307 L
2786.613 972.288 L
2790.795 982.003 L
2794.976 996.301 L
2798.888 1004.339 L
2803.204 1007.35 L
2807.251 1018.36 L
2811.162 1002.008 L
2815.614 994.262 L
2819.39 1009.62 L
2823.437 1001.135 L
2827.618 1003.259 L
2831.8 988.333 L
2835.711 975.422 L
2840.028 986.353 L
2844.209 998.679 L
2847.986 990.711 L
2852.437 997.91 L
2856.484 1016.016 L
2860.665 1009.727 L
2864.846 1024.723 L
2868.758 1020.258 L
2872.94 1029.802 L
2876.986 1014.599 L
2881.033 995.235 L
2885.214 1005.114 L
2889.396 1005.484 L
2893.307 1015.558 L
2897.624 997.493 L
2901.805 938.806 L
2905.582 1022.95 L
2910.033 1083.657 L
2914.08 1036.572 L
2917.856 1026.895 L
2922.173 1068.853 L
2926.219 1034.142 L
2930.131 1000.15 L
2934.447 995.988 L
2938.628 1002.301 L
2942.81 1008.058 L
2946.856 1018.967 L
2950.903 1013.741 L
2955.084 1028.614 L
2959.266 985.711 L
2963.177 997.413 L
2966.954 998.033 L
2971.406 985.995 L
2975.452 999.761 L
2979.229 1024.936 L
2983.68 1054.249 L
2987.727 1061.968 L
2992.043 1102.217 L
2996.089 1099.48 L
3000.001 1091.47 L
3004.317 1076.276 L
3008.499 1029.942 L
3012.68 1022.053 L
3016.457 1020.227 L
3020.638 1017.742 L
3024.55 1029.106 L
3028.866 1052.434 L
3032.913 1041.8 L
3036.825 1076.186 L
3041.276 1125.361 L
3045.322 1153.098 L
3049.504 1135.006 L
3053.55 1141.719 L
3057.597 1160.291 L
3061.913 1169.42 L
3065.825 1158.004 L
3069.871 1135.079 L
3074.053 1159.136 L
3078.234 1192.2 L
3082.146 1187.507 L
3086.462 1198.176 L
3090.644 1194.479 L
3094.42 1190.03 L
3098.872 1183.461 L
3102.918 1191.829 L
3107.1 1178.684 L
3111.281 1156.747 L
3115.058 1166.303 L
3118.834 1169.475 L
3123.286 1183.258 L
3127.467 1142.915 L
3131.244 1104.943 L
3135.695 1094.841 L
3139.742 1076.993 L
3143.923 1091.163 L
3148.104 1098.006 L
3152.016 1080.427 L
3156.333 1052.033 L
3160.514 1082.668 L
3164.291 1084.988 L
3168.472 1077.21 L
3172.519 1082.942 L
3176.565 1100.421 L
3180.747 1097.767 L
3184.928 1093.32 L
3188.84 1112.402 L
3193.156 1100.285 L
3197.338 1112.365 L
3201.114 1127.227 L
3205.565 1132.285 L
3209.612 1171.308 L
3213.389 1147.745 L
3217.705 1152.931 L
3221.752 1144.647 L
3225.663 1137.639 L
3229.98 1118.41 L
3234.161 1132.84 L
3238.343 1133.887 L
3242.389 1147.673 L
3246.436 1139.277 L
3250.617 1136.507 L
3254.798 1132.97 L
3258.71 1160.642 L
3262.892 1175.639 L
3267.073 1174.087 L
3270.985 1170.895 L
3275.301 1170.009 L
3279.347 1196.986 L
3283.259 1201.656 L
3287.71 1193.332 L
3291.757 1192.176 L
3295.938 1173.729 L
3299.985 1126.938 L
3304.031 1119.83 L
3308.348 1121.956 L
3312.125 1129.73 L
3316.306 1127.293 L
3320.083 1138.3 L
3324.534 1145.699 L
3328.58 1140.317 L
3332.762 1141.259 L
3336.943 1156.449 L
3340.855 1142.34 L
3345.171 1140.794 L
3349.218 1139.874 L
3353.129 1142.551 L
3357.581 1122.048 L
3361.357 1110.033 L
3365.269 1122.598 L
3369.585 1110.284 L
3373.767 1117.94 L
3377.678 1119.392 L
3381.995 1114.866 L
S
GR
GS
[0.375 0 0 0.375 0 0.25] CT
0.851 0.325 0.098 RC
1 LJ
5.333 LW
N
569.647 1347.34 M
573.828 1344.008 L
578.01 1347.072 L
581.922 1343.21 L
586.238 1346.407 L
590.284 1346.586 L
594.196 1343.88 L
598.647 1339.275 L
602.424 1346.603 L
606.471 1350.607 L
610.652 1344.458 L
614.833 1351.15 L
618.745 1353.257 L
623.061 1349.432 L
627.243 1360.234 L
631.02 1359.695 L
635.471 1355.447 L
639.517 1357.1 L
643.699 1356.919 L
647.88 1354.374 L
651.657 1349.117 L
655.569 1353.757 L
659.885 1353.676 L
664.066 1353.882 L
667.843 1353.612 L
672.294 1351.118 L
676.341 1348.979 L
680.522 1350.928 L
684.704 1350.588 L
688.615 1354.13 L
692.932 1351.662 L
697.113 1349.899 L
700.89 1384.542 L
705.206 1366.285 L
709.253 1346.459 L
713.03 1343.017 L
717.481 1343.208 L
721.662 1351.675 L
725.844 1351.194 L
729.89 1347.306 L
733.937 1347.772 L
738.118 1351.079 L
742.3 1356.176 L
746.211 1353.986 L
749.988 1352.694 L
754.439 1349.697 L
758.486 1350.88 L
762.263 1354.971 L
766.714 1355.05 L
770.76 1352.196 L
775.077 1353.662 L
779.123 1351.969 L
783.035 1354.386 L
787.216 1360.159 L
791.533 1353.924 L
795.714 1350.53 L
799.491 1388.531 L
803.672 1365.849 L
807.584 1354.922 L
811.9 1330.263 L
815.947 1339.535 L
819.858 1347.458 L
824.31 1380.035 L
828.356 1367.517 L
832.538 1353.91 L
836.584 1354.853 L
840.631 1362.69 L
844.947 1355.974 L
848.724 1388.102 L
852.905 1358.806 L
856.682 1352.816 L
861.133 1345.711 L
865.18 1343.756 L
869.361 1336.058 L
873.542 1360.017 L
877.454 1348.562 L
881.77 1344.59 L
885.817 1355.776 L
889.729 1351.141 L
894.18 1345.121 L
898.092 1385.943 L
902.003 1372.107 L
906.32 1357.675 L
910.501 1378.285 L
914.278 1358.796 L
918.729 1363.79 L
922.775 1362.073 L
926.957 1360.412 L
931.138 1363.656 L
935.05 1371.125 L
939.366 1375.706 L
943.548 1362.206 L
947.324 1343.588 L
951.101 1352.392 L
955.552 1356.395 L
959.464 1329.228 L
963.78 1324.707 L
967.962 1322.896 L
971.874 1334.373 L
976.19 1330.412 L
980.371 1333.933 L
984.148 1349.598 L
988.599 1329.343 L
992.646 1335.182 L
996.423 1329.872 L
1000.739 1337.333 L
1004.785 1335.116 L
1008.697 1328.51 L
1013.013 1328.511 L
1017.195 1329.485 L
1021.376 1335.741 L
1025.423 1343.754 L
1029.469 1329.826 L
1033.651 1354.273 L
1037.832 1339.135 L
1041.744 1354.654 L
1045.521 1357.898 L
1049.972 1359.946 L
1054.018 1338.199 L
1057.795 1342.909 L
1062.246 1326.473 L
1066.293 1334.084 L
1070.609 1342.692 L
1074.656 1342.826 L
1078.567 1350.43 L
1082.884 1350.494 L
1087.065 1351.74 L
1091.247 1340.67 L
1095.158 1343.298 L
1099.205 1330.319 L
1103.116 1335.634 L
1107.568 1345.874 L
1111.614 1339.079 L
1115.796 1329.661 L
1119.977 1340.164 L
1123.889 1339.15 L
1128.205 1334.838 L
1132.251 1339.007 L
1136.163 1341.237 L
1140.614 1341.2 L
1144.391 1336.72 L
1148.438 1343.752 L
1152.619 1341.47 L
1156.801 1299.319 L
1160.712 1295.486 L
1165.029 1334.234 L
1169.21 1366.017 L
1172.987 1365.108 L
1177.438 1362.945 L
1181.484 1373.911 L
1185.666 1370.523 L
1189.847 1368.282 L
1193.624 1372.207 L
1197.536 1368.719 L
1201.852 1359.031 L
1206.033 1359.119 L
1209.81 1346.853 L
1214.261 1335.281 L
1218.308 1348.566 L
1222.489 1338.649 L
1226.671 1340.122 L
1230.583 1345.252 L
1234.899 1362.014 L
1239.08 1348.573 L
1242.857 1357.79 L
1247.038 1344.975 L
1251.085 1331.689 L
1255.132 1334.538 L
1259.313 1338.704 L
1263.494 1329.838 L
1267.406 1333.007 L
1271.722 1329.029 L
1275.904 1340.113 L
1279.681 1334.881 L
1284.132 1339.081 L
1288.178 1340.403 L
1291.955 1333.551 L
1296.406 1334.349 L
1300.453 1335.987 L
1304.23 1330.859 L
1308.681 1337.848 L
1312.727 1339.861 L
1317.044 1344.737 L
1321.09 1350.991 L
1325.002 1353.719 L
1329.318 1365.535 L
1333.5 1357.327 L
1337.681 1345.044 L
1341.458 1345.421 L
1345.639 1348.261 L
1349.551 1348.391 L
1353.867 1354.778 L
1357.914 1355.817 L
1361.825 1350.807 L
1366.277 1351.382 L
1370.323 1350.68 L
1374.505 1345.315 L
1378.551 1347.589 L
1382.598 1348.314 L
1386.914 1348.23 L
1390.691 1345.438 L
1394.872 1342.224 L
1398.649 1337.523 L
1403.1 1335.043 L
1407.147 1336.059 L
1411.328 1333.301 L
1415.51 1340.994 L
1419.421 1346.894 L
1423.738 1335.885 L
1427.784 1343.081 L
1431.696 1339.282 L
1436.147 1339.416 L
1439.924 1341.828 L
1443.97 1345.684 L
1448.152 1345.193 L
1452.333 1351.468 L
1456.245 1357.427 L
1460.561 1355.672 L
1464.743 1355.82 L
1468.519 1355.456 L
1472.97 1350.468 L
1477.017 1361.483 L
1481.198 1364.54 L
1485.38 1364.236 L
1489.292 1320.063 L
1493.473 1350.564 L
1497.52 1373.235 L
1501.566 1354.743 L
1505.747 1348.976 L
1509.929 1343.455 L
1513.841 1330.81 L
1518.157 1340.362 L
1522.338 1347.245 L
1526.115 1367.077 L
1530.566 1389.855 L
1534.613 1397.161 L
1538.39 1364.427 L
1542.706 1355.525 L
1546.752 1353.568 L
1550.664 1373.349 L
1554.98 1356.796 L
1559.162 1342.661 L
1563.343 1331.94 L
1567.39 1313.301 L
1571.436 1344.416 L
1575.618 1330.812 L
1579.799 1321.034 L
1583.711 1336.342 L
1587.488 1331.073 L
1591.939 1333.263 L
1595.985 1329.053 L
1599.762 1322.962 L
1604.213 1323.74 L
1608.26 1311.109 L
1612.576 1292.895 L
1616.623 1292.587 L
1620.534 1319.524 L
1624.851 1336.429 L
1629.032 1339.609 L
1633.214 1343.925 L
1636.99 1342.756 L
1641.172 1344.412 L
1645.083 1345.85 L
1649.4 1342.182 L
1653.446 1342.516 L
1657.358 1337.605 L
1661.809 1335.995 L
1665.856 1338.833 L
1670.037 1338.499 L
1674.084 1340.121 L
1678.13 1338.688 L
1682.447 1343.487 L
1686.358 1340.065 L
1690.405 1339.538 L
1694.586 1337.852 L
1698.768 1318.309 L
1702.679 1314.247 L
1706.996 1322.603 L
1711.177 1326.75 L
1714.954 1326.865 L
1719.405 1330.099 L
1723.452 1331.629 L
1727.633 1335.312 L
1731.814 1337.408 L
1735.591 1338.45 L
1739.503 1336.05 L
1743.819 1339.289 L
1748 1340.957 L
1751.777 1343.649 L
1756.229 1345.897 L
1760.275 1340.42 L
1764.457 1343.676 L
1768.638 1348.757 L
1772.55 1352.166 L
1776.866 1357.267 L
1781.047 1358.26 L
1784.824 1350.212 L
1789.005 1349.577 L
1793.052 1344.778 L
1797.099 1338.248 L
1801.28 1344.923 L
1805.461 1353.193 L
1809.373 1356.486 L
1813.689 1353.685 L
1817.871 1358.352 L
1821.648 1361.246 L
1826.099 1360.829 L
1830.145 1361.433 L
1833.922 1358.043 L
1838.239 1357.737 L
1842.285 1340.911 L
1846.197 1339.031 L
1850.513 1347.847 L
1854.694 1348.246 L
1858.876 1346.104 L
1862.922 1339.762 L
1866.969 1340.637 L
1871.15 1343.068 L
1875.332 1338.476 L
1879.243 1356.763 L
1883.425 1355.549 L
1887.606 1352.531 L
1891.518 1351.774 L
1895.834 1343.728 L
1899.881 1343.827 L
1903.792 1349.716 L
1908.244 1345.496 L
1912.29 1346.472 L
1916.472 1348.771 L
1920.518 1344.084 L
1924.565 1335.69 L
1928.881 1341.036 L
1932.658 1337.385 L
1936.839 1331.002 L
1940.616 1341.158 L
1945.067 1348.126 L
1949.114 1354.415 L
1953.295 1363.461 L
1957.477 1345.802 L
1961.388 1345.789 L
1965.705 1355.25 L
1969.751 1355.245 L
1973.663 1353.129 L
1978.114 1349.118 L
1981.891 1346.151 L
1985.937 1342.334 L
1990.119 1338.479 L
1994.3 1346.132 L
1998.212 1346.603 L
2002.528 1352.472 L
2006.71 1355.86 L
2010.486 1356.568 L
2014.938 1358.042 L
2018.984 1356.758 L
2023.166 1358.385 L
2027.347 1356.294 L
2031.124 1353.575 L
2034.901 1347.51 L
2039.352 1349.953 L
2043.533 1351.917 L
2047.31 1349.322 L
2051.761 1353.195 L
2055.808 1360.369 L
2059.989 1361.807 L
2064.17 1367.79 L
2068.082 1370.894 L
2072.398 1369.647 L
2076.58 1365.243 L
2080.357 1361.304 L
2084.673 1351.575 L
2088.719 1355.54 L
2092.631 1361.26 L
2096.948 1371.712 L
2101.129 1373.148 L
2105.31 1380.021 L
2109.357 1383.7 L
2113.403 1372.535 L
2117.585 1362.062 L
2121.631 1367.626 L
2125.678 1372.805 L
2129.455 1377.581 L
2133.906 1377.168 L
2137.818 1381.868 L
2141.729 1370.018 L
2146.18 1370.031 L
2150.227 1365.429 L
2154.543 1369.558 L
2158.59 1365.569 L
2162.501 1364.945 L
2166.818 1363.407 L
2170.999 1362.49 L
2175.181 1362.488 L
2178.958 1358.109 L
2183.139 1350.918 L
2187.051 1342.983 L
2191.367 1342.863 L
2195.413 1340.184 L
2199.325 1343.517 L
2203.776 1344.808 L
2207.823 1341.822 L
2212.004 1338.077 L
2216.051 1326.473 L
2220.097 1315.192 L
2224.414 1332.79 L
2228.19 1343.149 L
2232.372 1343.855 L
2236.149 1347.214 L
2240.6 1358.304 L
2244.646 1355.749 L
2248.828 1354.624 L
2253.009 1353.827 L
2256.921 1351.847 L
2261.237 1355.724 L
2265.284 1360.951 L
2269.195 1356.228 L
2273.646 1366.003 L
2277.558 1357.859 L
2281.47 1350.035 L
2285.786 1346.09 L
2289.968 1341.406 L
2293.744 1344.244 L
2298.196 1345.293 L
2302.242 1339.465 L
2306.424 1343.193 L
2310.605 1352.427 L
2314.517 1352.693 L
2318.833 1348.316 L
2323.014 1348.759 L
2326.791 1345.776 L
2330.973 1342.565 L
2335.019 1344.373 L
2339.066 1342.925 L
2343.247 1344.968 L
2347.428 1351.436 L
2351.34 1347.662 L
2355.656 1345.655 L
2359.838 1350.535 L
2363.615 1347.179 L
2368.066 1348.79 L
2372.113 1355.707 L
2375.889 1351.641 L
2380.206 1349.122 L
2384.252 1347.976 L
2388.164 1347.396 L
2392.48 1346.167 L
2396.661 1346.711 L
2400.843 1355.317 L
2404.889 1362.159 L
2408.936 1365.494 L
2413.117 1358.129 L
2417.299 1358.3 L
2421.21 1357.279 L
2424.987 1350.525 L
2429.438 1353.274 L
2433.485 1351.724 L
2437.127 1345.217 L
2441.713 1347.385 L
2445.76 1346.876 L
2450.076 1348.318 L
2454.122 1350.552 L
2458.034 1348.118 L
2462.35 1348.775 L
2466.532 1344.687 L
2470.713 1335.575 L
2474.625 1336.946 L
2478.806 1337.239 L
2482.583 1332.937 L
2487.034 1328.843 L
2491.081 1340.39 L
2495.262 1345.398 L
2499.444 1348.99 L
2503.355 1357.826 L
2507.672 1358.763 L
2511.718 1363.542 L
2515.63 1367.831 L
2520.081 1368.281 L
2523.858 1370.744 L
2527.904 1370.829 L
2532.086 1366.558 L
2536.267 1364.121 L
2540.179 1362.547 L
2544.495 1371.194 L
2548.677 1372.657 L
2552.453 1379.069 L
2556.905 1382.11 L
2560.951 1371.206 L
2565.133 1367.663 L
2569.314 1364.952 L
2573.091 1366.267 L
2576.867 1350.882 L
2581.319 1361.763 L
2585.5 1362.212 L
2589.277 1369.654 L
2593.728 1389.822 L
2597.775 1388.606 L
2601.956 1393.206 L
2606.137 1395.698 L
2610.049 1381.307 L
2614.365 1393.214 L
2618.547 1389.726 L
2622.324 1392.632 L
2626.505 1392.608 L
2630.552 1392.891 L
2634.598 1392.608 L
2638.78 1390.458 L
2642.961 1389.134 L
2646.873 1384.443 L
2651.189 1394.157 L
2655.37 1385.332 L
2659.147 1378.067 L
2663.598 1383.404 L
2667.645 1382.037 L
2671.422 1386.854 L
2675.873 1387.386 L
2679.919 1370.757 L
2683.696 1366.425 L
2688.147 1366.652 L
2692.194 1366.024 L
2696.51 1371.833 L
2700.557 1368.615 L
2704.469 1371.934 L
2708.785 1363.605 L
2712.966 1362.774 L
2717.148 1356.486 L
2720.925 1350.71 L
2724.971 1346.5 L
2729.018 1350.411 L
2733.334 1349.866 L
2737.38 1350.479 L
2741.292 1346.959 L
2745.743 1351.378 L
2749.79 1345.386 L
2753.971 1348.622 L
2758.018 1350.938 L
2762.064 1350.635 L
2766.381 1352.676 L
2770.157 1348.835 L
2774.339 1350.673 L
2778.116 1355.744 L
2782.567 1353.528 L
2786.613 1352.486 L
2790.795 1356.272 L
2794.976 1359.878 L
2798.888 1359.863 L
2803.204 1359.409 L
2807.251 1359.585 L
2811.162 1356.58 L
2815.614 1354.477 L
2819.39 1360.413 L
2823.437 1363.1 L
2827.618 1364.213 L
2831.8 1353.813 L
2835.711 1356.163 L
2840.028 1365.909 L
2844.209 1366.623 L
2847.986 1368.26 L
2852.437 1369.837 L
2856.484 1382.189 L
2860.665 1385.415 L
2864.846 1388.188 L
2868.758 1399.525 L
2872.94 1391.325 L
2876.986 1375.391 L
2881.033 1370.285 L
2885.214 1370.359 L
2889.396 1373.5 L
2893.307 1377.349 L
2897.624 1387.876 L
2901.805 1417.589 L
2905.582 1413.812 L
2910.033 1393.498 L
2914.08 1395.558 L
2917.856 1397.325 L
2922.173 1392.631 L
2926.219 1388.692 L
2930.131 1395.098 L
2934.447 1387.478 L
2938.628 1384.046 L
2942.81 1386.942 L
2946.856 1385.733 L
2950.903 1386.904 L
2955.084 1395.199 L
2959.266 1386.069 L
2963.177 1393.472 L
2966.954 1395.889 L
2971.406 1390.348 L
2975.452 1391.172 L
2979.229 1393.916 L
2983.68 1395.431 L
2987.727 1398.991 L
2992.043 1392.203 L
2996.089 1395.38 L
3000.001 1402.692 L
3004.317 1398.764 L
3008.499 1400.083 L
3012.68 1404.091 L
3016.457 1397.854 L
3020.638 1392.875 L
3024.55 1398.086 L
3028.866 1400.327 L
3032.913 1401.158 L
3036.825 1405.046 L
3041.276 1396.743 L
3045.322 1384.712 L
3049.504 1390.401 L
3053.55 1388.723 L
3057.597 1384.234 L
3061.913 1385.986 L
3065.825 1384.38 L
3069.871 1387.079 L
3074.053 1386.234 L
3078.234 1378.432 L
3082.146 1377.319 L
3086.462 1378.245 L
3090.644 1379.891 L
3094.42 1380.842 L
3098.872 1379.491 L
3102.918 1380.03 L
3107.1 1381.292 L
3111.281 1384.832 L
3115.058 1385.449 L
3118.834 1383.784 L
3123.286 1381.634 L
3127.467 1383.681 L
3131.244 1389.556 L
3135.695 1393.537 L
3139.742 1391.84 L
3143.923 1393.121 L
3148.104 1393.631 L
3152.016 1400.069 L
3156.333 1399.815 L
3160.514 1395.209 L
3164.291 1394.375 L
3168.472 1390.271 L
3172.519 1388.476 L
3176.565 1386.821 L
3180.747 1384.454 L
3184.928 1380.963 L
3188.84 1377.214 L
3193.156 1375.648 L
3197.338 1376.497 L
3201.114 1376.768 L
3205.565 1366.703 L
3209.612 1368.072 L
3213.389 1364.709 L
3217.705 1368.878 L
3221.752 1368.108 L
3225.663 1369.219 L
3229.98 1372.896 L
3234.161 1369.844 L
3238.343 1367.898 L
3242.389 1367.994 L
3246.436 1367.782 L
3250.617 1365.901 L
3254.798 1364.586 L
3258.71 1368.571 L
3262.892 1367.382 L
3267.073 1368.15 L
3270.985 1366.207 L
3275.301 1364.891 L
3279.347 1366.609 L
3283.259 1364.393 L
3287.71 1360.905 L
3291.757 1363.057 L
3295.938 1364.093 L
3299.985 1364.448 L
3304.031 1364.573 L
3308.348 1363.189 L
3312.125 1360.911 L
3316.306 1365.588 L
3320.083 1366.294 L
3324.534 1367.745 L
3328.58 1364.902 L
3332.762 1366.122 L
3336.943 1364.504 L
3340.855 1362.106 L
3345.171 1360.087 L
3349.218 1356.715 L
3353.129 1355.7 L
3357.581 1350.878 L
3361.357 1352.596 L
3365.269 1351.812 L
3369.585 1347.941 L
3373.767 1350.251 L
3377.678 1343.954 L
3381.995 1343.138 L
S
GR
GS
[0.375 0 0 0.375 0 0.25] CT
0.929 0.694 0.125 RC
1 LJ
5.333 LW
N
569.647 1344.062 M
573.828 1329.953 L
578.01 1342.008 L
581.922 1341.634 L
586.238 1338.722 L
590.284 1345.54 L
594.196 1354.013 L
598.647 1349.319 L
602.424 1349.838 L
606.471 1341.722 L
610.652 1346.767 L
614.833 1339.472 L
618.745 1348.209 L
623.061 1347.67 L
627.243 1343.58 L
631.02 1337.081 L
635.471 1334.885 L
639.517 1342.818 L
643.699 1346.909 L
647.88 1343.698 L
651.657 1334.547 L
655.569 1341.277 L
659.885 1343.532 L
664.066 1347.696 L
667.843 1345.873 L
672.294 1360.857 L
676.341 1362.197 L
680.522 1361.69 L
684.704 1363.176 L
688.615 1373.73 L
692.932 1375.669 L
697.113 1369.046 L
700.89 1405.139 L
705.206 1390.753 L
709.253 1366.991 L
713.03 1367.876 L
717.481 1366.249 L
721.662 1360.925 L
725.844 1366.704 L
729.89 1371.505 L
733.937 1373.387 L
738.118 1388.056 L
742.3 1383.405 L
746.211 1375.41 L
749.988 1381.051 L
754.439 1379.071 L
758.486 1381.093 L
762.263 1384.582 L
766.714 1378.999 L
770.76 1379.08 L
775.077 1386.228 L
779.123 1387.817 L
783.035 1388.719 L
787.216 1397.38 L
791.533 1407.53 L
795.714 1401.628 L
799.491 1429.483 L
803.672 1409.715 L
807.584 1405.521 L
811.9 1392.527 L
815.947 1399.2 L
819.858 1404.669 L
824.31 1441.751 L
828.356 1427.759 L
832.538 1417.708 L
836.584 1417.536 L
840.631 1416.624 L
844.947 1398.623 L
848.724 1427.664 L
852.905 1382.722 L
856.682 1369.392 L
861.133 1368.261 L
865.18 1390.159 L
869.361 1391.914 L
873.542 1412.538 L
877.454 1405.076 L
881.77 1396.604 L
885.817 1409.867 L
889.729 1411.768 L
894.18 1395.582 L
898.092 1435.058 L
902.003 1422.386 L
906.32 1412.069 L
910.501 1442.614 L
914.278 1402.153 L
918.729 1384.929 L
922.775 1397.536 L
926.957 1397.827 L
931.138 1401.708 L
935.05 1414.055 L
939.366 1439.249 L
943.548 1427.47 L
947.324 1436.153 L
951.101 1422.018 L
955.552 1427.696 L
959.464 1423.48 L
963.78 1459.382 L
967.962 1479.782 L
971.874 1475.361 L
976.19 1471.489 L
980.371 1477.267 L
984.148 1481.584 L
988.599 1498.153 L
992.646 1472.854 L
996.423 1444.676 L
1000.739 1428.363 L
1004.785 1437.618 L
1008.697 1445.818 L
1013.013 1429.398 L
1017.195 1419.726 L
1021.376 1413.846 L
1025.423 1405.342 L
1029.469 1394.818 L
1033.651 1356.525 L
1037.832 1362.671 L
1041.744 1318.195 L
1045.521 1300.906 L
1049.972 1317.349 L
1054.018 1345.512 L
1057.795 1354.653 L
1062.246 1386.465 L
1066.293 1390.664 L
1070.609 1373.208 L
1074.656 1376.905 L
1078.567 1355.621 L
1082.884 1353.54 L
1087.065 1341.43 L
1091.247 1328.11 L
1095.158 1326.997 L
1099.205 1361.881 L
1103.116 1343.486 L
1107.568 1346.427 L
1111.614 1370.318 L
1115.796 1352.739 L
1119.977 1376.449 L
1123.889 1382.169 L
1128.205 1382.258 L
1132.251 1380.596 L
1136.163 1395.745 L
1140.614 1415.489 L
1144.391 1427.668 L
1148.438 1451.618 L
1152.619 1437.365 L
1156.801 1411.481 L
1160.712 1432.383 L
1165.029 1499.016 L
1169.21 1509.812 L
1172.987 1464.221 L
1177.438 1458.902 L
1181.484 1479.398 L
1185.666 1464.754 L
1189.847 1448.325 L
1193.624 1457.055 L
1197.536 1494.862 L
1201.852 1508.605 L
1206.033 1495.252 L
1209.81 1493.766 L
1214.261 1498.932 L
1218.308 1518.583 L
1222.489 1459.385 L
1226.671 1460.731 L
1230.583 1450.297 L
1234.899 1454.555 L
1239.08 1399.227 L
1242.857 1385.92 L
1247.038 1390.735 L
1251.085 1395.564 L
1255.132 1370.921 L
1259.313 1404.637 L
1263.494 1421.787 L
1267.406 1424.38 L
1271.722 1425.232 L
1275.904 1383.971 L
1279.681 1384.211 L
1284.132 1372.131 L
1288.178 1349.239 L
1291.955 1372.462 L
1296.406 1370.038 L
1300.453 1369.194 L
1304.23 1395.293 L
1308.681 1384.991 L
1312.727 1371.267 L
1317.044 1365.937 L
1321.09 1362.738 L
1325.002 1354.277 L
1329.318 1339.155 L
1333.5 1343.433 L
1337.681 1362.375 L
1341.458 1353.453 L
1345.639 1348.138 L
1349.551 1351.092 L
1353.867 1364.373 L
1357.914 1363.486 L
1361.825 1382.332 L
1366.277 1393.119 L
1370.323 1405.554 L
1374.505 1416.249 L
1378.551 1413.711 L
1382.598 1410.588 L
1386.914 1416.796 L
1390.691 1415.992 L
1394.872 1418.828 L
1398.649 1422.893 L
1403.1 1434.49 L
1407.147 1446.891 L
1411.328 1445 L
1415.51 1457.995 L
1419.421 1475.816 L
1423.738 1494.937 L
1427.784 1517.705 L
1431.696 1535.245 L
1436.147 1518.068 L
1439.924 1517.02 L
1443.97 1512.191 L
1448.152 1512.115 L
1452.333 1508.371 L
1456.245 1490.859 L
1460.561 1502.512 L
1464.743 1526.634 L
1468.519 1540.511 L
1472.97 1600.235 L
1477.017 1557.001 L
1481.198 1564.625 L
1485.38 1552.226 L
1489.292 1631.06 L
1493.473 1679.306 L
1497.52 1507.465 L
1501.566 1413.655 L
1505.747 1420.639 L
1509.929 1427.276 L
1513.841 1506.773 L
1518.157 1528.232 L
1522.338 1563.795 L
1526.115 1632.103 L
1530.566 1599.109 L
1534.613 1616.425 L
1538.39 1580.297 L
1542.706 1531.656 L
1546.752 1597.432 L
1550.664 1640.984 L
1554.98 1603.719 L
1559.162 1641.906 L
1563.343 1638.931 L
1567.39 1599.95 L
1571.436 1549.755 L
1575.618 1467.494 L
1579.799 1516.342 L
1583.711 1546.089 L
1587.488 1550.31 L
1591.939 1564.552 L
1595.985 1549.132 L
1599.762 1513.693 L
1604.213 1562.663 L
1608.26 1488.568 L
1612.576 1440.216 L
1616.623 1423.705 L
1620.534 1422.171 L
1624.851 1419.586 L
1629.032 1410.15 L
1633.214 1400.012 L
1636.99 1404.033 L
1641.172 1425.731 L
1645.083 1411.167 L
1649.4 1421.052 L
1653.446 1432.769 L
1657.358 1437.98 L
1661.809 1438.156 L
1665.856 1422.134 L
1670.037 1410.736 L
1674.084 1422.448 L
1678.13 1426.393 L
1682.447 1420.866 L
1686.358 1426.143 L
1690.405 1442.55 L
1694.586 1437.284 L
1698.768 1446.72 L
1702.679 1457.697 L
1706.996 1472.275 L
1711.177 1485.673 L
1714.954 1473.706 L
1719.405 1447.895 L
1723.452 1411.706 L
1727.633 1389.677 L
1731.814 1398.315 L
1735.591 1409.994 L
1739.503 1404.64 L
1743.819 1386.595 L
1748 1376.122 L
1751.777 1363.591 L
1756.229 1371.806 L
1760.275 1369.798 L
1764.457 1370.672 L
1768.638 1377.631 L
1772.55 1381.541 L
1776.866 1393.781 L
1781.047 1389.917 L
1784.824 1417.267 L
1789.005 1412.751 L
1793.052 1400.521 L
1797.099 1389.477 L
1801.28 1390.957 L
1805.461 1377.012 L
1809.373 1354.526 L
1813.689 1353.165 L
1817.871 1352.934 L
1821.648 1359.652 L
1826.099 1374.832 L
1830.145 1371.82 L
1833.922 1376.409 L
1838.239 1378.908 L
1842.285 1380.152 L
1846.197 1389.55 L
1850.513 1382.405 L
1854.694 1373.271 L
1858.876 1379.799 L
1862.922 1388.198 L
1866.969 1367.768 L
1871.15 1367.973 L
1875.332 1370.645 L
1879.243 1375.577 L
1883.425 1372.246 L
1887.606 1366.693 L
1891.518 1370.754 L
1895.834 1385.349 L
1899.881 1392.204 L
1903.792 1404.902 L
1908.244 1422.401 L
1912.29 1426.217 L
1916.472 1425.813 L
1920.518 1446.823 L
1924.565 1459.547 L
1928.881 1471.234 L
1932.658 1481.599 L
1936.839 1494.241 L
1940.616 1477.182 L
1945.067 1477.202 L
1949.114 1457.763 L
1953.295 1446.733 L
1957.477 1460.328 L
1961.388 1463.379 L
1965.705 1452.776 L
1969.751 1448.593 L
1973.663 1450.697 L
1978.114 1450.167 L
1981.891 1446.613 L
1985.937 1453.288 L
1990.119 1452.107 L
1994.3 1446.837 L
1998.212 1440.417 L
2002.528 1429.216 L
2006.71 1417.342 L
2010.486 1410.966 L
2014.938 1406.056 L
2018.984 1410.609 L
2023.166 1393.255 L
2027.347 1383.097 L
2031.124 1376.649 L
2034.901 1369.19 L
2039.352 1359.916 L
2043.533 1355.941 L
2047.31 1354.034 L
2051.761 1353.237 L
2055.808 1340.93 L
2059.989 1339.306 L
2064.17 1322.194 L
2068.082 1303.515 L
2072.398 1293.52 L
2076.58 1285.257 L
2080.357 1289.533 L
2084.673 1297.707 L
2088.719 1281.372 L
2092.631 1281.732 L
2096.948 1275.053 L
2101.129 1267.755 L
2105.31 1258.441 L
2109.357 1247.424 L
2113.403 1264.775 L
2117.585 1276.588 L
2121.631 1271.992 L
2125.678 1270.09 L
2129.455 1273.423 L
2133.906 1274.045 L
2137.818 1271.74 L
2141.729 1286.815 L
2146.18 1295.803 L
2150.227 1299.266 L
2154.543 1303.493 L
2158.59 1305.49 L
2162.501 1309.264 L
2166.818 1304.087 L
2170.999 1303.549 L
2175.181 1304.867 L
2178.958 1311.951 L
2183.139 1313.374 L
2187.051 1329.582 L
2191.367 1342.112 L
2195.413 1338.441 L
2199.325 1345.155 L
2203.776 1352.421 L
2207.823 1359.671 L
2212.004 1362.599 L
2216.051 1391.708 L
2220.097 1405.223 L
2224.414 1406.07 L
2228.19 1397.757 L
2232.372 1399.403 L
2236.149 1398.954 L
2240.6 1398.837 L
2244.646 1397.873 L
2248.828 1389.94 L
2253.009 1392.907 L
2256.921 1399.501 L
2261.237 1398.457 L
2265.284 1397.327 L
2269.195 1389.69 L
2273.646 1382.143 L
2277.558 1375.353 L
2281.47 1379.69 L
2285.786 1378.788 L
2289.968 1378.757 L
2293.744 1383.915 L
2298.196 1387.961 L
2302.242 1379.579 L
2306.424 1379.977 L
2310.605 1384.171 L
2314.517 1389.574 L
2318.833 1388.225 L
2323.014 1385.55 L
2326.791 1388.705 L
2330.973 1391.854 L
2335.019 1391.926 L
2339.066 1388.864 L
2343.247 1391.104 L
2347.428 1398.403 L
2351.34 1394.793 L
2355.656 1392.531 L
2359.838 1401.509 L
2363.615 1410.738 L
2368.066 1410.492 L
2372.113 1404.261 L
2375.889 1407.911 L
2380.206 1407.636 L
2384.252 1403.092 L
2388.164 1405.93 L
2392.48 1410.011 L
2396.661 1408.565 L
2400.843 1405.832 L
2404.889 1395.846 L
2408.936 1383.126 L
2413.117 1392.323 L
2417.299 1389.503 L
2421.21 1390.834 L
2424.987 1388.678 L
2429.438 1379.781 L
2433.485 1381.06 L
2437.127 1382.282 L
2441.713 1381.087 L
2445.76 1381.39 L
2450.076 1385.161 L
2454.122 1382.089 L
2458.034 1387.9 L
2462.35 1395.666 L
2466.532 1394.903 L
2470.713 1410.836 L
2474.625 1415.667 L
2478.806 1432.307 L
2482.583 1433.75 L
2487.034 1432.477 L
2491.081 1433.465 L
2495.262 1437.903 L
2499.444 1440.226 L
2503.355 1433.047 L
2507.672 1436.852 L
2511.718 1436.713 L
2515.63 1421.093 L
2520.081 1385.278 L
2523.858 1380.633 L
2527.904 1359.953 L
2532.086 1343.392 L
2536.267 1329.842 L
2540.179 1330.265 L
2544.495 1326.307 L
2548.677 1323.723 L
2552.453 1284.812 L
2556.905 1274.648 L
2560.951 1258.376 L
2565.133 1252.993 L
2569.314 1259.892 L
2573.091 1259.768 L
2576.867 1265.285 L
2581.319 1262.242 L
2585.5 1261.281 L
2589.277 1256.642 L
2593.728 1252.746 L
2597.775 1261.188 L
2601.956 1263.464 L
2606.137 1250.455 L
2610.049 1246.235 L
2614.365 1247.801 L
2618.547 1246.051 L
2622.324 1251.597 L
2626.505 1245.612 L
2630.552 1244.592 L
2634.598 1258.942 L
2638.78 1249.659 L
2642.961 1227.497 L
2646.873 1231.017 L
2651.189 1238.038 L
2655.37 1235.562 L
2659.147 1241.664 L
2663.598 1237.179 L
2667.645 1241.442 L
2671.422 1243.33 L
2675.873 1246.481 L
2679.919 1245.643 L
2683.696 1250.076 L
2688.147 1264.197 L
2692.194 1269.549 L
2696.51 1275.835 L
2700.557 1289.309 L
2704.469 1294.6 L
2708.785 1304.338 L
2712.966 1315.049 L
2717.148 1329.724 L
2720.925 1337.268 L
2724.971 1342.145 L
2729.018 1349.825 L
2733.334 1357.058 L
2737.38 1366.423 L
2741.292 1373.284 L
2745.743 1376.983 L
2749.79 1377.711 L
2753.971 1386.274 L
2758.018 1390.22 L
2762.064 1397.602 L
2766.381 1401.511 L
2770.157 1407.123 L
2774.339 1403.574 L
2778.116 1399.761 L
2782.567 1404.872 L
2786.613 1412.876 L
2790.795 1412.161 L
2794.976 1414.317 L
2798.888 1414.422 L
2803.204 1415.792 L
2807.251 1417.66 L
2811.162 1416.218 L
2815.614 1414.986 L
2819.39 1414.898 L
2823.437 1411.197 L
2827.618 1412.826 L
2831.8 1409.986 L
2835.711 1402.932 L
2840.028 1401.665 L
2844.209 1384.946 L
2847.986 1370.017 L
2852.437 1373.281 L
2856.484 1345.321 L
2860.665 1343.155 L
2864.846 1300.773 L
2868.758 1279.194 L
2872.94 1270.365 L
2876.986 1283.344 L
2881.033 1290.825 L
2885.214 1297.031 L
2889.396 1292.491 L
2893.307 1294.331 L
2897.624 1272.907 L
2901.805 1229.119 L
2905.582 1238.695 L
2910.033 1245.906 L
2914.08 1232.689 L
2917.856 1236.6 L
2922.173 1247.207 L
2926.219 1229.689 L
2930.131 1214.857 L
2934.447 1215.844 L
2938.628 1217.407 L
2942.81 1216.23 L
2946.856 1219.537 L
2950.903 1215.794 L
2955.084 1217.913 L
2959.266 1210.477 L
2963.177 1206.827 L
2966.954 1208.015 L
2971.406 1207.255 L
2975.452 1214.563 L
2979.229 1224.182 L
2983.68 1233.632 L
2987.727 1234.575 L
2992.043 1250.48 L
2996.089 1248.622 L
3000.001 1243.422 L
3004.317 1239.39 L
3008.499 1223.438 L
3012.68 1217.305 L
3016.457 1218.033 L
3020.638 1218.167 L
3024.55 1217.671 L
3028.866 1225.122 L
3032.913 1221.061 L
3036.825 1237.044 L
3041.276 1252.013 L
3045.322 1265.891 L
3049.504 1258.38 L
3053.55 1260.751 L
3057.597 1267.964 L
3061.913 1272.012 L
3065.825 1269.724 L
3069.871 1261.011 L
3074.053 1269.868 L
3078.234 1285.379 L
3082.146 1284.479 L
3086.462 1285.813 L
3090.644 1284.82 L
3094.42 1282.911 L
3098.872 1281.107 L
3102.918 1284.419 L
3107.1 1277.811 L
3111.281 1267.728 L
3115.058 1271.849 L
3118.834 1272.785 L
3123.286 1277.615 L
3127.467 1261.373 L
3131.244 1249.575 L
3135.695 1241.506 L
3139.742 1235.819 L
3143.923 1238.642 L
3148.104 1241.913 L
3152.016 1235.458 L
3156.333 1225.985 L
3160.514 1237.404 L
3164.291 1239.004 L
3168.472 1238.639 L
3172.519 1239.437 L
3176.565 1246.307 L
3180.747 1246.769 L
3184.928 1247.631 L
3188.84 1254.584 L
3193.156 1251.118 L
3197.338 1254.588 L
3201.114 1262.212 L
3205.565 1268.058 L
3209.612 1280.235 L
3213.389 1273.303 L
3217.705 1275.679 L
3221.752 1269.841 L
3225.663 1267.746 L
3229.98 1261.078 L
3234.161 1267.938 L
3238.343 1271.49 L
3242.389 1272.561 L
3246.436 1274.984 L
3250.617 1283.005 L
3254.798 1286.48 L
3258.71 1290.788 L
3262.892 1298.704 L
3267.073 1295.301 L
3270.985 1293.443 L
3275.301 1299.268 L
3279.347 1301.1 L
3283.259 1306.165 L
3287.71 1306.848 L
3291.757 1305.941 L
3295.938 1300.082 L
3299.985 1288.036 L
3304.031 1286.363 L
3308.348 1285.486 L
3312.125 1290.709 L
3316.306 1297.894 L
3320.083 1304.566 L
3324.534 1311.708 L
3328.58 1311.723 L
3332.762 1311.007 L
3336.943 1316.782 L
3340.855 1315.178 L
3345.171 1318.944 L
3349.218 1326.531 L
3353.129 1333.646 L
3357.581 1331.372 L
3361.357 1332.396 L
3365.269 1340.034 L
3369.585 1341.128 L
3373.767 1344.363 L
3377.678 1343.907 L
3381.995 1348.344 L
S
GR
GS
[0.375 0 0 0.375 0 0.25] CT
1 GC
N
3431 448 M
3431 171 L
3064 171 L
3064 448 L
cp
f
GR
GS
[0.375 0 0 0.375 1184.25 82.5625] CT
/Helvetica 72 F
GS
[1 0 0 1 0 0] CT
0 28.5 moveto 
1 -1 scale
(Factor 1) t 
GR
GR
GS
[0.375 0 0 0.375 0 0.25] CT
0 0.447 0.741 RC
1 LJ
5.333 LW
N
3072 219.5 M
3152 219.5 L
S
GR
GS
[0.375 0 0 0.375 1184.25 116.3125] CT
/Helvetica 72 F
GS
[1 0 0 1 0 0] CT
0 28.5 moveto 
1 -1 scale
(Factor 2) t 
GR
GR
GS
[0.375 0 0 0.375 0 0.25] CT
0.851 0.325 0.098 RC
1 LJ
5.333 LW
N
3072 309.5 M
3152 309.5 L
S
GR
GS
[0.375 0 0 0.375 1184.25 150.0625] CT
/Helvetica 72 F
GS
[1 0 0 1 0 0] CT
0 28.5 moveto 
1 -1 scale
(Factor 3) t 
GR
GR
GS
[0.375 0 0 0.375 0 0.25] CT
0.929 0.694 0.125 RC
1 LJ
5.333 LW
N
3072 399.5 M
3152 399.5 L
S
GR
GS
[0.375 0 0 0.375 0 0.25] CT
0.149 GC
10.0 ML
1.333 LW
N
3064 448 M
3064 171 L
3431 171 L
3431 448 L
cp
S
GR
%%Trailer
%%Pages: 1
%%EOF
