%!PS-Adobe-3.0 EPSF-3.0
%%Creator: (MATLAB, The Mathworks, Inc. Version 9.8.0.1359463 \(R2020a\) Update 1. Operating System: Windows 10)
%%Title: ./GenericYieldCurveShapesDE.eps
%%CreationDate: 2021-03-09T11:17:47
%%Pages: (atend)
%%BoundingBox:   133    55  1310   698
%%LanguageLevel: 3
%%EndComments
%%BeginProlog
%%BeginResource: procset (Apache XML Graphics Std ProcSet) 1.2 0
%%Version: 1.2 0
%%Copyright: (Copyright 2001-2003,2010 The Apache Software Foundation. License terms: http://www.apache.org/licenses/LICENSE-2.0)
/bd{bind def}bind def
/ld{load def}bd
/GR/grestore ld
/GS/gsave ld
/RM/rmoveto ld
/C/curveto ld
/t/show ld
/L/lineto ld
/ML/setmiterlimit ld
/CT/concat ld
/f/fill ld
/N/newpath ld
/S/stroke ld
/CC/setcmykcolor ld
/A/ashow ld
/cp/closepath ld
/RC/setrgbcolor ld
/LJ/setlinejoin ld
/GC/setgray ld
/LW/setlinewidth ld
/M/moveto ld
/re {4 2 roll M
1 index 0 rlineto
0 exch rlineto
neg 0 rlineto
cp } bd
/_ctm matrix def
/_tm matrix def
/BT { _ctm currentmatrix pop matrix _tm copy pop 0 0 moveto } bd
/ET { _ctm setmatrix } bd
/iTm { _ctm setmatrix _tm concat } bd
/Tm { _tm astore pop iTm 0 0 moveto } bd
/ux 0.0 def
/uy 0.0 def
/F {
  /Tp exch def
  /Tf exch def
  Tf findfont Tp scalefont setfont
  /cf Tf def  /cs Tp def
} bd
/ULS {currentpoint /uy exch def /ux exch def} bd
/ULE {
  /Tcx currentpoint pop def
  gsave
  newpath
  cf findfont cs scalefont dup
  /FontMatrix get 0 get /Ts exch def /FontInfo get dup
  /UnderlinePosition get Ts mul /To exch def
  /UnderlineThickness get Ts mul /Tt exch def
  ux uy To add moveto  Tcx uy To add lineto
  Tt setlinewidth stroke
  grestore
} bd
/OLE {
  /Tcx currentpoint pop def
  gsave
  newpath
  cf findfont cs scalefont dup
  /FontMatrix get 0 get /Ts exch def /FontInfo get dup
  /UnderlinePosition get Ts mul /To exch def
  /UnderlineThickness get Ts mul /Tt exch def
  ux uy To add cs add moveto Tcx uy To add cs add lineto
  Tt setlinewidth stroke
  grestore
} bd
/SOE {
  /Tcx currentpoint pop def
  gsave
  newpath
  cf findfont cs scalefont dup
  /FontMatrix get 0 get /Ts exch def /FontInfo get dup
  /UnderlinePosition get Ts mul /To exch def
  /UnderlineThickness get Ts mul /Tt exch def
  ux uy To add cs 10 mul 26 idiv add moveto Tcx uy To add cs 10 mul 26 idiv add lineto
  Tt setlinewidth stroke
  grestore
} bd
/QT {
/Y22 exch store
/X22 exch store
/Y21 exch store
/X21 exch store
currentpoint
/Y21 load 2 mul add 3 div exch
/X21 load 2 mul add 3 div exch
/X21 load 2 mul /X22 load add 3 div
/Y21 load 2 mul /Y22 load add 3 div
/X22 load /Y22 load curveto
} bd
/SSPD {
dup length /d exch dict def
{
/v exch def
/k exch def
currentpagedevice k known {
/cpdv currentpagedevice k get def
v cpdv ne {
/upd false def
/nullv v type /nulltype eq def
/nullcpdv cpdv type /nulltype eq def
nullv nullcpdv or
{
/upd true def
} {
/sametype v type cpdv type eq def
sametype {
v type /arraytype eq {
/vlen v length def
/cpdvlen cpdv length def
vlen cpdvlen eq {
0 1 vlen 1 sub {
/i exch def
/obj v i get def
/cpdobj cpdv i get def
obj cpdobj ne {
/upd true def
exit
} if
} for
} {
/upd true def
} ifelse
} {
v type /dicttype eq {
v {
/dv exch def
/dk exch def
/cpddv cpdv dk get def
dv cpddv ne {
/upd true def
exit
} if
} forall
} {
/upd true def
} ifelse
} ifelse
} if
} ifelse
upd true eq {
d k v put
} if
} if
} if
} forall
d length 0 gt {
d setpagedevice
} if
} bd
/RE { % /NewFontName [NewEncodingArray] /FontName RE -
  findfont dup length dict begin
  {
    1 index /FID ne
    {def} {pop pop} ifelse
  } forall
  /Encoding exch def
  /FontName 1 index def
  currentdict definefont pop
  end
} bind def
%%EndResource
%%BeginResource: procset (Apache XML Graphics EPS ProcSet) 1.0 0
%%Version: 1.0 0
%%Copyright: (Copyright 2002-2003 The Apache Software Foundation. License terms: http://www.apache.org/licenses/LICENSE-2.0)
/BeginEPSF { %def
/b4_Inc_state save def         % Save state for cleanup
/dict_count countdictstack def % Count objects on dict stack
/op_count count 1 sub def      % Count objects on operand stack
userdict begin                 % Push userdict on dict stack
/showpage { } def              % Redefine showpage, { } = null proc
0 setgray 0 setlinecap         % Prepare graphics state
1 setlinewidth 0 setlinejoin
10 setmiterlimit [ ] 0 setdash newpath
/languagelevel where           % If level not equal to 1 then
{pop languagelevel             % set strokeadjust and
1 ne                           % overprint to their defaults.
{false setstrokeadjust false setoverprint
} if
} if
} bd
/EndEPSF { %def
count op_count sub {pop} repeat            % Clean up stacks
countdictstack dict_count sub {end} repeat
b4_Inc_state restore
} bd
%%EndResource
%FOPBeginFontDict
%%IncludeResource: font Courier-Oblique
%%IncludeResource: font Courier-BoldOblique
%%IncludeResource: font Courier-Bold
%%IncludeResource: font ZapfDingbats
%%IncludeResource: font Symbol
%%IncludeResource: font Helvetica
%%IncludeResource: font Helvetica-Oblique
%%IncludeResource: font Helvetica-Bold
%%IncludeResource: font Helvetica-BoldOblique
%%IncludeResource: font Times-Roman
%%IncludeResource: font Times-Italic
%%IncludeResource: font Times-Bold
%%IncludeResource: font Times-BoldItalic
%%IncludeResource: font Courier
%FOPEndFontDict
%%BeginResource: encoding WinAnsiEncoding
/WinAnsiEncoding [
/.notdef /.notdef /.notdef /.notdef /.notdef
/.notdef /.notdef /.notdef /.notdef /.notdef
/.notdef /.notdef /.notdef /.notdef /.notdef
/.notdef /.notdef /.notdef /.notdef /.notdef
/.notdef /.notdef /.notdef /.notdef /.notdef
/.notdef /.notdef /.notdef /.notdef /.notdef
/.notdef /.notdef /space /exclam /quotedbl
/numbersign /dollar /percent /ampersand /quotesingle
/parenleft /parenright /asterisk /plus /comma
/hyphen /period /slash /zero /one
/two /three /four /five /six
/seven /eight /nine /colon /semicolon
/less /equal /greater /question /at
/A /B /C /D /E
/F /G /H /I /J
/K /L /M /N /O
/P /Q /R /S /T
/U /V /W /X /Y
/Z /bracketleft /backslash /bracketright /asciicircum
/underscore /quoteleft /a /b /c
/d /e /f /g /h
/i /j /k /l /m
/n /o /p /q /r
/s /t /u /v /w
/x /y /z /braceleft /bar
/braceright /asciitilde /bullet /Euro /bullet
/quotesinglbase /florin /quotedblbase /ellipsis /dagger
/daggerdbl /circumflex /perthousand /Scaron /guilsinglleft
/OE /bullet /Zcaron /bullet /bullet
/quoteleft /quoteright /quotedblleft /quotedblright /bullet
/endash /emdash /asciitilde /trademark /scaron
/guilsinglright /oe /bullet /zcaron /Ydieresis
/space /exclamdown /cent /sterling /currency
/yen /brokenbar /section /dieresis /copyright
/ordfeminine /guillemotleft /logicalnot /sfthyphen /registered
/macron /degree /plusminus /twosuperior /threesuperior
/acute /mu /paragraph /middot /cedilla
/onesuperior /ordmasculine /guillemotright /onequarter /onehalf
/threequarters /questiondown /Agrave /Aacute /Acircumflex
/Atilde /Adieresis /Aring /AE /Ccedilla
/Egrave /Eacute /Ecircumflex /Edieresis /Igrave
/Iacute /Icircumflex /Idieresis /Eth /Ntilde
/Ograve /Oacute /Ocircumflex /Otilde /Odieresis
/multiply /Oslash /Ugrave /Uacute /Ucircumflex
/Udieresis /Yacute /Thorn /germandbls /agrave
/aacute /acircumflex /atilde /adieresis /aring
/ae /ccedilla /egrave /eacute /ecircumflex
/edieresis /igrave /iacute /icircumflex /idieresis
/eth /ntilde /ograve /oacute /ocircumflex
/otilde /odieresis /divide /oslash /ugrave
/uacute /ucircumflex /udieresis /yacute /thorn
/ydieresis
] def
%%EndResource
%FOPBeginFontReencode
/Courier-Oblique findfont
dup length dict begin
  {1 index /FID ne {def} {pop pop} ifelse} forall
  /Encoding WinAnsiEncoding def
  currentdict
end
/Courier-Oblique exch definefont pop
/Courier-BoldOblique findfont
dup length dict begin
  {1 index /FID ne {def} {pop pop} ifelse} forall
  /Encoding WinAnsiEncoding def
  currentdict
end
/Courier-BoldOblique exch definefont pop
/Courier-Bold findfont
dup length dict begin
  {1 index /FID ne {def} {pop pop} ifelse} forall
  /Encoding WinAnsiEncoding def
  currentdict
end
/Courier-Bold exch definefont pop
/Helvetica findfont
dup length dict begin
  {1 index /FID ne {def} {pop pop} ifelse} forall
  /Encoding WinAnsiEncoding def
  currentdict
end
/Helvetica exch definefont pop
/Helvetica-Oblique findfont
dup length dict begin
  {1 index /FID ne {def} {pop pop} ifelse} forall
  /Encoding WinAnsiEncoding def
  currentdict
end
/Helvetica-Oblique exch definefont pop
/Helvetica-Bold findfont
dup length dict begin
  {1 index /FID ne {def} {pop pop} ifelse} forall
  /Encoding WinAnsiEncoding def
  currentdict
end
/Helvetica-Bold exch definefont pop
/Helvetica-BoldOblique findfont
dup length dict begin
  {1 index /FID ne {def} {pop pop} ifelse} forall
  /Encoding WinAnsiEncoding def
  currentdict
end
/Helvetica-BoldOblique exch definefont pop
/Times-Roman findfont
dup length dict begin
  {1 index /FID ne {def} {pop pop} ifelse} forall
  /Encoding WinAnsiEncoding def
  currentdict
end
/Times-Roman exch definefont pop
/Times-Italic findfont
dup length dict begin
  {1 index /FID ne {def} {pop pop} ifelse} forall
  /Encoding WinAnsiEncoding def
  currentdict
end
/Times-Italic exch definefont pop
/Times-Bold findfont
dup length dict begin
  {1 index /FID ne {def} {pop pop} ifelse} forall
  /Encoding WinAnsiEncoding def
  currentdict
end
/Times-Bold exch definefont pop
/Times-BoldItalic findfont
dup length dict begin
  {1 index /FID ne {def} {pop pop} ifelse} forall
  /Encoding WinAnsiEncoding def
  currentdict
end
/Times-BoldItalic exch definefont pop
/Courier findfont
dup length dict begin
  {1 index /FID ne {def} {pop pop} ifelse} forall
  /Encoding WinAnsiEncoding def
  currentdict
end
/Courier exch definefont pop
%FOPEndFontReencode
%%EndProlog
%%Page: 1 1
%%PageBoundingBox: 0 0 1430 748
%%BeginPageSetup
[1 0 0 -1 0 748] CT
%%EndPageSetup
GS
[0.375 0 0 0.375 0 0.25] CT
N
0 0 M
3814 0 L
3814 1994 L
0 1994 L
0 0 L
cp
clip
1 GC
N
0 0 3814 1994 re
f
GR
GS
[0.375 0 0 0.375 0 0.25] CT
1 GC
N
0 0 3814 1994 re
f
GR
GS
[0.375 0 0 0.375 0 0.25] CT
1 GC
N
496 1775 M
3452 1775 L
3452 150 L
496 150 L
cp
f
GR
GS
[0.375 0 0 0.375 0 0.25] CT
0.873 GC
1 LJ
1.333 LW
N
569.9 1775 M
569.9 150 L
S
GR
GS
[0.375 0 0 0.375 0 0.25] CT
0.873 GC
1 LJ
1.333 LW
N
791.6 1775 M
791.6 150 L
S
GR
GS
[0.375 0 0 0.375 0 0.25] CT
0.873 GC
1 LJ
1.333 LW
N
1087.2 1775 M
1087.2 150 L
S
GR
GS
[0.375 0 0 0.375 0 0.25] CT
0.873 GC
1 LJ
1.333 LW
N
1974 1775 M
1974 150 L
S
GR
GS
[0.375 0 0 0.375 0 0.25] CT
0.873 GC
1 LJ
1.333 LW
N
2565.2 1775 M
2565.2 150 L
S
GR
GS
[0.375 0 0 0.375 0 0.25] CT
0.873 GC
1 LJ
1.333 LW
N
3452 1775 M
3452 150 L
S
GR
GS
[0.375 0 0 0.375 0 0.25] CT
0.873 GC
1 LJ
1.333 LW
N
3452 1775 M
496 1775 L
S
GR
GS
[0.375 0 0 0.375 0 0.25] CT
0.873 GC
1 LJ
1.333 LW
N
3452 1233.333 M
496 1233.333 L
S
GR
GS
[0.375 0 0 0.375 0 0.25] CT
0.873 GC
1 LJ
1.333 LW
N
3452 691.667 M
496 691.667 L
S
GR
GS
[0.375 0 0 0.375 0 0.25] CT
0.873 GC
1 LJ
1.333 LW
N
3452 150 M
496 150 L
S
GR
GS
[0.375 0 0 0.375 0 0.25] CT
0.149 GC
2 setlinecap
1 LJ
1.333 LW
N
496 1775 M
3452 1775 L
S
GR
GS
[0.375 0 0 0.375 0 0.25] CT
0.149 GC
2 setlinecap
1 LJ
1.333 LW
N
496 150 M
3452 150 L
S
GR
GS
[0.375 0 0 0.375 0 0.25] CT
0.149 GC
2 setlinecap
1 LJ
1.333 LW
N
569.9 1775 M
569.9 1745.44 L
S
GR
GS
[0.375 0 0 0.375 0 0.25] CT
0.149 GC
2 setlinecap
1 LJ
1.333 LW
N
791.6 1775 M
791.6 1745.44 L
S
GR
GS
[0.375 0 0 0.375 0 0.25] CT
0.149 GC
2 setlinecap
1 LJ
1.333 LW
N
1087.2 1775 M
1087.2 1745.44 L
S
GR
GS
[0.375 0 0 0.375 0 0.25] CT
0.149 GC
2 setlinecap
1 LJ
1.333 LW
N
1974 1775 M
1974 1745.44 L
S
GR
GS
[0.375 0 0 0.375 0 0.25] CT
0.149 GC
2 setlinecap
1 LJ
1.333 LW
N
2565.2 1775 M
2565.2 1745.44 L
S
GR
GS
[0.375 0 0 0.375 0 0.25] CT
0.149 GC
2 setlinecap
1 LJ
1.333 LW
N
3452 1775 M
3452 1745.44 L
S
GR
GS
[0.375 0 0 0.375 0 0.25] CT
0.149 GC
2 setlinecap
1 LJ
1.333 LW
N
569.9 150 M
569.9 179.56 L
S
GR
GS
[0.375 0 0 0.375 0 0.25] CT
0.149 GC
2 setlinecap
1 LJ
1.333 LW
N
791.6 150 M
791.6 179.56 L
S
GR
GS
[0.375 0 0 0.375 0 0.25] CT
0.149 GC
2 setlinecap
1 LJ
1.333 LW
N
1087.2 150 M
1087.2 179.56 L
S
GR
GS
[0.375 0 0 0.375 0 0.25] CT
0.149 GC
2 setlinecap
1 LJ
1.333 LW
N
1974 150 M
1974 179.56 L
S
GR
GS
[0.375 0 0 0.375 0 0.25] CT
0.149 GC
2 setlinecap
1 LJ
1.333 LW
N
2565.2 150 M
2565.2 179.56 L
S
GR
GS
[0.375 0 0 0.375 0 0.25] CT
0.149 GC
2 setlinecap
1 LJ
1.333 LW
N
3452 150 M
3452 179.56 L
S
GR
GS
[0.375 0 0 0.375 213.71251 671.875] CT
0.149 GC
/Helvetica 53.333 F
GS
[1 0 0 1 0 0] CT
-15 54 moveto 
1 -1 scale
(3) t 
GR
GR
GS
[0.375 0 0 0.375 296.84999 671.875] CT
0.149 GC
/Helvetica 53.333 F
GS
[1 0 0 1 0 0] CT
-30 54 moveto 
1 -1 scale
(12) t 
GR
GR
GS
[0.375 0 0 0.375 407.69998 671.875] CT
0.149 GC
/Helvetica 53.333 F
GS
[1 0 0 1 0 0] CT
-30 54 moveto 
1 -1 scale
(24) t 
GR
GR
GS
[0.375 0 0 0.375 740.25 671.875] CT
0.149 GC
/Helvetica 53.333 F
GS
[1 0 0 1 0 0] CT
-30 54 moveto 
1 -1 scale
(60) t 
GR
GR
GS
[0.375 0 0 0.375 961.94998 671.875] CT
0.149 GC
/Helvetica 53.333 F
GS
[1 0 0 1 0 0] CT
-30 54 moveto 
1 -1 scale
(84) t 
GR
GR
GS
[0.375 0 0 0.375 1294.5 671.875] CT
0.149 GC
/Helvetica 53.333 F
GS
[1 0 0 1 0 0] CT
-44.5 54 moveto 
1 -1 scale
(120) t 
GR
GR
GS
[0.375 0 0 0.375 0 0.25] CT
0.149 GC
2 setlinecap
1 LJ
1.333 LW
N
496 1775 M
496 150 L
S
GR
GS
[0.375 0 0 0.375 0 0.25] CT
0.149 GC
2 setlinecap
1 LJ
1.333 LW
N
3452 1775 M
3452 150 L
S
GR
GS
[0.375 0 0 0.375 0 0.25] CT
0.149 GC
2 setlinecap
1 LJ
1.333 LW
N
496 1775 M
525.56 1775 L
S
GR
GS
[0.375 0 0 0.375 0 0.25] CT
0.149 GC
2 setlinecap
1 LJ
1.333 LW
N
496 1233.333 M
525.56 1233.333 L
S
GR
GS
[0.375 0 0 0.375 0 0.25] CT
0.149 GC
2 setlinecap
1 LJ
1.333 LW
N
496 691.667 M
525.56 691.667 L
S
GR
GS
[0.375 0 0 0.375 0 0.25] CT
0.149 GC
2 setlinecap
1 LJ
1.333 LW
N
496 150 M
525.56 150 L
S
GR
GS
[0.375 0 0 0.375 0 0.25] CT
0.149 GC
2 setlinecap
1 LJ
1.333 LW
N
3452 1775 M
3422.44 1775 L
S
GR
GS
[0.375 0 0 0.375 0 0.25] CT
0.149 GC
2 setlinecap
1 LJ
1.333 LW
N
3452 1233.333 M
3422.44 1233.333 L
S
GR
GS
[0.375 0 0 0.375 0 0.25] CT
0.149 GC
2 setlinecap
1 LJ
1.333 LW
N
3452 691.667 M
3422.44 691.667 L
S
GR
GS
[0.375 0 0 0.375 0 0.25] CT
0.149 GC
2 setlinecap
1 LJ
1.333 LW
N
3452 150 M
3422.44 150 L
S
GR
GS
[0.375 0 0 0.375 180 665.875] CT
0.149 GC
/Helvetica 53.333 F
GS
[1 0 0 1 0 0] CT
-30 21 moveto 
1 -1 scale
(0) t 
GR
GR
GS
[0.375 0 0 0.375 180 462.75002] CT
0.149 GC
/Helvetica 53.333 F
GS
[1 0 0 1 0 0] CT
-30 21 moveto 
1 -1 scale
(5) t 
GR
GR
GS
[0.375 0 0 0.375 180 259.62501] CT
0.149 GC
/Helvetica 53.333 F
GS
[1 0 0 1 0 0] CT
-60 21 moveto 
1 -1 scale
(10) t 
GR
GR
GS
[0.375 0 0 0.375 180 56.5] CT
0.149 GC
/Helvetica 53.333 F
GS
[1 0 0 1 0 0] CT
-60 21 moveto 
1 -1 scale
(15) t 
GR
GR
GS
[0 -0.375 0.375 0 154.5 361.1872] CT
0.149 GC
/Helvetica 58.667 F
GS
[1 0 0 1 0 0] CT
-42.5 -13 moveto 
1 -1 scale
(Pct) t 
GR
GR
GS
[0.375 0 0 0.375 0 0.25] CT
0 0.447 0.741 RC
1 LJ
5.333 LW
N
569.9 1274.071 M
791.6 1270.167 L
1087.2 1231.167 L
1974 1145.583 L
2565.2 1125 L
3452 1108.75 L
S
GR
GS
[0.375 0 0 0.375 213.71251 478.02655] CT
0 0.447 0.741 RC
N
0 -5.333 M
2.946 -5.333 5.333 -2.946 5.333 0 C
5.333 0 L
5.333 2.946 2.946 5.333 0 5.333 C
-2.946 5.333 -5.333 2.946 -5.333 0 C
-5.333 -2.946 -2.946 -5.333 0 -5.333 C
cp
0 -10.667 M
-5.891 -10.667 -10.667 -5.891 -10.667 0 C
-10.667 5.891 -5.891 10.667 0 10.667 C
5.891 10.667 10.667 5.891 10.667 0 C
10.667 0 L
10.667 -5.891 5.891 -10.667 0 -10.667 C
cp
f
GR
GS
[0.375 0 0 0.375 296.84999 476.56248] CT
0 0.447 0.741 RC
N
/f-685726124{0 -5.333 M
2.946 -5.333 5.333 -2.946 5.333 0 C
5.333 0 L
5.333 2.946 2.946 5.333 0 5.333 C
-2.946 5.333 -5.333 2.946 -5.333 0 C
-5.333 -2.946 -2.946 -5.333 0 -5.333 C
cp
0 -10.667 M
-5.891 -10.667 -10.667 -5.891 -10.667 0 C
-10.667 5.891 -5.891 10.667 0 10.667 C
5.891 10.667 10.667 5.891 10.667 0 C
10.667 0 L
10.667 -5.891 5.891 -10.667 0 -10.667 C
cp}def
f-685726124
f
GR
GS
[0.375 0 0 0.375 407.69998 461.93748] CT
0 0.447 0.741 RC
N
f-685726124
f
GR
GS
[0.375 0 0 0.375 740.25 429.84377] CT
0 0.447 0.741 RC
N
f-685726124
f
GR
GS
[0.375 0 0 0.375 961.94998 422.125] CT
0 0.447 0.741 RC
N
f-685726124
f
GR
GS
[0.375 0 0 0.375 1294.5 416.03125] CT
0 0.447 0.741 RC
N
f-685726124
f
GR
GS
[0.375 0 0 0.375 0 0.25] CT
0.851 0.325 0.098 RC
1 LJ
5.333 LW
N
569.9 255.749 M
791.6 348.25 L
1087.2 439.25 L
1974 530.25 L
2565.2 594.167 L
3452 685.167 L
S
GR
GS
[0.375 0 0 0.375 213.71251 96.15569] CT
0.851 0.325 0.098 RC
N
f-685726124
f
GR
GS
[0.375 0 0 0.375 296.84999 130.84375] CT
0.851 0.325 0.098 RC
N
f-685726124
f
GR
GS
[0.375 0 0 0.375 407.69998 164.96875] CT
0.851 0.325 0.098 RC
N
f-685726124
f
GR
GS
[0.375 0 0 0.375 740.25 199.09375] CT
0.851 0.325 0.098 RC
N
f-685726124
f
GR
GS
[0.375 0 0 0.375 961.94998 223.06251] CT
0.851 0.325 0.098 RC
N
f-685726124
f
GR
GS
[0.375 0 0 0.375 1294.5 257.18748] CT
0.851 0.325 0.098 RC
N
f-685726124
f
GR
GS
[0.375 0 0 0.375 0 0.25] CT
0.929 0.694 0.125 RC
1 LJ
5.333 LW
N
569.9 1357.196 M
791.6 1196.5 L
1087.2 1083.833 L
1974 906.167 L
2565.2 856.333 L
3452 831.417 L
S
GR
GS
[0.375 0 0 0.375 213.71251 509.19856] CT
0.929 0.694 0.125 RC
N
f-685726124
f
GR
GS
[0.375 0 0 0.375 296.84999 448.9375] CT
0.929 0.694 0.125 RC
N
f-685726124
f
GR
GS
[0.375 0 0 0.375 407.69998 406.68752] CT
0.929 0.694 0.125 RC
N
f-685726124
f
GR
GS
[0.375 0 0 0.375 740.25 340.06248] CT
0.929 0.694 0.125 RC
N
f-685726124
f
GR
GS
[0.375 0 0 0.375 961.94998 321.37502] CT
0.929 0.694 0.125 RC
N
f-685726124
f
GR
GS
[0.375 0 0 0.375 1294.5 312.03126] CT
0.929 0.694 0.125 RC
N
f-685726124
f
GR
GS
[0.375 0 0 0.375 0 0.25] CT
1 GC
N
3431 1754 M
3431 1564 L
3051 1564 L
3051 1754 L
cp
f
GR
GS
[0.375 0 0 0.375 1179.375 599.5] CT
/Helvetica 48 F
GS
[1 0 0 1 0 0] CT
0 19 moveto 
1 -1 scale
(30-Jun-1986) t 
GR
GR
GS
[0.375 0 0 0.375 0 0.25] CT
0 0.447 0.741 RC
1 LJ
5.333 LW
N
3059 1598 M
3139 1598 L
S
GR
GS
[0.375 0 0 0.375 1162.125 599.5] CT
0 0.447 0.741 RC
N
f-685726124
f
GR
GS
[0.375 0 0 0.375 1179.375 622.375] CT
/Helvetica 48 F
GS
[1 0 0 1 0 0] CT
0 19 moveto 
1 -1 scale
(31-Aug-1981) t 
GR
GR
GS
[0.375 0 0 0.375 0 0.25] CT
0.851 0.325 0.098 RC
1 LJ
5.333 LW
N
3059 1659 M
3139 1659 L
S
GR
GS
[0.375 0 0 0.375 1162.125 622.375] CT
0.851 0.325 0.098 RC
N
f-685726124
f
GR
GS
[0.375 0 0 0.375 1179.375 645.25] CT
/Helvetica 48 F
GS
[1 0 0 1 0 0] CT
0 19 moveto 
1 -1 scale
(29-Aug-1975) t 
GR
GR
GS
[0.375 0 0 0.375 0 0.25] CT
0.929 0.694 0.125 RC
1 LJ
5.333 LW
N
3059 1720 M
3139 1720 L
S
GR
GS
[0.375 0 0 0.375 1162.125 645.25] CT
0.929 0.694 0.125 RC
N
f-685726124
f
GR
GS
[0.375 0 0 0.375 0 0.25] CT
0.149 GC
10.0 ML
1.333 LW
N
3051 1754 M
3051 1564 L
3431 1564 L
3431 1754 L
cp
S
GR
%%Trailer
%%Pages: 1
%%EOF
