%!PS-Adobe-3.0 EPSF-3.0
%%Creator: (MATLAB, The Mathworks, Inc. Version 9.8.0.1359463 \(R2020a\) Update 1. Operating System: Windows 10)
%%Title: ./P_Q_distribution.eps
%%CreationDate: 2021-03-20T14:12:06
%%Pages: (atend)
%%BoundingBox:    25     5   387   295
%%LanguageLevel: 3
%%EndComments
%%BeginProlog
%%BeginResource: procset (Apache XML Graphics Std ProcSet) 1.2 0
%%Version: 1.2 0
%%Copyright: (Copyright 2001-2003,2010 The Apache Software Foundation. License terms: http://www.apache.org/licenses/LICENSE-2.0)
/bd{bind def}bind def
/ld{load def}bd
/GR/grestore ld
/GS/gsave ld
/RM/rmoveto ld
/C/curveto ld
/t/show ld
/L/lineto ld
/ML/setmiterlimit ld
/CT/concat ld
/f/fill ld
/N/newpath ld
/S/stroke ld
/CC/setcmykcolor ld
/A/ashow ld
/cp/closepath ld
/RC/setrgbcolor ld
/LJ/setlinejoin ld
/GC/setgray ld
/LW/setlinewidth ld
/M/moveto ld
/re {4 2 roll M
1 index 0 rlineto
0 exch rlineto
neg 0 rlineto
cp } bd
/_ctm matrix def
/_tm matrix def
/BT { _ctm currentmatrix pop matrix _tm copy pop 0 0 moveto } bd
/ET { _ctm setmatrix } bd
/iTm { _ctm setmatrix _tm concat } bd
/Tm { _tm astore pop iTm 0 0 moveto } bd
/ux 0.0 def
/uy 0.0 def
/F {
  /Tp exch def
  /Tf exch def
  Tf findfont Tp scalefont setfont
  /cf Tf def  /cs Tp def
} bd
/ULS {currentpoint /uy exch def /ux exch def} bd
/ULE {
  /Tcx currentpoint pop def
  gsave
  newpath
  cf findfont cs scalefont dup
  /FontMatrix get 0 get /Ts exch def /FontInfo get dup
  /UnderlinePosition get Ts mul /To exch def
  /UnderlineThickness get Ts mul /Tt exch def
  ux uy To add moveto  Tcx uy To add lineto
  Tt setlinewidth stroke
  grestore
} bd
/OLE {
  /Tcx currentpoint pop def
  gsave
  newpath
  cf findfont cs scalefont dup
  /FontMatrix get 0 get /Ts exch def /FontInfo get dup
  /UnderlinePosition get Ts mul /To exch def
  /UnderlineThickness get Ts mul /Tt exch def
  ux uy To add cs add moveto Tcx uy To add cs add lineto
  Tt setlinewidth stroke
  grestore
} bd
/SOE {
  /Tcx currentpoint pop def
  gsave
  newpath
  cf findfont cs scalefont dup
  /FontMatrix get 0 get /Ts exch def /FontInfo get dup
  /UnderlinePosition get Ts mul /To exch def
  /UnderlineThickness get Ts mul /Tt exch def
  ux uy To add cs 10 mul 26 idiv add moveto Tcx uy To add cs 10 mul 26 idiv add lineto
  Tt setlinewidth stroke
  grestore
} bd
/QT {
/Y22 exch store
/X22 exch store
/Y21 exch store
/X21 exch store
currentpoint
/Y21 load 2 mul add 3 div exch
/X21 load 2 mul add 3 div exch
/X21 load 2 mul /X22 load add 3 div
/Y21 load 2 mul /Y22 load add 3 div
/X22 load /Y22 load curveto
} bd
/SSPD {
dup length /d exch dict def
{
/v exch def
/k exch def
currentpagedevice k known {
/cpdv currentpagedevice k get def
v cpdv ne {
/upd false def
/nullv v type /nulltype eq def
/nullcpdv cpdv type /nulltype eq def
nullv nullcpdv or
{
/upd true def
} {
/sametype v type cpdv type eq def
sametype {
v type /arraytype eq {
/vlen v length def
/cpdvlen cpdv length def
vlen cpdvlen eq {
0 1 vlen 1 sub {
/i exch def
/obj v i get def
/cpdobj cpdv i get def
obj cpdobj ne {
/upd true def
exit
} if
} for
} {
/upd true def
} ifelse
} {
v type /dicttype eq {
v {
/dv exch def
/dk exch def
/cpddv cpdv dk get def
dv cpddv ne {
/upd true def
exit
} if
} forall
} {
/upd true def
} ifelse
} ifelse
} if
} ifelse
upd true eq {
d k v put
} if
} if
} if
} forall
d length 0 gt {
d setpagedevice
} if
} bd
/RE { % /NewFontName [NewEncodingArray] /FontName RE -
  findfont dup length dict begin
  {
    1 index /FID ne
    {def} {pop pop} ifelse
  } forall
  /Encoding exch def
  /FontName 1 index def
  currentdict definefont pop
  end
} bind def
%%EndResource
%%BeginResource: procset (Apache XML Graphics EPS ProcSet) 1.0 0
%%Version: 1.0 0
%%Copyright: (Copyright 2002-2003 The Apache Software Foundation. License terms: http://www.apache.org/licenses/LICENSE-2.0)
/BeginEPSF { %def
/b4_Inc_state save def         % Save state for cleanup
/dict_count countdictstack def % Count objects on dict stack
/op_count count 1 sub def      % Count objects on operand stack
userdict begin                 % Push userdict on dict stack
/showpage { } def              % Redefine showpage, { } = null proc
0 setgray 0 setlinecap         % Prepare graphics state
1 setlinewidth 0 setlinejoin
10 setmiterlimit [ ] 0 setdash newpath
/languagelevel where           % If level not equal to 1 then
{pop languagelevel             % set strokeadjust and
1 ne                           % overprint to their defaults.
{false setstrokeadjust false setoverprint
} if
} if
} bd
/EndEPSF { %def
count op_count sub {pop} repeat            % Clean up stacks
countdictstack dict_count sub {end} repeat
b4_Inc_state restore
} bd
%%EndResource
%FOPBeginFontDict
%%IncludeResource: font Courier-Oblique
%%IncludeResource: font Courier-BoldOblique
%%IncludeResource: font Courier-Bold
%%IncludeResource: font ZapfDingbats
%%IncludeResource: font Symbol
%%IncludeResource: font Helvetica
%%IncludeResource: font Helvetica-Oblique
%%IncludeResource: font Helvetica-Bold
%%IncludeResource: font Helvetica-BoldOblique
%%IncludeResource: font Times-Roman
%%IncludeResource: font Times-Italic
%%IncludeResource: font Times-Bold
%%IncludeResource: font Times-BoldItalic
%%IncludeResource: font Courier
%FOPEndFontDict
%%BeginResource: encoding WinAnsiEncoding
/WinAnsiEncoding [
/.notdef /.notdef /.notdef /.notdef /.notdef
/.notdef /.notdef /.notdef /.notdef /.notdef
/.notdef /.notdef /.notdef /.notdef /.notdef
/.notdef /.notdef /.notdef /.notdef /.notdef
/.notdef /.notdef /.notdef /.notdef /.notdef
/.notdef /.notdef /.notdef /.notdef /.notdef
/.notdef /.notdef /space /exclam /quotedbl
/numbersign /dollar /percent /ampersand /quotesingle
/parenleft /parenright /asterisk /plus /comma
/hyphen /period /slash /zero /one
/two /three /four /five /six
/seven /eight /nine /colon /semicolon
/less /equal /greater /question /at
/A /B /C /D /E
/F /G /H /I /J
/K /L /M /N /O
/P /Q /R /S /T
/U /V /W /X /Y
/Z /bracketleft /backslash /bracketright /asciicircum
/underscore /quoteleft /a /b /c
/d /e /f /g /h
/i /j /k /l /m
/n /o /p /q /r
/s /t /u /v /w
/x /y /z /braceleft /bar
/braceright /asciitilde /bullet /Euro /bullet
/quotesinglbase /florin /quotedblbase /ellipsis /dagger
/daggerdbl /circumflex /perthousand /Scaron /guilsinglleft
/OE /bullet /Zcaron /bullet /bullet
/quoteleft /quoteright /quotedblleft /quotedblright /bullet
/endash /emdash /asciitilde /trademark /scaron
/guilsinglright /oe /bullet /zcaron /Ydieresis
/space /exclamdown /cent /sterling /currency
/yen /brokenbar /section /dieresis /copyright
/ordfeminine /guillemotleft /logicalnot /sfthyphen /registered
/macron /degree /plusminus /twosuperior /threesuperior
/acute /mu /paragraph /middot /cedilla
/onesuperior /ordmasculine /guillemotright /onequarter /onehalf
/threequarters /questiondown /Agrave /Aacute /Acircumflex
/Atilde /Adieresis /Aring /AE /Ccedilla
/Egrave /Eacute /Ecircumflex /Edieresis /Igrave
/Iacute /Icircumflex /Idieresis /Eth /Ntilde
/Ograve /Oacute /Ocircumflex /Otilde /Odieresis
/multiply /Oslash /Ugrave /Uacute /Ucircumflex
/Udieresis /Yacute /Thorn /germandbls /agrave
/aacute /acircumflex /atilde /adieresis /aring
/ae /ccedilla /egrave /eacute /ecircumflex
/edieresis /igrave /iacute /icircumflex /idieresis
/eth /ntilde /ograve /oacute /ocircumflex
/otilde /odieresis /divide /oslash /ugrave
/uacute /ucircumflex /udieresis /yacute /thorn
/ydieresis
] def
%%EndResource
%FOPBeginFontReencode
/Courier-Oblique findfont
dup length dict begin
  {1 index /FID ne {def} {pop pop} ifelse} forall
  /Encoding WinAnsiEncoding def
  currentdict
end
/Courier-Oblique exch definefont pop
/Courier-BoldOblique findfont
dup length dict begin
  {1 index /FID ne {def} {pop pop} ifelse} forall
  /Encoding WinAnsiEncoding def
  currentdict
end
/Courier-BoldOblique exch definefont pop
/Courier-Bold findfont
dup length dict begin
  {1 index /FID ne {def} {pop pop} ifelse} forall
  /Encoding WinAnsiEncoding def
  currentdict
end
/Courier-Bold exch definefont pop
/Helvetica findfont
dup length dict begin
  {1 index /FID ne {def} {pop pop} ifelse} forall
  /Encoding WinAnsiEncoding def
  currentdict
end
/Helvetica exch definefont pop
/Helvetica-Oblique findfont
dup length dict begin
  {1 index /FID ne {def} {pop pop} ifelse} forall
  /Encoding WinAnsiEncoding def
  currentdict
end
/Helvetica-Oblique exch definefont pop
/Helvetica-Bold findfont
dup length dict begin
  {1 index /FID ne {def} {pop pop} ifelse} forall
  /Encoding WinAnsiEncoding def
  currentdict
end
/Helvetica-Bold exch definefont pop
/Helvetica-BoldOblique findfont
dup length dict begin
  {1 index /FID ne {def} {pop pop} ifelse} forall
  /Encoding WinAnsiEncoding def
  currentdict
end
/Helvetica-BoldOblique exch definefont pop
/Times-Roman findfont
dup length dict begin
  {1 index /FID ne {def} {pop pop} ifelse} forall
  /Encoding WinAnsiEncoding def
  currentdict
end
/Times-Roman exch definefont pop
/Times-Italic findfont
dup length dict begin
  {1 index /FID ne {def} {pop pop} ifelse} forall
  /Encoding WinAnsiEncoding def
  currentdict
end
/Times-Italic exch definefont pop
/Times-Bold findfont
dup length dict begin
  {1 index /FID ne {def} {pop pop} ifelse} forall
  /Encoding WinAnsiEncoding def
  currentdict
end
/Times-Bold exch definefont pop
/Times-BoldItalic findfont
dup length dict begin
  {1 index /FID ne {def} {pop pop} ifelse} forall
  /Encoding WinAnsiEncoding def
  currentdict
end
/Times-BoldItalic exch definefont pop
/Courier findfont
dup length dict begin
  {1 index /FID ne {def} {pop pop} ifelse} forall
  /Encoding WinAnsiEncoding def
  currentdict
end
/Courier exch definefont pop
%FOPEndFontReencode
%%EndProlog
%%Page: 1 1
%%PageBoundingBox: 0 0 420 315
%%BeginPageSetup
[1 0 0 -1 0 315] CT
%%EndPageSetup
GS
[0.375 0 0 0.375 0 0] CT
1 GC
N
0 0 1120 840 re
f
GR
GS
[0.375 0 0 0.375 0 0] CT
1 GC
N
0 0 1120 840 re
f
GR
GS
[0.375 0 0 0.375 0 0] CT
1 GC
N
146 748 M
1014 748 L
1014 63 L
146 63 L
cp
f
GR
GS
[0.375 0 0 0.375 0 0] CT
0.149 GC
2 setlinecap
1 LJ
1.333 LW
N
146 748 M
1014 748 L
S
GR
GS
[0.375 0 0 0.375 0 0] CT
0.149 GC
2 setlinecap
1 LJ
1.333 LW
N
146 63 M
1014 63 L
S
GR
GS
[0.375 0 0 0.375 0 0] CT
0.149 GC
2 setlinecap
1 LJ
1.333 LW
N
146 748 M
146 739.32 L
S
GR
GS
[0.375 0 0 0.375 0 0] CT
0.149 GC
2 setlinecap
1 LJ
1.333 LW
N
242.444 748 M
242.444 739.32 L
S
GR
GS
[0.375 0 0 0.375 0 0] CT
0.149 GC
2 setlinecap
1 LJ
1.333 LW
N
338.889 748 M
338.889 739.32 L
S
GR
GS
[0.375 0 0 0.375 0 0] CT
0.149 GC
2 setlinecap
1 LJ
1.333 LW
N
435.333 748 M
435.333 739.32 L
S
GR
GS
[0.375 0 0 0.375 0 0] CT
0.149 GC
2 setlinecap
1 LJ
1.333 LW
N
531.778 748 M
531.778 739.32 L
S
GR
GS
[0.375 0 0 0.375 0 0] CT
0.149 GC
2 setlinecap
1 LJ
1.333 LW
N
628.222 748 M
628.222 739.32 L
S
GR
GS
[0.375 0 0 0.375 0 0] CT
0.149 GC
2 setlinecap
1 LJ
1.333 LW
N
724.667 748 M
724.667 739.32 L
S
GR
GS
[0.375 0 0 0.375 0 0] CT
0.149 GC
2 setlinecap
1 LJ
1.333 LW
N
821.111 748 M
821.111 739.32 L
S
GR
GS
[0.375 0 0 0.375 0 0] CT
0.149 GC
2 setlinecap
1 LJ
1.333 LW
N
917.556 748 M
917.556 739.32 L
S
GR
GS
[0.375 0 0 0.375 0 0] CT
0.149 GC
2 setlinecap
1 LJ
1.333 LW
N
1014 748 M
1014 739.32 L
S
GR
GS
[0.375 0 0 0.375 0 0] CT
0.149 GC
2 setlinecap
1 LJ
1.333 LW
N
146 63 M
146 71.68 L
S
GR
GS
[0.375 0 0 0.375 0 0] CT
0.149 GC
2 setlinecap
1 LJ
1.333 LW
N
242.444 63 M
242.444 71.68 L
S
GR
GS
[0.375 0 0 0.375 0 0] CT
0.149 GC
2 setlinecap
1 LJ
1.333 LW
N
338.889 63 M
338.889 71.68 L
S
GR
GS
[0.375 0 0 0.375 0 0] CT
0.149 GC
2 setlinecap
1 LJ
1.333 LW
N
435.333 63 M
435.333 71.68 L
S
GR
GS
[0.375 0 0 0.375 0 0] CT
0.149 GC
2 setlinecap
1 LJ
1.333 LW
N
531.778 63 M
531.778 71.68 L
S
GR
GS
[0.375 0 0 0.375 0 0] CT
0.149 GC
2 setlinecap
1 LJ
1.333 LW
N
628.222 63 M
628.222 71.68 L
S
GR
GS
[0.375 0 0 0.375 0 0] CT
0.149 GC
2 setlinecap
1 LJ
1.333 LW
N
724.667 63 M
724.667 71.68 L
S
GR
GS
[0.375 0 0 0.375 0 0] CT
0.149 GC
2 setlinecap
1 LJ
1.333 LW
N
821.111 63 M
821.111 71.68 L
S
GR
GS
[0.375 0 0 0.375 0 0] CT
0.149 GC
2 setlinecap
1 LJ
1.333 LW
N
917.556 63 M
917.556 71.68 L
S
GR
GS
[0.375 0 0 0.375 0 0] CT
0.149 GC
2 setlinecap
1 LJ
1.333 LW
N
1014 63 M
1014 71.68 L
S
GR
GS
[0.375 0 0 0.375 54.75 284.50001] CT
0.149 GC
/Helvetica 26.667 F
GS
[1 0 0 1 0 0] CT
-7.5 27 moveto 
1 -1 scale
(3) t 
GR
GR
GS
[0.375 0 0 0.375 90.91667 284.50001] CT
0.149 GC
/Helvetica 26.667 F
GS
[1 0 0 1 0 0] CT
-19 27 moveto 
1 -1 scale
(3.5) t 
GR
GR
GS
[0.375 0 0 0.375 127.08333 284.50001] CT
0.149 GC
/Helvetica 26.667 F
GS
[1 0 0 1 0 0] CT
-7.5 27 moveto 
1 -1 scale
(4) t 
GR
GR
GS
[0.375 0 0 0.375 163.25 284.50001] CT
0.149 GC
/Helvetica 26.667 F
GS
[1 0 0 1 0 0] CT
-19 27 moveto 
1 -1 scale
(4.5) t 
GR
GR
GS
[0.375 0 0 0.375 199.41666 284.50001] CT
0.149 GC
/Helvetica 26.667 F
GS
[1 0 0 1 0 0] CT
-7.5 27 moveto 
1 -1 scale
(5) t 
GR
GR
GS
[0.375 0 0 0.375 235.58334 284.50001] CT
0.149 GC
/Helvetica 26.667 F
GS
[1 0 0 1 0 0] CT
-19 27 moveto 
1 -1 scale
(5.5) t 
GR
GR
GS
[0.375 0 0 0.375 271.75001 284.50001] CT
0.149 GC
/Helvetica 26.667 F
GS
[1 0 0 1 0 0] CT
-7.5 27 moveto 
1 -1 scale
(6) t 
GR
GR
GS
[0.375 0 0 0.375 307.91666 284.50001] CT
0.149 GC
/Helvetica 26.667 F
GS
[1 0 0 1 0 0] CT
-19 27 moveto 
1 -1 scale
(6.5) t 
GR
GR
GS
[0.375 0 0 0.375 344.08333 284.50001] CT
0.149 GC
/Helvetica 26.667 F
GS
[1 0 0 1 0 0] CT
-7.5 27 moveto 
1 -1 scale
(7) t 
GR
GR
GS
[0.375 0 0 0.375 380.25 284.50001] CT
0.149 GC
/Helvetica 26.667 F
GS
[1 0 0 1 0 0] CT
-19 27 moveto 
1 -1 scale
(7.5) t 
GR
GR
GS
[0.375 0 0 0.375 217.50014 297.87499] CT
0.149 GC
/Helvetica 29.333 F
GS
[1 0 0 1 0 0] CT
-64.5 30 moveto 
1 -1 scale
(Short rate) t 
GR
GR
GS
[0.375 0 0 0.375 0 0] CT
0.149 GC
2 setlinecap
1 LJ
1.333 LW
N
146 748 M
146 63 L
S
GR
GS
[0.375 0 0 0.375 0 0] CT
0.149 GC
2 setlinecap
1 LJ
1.333 LW
N
1014 748 M
1014 63 L
S
GR
GS
[0.375 0 0 0.375 0 0] CT
0.149 GC
2 setlinecap
1 LJ
1.333 LW
N
146 748 M
154.68 748 L
S
GR
GS
[0.375 0 0 0.375 0 0] CT
0.149 GC
2 setlinecap
1 LJ
1.333 LW
N
146 650.143 M
154.68 650.143 L
S
GR
GS
[0.375 0 0 0.375 0 0] CT
0.149 GC
2 setlinecap
1 LJ
1.333 LW
N
146 552.286 M
154.68 552.286 L
S
GR
GS
[0.375 0 0 0.375 0 0] CT
0.149 GC
2 setlinecap
1 LJ
1.333 LW
N
146 454.429 M
154.68 454.429 L
S
GR
GS
[0.375 0 0 0.375 0 0] CT
0.149 GC
2 setlinecap
1 LJ
1.333 LW
N
146 356.571 M
154.68 356.571 L
S
GR
GS
[0.375 0 0 0.375 0 0] CT
0.149 GC
2 setlinecap
1 LJ
1.333 LW
N
146 258.714 M
154.68 258.714 L
S
GR
GS
[0.375 0 0 0.375 0 0] CT
0.149 GC
2 setlinecap
1 LJ
1.333 LW
N
146 160.857 M
154.68 160.857 L
S
GR
GS
[0.375 0 0 0.375 0 0] CT
0.149 GC
2 setlinecap
1 LJ
1.333 LW
N
146 63 M
154.68 63 L
S
GR
GS
[0.375 0 0 0.375 0 0] CT
0.149 GC
2 setlinecap
1 LJ
1.333 LW
N
1014 748 M
1005.32 748 L
S
GR
GS
[0.375 0 0 0.375 0 0] CT
0.149 GC
2 setlinecap
1 LJ
1.333 LW
N
1014 650.143 M
1005.32 650.143 L
S
GR
GS
[0.375 0 0 0.375 0 0] CT
0.149 GC
2 setlinecap
1 LJ
1.333 LW
N
1014 552.286 M
1005.32 552.286 L
S
GR
GS
[0.375 0 0 0.375 0 0] CT
0.149 GC
2 setlinecap
1 LJ
1.333 LW
N
1014 454.429 M
1005.32 454.429 L
S
GR
GS
[0.375 0 0 0.375 0 0] CT
0.149 GC
2 setlinecap
1 LJ
1.333 LW
N
1014 356.571 M
1005.32 356.571 L
S
GR
GS
[0.375 0 0 0.375 0 0] CT
0.149 GC
2 setlinecap
1 LJ
1.333 LW
N
1014 258.714 M
1005.32 258.714 L
S
GR
GS
[0.375 0 0 0.375 0 0] CT
0.149 GC
2 setlinecap
1 LJ
1.333 LW
N
1014 160.857 M
1005.32 160.857 L
S
GR
GS
[0.375 0 0 0.375 0 0] CT
0.149 GC
2 setlinecap
1 LJ
1.333 LW
N
1014 63 M
1005.32 63 L
S
GR
GS
[0.375 0 0 0.375 50.75 280.5] CT
0.149 GC
/Helvetica 26.667 F
GS
[1 0 0 1 0 0] CT
-15 10.5 moveto 
1 -1 scale
(0) t 
GR
GR
GS
[0.375 0 0 0.375 50.75 243.80358] CT
0.149 GC
/Helvetica 26.667 F
GS
[1 0 0 1 0 0] CT
-30 10.5 moveto 
1 -1 scale
(10) t 
GR
GR
GS
[0.375 0 0 0.375 50.75 207.10714] CT
0.149 GC
/Helvetica 26.667 F
GS
[1 0 0 1 0 0] CT
-30 10.5 moveto 
1 -1 scale
(20) t 
GR
GR
GS
[0.375 0 0 0.375 50.75 170.41071] CT
0.149 GC
/Helvetica 26.667 F
GS
[1 0 0 1 0 0] CT
-30 10.5 moveto 
1 -1 scale
(30) t 
GR
GR
GS
[0.375 0 0 0.375 50.75 133.71429] CT
0.149 GC
/Helvetica 26.667 F
GS
[1 0 0 1 0 0] CT
-30 10.5 moveto 
1 -1 scale
(40) t 
GR
GR
GS
[0.375 0 0 0.375 50.75 97.01786] CT
0.149 GC
/Helvetica 26.667 F
GS
[1 0 0 1 0 0] CT
-30 10.5 moveto 
1 -1 scale
(50) t 
GR
GR
GS
[0.375 0 0 0.375 50.75 60.32143] CT
0.149 GC
/Helvetica 26.667 F
GS
[1 0 0 1 0 0] CT
-30 10.5 moveto 
1 -1 scale
(60) t 
GR
GR
GS
[0.375 0 0 0.375 50.75 23.625] CT
0.149 GC
/Helvetica 26.667 F
GS
[1 0 0 1 0 0] CT
-30 10.5 moveto 
1 -1 scale
(70) t 
GR
GR
GS
[0 -0.375 0.375 0 36.5 152.06237] CT
0.149 GC
/Helvetica 29.333 F
GS
[1 0 0 1 0 0] CT
-20.5 -7 moveto 
1 -1 scale
(pdf) t 
GR
GR
GS
[0.375 0 0 0.375 0 0] CT
[10 6] 0 setdash
2 LJ
1.333 LW
N
146 743.137 M
147.929 742.871 L
149.858 742.593 L
151.787 742.301 L
153.716 741.996 L
155.644 741.675 L
157.573 741.34 L
159.502 740.989 L
161.431 740.621 L
163.36 740.236 L
165.289 739.834 L
167.218 739.413 L
169.147 738.974 L
171.076 738.514 L
173.004 738.034 L
174.933 737.533 L
176.862 737.009 L
178.791 736.463 L
180.72 735.893 L
182.649 735.299 L
184.578 734.679 L
186.507 734.033 L
188.436 733.36 L
190.364 732.659 L
192.293 731.929 L
194.222 731.169 L
196.151 730.378 L
198.08 729.556 L
200.009 728.7 L
201.938 727.811 L
203.867 726.887 L
205.796 725.927 L
207.724 724.93 L
209.653 723.895 L
211.582 722.821 L
213.511 721.707 L
215.44 720.551 L
217.369 719.352 L
219.298 718.11 L
221.227 716.823 L
223.156 715.49 L
225.084 714.11 L
227.013 712.682 L
228.942 711.203 L
230.871 709.674 L
232.8 708.093 L
234.729 706.459 L
236.658 704.77 L
238.587 703.026 L
240.516 701.225 L
242.444 699.366 L
244.373 697.447 L
246.302 695.468 L
248.231 693.427 L
250.16 691.323 L
252.089 689.155 L
254.018 686.922 L
255.947 684.622 L
257.876 682.255 L
259.804 679.819 L
261.733 677.313 L
263.662 674.736 L
265.591 672.087 L
267.52 669.365 L
269.449 666.569 L
271.378 663.698 L
273.307 660.751 L
275.236 657.727 L
277.164 654.624 L
279.093 651.444 L
281.022 648.183 L
282.951 644.843 L
284.88 641.421 L
286.809 637.918 L
288.738 634.332 L
290.667 630.664 L
292.596 626.911 L
294.524 623.076 L
296.453 619.155 L
298.382 615.15 L
300.311 611.06 L
302.24 606.885 L
304.169 602.625 L
306.098 598.279 L
308.027 593.848 L
309.956 589.331 L
311.884 584.729 L
313.813 580.042 L
315.742 575.271 L
317.671 570.415 L
319.6 565.475 L
321.529 560.453 L
323.458 555.347 L
325.387 550.16 L
327.316 544.891 L
329.244 539.543 L
331.173 534.115 L
333.102 528.61 L
335.031 523.027 L
336.96 517.37 L
338.889 511.638 L
340.818 505.833 L
342.747 499.958 L
344.676 494.013 L
346.604 488.001 L
348.533 481.924 L
350.462 475.783 L
352.391 469.58 L
354.32 463.319 L
356.249 457.001 L
358.178 450.628 L
360.107 444.203 L
362.036 437.73 L
363.964 431.209 L
365.893 424.645 L
367.822 418.041 L
369.751 411.398 L
371.68 404.721 L
373.609 398.013 L
375.538 391.276 L
377.467 384.515 L
379.396 377.732 L
381.324 370.932 L
383.253 364.117 L
385.182 357.292 L
387.111 350.461 L
389.04 343.627 L
390.969 336.794 L
392.898 329.966 L
394.827 323.148 L
396.756 316.343 L
398.684 309.556 L
400.613 302.79 L
402.542 296.05 L
404.471 289.341 L
406.4 282.667 L
408.329 276.031 L
410.258 269.44 L
412.187 262.896 L
414.116 256.404 L
416.044 249.97 L
417.973 243.597 L
419.902 237.29 L
421.831 231.053 L
423.76 224.891 L
425.689 218.808 L
427.618 212.809 L
429.547 206.898 L
431.476 201.08 L
433.404 195.359 L
435.333 189.739 L
437.262 184.225 L
439.191 178.82 L
441.12 173.53 L
443.049 168.357 L
444.978 163.307 L
446.907 158.384 L
448.836 153.59 L
450.764 148.93 L
452.693 144.408 L
454.622 140.027 L
456.551 135.791 L
458.48 131.704 L
460.409 127.769 L
462.338 123.988 L
464.267 120.365 L
466.196 116.904 L
468.124 113.607 L
470.053 110.476 L
471.982 107.515 L
473.911 104.726 L
475.84 102.111 L
477.769 99.673 L
479.698 97.413 L
481.627 95.334 L
483.556 93.437 L
485.484 91.725 L
487.413 90.197 L
489.342 88.856 L
491.271 87.703 L
493.2 86.739 L
495.129 85.965 L
497.058 85.381 L
498.987 84.988 L
500.916 84.786 L
502.844 84.776 L
504.773 84.957 L
506.702 85.329 L
508.631 85.892 L
510.56 86.646 L
512.489 87.589 L
514.418 88.721 L
516.347 90.041 L
518.276 91.549 L
520.204 93.241 L
522.133 95.118 L
524.062 97.177 L
525.991 99.417 L
527.92 101.836 L
529.849 104.432 L
531.778 107.202 L
533.707 110.144 L
535.636 113.257 L
537.565 116.536 L
539.493 119.979 L
541.422 123.584 L
543.351 127.348 L
545.28 131.267 L
547.209 135.338 L
549.138 139.557 L
551.067 143.922 L
552.996 148.429 L
554.924 153.074 L
556.853 157.853 L
558.782 162.763 L
560.711 167.8 L
562.64 172.959 L
564.569 178.236 L
566.498 183.629 L
568.427 189.131 L
570.356 194.74 L
572.284 200.45 L
574.213 206.258 L
576.142 212.159 L
578.071 218.148 L
580 224.222 L
581.929 230.376 L
583.858 236.605 L
585.787 242.904 L
587.716 249.27 L
589.644 255.698 L
591.573 262.184 L
593.502 268.722 L
595.431 275.309 L
597.36 281.94 L
599.289 288.61 L
601.218 295.316 L
603.147 302.052 L
605.076 308.815 L
607.004 315.6 L
608.933 322.404 L
610.862 329.221 L
612.791 336.048 L
614.72 342.88 L
616.649 349.714 L
618.578 356.546 L
620.507 363.372 L
622.435 370.188 L
624.364 376.99 L
626.293 383.774 L
628.222 390.538 L
630.151 397.278 L
632.08 403.99 L
634.009 410.67 L
635.938 417.317 L
637.867 423.926 L
639.796 430.494 L
641.724 437.019 L
643.653 443.498 L
645.582 449.928 L
647.511 456.307 L
649.44 462.631 L
651.369 468.899 L
653.298 475.108 L
655.227 481.256 L
657.156 487.34 L
659.084 493.36 L
661.013 499.312 L
662.942 505.195 L
664.871 511.007 L
666.8 516.747 L
668.729 522.413 L
670.658 528.003 L
672.587 533.517 L
674.516 538.954 L
676.444 544.311 L
678.373 549.588 L
680.302 554.784 L
682.231 559.899 L
684.16 564.931 L
686.089 569.879 L
688.018 574.744 L
689.947 579.525 L
691.876 584.221 L
693.804 588.832 L
695.733 593.358 L
697.662 597.799 L
699.591 602.154 L
701.52 606.424 L
703.449 610.608 L
705.378 614.707 L
707.307 618.722 L
709.236 622.651 L
711.164 626.496 L
713.093 630.258 L
715.022 633.935 L
716.951 637.53 L
718.88 641.042 L
720.809 644.473 L
722.738 647.822 L
724.667 651.091 L
726.596 654.281 L
728.524 657.391 L
730.453 660.424 L
732.382 663.38 L
734.311 666.259 L
736.24 669.063 L
738.169 671.793 L
740.098 674.45 L
742.027 677.035 L
743.956 679.548 L
745.884 681.992 L
747.813 684.367 L
749.742 686.674 L
751.671 688.914 L
753.6 691.089 L
755.529 693.2 L
757.458 695.248 L
759.387 697.234 L
761.316 699.159 L
763.244 701.025 L
765.173 702.832 L
767.102 704.583 L
769.031 706.277 L
770.96 707.917 L
772.889 709.504 L
774.818 711.039 L
776.747 712.522 L
778.676 713.956 L
780.604 715.342 L
782.533 716.68 L
784.462 717.972 L
786.391 719.219 L
788.32 720.422 L
790.249 721.582 L
792.178 722.701 L
794.107 723.78 L
796.036 724.819 L
797.964 725.82 L
799.893 726.784 L
801.822 727.712 L
803.751 728.605 L
805.68 729.464 L
807.609 730.29 L
809.538 731.084 L
811.467 731.847 L
813.396 732.58 L
815.324 733.285 L
817.253 733.961 L
819.182 734.609 L
821.111 735.232 L
823.04 735.829 L
824.969 736.402 L
826.898 736.951 L
828.827 737.476 L
830.756 737.98 L
832.684 738.463 L
834.613 738.924 L
836.542 739.366 L
838.471 739.789 L
840.4 740.193 L
842.329 740.58 L
844.258 740.949 L
846.187 741.302 L
848.116 741.639 L
850.044 741.961 L
851.973 742.269 L
853.902 742.562 L
855.831 742.842 L
857.76 743.108 L
859.689 743.363 L
861.618 743.605 L
863.547 743.836 L
865.476 744.056 L
867.404 744.265 L
869.333 744.464 L
871.262 744.654 L
873.191 744.834 L
875.12 745.006 L
877.049 745.169 L
878.978 745.324 L
880.907 745.471 L
882.836 745.61 L
884.764 745.743 L
886.693 745.869 L
888.622 745.989 L
890.551 746.102 L
892.48 746.209 L
894.409 746.311 L
896.338 746.408 L
898.267 746.499 L
900.196 746.586 L
902.124 746.668 L
904.053 746.745 L
905.982 746.819 L
907.911 746.888 L
909.84 746.954 L
911.769 747.016 L
913.698 747.075 L
915.627 747.13 L
917.556 747.182 L
S
GR
GS
[0.375 0 0 0.375 0 0] CT
1 0 0 RC
1 LJ
1.333 LW
N
146 746.645 M
147.929 746.562 L
149.858 746.474 L
151.787 746.381 L
153.716 746.283 L
155.644 746.179 L
157.573 746.07 L
159.502 745.955 L
161.431 745.834 L
163.36 745.706 L
165.289 745.571 L
167.218 745.429 L
169.147 745.28 L
171.076 745.123 L
173.004 744.958 L
174.933 744.784 L
176.862 744.601 L
178.791 744.408 L
180.72 744.206 L
182.649 743.994 L
184.578 743.771 L
186.507 743.537 L
188.436 743.291 L
190.364 743.033 L
192.293 742.763 L
194.222 742.479 L
196.151 742.182 L
198.08 741.871 L
200.009 741.545 L
201.938 741.203 L
203.867 740.845 L
205.796 740.471 L
207.724 740.08 L
209.653 739.67 L
211.582 739.242 L
213.511 738.794 L
215.44 738.327 L
217.369 737.838 L
219.298 737.328 L
221.227 736.796 L
223.156 736.241 L
225.084 735.661 L
227.013 735.057 L
228.942 734.427 L
230.871 733.77 L
232.8 733.086 L
234.729 732.374 L
236.658 731.632 L
238.587 730.86 L
240.516 730.057 L
242.444 729.222 L
244.373 728.353 L
246.302 727.451 L
248.231 726.512 L
250.16 725.538 L
252.089 724.526 L
254.018 723.476 L
255.947 722.386 L
257.876 721.255 L
259.804 720.083 L
261.733 718.867 L
263.662 717.607 L
265.591 716.302 L
267.52 714.951 L
269.449 713.552 L
271.378 712.104 L
273.307 710.606 L
275.236 709.056 L
277.164 707.454 L
279.093 705.799 L
281.022 704.088 L
282.951 702.322 L
284.88 700.497 L
286.809 698.615 L
288.738 696.672 L
290.667 694.669 L
292.596 692.603 L
294.524 690.474 L
296.453 688.281 L
298.382 686.021 L
300.311 683.695 L
302.24 681.301 L
304.169 678.837 L
306.098 676.304 L
308.027 673.698 L
309.956 671.021 L
311.884 668.27 L
313.813 665.444 L
315.742 662.543 L
317.671 659.565 L
319.6 656.511 L
321.529 653.378 L
323.458 650.166 L
325.387 646.874 L
327.316 643.501 L
329.244 640.047 L
331.173 636.511 L
333.102 632.893 L
335.031 629.192 L
336.96 625.406 L
338.889 621.537 L
340.818 617.583 L
342.747 613.545 L
344.676 609.421 L
346.604 605.213 L
348.533 600.918 L
350.462 596.539 L
352.391 592.074 L
354.32 587.523 L
356.249 582.888 L
358.178 578.168 L
360.107 573.363 L
362.036 568.474 L
363.964 563.501 L
365.893 558.446 L
367.822 553.308 L
369.751 548.089 L
371.68 542.788 L
373.609 537.409 L
375.538 531.95 L
377.467 526.414 L
379.396 520.802 L
381.324 515.114 L
383.253 509.354 L
385.182 503.521 L
387.111 497.618 L
389.04 491.647 L
390.969 485.609 L
392.898 479.506 L
394.827 473.34 L
396.756 467.114 L
398.684 460.83 L
400.613 454.49 L
402.542 448.096 L
404.471 441.652 L
406.4 435.16 L
408.329 428.622 L
410.258 422.041 L
412.187 415.421 L
414.116 408.765 L
416.044 402.075 L
417.973 395.355 L
419.902 388.608 L
421.831 381.838 L
423.76 375.048 L
425.689 368.242 L
427.618 361.423 L
429.547 354.595 L
431.476 347.762 L
433.404 340.928 L
435.333 334.096 L
437.262 327.272 L
439.191 320.458 L
441.12 313.66 L
443.049 306.881 L
444.978 300.125 L
446.907 293.397 L
448.836 286.701 L
450.764 280.041 L
452.693 273.422 L
454.622 266.849 L
456.551 260.325 L
458.48 253.856 L
460.409 247.445 L
462.338 241.098 L
464.267 234.818 L
466.196 228.61 L
468.124 222.478 L
470.053 216.428 L
471.982 210.464 L
473.911 204.589 L
475.84 198.808 L
477.769 193.127 L
479.698 187.548 L
481.627 182.077 L
483.556 176.717 L
485.484 171.473 L
487.413 166.348 L
489.342 161.347 L
491.271 156.474 L
493.2 151.733 L
495.129 147.127 L
497.058 142.661 L
498.987 138.337 L
500.916 134.159 L
502.844 130.131 L
504.773 126.257 L
506.702 122.538 L
508.631 118.979 L
510.56 115.582 L
512.489 112.35 L
514.418 109.286 L
516.347 106.393 L
518.276 103.672 L
520.204 101.127 L
522.133 98.759 L
524.062 96.571 L
525.991 94.563 L
527.92 92.739 L
529.849 91.099 L
531.778 89.645 L
533.707 88.378 L
535.636 87.3 L
537.565 86.411 L
539.493 85.712 L
541.422 85.203 L
543.351 84.885 L
545.28 84.759 L
547.209 84.824 L
549.138 85.081 L
551.067 85.529 L
552.996 86.167 L
554.924 86.995 L
556.853 88.014 L
558.782 89.22 L
560.711 90.615 L
562.64 92.195 L
564.569 93.961 L
566.498 95.91 L
568.427 98.041 L
570.356 100.352 L
572.284 102.84 L
574.213 105.505 L
576.142 108.344 L
578.071 111.353 L
580 114.532 L
581.929 117.876 L
583.858 121.384 L
585.787 125.052 L
587.716 128.877 L
589.644 132.856 L
591.573 136.987 L
593.502 141.264 L
595.431 145.686 L
597.36 150.247 L
599.289 154.946 L
601.218 159.777 L
603.147 164.737 L
605.076 169.823 L
607.004 175.029 L
608.933 180.353 L
610.862 185.789 L
612.791 191.334 L
614.72 196.983 L
616.649 202.733 L
618.578 208.578 L
620.507 214.514 L
622.435 220.537 L
624.364 226.643 L
626.293 232.827 L
628.222 239.085 L
630.151 245.411 L
632.08 251.802 L
634.009 258.253 L
635.938 264.76 L
637.867 271.318 L
639.796 277.923 L
641.724 284.57 L
643.653 291.255 L
645.582 297.973 L
647.511 304.72 L
649.44 311.493 L
651.369 318.286 L
653.298 325.095 L
655.227 331.916 L
657.156 338.746 L
659.084 345.579 L
661.013 352.413 L
662.942 359.243 L
664.871 366.065 L
666.8 372.876 L
668.729 379.672 L
670.658 386.449 L
672.587 393.203 L
674.516 399.932 L
676.444 406.632 L
678.373 413.3 L
680.302 419.932 L
682.231 426.525 L
684.16 433.077 L
686.089 439.584 L
688.018 446.044 L
689.947 452.454 L
691.876 458.811 L
693.804 465.114 L
695.733 471.359 L
697.662 477.544 L
699.591 483.667 L
701.52 489.726 L
703.449 495.719 L
705.378 501.644 L
707.307 507.499 L
709.236 513.283 L
711.164 518.994 L
713.093 524.63 L
715.022 530.19 L
716.951 535.674 L
718.88 541.079 L
720.809 546.405 L
722.738 551.65 L
724.667 556.814 L
726.596 561.896 L
728.524 566.895 L
730.453 571.811 L
732.382 576.643 L
734.311 581.39 L
736.24 586.052 L
738.169 590.63 L
740.098 595.122 L
742.027 599.529 L
743.956 603.851 L
745.884 608.087 L
747.813 612.237 L
749.742 616.303 L
751.671 620.284 L
753.6 624.18 L
755.529 627.992 L
757.458 631.72 L
759.387 635.365 L
761.316 638.927 L
763.244 642.407 L
765.173 645.805 L
767.102 649.123 L
769.031 652.36 L
770.96 655.519 L
772.889 658.598 L
774.818 661.6 L
776.747 664.526 L
778.676 667.375 L
780.604 670.15 L
782.533 672.851 L
784.462 675.479 L
786.391 678.036 L
788.32 680.522 L
790.249 682.938 L
792.178 685.286 L
794.107 687.567 L
796.036 689.781 L
797.964 691.931 L
799.893 694.016 L
801.822 696.039 L
803.751 698.001 L
805.68 699.903 L
807.609 701.745 L
809.538 703.53 L
811.467 705.259 L
813.396 706.932 L
815.324 708.55 L
817.253 710.116 L
819.182 711.631 L
821.111 713.095 L
823.04 714.509 L
824.969 715.876 L
826.898 717.196 L
828.827 718.47 L
830.756 719.699 L
832.684 720.885 L
834.613 722.029 L
836.542 723.132 L
838.471 724.195 L
840.4 725.219 L
842.329 726.205 L
844.258 727.155 L
846.187 728.069 L
848.116 728.948 L
850.044 729.794 L
851.973 730.607 L
853.902 731.389 L
855.831 732.14 L
857.76 732.862 L
859.689 733.555 L
861.618 734.22 L
863.547 734.859 L
865.476 735.471 L
867.404 736.058 L
869.333 736.621 L
871.262 737.161 L
873.191 737.678 L
875.12 738.173 L
877.049 738.647 L
878.978 739.101 L
880.907 739.535 L
882.836 739.951 L
884.764 740.348 L
886.693 740.728 L
888.622 741.091 L
890.551 741.437 L
892.48 741.768 L
894.409 742.084 L
896.338 742.386 L
898.267 742.674 L
900.196 742.948 L
902.124 743.21 L
904.053 743.46 L
905.982 743.697 L
907.911 743.924 L
909.84 744.14 L
911.769 744.345 L
913.698 744.54 L
915.627 744.726 L
917.556 744.903 L
S
GR
GS
[0.375 0 0 0.375 0 0] CT
1 GC
N
993 159 M
993 84 L
870 84 L
870 159 L
cp
f
GR
GS
[0.375 0 0 0.375 361.5 39.1875] CT
/Helvetica 26.667 F
GS
[1 0 0 1 0 0] CT
0 10.5 moveto 
1 -1 scale
(P) t 
GR
GR
GS
[0.375 0 0 0.375 0 0] CT
[10 6] 0 setdash
2 LJ
1.333 LW
N
878 104.5 M
958 104.5 L
S
GR
GS
[0.375 0 0 0.375 361.5 51.9375] CT
/Helvetica 26.667 F
GS
[1 0 0 1 0 0] CT
0 10.5 moveto 
1 -1 scale
(Q) t 
GR
GR
GS
[0.375 0 0 0.375 0 0] CT
1 0 0 RC
1 LJ
1.333 LW
N
878 138.5 M
958 138.5 L
S
GR
GS
[0.375 0 0 0.375 0 0] CT
0.149 GC
10.0 ML
1.333 LW
N
870 159 M
870 84 L
993 84 L
993 159 L
cp
S
GR
%%Trailer
%%Pages: 1
%%EOF
