%!PS-Adobe-3.0 EPSF-3.0
%%Creator: (MATLAB, The Mathworks, Inc. Version 9.6.0.1072779 \(R2019a\). Operating System: Windows 7)
%%Title: ./PQ_tv_vol.eps
%%CreationDate: 2020-09-18T14:04:20
%%Pages: (atend)
%%BoundingBox:    11    20   396   296
%%LanguageLevel: 3
%%EndComments
%%BeginProlog
%%BeginResource: procset (Apache XML Graphics Std ProcSet) 1.2 0
%%Version: 1.2 0
%%Copyright: (Copyright 2001-2003,2010 The Apache Software Foundation. License terms: http://www.apache.org/licenses/LICENSE-2.0)
/bd{bind def}bind def
/ld{load def}bd
/GR/grestore ld
/GS/gsave ld
/RM/rmoveto ld
/C/curveto ld
/t/show ld
/L/lineto ld
/ML/setmiterlimit ld
/CT/concat ld
/f/fill ld
/N/newpath ld
/S/stroke ld
/CC/setcmykcolor ld
/A/ashow ld
/cp/closepath ld
/RC/setrgbcolor ld
/LJ/setlinejoin ld
/GC/setgray ld
/LW/setlinewidth ld
/M/moveto ld
/re {4 2 roll M
1 index 0 rlineto
0 exch rlineto
neg 0 rlineto
cp } bd
/_ctm matrix def
/_tm matrix def
/BT { _ctm currentmatrix pop matrix _tm copy pop 0 0 moveto } bd
/ET { _ctm setmatrix } bd
/iTm { _ctm setmatrix _tm concat } bd
/Tm { _tm astore pop iTm 0 0 moveto } bd
/ux 0.0 def
/uy 0.0 def
/F {
  /Tp exch def
  /Tf exch def
  Tf findfont Tp scalefont setfont
  /cf Tf def  /cs Tp def
} bd
/ULS {currentpoint /uy exch def /ux exch def} bd
/ULE {
  /Tcx currentpoint pop def
  gsave
  newpath
  cf findfont cs scalefont dup
  /FontMatrix get 0 get /Ts exch def /FontInfo get dup
  /UnderlinePosition get Ts mul /To exch def
  /UnderlineThickness get Ts mul /Tt exch def
  ux uy To add moveto  Tcx uy To add lineto
  Tt setlinewidth stroke
  grestore
} bd
/OLE {
  /Tcx currentpoint pop def
  gsave
  newpath
  cf findfont cs scalefont dup
  /FontMatrix get 0 get /Ts exch def /FontInfo get dup
  /UnderlinePosition get Ts mul /To exch def
  /UnderlineThickness get Ts mul /Tt exch def
  ux uy To add cs add moveto Tcx uy To add cs add lineto
  Tt setlinewidth stroke
  grestore
} bd
/SOE {
  /Tcx currentpoint pop def
  gsave
  newpath
  cf findfont cs scalefont dup
  /FontMatrix get 0 get /Ts exch def /FontInfo get dup
  /UnderlinePosition get Ts mul /To exch def
  /UnderlineThickness get Ts mul /Tt exch def
  ux uy To add cs 10 mul 26 idiv add moveto Tcx uy To add cs 10 mul 26 idiv add lineto
  Tt setlinewidth stroke
  grestore
} bd
/QT {
/Y22 exch store
/X22 exch store
/Y21 exch store
/X21 exch store
currentpoint
/Y21 load 2 mul add 3 div exch
/X21 load 2 mul add 3 div exch
/X21 load 2 mul /X22 load add 3 div
/Y21 load 2 mul /Y22 load add 3 div
/X22 load /Y22 load curveto
} bd
/SSPD {
dup length /d exch dict def
{
/v exch def
/k exch def
currentpagedevice k known {
/cpdv currentpagedevice k get def
v cpdv ne {
/upd false def
/nullv v type /nulltype eq def
/nullcpdv cpdv type /nulltype eq def
nullv nullcpdv or
{
/upd true def
} {
/sametype v type cpdv type eq def
sametype {
v type /arraytype eq {
/vlen v length def
/cpdvlen cpdv length def
vlen cpdvlen eq {
0 1 vlen 1 sub {
/i exch def
/obj v i get def
/cpdobj cpdv i get def
obj cpdobj ne {
/upd true def
exit
} if
} for
} {
/upd true def
} ifelse
} {
v type /dicttype eq {
v {
/dv exch def
/dk exch def
/cpddv cpdv dk get def
dv cpddv ne {
/upd true def
exit
} if
} forall
} {
/upd true def
} ifelse
} ifelse
} if
} ifelse
upd true eq {
d k v put
} if
} if
} if
} forall
d length 0 gt {
d setpagedevice
} if
} bd
/RE { % /NewFontName [NewEncodingArray] /FontName RE -
  findfont dup length dict begin
  {
    1 index /FID ne
    {def} {pop pop} ifelse
  } forall
  /Encoding exch def
  /FontName 1 index def
  currentdict definefont pop
  end
} bind def
%%EndResource
%%BeginResource: procset (Apache XML Graphics EPS ProcSet) 1.0 0
%%Version: 1.0 0
%%Copyright: (Copyright 2002-2003 The Apache Software Foundation. License terms: http://www.apache.org/licenses/LICENSE-2.0)
/BeginEPSF { %def
/b4_Inc_state save def         % Save state for cleanup
/dict_count countdictstack def % Count objects on dict stack
/op_count count 1 sub def      % Count objects on operand stack
userdict begin                 % Push userdict on dict stack
/showpage { } def              % Redefine showpage, { } = null proc
0 setgray 0 setlinecap         % Prepare graphics state
1 setlinewidth 0 setlinejoin
10 setmiterlimit [ ] 0 setdash newpath
/languagelevel where           % If level not equal to 1 then
{pop languagelevel             % set strokeadjust and
1 ne                           % overprint to their defaults.
{false setstrokeadjust false setoverprint
} if
} if
} bd
/EndEPSF { %def
count op_count sub {pop} repeat            % Clean up stacks
countdictstack dict_count sub {end} repeat
b4_Inc_state restore
} bd
%%EndResource
%FOPBeginFontDict
%%IncludeResource: font Courier-Oblique
%%IncludeResource: font Courier-BoldOblique
%%IncludeResource: font Courier-Bold
%%IncludeResource: font ZapfDingbats
%%IncludeResource: font Symbol
%%IncludeResource: font Helvetica
%%IncludeResource: font Helvetica-Oblique
%%IncludeResource: font Helvetica-Bold
%%IncludeResource: font Helvetica-BoldOblique
%%IncludeResource: font Times-Roman
%%IncludeResource: font Times-Italic
%%IncludeResource: font Times-Bold
%%IncludeResource: font Times-BoldItalic
%%IncludeResource: font Courier
%FOPEndFontDict
%%BeginResource: encoding WinAnsiEncoding
/WinAnsiEncoding [
/.notdef /.notdef /.notdef /.notdef /.notdef
/.notdef /.notdef /.notdef /.notdef /.notdef
/.notdef /.notdef /.notdef /.notdef /.notdef
/.notdef /.notdef /.notdef /.notdef /.notdef
/.notdef /.notdef /.notdef /.notdef /.notdef
/.notdef /.notdef /.notdef /.notdef /.notdef
/.notdef /.notdef /space /exclam /quotedbl
/numbersign /dollar /percent /ampersand /quotesingle
/parenleft /parenright /asterisk /plus /comma
/hyphen /period /slash /zero /one
/two /three /four /five /six
/seven /eight /nine /colon /semicolon
/less /equal /greater /question /at
/A /B /C /D /E
/F /G /H /I /J
/K /L /M /N /O
/P /Q /R /S /T
/U /V /W /X /Y
/Z /bracketleft /backslash /bracketright /asciicircum
/underscore /quoteleft /a /b /c
/d /e /f /g /h
/i /j /k /l /m
/n /o /p /q /r
/s /t /u /v /w
/x /y /z /braceleft /bar
/braceright /asciitilde /bullet /Euro /bullet
/quotesinglbase /florin /quotedblbase /ellipsis /dagger
/daggerdbl /circumflex /perthousand /Scaron /guilsinglleft
/OE /bullet /Zcaron /bullet /bullet
/quoteleft /quoteright /quotedblleft /quotedblright /bullet
/endash /emdash /asciitilde /trademark /scaron
/guilsinglright /oe /bullet /zcaron /Ydieresis
/space /exclamdown /cent /sterling /currency
/yen /brokenbar /section /dieresis /copyright
/ordfeminine /guillemotleft /logicalnot /sfthyphen /registered
/macron /degree /plusminus /twosuperior /threesuperior
/acute /mu /paragraph /middot /cedilla
/onesuperior /ordmasculine /guillemotright /onequarter /onehalf
/threequarters /questiondown /Agrave /Aacute /Acircumflex
/Atilde /Adieresis /Aring /AE /Ccedilla
/Egrave /Eacute /Ecircumflex /Edieresis /Igrave
/Iacute /Icircumflex /Idieresis /Eth /Ntilde
/Ograve /Oacute /Ocircumflex /Otilde /Odieresis
/multiply /Oslash /Ugrave /Uacute /Ucircumflex
/Udieresis /Yacute /Thorn /germandbls /agrave
/aacute /acircumflex /atilde /adieresis /aring
/ae /ccedilla /egrave /eacute /ecircumflex
/edieresis /igrave /iacute /icircumflex /idieresis
/eth /ntilde /ograve /oacute /ocircumflex
/otilde /odieresis /divide /oslash /ugrave
/uacute /ucircumflex /udieresis /yacute /thorn
/ydieresis
] def
%%EndResource
%FOPBeginFontReencode
/Courier-Oblique findfont
dup length dict begin
  {1 index /FID ne {def} {pop pop} ifelse} forall
  /Encoding WinAnsiEncoding def
  currentdict
end
/Courier-Oblique exch definefont pop
/Courier-BoldOblique findfont
dup length dict begin
  {1 index /FID ne {def} {pop pop} ifelse} forall
  /Encoding WinAnsiEncoding def
  currentdict
end
/Courier-BoldOblique exch definefont pop
/Courier-Bold findfont
dup length dict begin
  {1 index /FID ne {def} {pop pop} ifelse} forall
  /Encoding WinAnsiEncoding def
  currentdict
end
/Courier-Bold exch definefont pop
/Helvetica findfont
dup length dict begin
  {1 index /FID ne {def} {pop pop} ifelse} forall
  /Encoding WinAnsiEncoding def
  currentdict
end
/Helvetica exch definefont pop
/Helvetica-Oblique findfont
dup length dict begin
  {1 index /FID ne {def} {pop pop} ifelse} forall
  /Encoding WinAnsiEncoding def
  currentdict
end
/Helvetica-Oblique exch definefont pop
/Helvetica-Bold findfont
dup length dict begin
  {1 index /FID ne {def} {pop pop} ifelse} forall
  /Encoding WinAnsiEncoding def
  currentdict
end
/Helvetica-Bold exch definefont pop
/Helvetica-BoldOblique findfont
dup length dict begin
  {1 index /FID ne {def} {pop pop} ifelse} forall
  /Encoding WinAnsiEncoding def
  currentdict
end
/Helvetica-BoldOblique exch definefont pop
/Times-Roman findfont
dup length dict begin
  {1 index /FID ne {def} {pop pop} ifelse} forall
  /Encoding WinAnsiEncoding def
  currentdict
end
/Times-Roman exch definefont pop
/Times-Italic findfont
dup length dict begin
  {1 index /FID ne {def} {pop pop} ifelse} forall
  /Encoding WinAnsiEncoding def
  currentdict
end
/Times-Italic exch definefont pop
/Times-Bold findfont
dup length dict begin
  {1 index /FID ne {def} {pop pop} ifelse} forall
  /Encoding WinAnsiEncoding def
  currentdict
end
/Times-Bold exch definefont pop
/Times-BoldItalic findfont
dup length dict begin
  {1 index /FID ne {def} {pop pop} ifelse} forall
  /Encoding WinAnsiEncoding def
  currentdict
end
/Times-BoldItalic exch definefont pop
/Courier findfont
dup length dict begin
  {1 index /FID ne {def} {pop pop} ifelse} forall
  /Encoding WinAnsiEncoding def
  currentdict
end
/Courier exch definefont pop
%FOPEndFontReencode
%%EndProlog
%%Page: 1 1
%%PageBoundingBox: 0 0 420 315
%%BeginPageSetup
[1 0 0 -1 0 315] CT
%%EndPageSetup
GS
[0.6 0 0 0.6 0 0] CT
1 GC
N
0 0 700 525 re
f
GR
GS
[0.6 0 0 0.6 0 0] CT
1 GC
N
0 0 700 525 re
f
GR
GS
[0.6 0 0 0.6 0 0] CT
1 GC
N
91 467 M
634 467 L
634 39 L
91 39 L
cp
f
GR
GS
[0.6 0 0 0.6 0 0] CT
0.149 GC
2 setlinecap
1 LJ
0.833 LW
N
91 467 M
634 467 L
S
GR
GS
[0.6 0 0 0.6 0 0] CT
0.149 GC
2 setlinecap
1 LJ
0.833 LW
N
91 39 M
634 39 L
S
GR
GS
[0.6 0 0 0.6 0 0] CT
0.149 GC
2 setlinecap
1 LJ
0.833 LW
N
91 467 M
91 461.57 L
S
GR
GS
[0.6 0 0 0.6 0 0] CT
0.149 GC
2 setlinecap
1 LJ
0.833 LW
N
181.512 467 M
181.512 461.57 L
S
GR
GS
[0.6 0 0 0.6 0 0] CT
0.149 GC
2 setlinecap
1 LJ
0.833 LW
N
272 467 M
272 461.57 L
S
GR
GS
[0.6 0 0 0.6 0 0] CT
0.149 GC
2 setlinecap
1 LJ
0.833 LW
N
362.512 467 M
362.512 461.57 L
S
GR
GS
[0.6 0 0 0.6 0 0] CT
0.149 GC
2 setlinecap
1 LJ
0.833 LW
N
453 467 M
453 461.57 L
S
GR
GS
[0.6 0 0 0.6 0 0] CT
0.149 GC
2 setlinecap
1 LJ
0.833 LW
N
543.512 467 M
543.512 461.57 L
S
GR
GS
[0.6 0 0 0.6 0 0] CT
0.149 GC
2 setlinecap
1 LJ
0.833 LW
N
634 467 M
634 461.57 L
S
GR
GS
[0.6 0 0 0.6 0 0] CT
0.149 GC
2 setlinecap
1 LJ
0.833 LW
N
91 39 M
91 44.43 L
S
GR
GS
[0.6 0 0 0.6 0 0] CT
0.149 GC
2 setlinecap
1 LJ
0.833 LW
N
181.512 39 M
181.512 44.43 L
S
GR
GS
[0.6 0 0 0.6 0 0] CT
0.149 GC
2 setlinecap
1 LJ
0.833 LW
N
272 39 M
272 44.43 L
S
GR
GS
[0.6 0 0 0.6 0 0] CT
0.149 GC
2 setlinecap
1 LJ
0.833 LW
N
362.512 39 M
362.512 44.43 L
S
GR
GS
[0.6 0 0 0.6 0 0] CT
0.149 GC
2 setlinecap
1 LJ
0.833 LW
N
453 39 M
453 44.43 L
S
GR
GS
[0.6 0 0 0.6 0 0] CT
0.149 GC
2 setlinecap
1 LJ
0.833 LW
N
543.512 39 M
543.512 44.43 L
S
GR
GS
[0.6 0 0 0.6 0 0] CT
0.149 GC
2 setlinecap
1 LJ
0.833 LW
N
634 39 M
634 44.43 L
S
GR
GS
[0.6 0 0 0.6 54.6 284.19999] CT
0.149 GC
/Helvetica 16.667 F
GS
[1 0 0 1 0 0] CT
-25.5 17 moveto 
1 -1 scale
(Jan-60) t 
GR
GR
GS
[0.6 0 0 0.6 108.90743 284.19999] CT
0.149 GC
/Helvetica 16.667 F
GS
[1 0 0 1 0 0] CT
-25.5 17 moveto 
1 -1 scale
(Jan-70) t 
GR
GR
GS
[0.6 0 0 0.6 163.2 284.19999] CT
0.149 GC
/Helvetica 16.667 F
GS
[1 0 0 1 0 0] CT
-25.5 17 moveto 
1 -1 scale
(Jan-80) t 
GR
GR
GS
[0.6 0 0 0.6 217.50743 284.19999] CT
0.149 GC
/Helvetica 16.667 F
GS
[1 0 0 1 0 0] CT
-25.5 17 moveto 
1 -1 scale
(Jan-90) t 
GR
GR
GS
[0.6 0 0 0.6 271.8 284.19999] CT
0.149 GC
/Helvetica 16.667 F
GS
[1 0 0 1 0 0] CT
-25.5 17 moveto 
1 -1 scale
(Jan-00) t 
GR
GR
GS
[0.6 0 0 0.6 326.10743 284.19999] CT
0.149 GC
/Helvetica 16.667 F
GS
[1 0 0 1 0 0] CT
-25.5 17 moveto 
1 -1 scale
(Jan-10) t 
GR
GR
GS
[0.6 0 0 0.6 380.4 284.19999] CT
0.149 GC
/Helvetica 16.667 F
GS
[1 0 0 1 0 0] CT
-25.5 17 moveto 
1 -1 scale
(Jan-20) t 
GR
GR
GS
[0.6 0 0 0.6 0 0] CT
0.149 GC
2 setlinecap
1 LJ
0.833 LW
N
91 467 M
91 39 L
S
GR
GS
[0.6 0 0 0.6 0 0] CT
0.149 GC
2 setlinecap
1 LJ
0.833 LW
N
634 467 M
634 39 L
S
GR
GS
[0.6 0 0 0.6 0 0] CT
0.149 GC
2 setlinecap
1 LJ
0.833 LW
N
91 467 M
96.429 467 L
S
GR
GS
[0.6 0 0 0.6 0 0] CT
0.149 GC
2 setlinecap
1 LJ
0.833 LW
N
91 405.857 M
96.429 405.857 L
S
GR
GS
[0.6 0 0 0.6 0 0] CT
0.149 GC
2 setlinecap
1 LJ
0.833 LW
N
91 344.714 M
96.429 344.714 L
S
GR
GS
[0.6 0 0 0.6 0 0] CT
0.149 GC
2 setlinecap
1 LJ
0.833 LW
N
91 283.571 M
96.429 283.571 L
S
GR
GS
[0.6 0 0 0.6 0 0] CT
0.149 GC
2 setlinecap
1 LJ
0.833 LW
N
91 222.429 M
96.429 222.429 L
S
GR
GS
[0.6 0 0 0.6 0 0] CT
0.149 GC
2 setlinecap
1 LJ
0.833 LW
N
91 161.286 M
96.429 161.286 L
S
GR
GS
[0.6 0 0 0.6 0 0] CT
0.149 GC
2 setlinecap
1 LJ
0.833 LW
N
91 100.143 M
96.429 100.143 L
S
GR
GS
[0.6 0 0 0.6 0 0] CT
0.149 GC
2 setlinecap
1 LJ
0.833 LW
N
91 39 M
96.429 39 L
S
GR
GS
[0.6 0 0 0.6 0 0] CT
0.149 GC
2 setlinecap
1 LJ
0.833 LW
N
634 467 M
628.571 467 L
S
GR
GS
[0.6 0 0 0.6 0 0] CT
0.149 GC
2 setlinecap
1 LJ
0.833 LW
N
634 405.857 M
628.571 405.857 L
S
GR
GS
[0.6 0 0 0.6 0 0] CT
0.149 GC
2 setlinecap
1 LJ
0.833 LW
N
634 344.714 M
628.571 344.714 L
S
GR
GS
[0.6 0 0 0.6 0 0] CT
0.149 GC
2 setlinecap
1 LJ
0.833 LW
N
634 283.571 M
628.571 283.571 L
S
GR
GS
[0.6 0 0 0.6 0 0] CT
0.149 GC
2 setlinecap
1 LJ
0.833 LW
N
634 222.429 M
628.571 222.429 L
S
GR
GS
[0.6 0 0 0.6 0 0] CT
0.149 GC
2 setlinecap
1 LJ
0.833 LW
N
634 161.286 M
628.571 161.286 L
S
GR
GS
[0.6 0 0 0.6 0 0] CT
0.149 GC
2 setlinecap
1 LJ
0.833 LW
N
634 100.143 M
628.571 100.143 L
S
GR
GS
[0.6 0 0 0.6 0 0] CT
0.149 GC
2 setlinecap
1 LJ
0.833 LW
N
634 39 M
628.571 39 L
S
GR
GS
[0.6 0 0 0.6 50.59997 280.2] CT
0.149 GC
/Helvetica 16.667 F
GS
[1 0 0 1 0 0] CT
-10 6.5 moveto 
1 -1 scale
(0) t 
GR
GR
GS
[0.6 0 0 0.6 50.59997 243.51429] CT
0.149 GC
/Helvetica 16.667 F
GS
[1 0 0 1 0 0] CT
-33 6.5 moveto 
1 -1 scale
(0.05) t 
GR
GR
GS
[0.6 0 0 0.6 50.59997 206.82858] CT
0.149 GC
/Helvetica 16.667 F
GS
[1 0 0 1 0 0] CT
-24 6.5 moveto 
1 -1 scale
(0.1) t 
GR
GR
GS
[0.6 0 0 0.6 50.59997 170.14285] CT
0.149 GC
/Helvetica 16.667 F
GS
[1 0 0 1 0 0] CT
-33 6.5 moveto 
1 -1 scale
(0.15) t 
GR
GR
GS
[0.6 0 0 0.6 50.59997 133.45714] CT
0.149 GC
/Helvetica 16.667 F
GS
[1 0 0 1 0 0] CT
-24 6.5 moveto 
1 -1 scale
(0.2) t 
GR
GR
GS
[0.6 0 0 0.6 50.59997 96.77143] CT
0.149 GC
/Helvetica 16.667 F
GS
[1 0 0 1 0 0] CT
-33 6.5 moveto 
1 -1 scale
(0.25) t 
GR
GR
GS
[0.6 0 0 0.6 50.59997 60.08571] CT
0.149 GC
/Helvetica 16.667 F
GS
[1 0 0 1 0 0] CT
-24 6.5 moveto 
1 -1 scale
(0.3) t 
GR
GR
GS
[0.6 0 0 0.6 50.59997 23.4] CT
0.149 GC
/Helvetica 16.667 F
GS
[1 0 0 1 0 0] CT
-33 6.5 moveto 
1 -1 scale
(0.35) t 
GR
GR
GS
[0 -0.6 0.6 0 19.8 169.2] CT
0.149 GC
N
3.359 0.203 M
2.563 0.203 1.945 -0.18 QT
1.328 -0.563 0.992 -1.211 QT
0.656 -1.859 0.656 -2.641 QT
0.656 -3.484 1.031 -4.406 QT
1.406 -5.328 2.063 -6.094 QT
2.719 -6.859 3.547 -7.313 QT
4.375 -7.766 5.234 -7.766 QT
9.781 -7.766 L
9.953 -7.766 10.086 -7.641 QT
10.219 -7.516 10.219 -7.297 QT
10.219 -7.047 10.031 -6.844 QT
9.844 -6.641 9.578 -6.641 QT
7.391 -6.641 L
7.906 -5.875 7.906 -4.766 QT
7.906 -3.875 7.555 -2.992 QT
7.203 -2.109 6.578 -1.383 QT
5.953 -0.656 5.125 -0.227 QT
4.297 0.203 3.359 0.203 QT
cp
3.391 -0.266 M
4.375 -0.266 5.133 -1.039 QT
5.891 -1.813 6.297 -2.922 QT
6.703 -4.031 6.703 -4.984 QT
6.703 -5.75 6.273 -6.195 QT
5.844 -6.641 5.078 -6.641 QT
4.031 -6.641 3.297 -5.938 QT
2.563 -5.234 2.203 -4.172 QT
1.844 -3.109 1.844 -2.125 QT
1.844 -1.359 2.25 -0.813 QT
2.656 -0.266 3.391 -0.266 QT
cp
f
GR
GS
[0 -0.6 0.6 0 25.2 162.6] CT
0.149 GC
/Helvetica 14.667 F
GS
[1 0 0 1 0 0] CT
0 0 moveto 
1 -1 scale
(t) t 
GR
GR
GS
[0 -0.6 0.6 0 19.8 159.6] CT
0.149 GC
/Helvetica 18.333 F
GS
[1 0 0 1 0 0] CT
0 0 moveto 
1 -1 scale
( \(pct\)) t 
GR
GR
GS
[0.6 0 0 0.6 0 0] CT
0 0.447 0.741 RC
1 LJ
0.833 LW
N
104.529 394.205 M
105.297 412.211 L
106.065 403.062 L
106.783 401.905 L
107.576 408.272 L
108.32 412.307 L
109.038 410.295 L
109.856 411.243 L
110.549 409.602 L
111.293 411.99 L
112.061 410.792 L
112.829 411.637 L
113.548 412.22 L
114.34 405.434 L
115.109 411.208 L
115.802 411.241 L
116.62 409.785 L
117.363 409.606 L
118.131 409.794 L
118.9 412.294 L
119.593 411.874 L
120.312 404.075 L
121.105 407.322 L
121.873 412.265 L
122.567 411.507 L
123.384 412.246 L
124.128 407.408 L
124.896 412.137 L
125.664 412.17 L
126.382 412.267 L
127.175 404.869 L
127.943 412.305 L
128.637 409.395 L
129.43 288.791 L
130.173 369.5 L
130.867 349.969 L
131.685 411.295 L
132.453 411.938 L
133.221 411.443 L
133.964 411.541 L
134.708 412.254 L
135.476 412.205 L
136.244 399.581 L
136.962 412.207 L
137.656 405.548 L
138.474 411.602 L
139.217 411.226 L
139.911 412.087 L
140.729 409.78 L
141.472 410.628 L
142.265 411.904 L
143.008 408.684 L
143.727 412.309 L
144.495 411.067 L
145.288 402.136 L
146.056 408.794 L
146.749 409.449 L
147.518 286.906 L
148.236 333.539 L
149.029 401.814 L
149.772 360.631 L
150.491 393.521 L
151.309 399.693 L
152.052 275.03 L
152.82 364.582 L
153.563 382.659 L
154.307 411.79 L
155.1 411.702 L
155.793 384.127 L
156.561 304.21 L
157.255 266.77 L
158.073 407.059 L
158.816 408.674 L
159.584 383.064 L
160.352 404.073 L
161.071 334.442 L
161.864 392.697 L
162.607 411.377 L
163.326 387.276 L
164.143 411.655 L
164.862 385.815 L
165.58 264.163 L
166.373 385.267 L
167.141 389.121 L
167.835 338.711 L
168.653 310.084 L
169.396 402.825 L
170.164 407.717 L
170.932 412.273 L
171.651 409.339 L
172.444 393.418 L
173.212 361.614 L
173.906 381.016 L
174.599 406.191 L
175.417 411.769 L
176.136 408.104 L
176.929 377.721 L
177.697 378.11 L
178.415 400.623 L
179.208 404.583 L
179.976 406.896 L
180.67 409.965 L
181.488 387.013 L
182.231 412.077 L
182.925 408.491 L
183.718 343.445 L
184.461 410.531 L
185.179 394.185 L
185.972 411.196 L
186.74 404.067 L
187.509 406.497 L
188.252 412.311 L
188.995 411.091 L
189.763 380.776 L
190.531 390.62 L
191.25 403.059 L
191.944 391.93 L
192.761 396.035 L
193.505 410.844 L
194.199 396.519 L
195.016 400.837 L
195.759 396.158 L
196.552 402.704 L
197.296 386.885 L
198.014 412.273 L
198.807 402.768 L
199.575 412.218 L
200.343 403.324 L
201.062 398.741 L
201.805 412.291 L
202.524 395.984 L
203.341 405.291 L
204.085 406.997 L
204.853 402.359 L
205.621 386.64 L
206.339 366.987 L
207.132 411.908 L
207.876 410.562 L
208.594 412.273 L
209.412 400.435 L
210.106 396.287 L
210.849 407.523 L
211.617 382.904 L
212.385 400.908 L
213.104 288.812 L
213.897 402.476 L
214.665 187.251 L
215.359 370.915 L
216.176 338.942 L
216.92 411.53 L
217.688 381.663 L
218.456 400.953 L
219.149 404.951 L
219.868 403.258 L
220.661 361.911 L
221.429 408.384 L
222.123 404.608 L
222.94 406.538 L
223.684 412.048 L
224.452 377.709 L
225.22 300.075 L
225.939 412.17 L
226.731 406.18 L
227.5 397.093 L
228.193 313.49 L
228.961 411.337 L
229.705 411.76 L
230.448 412.177 L
231.216 386.209 L
231.984 373.152 L
232.703 408.582 L
233.496 409.125 L
234.264 412.051 L
234.958 368.963 L
235.775 411.871 L
236.519 404.197 L
237.212 399.622 L
238.03 407.963 L
238.773 411.786 L
239.467 412.312 L
240.285 390.37 L
241.028 411.223 L
241.821 406.342 L
242.564 411.696 L
243.283 412.307 L
244.076 408.137 L
244.844 403.5 L
245.612 410.47 L
246.306 398.868 L
247.074 410.361 L
247.792 412.051 L
248.585 412.096 L
249.329 401.239 L
250.047 411.495 L
250.865 400.922 L
251.608 409.714 L
252.376 405.725 L
253.12 408.814 L
253.863 412.22 L
254.656 411.809 L
255.349 408.836 L
256.118 412.17 L
256.811 412.302 L
257.629 412.312 L
258.372 407.573 L
259.14 399.826 L
259.909 409.891 L
260.627 399.14 L
261.42 391.913 L
262.163 404.135 L
262.882 388.759 L
263.7 398.611 L
264.393 393.484 L
265.137 409.275 L
265.905 412.312 L
266.673 411.963 L
267.391 412.022 L
268.184 403.422 L
268.952 405.763 L
269.646 386.332 L
270.464 402.337 L
271.207 279.349 L
271.975 361.401 L
272.743 408.6 L
273.462 411.167 L
274.23 328.355 L
274.973 300.404 L
275.717 93.772 L
276.485 198.734 L
277.253 412.301 L
277.971 403.996 L
278.764 276.569 L
279.532 373.715 L
280.226 333.676 L
281.044 264.306 L
281.787 407.054 L
282.481 386.011 L
283.274 338.765 L
284.017 343.714 L
284.736 297.782 L
285.529 345.11 L
286.297 350.02 L
287.065 367.683 L
287.808 412.311 L
288.551 352.976 L
289.32 379.977 L
290.088 175.666 L
290.806 329.036 L
291.5 345.828 L
292.318 409.576 L
293.061 395.111 L
293.755 383.266 L
294.572 362.281 L
295.316 318.823 L
296.109 237.256 L
296.852 272.226 L
297.57 383.235 L
298.363 408.001 L
299.131 398.548 L
299.9 405.274 L
300.593 412.155 L
301.361 408.119 L
302.08 385.478 L
302.873 397.136 L
303.616 400.857 L
304.335 403.776 L
305.152 401.206 L
305.896 412.261 L
306.664 393.816 L
307.407 410.71 L
308.15 407.519 L
308.943 411.062 L
309.662 411.708 L
310.405 408.778 L
311.173 389.5 L
311.941 412.312 L
312.66 409.815 L
313.453 410.443 L
314.221 412.204 L
314.915 401.851 L
315.732 400.348 L
316.476 369.154 L
317.244 375.132 L
318.012 400.351 L
318.706 412.191 L
319.424 384.958 L
320.217 405.178 L
320.985 398.432 L
321.679 375.628 L
322.497 409.517 L
323.24 401.62 L
324.008 403.535 L
324.776 411.729 L
325.495 411.488 L
326.288 412.098 L
327.056 412.3 L
327.749 412.272 L
328.518 411.798 L
329.261 395.676 L
330.004 402.919 L
330.772 412.309 L
331.54 411.004 L
332.259 410.329 L
333.052 381.125 L
333.82 409.297 L
334.514 412.176 L
335.331 411.605 L
336.075 404.529 L
336.769 411.282 L
337.561 412.285 L
338.305 409.49 L
339.023 412.286 L
339.816 405.285 L
340.584 412.18 L
341.352 411.783 L
342.096 407.848 L
342.839 402.974 L
343.607 375.167 L
344.375 411.837 L
345.094 409.222 L
345.862 406.289 L
346.63 409.16 L
347.349 412.279 L
348.141 408.793 L
348.885 407.284 L
349.603 412.118 L
350.421 389.414 L
351.164 404.385 L
351.932 411.633 L
352.676 411.57 L
353.419 390.115 L
354.212 411.013 L
354.906 403.592 L
355.674 405.69 L
356.368 411.533 L
357.185 406.53 L
357.929 412.284 L
358.697 390.846 L
359.465 408.112 L
360.183 410.678 L
360.976 411.232 L
361.72 409.192 L
362.438 410.629 L
363.256 412.207 L
363.949 410.606 L
364.693 411.784 L
365.461 411.255 L
366.229 412.048 L
366.948 410.95 L
367.74 407.438 L
368.509 409.307 L
369.202 411.817 L
370.02 410.293 L
370.763 409.34 L
371.531 411.088 L
372.3 399.997 L
372.993 404.721 L
373.687 409.358 L
374.505 407.19 L
375.273 409.634 L
375.967 412.235 L
376.784 412.306 L
377.528 412.312 L
378.296 405.567 L
379.064 408.728 L
379.782 406.101 L
380.575 401.208 L
381.343 390.333 L
382.037 412.269 L
382.83 412.289 L
383.573 411.735 L
384.292 406.778 L
385.085 412.183 L
385.853 412.139 L
386.621 401.616 L
387.364 411.097 L
388.108 404.859 L
388.876 401.783 L
389.619 411.083 L
390.362 411.714 L
391.056 409.694 L
391.874 412.227 L
392.592 412.311 L
393.311 412.294 L
394.129 411.851 L
394.872 412.297 L
395.665 412.283 L
396.408 412.241 L
397.127 411.755 L
397.919 411.863 L
398.688 412.256 L
399.456 412.184 L
400.149 411.586 L
400.918 403.595 L
401.636 409.583 L
402.429 405.618 L
403.172 405.188 L
403.891 411.903 L
404.709 411.854 L
405.452 408.447 L
406.22 404.762 L
406.963 412.145 L
407.707 401.001 L
408.5 412.038 L
409.193 401.347 L
409.961 410.234 L
410.655 412.219 L
411.473 412.18 L
412.216 410.133 L
412.984 410.608 L
413.752 411.862 L
414.471 412.166 L
415.264 412.262 L
416.007 412.217 L
416.726 412.149 L
417.543 400.668 L
418.262 411.93 L
418.98 411.562 L
419.773 412.024 L
420.541 412.22 L
421.235 412.299 L
422.053 411.877 L
422.796 410.699 L
423.564 407.424 L
424.332 412.183 L
425.051 411.141 L
425.844 411.958 L
426.612 412.003 L
427.306 412.29 L
428.074 412.208 L
428.817 409.749 L
429.56 411.855 L
430.329 410.458 L
431.097 412.255 L
431.815 412.26 L
432.608 412.311 L
433.376 407.877 L
434.07 409.796 L
434.888 411.369 L
435.631 412.191 L
436.325 411.131 L
437.118 412.055 L
437.861 412.123 L
438.579 410.773 L
439.372 412.286 L
440.14 412.31 L
440.909 412.31 L
441.652 411.016 L
442.395 400.12 L
443.163 410.722 L
443.931 411.249 L
444.65 412.177 L
445.344 412.104 L
446.161 410.713 L
446.905 410.671 L
447.574 412.307 L
448.416 411.896 L
449.159 412.052 L
449.952 411.837 L
450.696 410.912 L
451.414 411.878 L
452.207 411.494 L
452.975 408.14 L
453.743 412.312 L
454.462 408.225 L
455.23 411.798 L
455.924 410.513 L
456.741 412.307 L
457.485 410.143 L
458.253 409.895 L
459.021 409.395 L
459.74 412.304 L
460.532 412.29 L
461.276 412.084 L
461.994 411.993 L
462.812 399.871 L
463.506 376.464 L
464.249 410.68 L
465.017 396.996 L
465.785 406.816 L
466.504 405.392 L
467.297 412.137 L
468.065 411.629 L
468.759 411.334 L
469.576 366.881 L
470.32 404.761 L
471.088 404.428 L
471.856 412.311 L
472.549 412.307 L
473.243 411.857 L
474.061 412.304 L
474.829 412.24 L
475.523 410.544 L
476.34 412.174 L
477.084 411.083 L
477.852 411.333 L
478.62 410.044 L
479.339 411.31 L
480.131 407.99 L
480.9 412.159 L
481.593 412.218 L
482.361 412.26 L
483.105 411.825 L
483.848 412.305 L
484.616 411.865 L
485.384 409.998 L
486.103 412.271 L
486.896 412.309 L
487.664 412.266 L
488.358 411.909 L
489.175 412.217 L
489.919 412.211 L
490.612 412.297 L
491.43 412.112 L
492.173 411.939 L
492.867 412.311 L
493.685 412.08 L
494.428 406.708 L
495.221 412.307 L
495.964 412.241 L
496.683 409.533 L
497.476 411.058 L
498.244 409.962 L
499.012 411.039 L
499.706 410.908 L
500.449 410.524 L
501.192 411.293 L
501.985 412.224 L
502.729 412.272 L
503.447 409.99 L
504.265 407.451 L
505.008 412.237 L
505.776 412.312 L
506.52 400.017 L
507.263 411.62 L
508.056 411.724 L
508.749 409.161 L
509.518 412.025 L
510.211 411.724 L
511.029 411.489 L
511.772 411.779 L
512.54 410.602 L
513.309 412.254 L
514.027 412.312 L
514.82 411.877 L
515.563 412.306 L
516.282 412.133 L
517.1 412.279 L
517.793 412.29 L
518.537 412.259 L
519.305 412.312 L
520.073 412.233 L
520.791 410.316 L
521.584 412.222 L
522.352 412.103 L
523.046 393.284 L
523.864 406.18 L
524.607 412.176 L
525.375 387.367 L
526.143 412.256 L
526.862 348.116 L
527.63 406.226 L
528.373 394.71 L
529.117 410.101 L
529.885 407.98 L
530.653 412.022 L
531.371 411.723 L
532.164 412.303 L
532.932 408.398 L
533.626 410.426 L
534.444 395.131 L
535.187 386.078 L
535.881 412.139 L
536.674 409.869 L
537.417 410.267 L
538.136 407.363 L
538.929 412.307 L
539.697 411.705 L
540.465 411.675 L
541.208 412.19 L
541.951 412.147 L
542.719 412.03 L
543.488 412.051 L
544.206 412.133 L
544.9 412.022 L
545.718 412.219 L
546.461 412.195 L
547.155 411.858 L
547.972 411.887 L
548.716 412.311 L
549.509 412.285 L
550.252 412.108 L
550.97 412.312 L
551.763 412.282 L
552.531 411.894 L
553.299 412.311 L
553.993 411.95 L
554.761 411.876 L
555.48 411.725 L
556.273 412.129 L
557.016 412.311 L
557.735 412.204 L
558.552 410.238 L
559.296 410.102 L
560.064 411.835 L
560.807 412.236 L
561.55 412.141 L
562.343 412.012 L
563.062 412.229 L
563.805 412.278 L
564.573 412.286 L
565.341 412.311 L
566.06 412.294 L
566.853 412.261 L
567.621 412.087 L
568.315 412.31 L
569.132 412.26 L
569.876 412.198 L
570.644 412.311 L
571.412 411.962 L
572.106 412.142 L
572.799 412.302 L
573.617 412.091 L
574.385 412.184 L
575.079 411.817 L
575.897 411.378 L
576.64 411.595 L
577.408 412.183 L
578.176 412.03 L
578.895 412.308 L
579.688 412.039 L
580.456 412.293 L
581.149 412.081 L
581.918 412.311 L
582.661 412.309 L
583.404 411.81 L
584.172 412.286 L
584.94 412.25 L
585.659 412.311 L
586.452 411.992 L
587.22 412.2 L
587.914 412.243 L
588.731 411.998 L
589.475 411.499 L
590.169 412.312 L
590.961 411.906 L
591.705 412.025 L
592.423 410.881 L
593.216 412.312 L
593.984 412.267 L
594.752 412.277 L
595.496 412.297 L
596.239 411.366 L
597.007 411.361 L
597.775 410.384 L
598.494 411.951 L
599.262 411.919 L
600.03 412.198 L
600.749 411.788 L
601.541 411.885 L
602.285 411.325 L
603.003 410.508 L
603.821 412.253 L
604.564 412.312 L
605.332 412.312 L
606.076 412.298 L
606.819 412.051 L
607.612 412.305 L
608.306 411.685 L
609.074 412.301 L
609.768 406.89 L
610.585 412.078 L
611.329 411.046 L
612.097 412.202 L
612.865 412.258 L
613.583 412.262 L
614.376 412.309 L
615.12 412.123 L
615.838 411.311 L
616.656 411.148 L
617.349 412.311 L
618.068 411.057 L
618.861 412.05 L
619.629 412.233 L
620.348 412.141 L
621.14 409.467 L
S
GR
%%Trailer
%%Pages: 1
%%EOF
