%!PS-Adobe-3.0 EPSF-3.0
%%Creator: (MATLAB, The Mathworks, Inc. Version 9.6.0.1072779 \(R2019a\). Operating System: Windows 7)
%%Title: ./Shadow_sr.eps
%%CreationDate: 2020-09-18T11:10:03
%%Pages: (atend)
%%BoundingBox:   100    38  1067   557
%%LanguageLevel: 3
%%EndComments
%%BeginProlog
%%BeginResource: procset (Apache XML Graphics Std ProcSet) 1.2 0
%%Version: 1.2 0
%%Copyright: (Copyright 2001-2003,2010 The Apache Software Foundation. License terms: http://www.apache.org/licenses/LICENSE-2.0)
/bd{bind def}bind def
/ld{load def}bd
/GR/grestore ld
/GS/gsave ld
/RM/rmoveto ld
/C/curveto ld
/t/show ld
/L/lineto ld
/ML/setmiterlimit ld
/CT/concat ld
/f/fill ld
/N/newpath ld
/S/stroke ld
/CC/setcmykcolor ld
/A/ashow ld
/cp/closepath ld
/RC/setrgbcolor ld
/LJ/setlinejoin ld
/GC/setgray ld
/LW/setlinewidth ld
/M/moveto ld
/re {4 2 roll M
1 index 0 rlineto
0 exch rlineto
neg 0 rlineto
cp } bd
/_ctm matrix def
/_tm matrix def
/BT { _ctm currentmatrix pop matrix _tm copy pop 0 0 moveto } bd
/ET { _ctm setmatrix } bd
/iTm { _ctm setmatrix _tm concat } bd
/Tm { _tm astore pop iTm 0 0 moveto } bd
/ux 0.0 def
/uy 0.0 def
/F {
  /Tp exch def
  /Tf exch def
  Tf findfont Tp scalefont setfont
  /cf Tf def  /cs Tp def
} bd
/ULS {currentpoint /uy exch def /ux exch def} bd
/ULE {
  /Tcx currentpoint pop def
  gsave
  newpath
  cf findfont cs scalefont dup
  /FontMatrix get 0 get /Ts exch def /FontInfo get dup
  /UnderlinePosition get Ts mul /To exch def
  /UnderlineThickness get Ts mul /Tt exch def
  ux uy To add moveto  Tcx uy To add lineto
  Tt setlinewidth stroke
  grestore
} bd
/OLE {
  /Tcx currentpoint pop def
  gsave
  newpath
  cf findfont cs scalefont dup
  /FontMatrix get 0 get /Ts exch def /FontInfo get dup
  /UnderlinePosition get Ts mul /To exch def
  /UnderlineThickness get Ts mul /Tt exch def
  ux uy To add cs add moveto Tcx uy To add cs add lineto
  Tt setlinewidth stroke
  grestore
} bd
/SOE {
  /Tcx currentpoint pop def
  gsave
  newpath
  cf findfont cs scalefont dup
  /FontMatrix get 0 get /Ts exch def /FontInfo get dup
  /UnderlinePosition get Ts mul /To exch def
  /UnderlineThickness get Ts mul /Tt exch def
  ux uy To add cs 10 mul 26 idiv add moveto Tcx uy To add cs 10 mul 26 idiv add lineto
  Tt setlinewidth stroke
  grestore
} bd
/QT {
/Y22 exch store
/X22 exch store
/Y21 exch store
/X21 exch store
currentpoint
/Y21 load 2 mul add 3 div exch
/X21 load 2 mul add 3 div exch
/X21 load 2 mul /X22 load add 3 div
/Y21 load 2 mul /Y22 load add 3 div
/X22 load /Y22 load curveto
} bd
/SSPD {
dup length /d exch dict def
{
/v exch def
/k exch def
currentpagedevice k known {
/cpdv currentpagedevice k get def
v cpdv ne {
/upd false def
/nullv v type /nulltype eq def
/nullcpdv cpdv type /nulltype eq def
nullv nullcpdv or
{
/upd true def
} {
/sametype v type cpdv type eq def
sametype {
v type /arraytype eq {
/vlen v length def
/cpdvlen cpdv length def
vlen cpdvlen eq {
0 1 vlen 1 sub {
/i exch def
/obj v i get def
/cpdobj cpdv i get def
obj cpdobj ne {
/upd true def
exit
} if
} for
} {
/upd true def
} ifelse
} {
v type /dicttype eq {
v {
/dv exch def
/dk exch def
/cpddv cpdv dk get def
dv cpddv ne {
/upd true def
exit
} if
} forall
} {
/upd true def
} ifelse
} ifelse
} if
} ifelse
upd true eq {
d k v put
} if
} if
} if
} forall
d length 0 gt {
d setpagedevice
} if
} bd
/RE { % /NewFontName [NewEncodingArray] /FontName RE -
  findfont dup length dict begin
  {
    1 index /FID ne
    {def} {pop pop} ifelse
  } forall
  /Encoding exch def
  /FontName 1 index def
  currentdict definefont pop
  end
} bind def
%%EndResource
%%BeginResource: procset (Apache XML Graphics EPS ProcSet) 1.0 0
%%Version: 1.0 0
%%Copyright: (Copyright 2002-2003 The Apache Software Foundation. License terms: http://www.apache.org/licenses/LICENSE-2.0)
/BeginEPSF { %def
/b4_Inc_state save def         % Save state for cleanup
/dict_count countdictstack def % Count objects on dict stack
/op_count count 1 sub def      % Count objects on operand stack
userdict begin                 % Push userdict on dict stack
/showpage { } def              % Redefine showpage, { } = null proc
0 setgray 0 setlinecap         % Prepare graphics state
1 setlinewidth 0 setlinejoin
10 setmiterlimit [ ] 0 setdash newpath
/languagelevel where           % If level not equal to 1 then
{pop languagelevel             % set strokeadjust and
1 ne                           % overprint to their defaults.
{false setstrokeadjust false setoverprint
} if
} if
} bd
/EndEPSF { %def
count op_count sub {pop} repeat            % Clean up stacks
countdictstack dict_count sub {end} repeat
b4_Inc_state restore
} bd
%%EndResource
%FOPBeginFontDict
%%IncludeResource: font Courier-Oblique
%%IncludeResource: font Courier-BoldOblique
%%IncludeResource: font Courier-Bold
%%IncludeResource: font ZapfDingbats
%%IncludeResource: font Symbol
%%IncludeResource: font Helvetica
%%IncludeResource: font Helvetica-Oblique
%%IncludeResource: font Helvetica-Bold
%%IncludeResource: font Helvetica-BoldOblique
%%IncludeResource: font Times-Roman
%%IncludeResource: font Times-Italic
%%IncludeResource: font Times-Bold
%%IncludeResource: font Times-BoldItalic
%%IncludeResource: font Courier
%FOPEndFontDict
%%BeginResource: encoding WinAnsiEncoding
/WinAnsiEncoding [
/.notdef /.notdef /.notdef /.notdef /.notdef
/.notdef /.notdef /.notdef /.notdef /.notdef
/.notdef /.notdef /.notdef /.notdef /.notdef
/.notdef /.notdef /.notdef /.notdef /.notdef
/.notdef /.notdef /.notdef /.notdef /.notdef
/.notdef /.notdef /.notdef /.notdef /.notdef
/.notdef /.notdef /space /exclam /quotedbl
/numbersign /dollar /percent /ampersand /quotesingle
/parenleft /parenright /asterisk /plus /comma
/hyphen /period /slash /zero /one
/two /three /four /five /six
/seven /eight /nine /colon /semicolon
/less /equal /greater /question /at
/A /B /C /D /E
/F /G /H /I /J
/K /L /M /N /O
/P /Q /R /S /T
/U /V /W /X /Y
/Z /bracketleft /backslash /bracketright /asciicircum
/underscore /quoteleft /a /b /c
/d /e /f /g /h
/i /j /k /l /m
/n /o /p /q /r
/s /t /u /v /w
/x /y /z /braceleft /bar
/braceright /asciitilde /bullet /Euro /bullet
/quotesinglbase /florin /quotedblbase /ellipsis /dagger
/daggerdbl /circumflex /perthousand /Scaron /guilsinglleft
/OE /bullet /Zcaron /bullet /bullet
/quoteleft /quoteright /quotedblleft /quotedblright /bullet
/endash /emdash /asciitilde /trademark /scaron
/guilsinglright /oe /bullet /zcaron /Ydieresis
/space /exclamdown /cent /sterling /currency
/yen /brokenbar /section /dieresis /copyright
/ordfeminine /guillemotleft /logicalnot /sfthyphen /registered
/macron /degree /plusminus /twosuperior /threesuperior
/acute /mu /paragraph /middot /cedilla
/onesuperior /ordmasculine /guillemotright /onequarter /onehalf
/threequarters /questiondown /Agrave /Aacute /Acircumflex
/Atilde /Adieresis /Aring /AE /Ccedilla
/Egrave /Eacute /Ecircumflex /Edieresis /Igrave
/Iacute /Icircumflex /Idieresis /Eth /Ntilde
/Ograve /Oacute /Ocircumflex /Otilde /Odieresis
/multiply /Oslash /Ugrave /Uacute /Ucircumflex
/Udieresis /Yacute /Thorn /germandbls /agrave
/aacute /acircumflex /atilde /adieresis /aring
/ae /ccedilla /egrave /eacute /ecircumflex
/edieresis /igrave /iacute /icircumflex /idieresis
/eth /ntilde /ograve /oacute /ocircumflex
/otilde /odieresis /divide /oslash /ugrave
/uacute /ucircumflex /udieresis /yacute /thorn
/ydieresis
] def
%%EndResource
%FOPBeginFontReencode
/Courier-Oblique findfont
dup length dict begin
  {1 index /FID ne {def} {pop pop} ifelse} forall
  /Encoding WinAnsiEncoding def
  currentdict
end
/Courier-Oblique exch definefont pop
/Courier-BoldOblique findfont
dup length dict begin
  {1 index /FID ne {def} {pop pop} ifelse} forall
  /Encoding WinAnsiEncoding def
  currentdict
end
/Courier-BoldOblique exch definefont pop
/Courier-Bold findfont
dup length dict begin
  {1 index /FID ne {def} {pop pop} ifelse} forall
  /Encoding WinAnsiEncoding def
  currentdict
end
/Courier-Bold exch definefont pop
/Helvetica findfont
dup length dict begin
  {1 index /FID ne {def} {pop pop} ifelse} forall
  /Encoding WinAnsiEncoding def
  currentdict
end
/Helvetica exch definefont pop
/Helvetica-Oblique findfont
dup length dict begin
  {1 index /FID ne {def} {pop pop} ifelse} forall
  /Encoding WinAnsiEncoding def
  currentdict
end
/Helvetica-Oblique exch definefont pop
/Helvetica-Bold findfont
dup length dict begin
  {1 index /FID ne {def} {pop pop} ifelse} forall
  /Encoding WinAnsiEncoding def
  currentdict
end
/Helvetica-Bold exch definefont pop
/Helvetica-BoldOblique findfont
dup length dict begin
  {1 index /FID ne {def} {pop pop} ifelse} forall
  /Encoding WinAnsiEncoding def
  currentdict
end
/Helvetica-BoldOblique exch definefont pop
/Times-Roman findfont
dup length dict begin
  {1 index /FID ne {def} {pop pop} ifelse} forall
  /Encoding WinAnsiEncoding def
  currentdict
end
/Times-Roman exch definefont pop
/Times-Italic findfont
dup length dict begin
  {1 index /FID ne {def} {pop pop} ifelse} forall
  /Encoding WinAnsiEncoding def
  currentdict
end
/Times-Italic exch definefont pop
/Times-Bold findfont
dup length dict begin
  {1 index /FID ne {def} {pop pop} ifelse} forall
  /Encoding WinAnsiEncoding def
  currentdict
end
/Times-Bold exch definefont pop
/Times-BoldItalic findfont
dup length dict begin
  {1 index /FID ne {def} {pop pop} ifelse} forall
  /Encoding WinAnsiEncoding def
  currentdict
end
/Times-BoldItalic exch definefont pop
/Courier findfont
dup length dict begin
  {1 index /FID ne {def} {pop pop} ifelse} forall
  /Encoding WinAnsiEncoding def
  currentdict
end
/Courier exch definefont pop
%FOPEndFontReencode
%%EndProlog
%%Page: 1 1
%%PageBoundingBox: 0 0 1147 594
%%BeginPageSetup
[1 0 0 -1 0 594] CT
%%EndPageSetup
GS
[0.6 0 0 0.6 0 0] CT
1 GC
N
0 0 1912 990 re
f
GR
GS
[0.6 0 0 0.6 0 0] CT
1 GC
N
0 0 1912 990 re
f
GR
GS
[0.6 0 0 0.6 0 0] CT
1 GC
N
249 881 M
1730 881 L
1730 74 L
249 74 L
cp
f
GR
GS
[0.6 0 0 0.6 0 0] CT
0.149 GC
2 setlinecap
1 LJ
0.833 LW
N
249 881 M
1730 881 L
S
GR
GS
[0.6 0 0 0.6 0 0] CT
0.149 GC
2 setlinecap
1 LJ
0.833 LW
N
249 74 M
1730 74 L
S
GR
GS
[0.6 0 0 0.6 0 0] CT
0.149 GC
2 setlinecap
1 LJ
0.833 LW
N
249 881 M
249 866.19 L
S
GR
GS
[0.6 0 0 0.6 0 0] CT
0.149 GC
2 setlinecap
1 LJ
0.833 LW
N
460.627 881 M
460.627 866.19 L
S
GR
GS
[0.6 0 0 0.6 0 0] CT
0.149 GC
2 setlinecap
1 LJ
0.833 LW
N
672.253 881 M
672.253 866.19 L
S
GR
GS
[0.6 0 0 0.6 0 0] CT
0.149 GC
2 setlinecap
1 LJ
0.833 LW
N
883.687 881 M
883.687 866.19 L
S
GR
GS
[0.6 0 0 0.6 0 0] CT
0.149 GC
2 setlinecap
1 LJ
0.833 LW
N
1095.313 881 M
1095.313 866.19 L
S
GR
GS
[0.6 0 0 0.6 0 0] CT
0.149 GC
2 setlinecap
1 LJ
0.833 LW
N
1306.94 881 M
1306.94 866.19 L
S
GR
GS
[0.6 0 0 0.6 0 0] CT
0.149 GC
2 setlinecap
1 LJ
0.833 LW
N
1518.567 881 M
1518.567 866.19 L
S
GR
GS
[0.6 0 0 0.6 0 0] CT
0.149 GC
2 setlinecap
1 LJ
0.833 LW
N
1730 881 M
1730 866.19 L
S
GR
GS
[0.6 0 0 0.6 0 0] CT
0.149 GC
2 setlinecap
1 LJ
0.833 LW
N
249 74 M
249 88.81 L
S
GR
GS
[0.6 0 0 0.6 0 0] CT
0.149 GC
2 setlinecap
1 LJ
0.833 LW
N
460.627 74 M
460.627 88.81 L
S
GR
GS
[0.6 0 0 0.6 0 0] CT
0.149 GC
2 setlinecap
1 LJ
0.833 LW
N
672.253 74 M
672.253 88.81 L
S
GR
GS
[0.6 0 0 0.6 0 0] CT
0.149 GC
2 setlinecap
1 LJ
0.833 LW
N
883.687 74 M
883.687 88.81 L
S
GR
GS
[0.6 0 0 0.6 0 0] CT
0.149 GC
2 setlinecap
1 LJ
0.833 LW
N
1095.313 74 M
1095.313 88.81 L
S
GR
GS
[0.6 0 0 0.6 0 0] CT
0.149 GC
2 setlinecap
1 LJ
0.833 LW
N
1306.94 74 M
1306.94 88.81 L
S
GR
GS
[0.6 0 0 0.6 0 0] CT
0.149 GC
2 setlinecap
1 LJ
0.833 LW
N
1518.567 74 M
1518.567 88.81 L
S
GR
GS
[0.6 0 0 0.6 0 0] CT
0.149 GC
2 setlinecap
1 LJ
0.833 LW
N
1730 74 M
1730 88.81 L
S
GR
GS
[0.6 0 0 0.6 149.39999 534.6] CT
0.149 GC
/Helvetica 33.333 F
GS
[1 0 0 1 0 0] CT
-51 34 moveto 
1 -1 scale
(Jan-99) t 
GR
GR
GS
[0.6 0 0 0.6 276.37594 534.6] CT
0.149 GC
/Helvetica 33.333 F
GS
[1 0 0 1 0 0] CT
-51 34 moveto 
1 -1 scale
(Jan-02) t 
GR
GR
GS
[0.6 0 0 0.6 403.35189 534.6] CT
0.149 GC
/Helvetica 33.333 F
GS
[1 0 0 1 0 0] CT
-51 34 moveto 
1 -1 scale
(Jan-05) t 
GR
GR
GS
[0.6 0 0 0.6 530.212 534.6] CT
0.149 GC
/Helvetica 33.333 F
GS
[1 0 0 1 0 0] CT
-51 34 moveto 
1 -1 scale
(Jan-08) t 
GR
GR
GS
[0.6 0 0 0.6 657.18798 534.6] CT
0.149 GC
/Helvetica 33.333 F
GS
[1 0 0 1 0 0] CT
-51 34 moveto 
1 -1 scale
(Jan-11) t 
GR
GR
GS
[0.6 0 0 0.6 784.16393 534.6] CT
0.149 GC
/Helvetica 33.333 F
GS
[1 0 0 1 0 0] CT
-51 34 moveto 
1 -1 scale
(Jan-14) t 
GR
GR
GS
[0.6 0 0 0.6 911.13988 534.6] CT
0.149 GC
/Helvetica 33.333 F
GS
[1 0 0 1 0 0] CT
-51 34 moveto 
1 -1 scale
(Jan-17) t 
GR
GR
GS
[0.6 0 0 0.6 1037.99996 534.6] CT
0.149 GC
/Helvetica 33.333 F
GS
[1 0 0 1 0 0] CT
-51 34 moveto 
1 -1 scale
(Jan-20) t 
GR
GR
GS
[0.6 0 0 0.6 0 0] CT
0.149 GC
2 setlinecap
1 LJ
0.833 LW
N
249 881 M
249 74 L
S
GR
GS
[0.6 0 0 0.6 0 0] CT
0.149 GC
2 setlinecap
1 LJ
0.833 LW
N
1730 881 M
1730 74 L
S
GR
GS
[0.6 0 0 0.6 0 0] CT
0.149 GC
2 setlinecap
1 LJ
0.833 LW
N
249 881 M
263.808 881 L
S
GR
GS
[0.6 0 0 0.6 0 0] CT
0.149 GC
2 setlinecap
1 LJ
0.833 LW
N
249 765.714 M
263.808 765.714 L
S
GR
GS
[0.6 0 0 0.6 0 0] CT
0.149 GC
2 setlinecap
1 LJ
0.833 LW
N
249 650.429 M
263.808 650.429 L
S
GR
GS
[0.6 0 0 0.6 0 0] CT
0.149 GC
2 setlinecap
1 LJ
0.833 LW
N
249 535.143 M
263.808 535.143 L
S
GR
GS
[0.6 0 0 0.6 0 0] CT
0.149 GC
2 setlinecap
1 LJ
0.833 LW
N
249 419.857 M
263.808 419.857 L
S
GR
GS
[0.6 0 0 0.6 0 0] CT
0.149 GC
2 setlinecap
1 LJ
0.833 LW
N
249 304.571 M
263.808 304.571 L
S
GR
GS
[0.6 0 0 0.6 0 0] CT
0.149 GC
2 setlinecap
1 LJ
0.833 LW
N
249 189.286 M
263.808 189.286 L
S
GR
GS
[0.6 0 0 0.6 0 0] CT
0.149 GC
2 setlinecap
1 LJ
0.833 LW
N
249 74 M
263.808 74 L
S
GR
GS
[0.6 0 0 0.6 0 0] CT
0.149 GC
2 setlinecap
1 LJ
0.833 LW
N
1730 881 M
1715.192 881 L
S
GR
GS
[0.6 0 0 0.6 0 0] CT
0.149 GC
2 setlinecap
1 LJ
0.833 LW
N
1730 765.714 M
1715.192 765.714 L
S
GR
GS
[0.6 0 0 0.6 0 0] CT
0.149 GC
2 setlinecap
1 LJ
0.833 LW
N
1730 650.429 M
1715.192 650.429 L
S
GR
GS
[0.6 0 0 0.6 0 0] CT
0.149 GC
2 setlinecap
1 LJ
0.833 LW
N
1730 535.143 M
1715.192 535.143 L
S
GR
GS
[0.6 0 0 0.6 0 0] CT
0.149 GC
2 setlinecap
1 LJ
0.833 LW
N
1730 419.857 M
1715.192 419.857 L
S
GR
GS
[0.6 0 0 0.6 0 0] CT
0.149 GC
2 setlinecap
1 LJ
0.833 LW
N
1730 304.571 M
1715.192 304.571 L
S
GR
GS
[0.6 0 0 0.6 0 0] CT
0.149 GC
2 setlinecap
1 LJ
0.833 LW
N
1730 189.286 M
1715.192 189.286 L
S
GR
GS
[0.6 0 0 0.6 0 0] CT
0.149 GC
2 setlinecap
1 LJ
0.833 LW
N
1730 74 M
1715.192 74 L
S
GR
GS
[0.6 0 0 0.6 143.39731 528.6] CT
0.149 GC
/Helvetica 33.333 F
GS
[1 0 0 1 0 0] CT
-30 13 moveto 
1 -1 scale
(-6) t 
GR
GR
GS
[0.6 0 0 0.6 143.39731 459.42858] CT
0.149 GC
/Helvetica 33.333 F
GS
[1 0 0 1 0 0] CT
-30 13 moveto 
1 -1 scale
(-4) t 
GR
GR
GS
[0.6 0 0 0.6 143.39731 390.25715] CT
0.149 GC
/Helvetica 33.333 F
GS
[1 0 0 1 0 0] CT
-30 13 moveto 
1 -1 scale
(-2) t 
GR
GR
GS
[0.6 0 0 0.6 143.39731 321.08573] CT
0.149 GC
/Helvetica 33.333 F
GS
[1 0 0 1 0 0] CT
-19 13 moveto 
1 -1 scale
(0) t 
GR
GR
GS
[0.6 0 0 0.6 143.39731 251.91429] CT
0.149 GC
/Helvetica 33.333 F
GS
[1 0 0 1 0 0] CT
-19 13 moveto 
1 -1 scale
(2) t 
GR
GR
GS
[0.6 0 0 0.6 143.39731 182.74286] CT
0.149 GC
/Helvetica 33.333 F
GS
[1 0 0 1 0 0] CT
-19 13 moveto 
1 -1 scale
(4) t 
GR
GR
GS
[0.6 0 0 0.6 143.39731 113.57143] CT
0.149 GC
/Helvetica 33.333 F
GS
[1 0 0 1 0 0] CT
-19 13 moveto 
1 -1 scale
(6) t 
GR
GR
GS
[0.6 0 0 0.6 143.39731 44.4] CT
0.149 GC
/Helvetica 33.333 F
GS
[1 0 0 1 0 0] CT
-19 13 moveto 
1 -1 scale
(8) t 
GR
GR
GS
[0 -0.6 0.6 0 122.39878 286.49976] CT
0.149 GC
/Helvetica 36.667 F
GS
[1 0 0 1 0 0] CT
-83 -9 moveto 
1 -1 scale
(Yield \(pct\)) t 
GR
GR
GS
[0.6 0 0 0.6 0 0] CT
0 0.447 0.741 RC
1 LJ
3.333 LW
N
248.823 262.924 M
254.407 263.919 L
259.813 258.436 L
266.185 266.543 L
271.978 266.472 L
277.191 265.033 L
283.756 257.465 L
289.549 253.722 L
295.728 241.511 L
301.52 244.759 L
307.12 237.444 L
313.299 220.103 L
319.285 219.155 L
325.271 208.719 L
330.87 202.608 L
336.856 188.812 L
342.262 188.804 L
348.634 194.605 L
354.427 181.22 L
360.413 168.647 L
366.399 165.873 L
371.998 159.928 L
378.177 155.574 L
383.97 158.336 L
389.569 184.919 L
395.941 240.242 L
401.348 248.391 L
407.141 279.927 L
413.126 301.626 L
419.112 324.592 L
424.712 325.924 L
430.891 329.921 L
436.877 336.637 L
442.283 393.366 L
448.655 415.349 L
454.448 441.897 L
460.434 446.597 L
466.419 441.882 L
471.826 443.827 L
477.232 444.392 L
483.604 442.055 L
489.59 445.723 L
494.997 446.604 L
501.369 430.014 L
507.161 431.675 L
513.147 436.007 L
519.133 443.625 L
524.732 464.974 L
530.911 455.634 L
536.897 460.181 L
542.304 456.394 L
548.289 461.779 L
554.082 461.849 L
559.875 458.988 L
565.861 471.897 L
571.846 474.628 L
577.446 477.812 L
583.625 468.05 L
589.611 475.716 L
595.017 477.677 L
601.389 478.298 L
607.182 477.679 L
612.588 471.889 L
618.96 471.577 L
624.753 478.091 L
630.16 472.696 L
636.532 451.969 L
642.324 449.122 L
648.503 441.555 L
654.296 427.099 L
659.895 415.915 L
666.074 405.19 L
672.06 394.452 L
678.046 385.937 L
683.452 376.701 L
689.245 369.371 L
695.038 362.813 L
701.217 359.414 L
707.009 346.025 L
712.609 329.965 L
718.981 324.752 L
724.774 321.874 L
730.759 295.633 L
736.552 287.036 L
742.345 281.07 L
748.524 266.493 L
753.93 263.242 L
759.916 255.576 L
765.323 246.523 L
771.695 240.479 L
777.487 229.18 L
783.473 229.264 L
789.459 227.025 L
795.058 230.855 L
801.237 230.608 L
807.03 232.31 L
812.63 231.658 L
819.002 233.391 L
824.408 231.254 L
830.201 229.507 L
836.187 226.244 L
842.172 240.505 L
847.772 242.123 L
853.951 234.353 L
859.937 267.848 L
865.343 286.849 L
871.715 282.248 L
877.508 319.164 L
883.494 315.084 L
889.479 390.467 L
895.079 407.527 L
901.065 439.654 L
906.857 435.529 L
912.65 420.91 L
918.636 414.708 L
924.622 417.45 L
930.221 413.011 L
936.4 424.486 L
942.386 424.151 L
947.793 456.335 L
954.165 504.941 L
959.957 499.501 L
965.364 485.79 L
971.543 495.461 L
977.335 514.634 L
982.935 513.5 L
989.114 523.042 L
995.1 528.281 L
1001.085 528.197 L
1006.878 529.88 L
1012.671 531.656 L
1018.657 521.865 L
1024.642 529.25 L
1030.242 528.962 L
1035.649 523.664 L
1042.021 528.583 L
1047.813 521.14 L
1053.22 512.42 L
1059.592 507.708 L
1065.384 503.496 L
1071.563 506.719 L
1077.356 502.605 L
1082.956 495.834 L
1089.134 502.537 L
1095.12 506.546 L
1101.106 506.567 L
1106.513 515.483 L
1112.498 521.518 L
1118.098 518.517 L
1124.277 513.185 L
1130.069 513.613 L
1135.669 496.19 L
1142.041 507.685 L
1147.834 515.997 L
1153.82 509.997 L
1159.612 512.385 L
1165.405 515.981 L
1171.584 509.98 L
1177.183 511.17 L
1182.976 510.718 L
1188.962 508.681 L
1194.948 510.542 L
1200.547 510.905 L
1206.726 512.19 L
1212.712 509.4 L
1218.119 509.056 L
1224.49 511.36 L
1230.283 508.717 L
1236.269 511.699 L
1242.255 512.893 L
1247.661 509.666 L
1253.068 512.286 L
1259.44 514.012 L
1265.426 519.089 L
1270.832 512.946 L
1277.204 515.774 L
1282.997 520.509 L
1288.983 519.763 L
1294.968 516.456 L
1300.568 508.724 L
1306.747 513.254 L
1312.733 515.817 L
1318.139 515.294 L
1324.125 519.738 L
1329.918 523.607 L
1335.71 522.554 L
1341.696 524.21 L
1347.682 526.939 L
1353.281 529.812 L
1359.46 532.222 L
1365.446 530.163 L
1370.853 523.974 L
1377.225 532.227 L
1383.017 526.778 L
1388.424 532.785 L
1394.603 524.072 L
1400.395 531.254 L
1405.995 529.639 L
1412.174 526.164 L
1418.16 526.504 L
1424.146 523.498 L
1429.938 527.678 L
1435.731 520.118 L
1441.717 508.034 L
1447.703 502.487 L
1453.302 501.532 L
1459.288 497.219 L
1465.274 500.925 L
1470.873 505.846 L
1477.052 497.567 L
1482.845 504.504 L
1488.444 501.528 L
1494.816 501.946 L
1500.609 499.163 L
1506.595 498.818 L
1512.388 497.138 L
1518.18 496.65 L
1524.359 501.298 L
1529.766 499.657 L
1535.751 478.851 L
1541.158 471.668 L
1547.53 460.806 L
1553.323 462.718 L
1559.308 462.181 L
1565.294 462.141 L
1570.894 461.826 L
1577.073 457.768 L
1582.865 449.585 L
1588.465 440.237 L
1594.837 442.084 L
1600.244 431.561 L
1605.843 425.977 L
1612.022 424.307 L
1618.008 418.587 L
1623.607 429.205 L
1629.786 420.589 L
S
GR
GS
[0.6 0 0 0.6 0 0] CT
0.851 0.325 0.098 RC
1 LJ
3.333 LW
N
248.823 265.519 M
254.407 266.141 L
259.813 259.199 L
266.185 269.165 L
271.978 268.156 L
277.191 265.05 L
283.756 257.495 L
289.549 253.738 L
295.728 241.56 L
301.52 245.589 L
307.12 237.472 L
313.299 220.182 L
319.285 219.159 L
325.271 208.721 L
330.87 202.61 L
336.856 188.812 L
342.262 188.804 L
348.634 194.605 L
354.427 181.22 L
360.413 168.647 L
366.399 165.873 L
371.998 159.929 L
378.177 155.575 L
383.97 158.338 L
389.569 184.925 L
395.941 242.816 L
401.348 251.392 L
407.141 284.332 L
413.126 306.68 L
419.112 330.86 L
424.712 332.169 L
430.891 337.597 L
436.877 345.2 L
442.283 411.812 L
448.655 440.847 L
454.448 469.302 L
460.434 472.986 L
466.419 466.404 L
471.826 469.853 L
477.232 447.419 L
483.604 465.837 L
489.59 470.887 L
494.997 475.217 L
501.369 462.683 L
507.161 466.724 L
513.147 480.271 L
519.133 491.292 L
524.732 510.713 L
530.911 509.719 L
536.897 511.84 L
542.304 512.129 L
548.289 519.509 L
554.082 519.133 L
559.875 523.065 L
565.861 542.236 L
571.846 530.706 L
577.446 530.915 L
583.625 530.579 L
589.611 530.768 L
595.017 528.339 L
601.389 534.726 L
607.182 533.51 L
612.588 529.947 L
618.96 532.652 L
624.753 522.504 L
630.16 511.491 L
636.532 483.274 L
642.324 479.927 L
648.503 474.373 L
654.296 453.808 L
659.895 441.023 L
666.074 424.031 L
672.06 411.339 L
678.046 399.939 L
683.452 378.905 L
689.245 369.741 L
695.038 364.435 L
701.217 360.326 L
707.009 347.461 L
712.609 330.122 L
718.981 326.87 L
724.774 321.985 L
730.759 295.763 L
736.552 287.564 L
742.345 281.073 L
748.524 266.524 L
753.93 263.242 L
759.916 255.589 L
765.323 247.059 L
771.695 240.551 L
777.487 229.188 L
783.473 229.276 L
789.459 227.037 L
795.058 230.869 L
801.237 230.622 L
807.03 232.323 L
812.63 231.669 L
819.002 233.402 L
824.408 231.269 L
830.201 229.524 L
836.187 226.26 L
842.172 240.518 L
847.772 242.236 L
853.951 234.395 L
859.937 270.599 L
865.343 291.83 L
871.715 287.061 L
877.508 329.005 L
883.494 324.862 L
889.479 415.799 L
895.079 444.342 L
901.065 488.608 L
906.857 469.279 L
912.65 446.193 L
918.636 438.743 L
924.622 443.702 L
930.221 440.092 L
936.4 460.063 L
942.386 474.85 L
947.793 547.209 L
954.165 664.397 L
959.957 627.309 L
965.364 588.476 L
971.543 621.709 L
977.335 645.152 L
982.935 641.969 L
989.114 639.459 L
995.1 646.784 L
1001.085 658.077 L
1006.878 664.386 L
1012.671 670.443 L
1018.657 685.114 L
1024.642 646.552 L
1030.242 673.913 L
1035.649 667.909 L
1042.021 655.031 L
1047.813 646.24 L
1053.22 645.898 L
1059.592 659.349 L
1065.384 673.398 L
1071.563 689.678 L
1077.356 698.068 L
1082.956 719.243 L
1089.134 687.235 L
1095.12 655.848 L
1101.106 667.783 L
1106.513 663.608 L
1112.498 662.241 L
1118.098 686.294 L
1124.277 706.83 L
1130.069 702.47 L
1135.669 707.104 L
1142.041 808.356 L
1147.834 770.508 L
1153.82 773.242 L
1159.612 777.641 L
1165.405 793.706 L
1171.584 833.497 L
1177.183 764.04 L
1182.976 738.603 L
1188.962 774.972 L
1194.948 759.324 L
1200.547 742.002 L
1206.726 813.941 L
1212.712 812.845 L
1218.119 813.116 L
1224.49 770.089 L
1230.283 792.401 L
1236.269 794.434 L
1242.255 784.937 L
1247.661 804.066 L
1253.068 806.198 L
1259.44 836.441 L
1265.426 767.742 L
1270.832 707.626 L
1277.204 734.872 L
1282.997 710.403 L
1288.983 740.828 L
1294.968 744.648 L
1300.568 734.143 L
1306.747 698.162 L
1312.733 716.27 L
1318.139 712.945 L
1324.125 690.943 L
1329.918 701.94 L
1335.71 709.206 L
1341.696 699.836 L
1347.682 684.846 L
1353.281 693.798 L
1359.46 685.935 L
1365.446 694.289 L
1370.853 687.528 L
1377.225 674.479 L
1383.017 697.353 L
1388.424 682.639 L
1394.603 677.848 L
1400.395 692.402 L
1405.995 686.478 L
1412.174 676.331 L
1418.16 673.274 L
1424.146 658.75 L
1429.938 683.674 L
1435.731 652.159 L
1441.717 611.488 L
1447.703 593.893 L
1453.302 611.926 L
1459.288 601.878 L
1465.274 615.371 L
1470.873 621.74 L
1477.052 594.433 L
1482.845 631.356 L
1488.444 615.678 L
1494.816 603.485 L
1500.609 602.125 L
1506.595 598.134 L
1512.388 580.73 L
1518.18 577.26 L
1524.359 585.223 L
1529.766 579.461 L
1535.751 544.33 L
1541.158 533.192 L
1547.53 515.964 L
1553.323 515.856 L
1559.308 516.493 L
1565.294 516.124 L
1570.894 512.055 L
1577.073 503.269 L
1582.865 487.215 L
1588.465 472.059 L
1594.837 447.845 L
1600.244 446.449 L
1605.843 432.162 L
1612.022 426.476 L
1618.008 421.441 L
1623.607 431.388 L
1629.786 422.303 L
S
GR
GS
[0.6 0 0 0.6 0 0] CT
0.929 0.694 0.125 RC
1 LJ
3.333 LW
N
254.793 268.256 M
260.199 260.763 L
266.185 257.881 L
271.978 261.916 L
277.964 261.916 L
283.756 260.763 L
289.742 247.505 L
295.728 242.894 L
301.52 234.247 L
307.506 235.4 L
313.299 222.719 L
319.285 229.636 L
325.271 220.989 L
330.87 204.849 L
336.856 197.932 L
342.649 188.133 L
348.634 173.722 L
354.427 158.735 L
360.413 158.159 L
366.399 160.464 L
372.191 159.311 L
378.177 159.888 L
383.97 159.888 L
389.956 166.229 L
395.941 190.439 L
401.348 218.684 L
407.334 229.059 L
413.126 258.457 L
419.112 292.466 L
424.905 306.301 L
430.891 317.829 L
436.877 324.746 L
442.669 358.179 L
448.655 391.612 L
454.448 414.669 L
460.434 430.233 L
466.419 435.421 L
471.826 434.844 L
477.812 435.421 L
483.604 434.268 L
489.59 434.268 L
495.383 434.268 L
501.369 435.421 L
507.354 434.844 L
513.147 434.268 L
519.133 434.268 L
524.926 457.901 L
530.911 463.666 L
536.897 463.666 L
542.304 462.513 L
548.289 463.089 L
554.082 462.513 L
560.068 462.513 L
565.861 464.819 L
571.846 476.924 L
577.832 475.771 L
583.625 476.924 L
589.611 476.924 L
595.403 477.5 L
601.389 478.653 L
607.375 477.5 L
612.975 476.924 L
618.96 477.5 L
624.753 477.5 L
630.739 477.5 L
636.532 475.771 L
642.517 462.513 L
648.503 452.714 L
654.296 442.338 L
660.282 433.691 L
666.074 423.892 L
672.06 410.634 L
678.046 403.717 L
683.452 391.036 L
689.438 383.542 L
695.231 374.319 L
701.217 362.214 L
707.009 359.909 L
712.995 347.227 L
718.981 333.393 L
724.774 326.476 L
730.759 317.253 L
736.552 304.571 L
742.538 295.349 L
748.524 287.855 L
753.93 276.326 L
759.916 270.562 L
765.709 259.034 L
771.695 250.387 L
777.487 247.505 L
783.473 233.094 L
789.459 232.518 L
795.252 232.518 L
801.237 232.518 L
807.03 232.518 L
813.016 233.094 L
819.002 232.518 L
824.408 231.941 L
830.394 231.941 L
836.187 232.518 L
842.172 232.518 L
847.965 232.518 L
853.951 231.941 L
859.937 245.776 L
865.729 250.387 L
871.715 260.763 L
877.508 276.326 L
883.494 290.737 L
889.479 308.03 L
895.079 363.367 L
901.065 384.695 L
906.857 403.717 L
912.843 421.01 L
918.636 419.857 L
924.622 419.281 L
930.608 419.857 L
936.4 430.809 L
942.386 479.229 L
948.179 512.662 L
954.165 525.92 L
960.15 499.912 L
965.557 484.642 L
971.543 491.899 L
977.335 510.552 L
983.321 523.234 L
989.114 533.904 L
995.1 541.91 L
1001.085 551.438 L
1006.878 558.546 L
1012.864 562.5 L
1018.657 570.328 L
1024.642 544.02 L
1030.628 560.95 L
1036.035 566.541 L
1042.021 562.598 L
1047.813 562.033 L
1053.799 562.973 L
1059.592 566.391 L
1065.577 569.135 L
1071.563 575.406 L
1077.356 581.009 L
1083.342 592.509 L
1089.134 590.249 L
1095.12 586.145 L
1101.106 593.431 L
1106.513 598.049 L
1112.498 592.296 L
1118.291 596.607 L
1124.277 600.879 L
1130.069 599.807 L
1136.055 603.865 L
1142.041 614.523 L
1147.834 615.981 L
1153.82 617.987 L
1159.612 620.656 L
1165.598 619.67 L
1171.584 623.901 L
1177.183 618.823 L
1183.169 608.125 L
1188.962 607.888 L
1194.948 606.459 L
1200.74 599.19 L
1206.726 603.092 L
1212.712 607.698 L
1218.505 613.566 L
1224.49 612.327 L
1230.283 617.163 L
1236.269 617.566 L
1242.255 613.399 L
1247.661 617.14 L
1253.647 618.183 L
1259.44 622.973 L
1265.426 608.292 L
1271.218 591.028 L
1277.204 622.893 L
1283.19 631.199 L
1288.983 639.038 L
1294.968 641.903 L
1300.761 650.365 L
1306.747 658.107 L
1312.733 672.108 L
1318.139 681.688 L
1324.125 686.421 L
1329.918 701.834 L
1335.903 707.241 L
1341.696 701.65 L
1347.682 698.658 L
1353.668 701.881 L
1359.46 696.837 L
1365.446 696.641 L
1371.239 694.716 L
1377.225 674.679 L
1383.21 665.923 L
1388.617 648.907 L
1394.603 639.384 L
1400.395 627.083 L
1406.381 617.78 L
1412.174 615.145 L
1418.16 608.92 L
1424.146 587.921 L
1429.938 577.758 L
1435.924 565.734 L
1441.717 535.396 L
1447.703 523.038 L
1453.688 535.143 L
1459.288 543.213 L
1465.274 527.649 L
1471.066 526.496 L
1477.052 516.121 L
1482.845 536.872 L
1488.831 522.461 L
1494.816 513.239 L
1500.609 516.697 L
1506.595 512.086 L
1512.388 506.321 L
1518.373 503.439 L
1524.359 499.404 L
1529.766 494.216 L
1535.751 484.994 L
1541.544 480.959 L
1547.53 477.5 L
1553.323 471.736 L
1559.308 474.041 L
1565.294 474.618 L
1571.087 467.124 L
1577.073 462.513 L
1582.865 454.443 L
1588.851 449.255 L
1594.837 440.609 L
1600.244 437.15 L
1606.229 431.386 L
1612.022 422.163 L
1618.008 423.892 L
1623.801 415.822 L
1629.786 408.905 L
S
GR
GS
[0.6 0 0 0.6 0 0] CT
0.494 0.184 0.557 RC
1 LJ
3.333 LW
N
254.793 276.326 M
260.199 253.269 L
266.185 262.492 L
271.978 263.069 L
277.964 248.658 L
283.756 238.859 L
289.742 237.129 L
295.728 228.483 L
301.52 234.824 L
307.506 221.566 L
313.299 207.731 L
319.285 197.356 L
325.271 178.91 L
330.87 173.722 L
336.856 162.77 L
342.649 162.194 L
348.634 152.394 L
354.427 163.346 L
360.413 159.888 L
366.399 157.582 L
372.191 169.111 L
378.177 166.229 L
383.97 179.486 L
389.956 214.072 L
395.941 258.457 L
401.348 271.139 L
407.334 295.349 L
413.126 314.371 L
419.112 325.323 L
424.905 329.934 L
430.891 348.956 L
436.877 362.214 L
442.669 422.739 L
448.655 446.373 L
454.448 439.456 L
460.434 442.338 L
466.419 438.303 L
471.826 440.609 L
477.812 415.822 L
483.604 437.726 L
489.59 440.609 L
495.383 453.29 L
501.369 469.43 L
507.354 471.159 L
513.147 479.229 L
519.133 489.605 L
524.926 486.146 L
530.911 503.439 L
536.897 499.981 L
542.304 504.592 L
548.289 504.592 L
554.082 505.169 L
560.068 510.933 L
565.861 515.544 L
571.846 506.898 L
577.832 504.016 L
583.625 515.544 L
589.611 505.745 L
595.403 499.404 L
601.389 505.169 L
607.375 504.592 L
612.975 509.78 L
618.96 508.051 L
624.753 486.146 L
630.739 477.5 L
636.532 458.478 L
642.517 453.866 L
648.503 461.36 L
654.296 447.526 L
660.282 441.185 L
666.074 414.669 L
672.06 408.329 L
678.046 393.341 L
683.452 372.59 L
689.438 360.485 L
695.231 363.367 L
701.217 361.061 L
707.009 351.262 L
712.995 328.205 L
718.981 327.052 L
724.774 316.676 L
730.759 297.654 L
736.552 293.619 L
742.538 289.008 L
748.524 273.444 L
753.93 259.61 L
759.916 253.269 L
765.709 249.811 L
771.695 243.47 L
777.487 226.754 L
783.473 232.518 L
789.459 237.129 L
795.252 241.741 L
801.237 240.011 L
807.03 241.741 L
813.016 234.824 L
819.002 231.365 L
824.408 240.011 L
830.394 241.164 L
836.187 240.588 L
842.172 233.094 L
847.965 236.553 L
853.951 246.929 L
859.937 274.597 L
865.729 289.584 L
871.715 296.501 L
877.508 328.205 L
883.494 331.664 L
889.479 408.329 L
895.079 440.032 L
901.065 455.019 L
906.857 438.303 L
912.843 428.504 L
918.636 423.316 L
924.622 428.504 L
930.608 436.574 L
936.4 452.714 L
942.386 502.286 L
948.179 531.108 L
954.165 539.754 L
960.15 538.025 L
965.557 543.789 L
971.543 563.388 L
977.335 554.741 L
983.321 561.659 L
989.114 554.741 L
995.1 555.318 L
1001.085 558.776 L
1006.878 558.2 L
1012.864 559.353 L
1018.657 593.362 L
1024.642 559.353 L
1030.628 587.021 L
1036.035 595.091 L
1042.021 580.681 L
1047.813 584.716 L
1053.799 602.009 L
1059.592 625.066 L
1065.577 641.206 L
1071.563 659.075 L
1077.356 671.756 L
1083.342 716.718 L
1089.134 719.6 L
1095.12 649.276 L
1101.106 659.075 L
1106.513 630.83 L
1112.498 625.066 L
1118.291 634.865 L
1124.277 662.534 L
1130.069 689.049 L
1136.055 715.565 L
1142.041 783.007 L
1147.834 784.736 L
1153.82 734.587 L
1159.612 741.504 L
1165.598 736.893 L
1171.584 757.068 L
1177.183 762.832 L
1183.169 729.976 L
1188.962 756.491 L
1194.948 768.596 L
1200.74 768.02 L
1206.726 788.195 L
1212.712 785.313 L
1218.505 815.864 L
1224.49 826.816 L
1230.283 840.074 L
1236.269 842.956 L
1242.255 832.004 L
1247.661 828.545 L
1253.647 834.886 L
1259.44 851.602 L
1265.426 818.746 L
1271.218 728.823 L
1277.204 715.565 L
1283.19 695.39 L
1288.983 705.189 L
1294.968 735.74 L
1300.761 755.339 L
1306.747 717.871 L
1312.733 701.731 L
1318.139 706.342 L
1324.125 661.957 L
1329.918 640.053 L
1335.903 647.546 L
1341.696 625.642 L
1347.682 601.432 L
1353.668 595.668 L
1359.46 580.681 L
1365.446 595.091 L
1371.239 585.869 L
1377.225 554.165 L
1383.21 561.082 L
1388.617 547.824 L
1394.603 552.436 L
1400.395 554.741 L
1406.381 557.624 L
1412.174 557.624 L
1418.16 554.741 L
1424.146 553.012 L
1429.938 569.152 L
1435.924 565.117 L
1441.717 536.296 L
1447.703 523.038 L
1453.688 535.143 L
1459.288 543.213 L
1465.274 527.649 L
1471.066 526.496 L
1477.052 516.121 L
1482.845 536.872 L
1488.831 522.461 L
1494.816 513.239 L
1500.609 516.697 L
1506.595 512.086 L
1512.388 506.321 L
1518.373 503.439 L
1524.359 499.404 L
1529.766 494.216 L
1535.751 484.994 L
1541.544 480.959 L
1547.53 477.5 L
1553.323 471.736 L
1559.308 474.041 L
1565.294 474.618 L
1571.087 467.124 L
1577.073 462.513 L
1582.865 454.443 L
1588.851 449.255 L
1594.837 440.609 L
1600.244 437.15 L
1606.229 431.386 L
1612.022 422.163 L
1618.008 423.892 L
1623.801 415.822 L
1629.786 408.905 L
S
GR
GS
[0.6 0 0 0.6 0 0] CT
1 GC
N
883 868 M
883 709 L
262 709 L
262 868 L
cp
f
GR
GS
[0.6 0 0 0.6 192.46418 438.31014] CT
/Helvetica 30 F
GS
[1 0 0 1 0 0] CT
0 12 moveto 
1 -1 scale
(Short rate factor) t 
GR
GR
GS
[0.6 0 0 0.6 0 0] CT
0 0.447 0.741 RC
1 LJ
3.333 LW
N
267.002 730.517 M
317.022 730.517 L
S
GR
GS
[0.6 0 0 0.6 192.46418 461.50338] CT
/Helvetica 30 F
GS
[1 0 0 1 0 0] CT
0 12 moveto 
1 -1 scale
(Shadow short rate) t 
GR
GR
GS
[0.6 0 0 0.6 0 0] CT
0.851 0.325 0.098 RC
1 LJ
3.333 LW
N
267.002 769.172 M
317.022 769.172 L
S
GR
GS
[0.6 0 0 0.6 192.46418 484.69662] CT
/Helvetica 30 F
GS
[1 0 0 1 0 0] CT
0 12 moveto 
1 -1 scale
(Bloomberg US shadow rate \(Fed, Atlanta\)) t 
GR
GR
GS
[0.6 0 0 0.6 0 0] CT
0.929 0.694 0.125 RC
1 LJ
3.333 LW
N
267.002 807.828 M
317.022 807.828 L
S
GR
GS
[0.6 0 0 0.6 192.46418 507.88986] CT
/Helvetica 30 F
GS
[1 0 0 1 0 0] CT
0 12 moveto 
1 -1 scale
(Bloomberg US shadow rate \(NZ\)) t 
GR
GR
GS
[0.6 0 0 0.6 0 0] CT
0.494 0.184 0.557 RC
1 LJ
3.333 LW
N
267.002 846.483 M
317.022 846.483 L
S
GR
GS
[0.6 0 0 0.6 0 0] CT
0.149 GC
10.0 ML
0.833 LW
N
262 868 M
262 709 L
883 709 L
883 868 L
cp
S
GR
%%Trailer
%%Pages: 1
%%EOF
