%!PS-Adobe-3.0 EPSF-3.0
%%Creator: (MATLAB, The Mathworks, Inc. Version 9.8.0.1359463 \(R2020a\) Update 1. Operating System: Windows 10)
%%Title: ./WrongProjections.eps
%%CreationDate: 2021-03-09T11:20:34
%%Pages: (atend)
%%BoundingBox:   146    55  1324   698
%%LanguageLevel: 3
%%EndComments
%%BeginProlog
%%BeginResource: procset (Apache XML Graphics Std ProcSet) 1.2 0
%%Version: 1.2 0
%%Copyright: (Copyright 2001-2003,2010 The Apache Software Foundation. License terms: http://www.apache.org/licenses/LICENSE-2.0)
/bd{bind def}bind def
/ld{load def}bd
/GR/grestore ld
/GS/gsave ld
/RM/rmoveto ld
/C/curveto ld
/t/show ld
/L/lineto ld
/ML/setmiterlimit ld
/CT/concat ld
/f/fill ld
/N/newpath ld
/S/stroke ld
/CC/setcmykcolor ld
/A/ashow ld
/cp/closepath ld
/RC/setrgbcolor ld
/LJ/setlinejoin ld
/GC/setgray ld
/LW/setlinewidth ld
/M/moveto ld
/re {4 2 roll M
1 index 0 rlineto
0 exch rlineto
neg 0 rlineto
cp } bd
/_ctm matrix def
/_tm matrix def
/BT { _ctm currentmatrix pop matrix _tm copy pop 0 0 moveto } bd
/ET { _ctm setmatrix } bd
/iTm { _ctm setmatrix _tm concat } bd
/Tm { _tm astore pop iTm 0 0 moveto } bd
/ux 0.0 def
/uy 0.0 def
/F {
  /Tp exch def
  /Tf exch def
  Tf findfont Tp scalefont setfont
  /cf Tf def  /cs Tp def
} bd
/ULS {currentpoint /uy exch def /ux exch def} bd
/ULE {
  /Tcx currentpoint pop def
  gsave
  newpath
  cf findfont cs scalefont dup
  /FontMatrix get 0 get /Ts exch def /FontInfo get dup
  /UnderlinePosition get Ts mul /To exch def
  /UnderlineThickness get Ts mul /Tt exch def
  ux uy To add moveto  Tcx uy To add lineto
  Tt setlinewidth stroke
  grestore
} bd
/OLE {
  /Tcx currentpoint pop def
  gsave
  newpath
  cf findfont cs scalefont dup
  /FontMatrix get 0 get /Ts exch def /FontInfo get dup
  /UnderlinePosition get Ts mul /To exch def
  /UnderlineThickness get Ts mul /Tt exch def
  ux uy To add cs add moveto Tcx uy To add cs add lineto
  Tt setlinewidth stroke
  grestore
} bd
/SOE {
  /Tcx currentpoint pop def
  gsave
  newpath
  cf findfont cs scalefont dup
  /FontMatrix get 0 get /Ts exch def /FontInfo get dup
  /UnderlinePosition get Ts mul /To exch def
  /UnderlineThickness get Ts mul /Tt exch def
  ux uy To add cs 10 mul 26 idiv add moveto Tcx uy To add cs 10 mul 26 idiv add lineto
  Tt setlinewidth stroke
  grestore
} bd
/QT {
/Y22 exch store
/X22 exch store
/Y21 exch store
/X21 exch store
currentpoint
/Y21 load 2 mul add 3 div exch
/X21 load 2 mul add 3 div exch
/X21 load 2 mul /X22 load add 3 div
/Y21 load 2 mul /Y22 load add 3 div
/X22 load /Y22 load curveto
} bd
/SSPD {
dup length /d exch dict def
{
/v exch def
/k exch def
currentpagedevice k known {
/cpdv currentpagedevice k get def
v cpdv ne {
/upd false def
/nullv v type /nulltype eq def
/nullcpdv cpdv type /nulltype eq def
nullv nullcpdv or
{
/upd true def
} {
/sametype v type cpdv type eq def
sametype {
v type /arraytype eq {
/vlen v length def
/cpdvlen cpdv length def
vlen cpdvlen eq {
0 1 vlen 1 sub {
/i exch def
/obj v i get def
/cpdobj cpdv i get def
obj cpdobj ne {
/upd true def
exit
} if
} for
} {
/upd true def
} ifelse
} {
v type /dicttype eq {
v {
/dv exch def
/dk exch def
/cpddv cpdv dk get def
dv cpddv ne {
/upd true def
exit
} if
} forall
} {
/upd true def
} ifelse
} ifelse
} if
} ifelse
upd true eq {
d k v put
} if
} if
} if
} forall
d length 0 gt {
d setpagedevice
} if
} bd
/RE { % /NewFontName [NewEncodingArray] /FontName RE -
  findfont dup length dict begin
  {
    1 index /FID ne
    {def} {pop pop} ifelse
  } forall
  /Encoding exch def
  /FontName 1 index def
  currentdict definefont pop
  end
} bind def
%%EndResource
%%BeginResource: procset (Apache XML Graphics EPS ProcSet) 1.0 0
%%Version: 1.0 0
%%Copyright: (Copyright 2002-2003 The Apache Software Foundation. License terms: http://www.apache.org/licenses/LICENSE-2.0)
/BeginEPSF { %def
/b4_Inc_state save def         % Save state for cleanup
/dict_count countdictstack def % Count objects on dict stack
/op_count count 1 sub def      % Count objects on operand stack
userdict begin                 % Push userdict on dict stack
/showpage { } def              % Redefine showpage, { } = null proc
0 setgray 0 setlinecap         % Prepare graphics state
1 setlinewidth 0 setlinejoin
10 setmiterlimit [ ] 0 setdash newpath
/languagelevel where           % If level not equal to 1 then
{pop languagelevel             % set strokeadjust and
1 ne                           % overprint to their defaults.
{false setstrokeadjust false setoverprint
} if
} if
} bd
/EndEPSF { %def
count op_count sub {pop} repeat            % Clean up stacks
countdictstack dict_count sub {end} repeat
b4_Inc_state restore
} bd
%%EndResource
%FOPBeginFontDict
%%IncludeResource: font Courier-Oblique
%%IncludeResource: font Courier-BoldOblique
%%IncludeResource: font Courier-Bold
%%IncludeResource: font ZapfDingbats
%%IncludeResource: font Symbol
%%IncludeResource: font Helvetica
%%IncludeResource: font Helvetica-Oblique
%%IncludeResource: font Helvetica-Bold
%%IncludeResource: font Helvetica-BoldOblique
%%IncludeResource: font Times-Roman
%%IncludeResource: font Times-Italic
%%IncludeResource: font Times-Bold
%%IncludeResource: font Times-BoldItalic
%%IncludeResource: font Courier
%FOPEndFontDict
%%BeginResource: encoding WinAnsiEncoding
/WinAnsiEncoding [
/.notdef /.notdef /.notdef /.notdef /.notdef
/.notdef /.notdef /.notdef /.notdef /.notdef
/.notdef /.notdef /.notdef /.notdef /.notdef
/.notdef /.notdef /.notdef /.notdef /.notdef
/.notdef /.notdef /.notdef /.notdef /.notdef
/.notdef /.notdef /.notdef /.notdef /.notdef
/.notdef /.notdef /space /exclam /quotedbl
/numbersign /dollar /percent /ampersand /quotesingle
/parenleft /parenright /asterisk /plus /comma
/hyphen /period /slash /zero /one
/two /three /four /five /six
/seven /eight /nine /colon /semicolon
/less /equal /greater /question /at
/A /B /C /D /E
/F /G /H /I /J
/K /L /M /N /O
/P /Q /R /S /T
/U /V /W /X /Y
/Z /bracketleft /backslash /bracketright /asciicircum
/underscore /quoteleft /a /b /c
/d /e /f /g /h
/i /j /k /l /m
/n /o /p /q /r
/s /t /u /v /w
/x /y /z /braceleft /bar
/braceright /asciitilde /bullet /Euro /bullet
/quotesinglbase /florin /quotedblbase /ellipsis /dagger
/daggerdbl /circumflex /perthousand /Scaron /guilsinglleft
/OE /bullet /Zcaron /bullet /bullet
/quoteleft /quoteright /quotedblleft /quotedblright /bullet
/endash /emdash /asciitilde /trademark /scaron
/guilsinglright /oe /bullet /zcaron /Ydieresis
/space /exclamdown /cent /sterling /currency
/yen /brokenbar /section /dieresis /copyright
/ordfeminine /guillemotleft /logicalnot /sfthyphen /registered
/macron /degree /plusminus /twosuperior /threesuperior
/acute /mu /paragraph /middot /cedilla
/onesuperior /ordmasculine /guillemotright /onequarter /onehalf
/threequarters /questiondown /Agrave /Aacute /Acircumflex
/Atilde /Adieresis /Aring /AE /Ccedilla
/Egrave /Eacute /Ecircumflex /Edieresis /Igrave
/Iacute /Icircumflex /Idieresis /Eth /Ntilde
/Ograve /Oacute /Ocircumflex /Otilde /Odieresis
/multiply /Oslash /Ugrave /Uacute /Ucircumflex
/Udieresis /Yacute /Thorn /germandbls /agrave
/aacute /acircumflex /atilde /adieresis /aring
/ae /ccedilla /egrave /eacute /ecircumflex
/edieresis /igrave /iacute /icircumflex /idieresis
/eth /ntilde /ograve /oacute /ocircumflex
/otilde /odieresis /divide /oslash /ugrave
/uacute /ucircumflex /udieresis /yacute /thorn
/ydieresis
] def
%%EndResource
%FOPBeginFontReencode
/Courier-Oblique findfont
dup length dict begin
  {1 index /FID ne {def} {pop pop} ifelse} forall
  /Encoding WinAnsiEncoding def
  currentdict
end
/Courier-Oblique exch definefont pop
/Courier-BoldOblique findfont
dup length dict begin
  {1 index /FID ne {def} {pop pop} ifelse} forall
  /Encoding WinAnsiEncoding def
  currentdict
end
/Courier-BoldOblique exch definefont pop
/Courier-Bold findfont
dup length dict begin
  {1 index /FID ne {def} {pop pop} ifelse} forall
  /Encoding WinAnsiEncoding def
  currentdict
end
/Courier-Bold exch definefont pop
/Helvetica findfont
dup length dict begin
  {1 index /FID ne {def} {pop pop} ifelse} forall
  /Encoding WinAnsiEncoding def
  currentdict
end
/Helvetica exch definefont pop
/Helvetica-Oblique findfont
dup length dict begin
  {1 index /FID ne {def} {pop pop} ifelse} forall
  /Encoding WinAnsiEncoding def
  currentdict
end
/Helvetica-Oblique exch definefont pop
/Helvetica-Bold findfont
dup length dict begin
  {1 index /FID ne {def} {pop pop} ifelse} forall
  /Encoding WinAnsiEncoding def
  currentdict
end
/Helvetica-Bold exch definefont pop
/Helvetica-BoldOblique findfont
dup length dict begin
  {1 index /FID ne {def} {pop pop} ifelse} forall
  /Encoding WinAnsiEncoding def
  currentdict
end
/Helvetica-BoldOblique exch definefont pop
/Times-Roman findfont
dup length dict begin
  {1 index /FID ne {def} {pop pop} ifelse} forall
  /Encoding WinAnsiEncoding def
  currentdict
end
/Times-Roman exch definefont pop
/Times-Italic findfont
dup length dict begin
  {1 index /FID ne {def} {pop pop} ifelse} forall
  /Encoding WinAnsiEncoding def
  currentdict
end
/Times-Italic exch definefont pop
/Times-Bold findfont
dup length dict begin
  {1 index /FID ne {def} {pop pop} ifelse} forall
  /Encoding WinAnsiEncoding def
  currentdict
end
/Times-Bold exch definefont pop
/Times-BoldItalic findfont
dup length dict begin
  {1 index /FID ne {def} {pop pop} ifelse} forall
  /Encoding WinAnsiEncoding def
  currentdict
end
/Times-BoldItalic exch definefont pop
/Courier findfont
dup length dict begin
  {1 index /FID ne {def} {pop pop} ifelse} forall
  /Encoding WinAnsiEncoding def
  currentdict
end
/Courier exch definefont pop
%FOPEndFontReencode
%%EndProlog
%%Page: 1 1
%%PageBoundingBox: 0 0 1430 748
%%BeginPageSetup
[1 0 0 -1 0 748] CT
%%EndPageSetup
GS
[0.375 0 0 0.375 0 0.25] CT
N
0 0 M
3814 0 L
3814 1994 L
0 1994 L
0 0 L
cp
clip
1 GC
N
0 0 3814 1994 re
f
GR
GS
[0.375 0 0 0.375 0 0.25] CT
1 GC
N
0 0 3814 1994 re
f
GR
GS
[0.375 0 0 0.375 0 0.25] CT
1 GC
N
496 1775 M
3452 1775 L
3452 150 L
496 150 L
cp
f
GR
GS
[0.375 0 0 0.375 0 0.25] CT
0.873 GC
1 LJ
1.333 LW
N
496 1775 M
496 150 L
S
GR
GS
[0.375 0 0 0.375 0 0.25] CT
0.873 GC
1 LJ
1.333 LW
N
1086.876 1775 M
1086.876 150 L
S
GR
GS
[0.375 0 0 0.375 0 0.25] CT
0.873 GC
1 LJ
1.333 LW
N
1677.752 1775 M
1677.752 150 L
S
GR
GS
[0.375 0 0 0.375 0 0.25] CT
0.873 GC
1 LJ
1.333 LW
N
2270.248 1775 M
2270.248 150 L
S
GR
GS
[0.375 0 0 0.375 0 0.25] CT
0.873 GC
1 LJ
1.333 LW
N
2861.124 1775 M
2861.124 150 L
S
GR
GS
[0.375 0 0 0.375 0 0.25] CT
0.873 GC
1 LJ
1.333 LW
N
3452 1775 M
3452 150 L
S
GR
GS
[0.375 0 0 0.375 0 0.25] CT
0.873 GC
1 LJ
1.333 LW
N
3452 1775 M
496 1775 L
S
GR
GS
[0.375 0 0 0.375 0 0.25] CT
0.873 GC
1 LJ
1.333 LW
N
3452 1612.5 M
496 1612.5 L
S
GR
GS
[0.375 0 0 0.375 0 0.25] CT
0.873 GC
1 LJ
1.333 LW
N
3452 1450 M
496 1450 L
S
GR
GS
[0.375 0 0 0.375 0 0.25] CT
0.873 GC
1 LJ
1.333 LW
N
3452 1287.5 M
496 1287.5 L
S
GR
GS
[0.375 0 0 0.375 0 0.25] CT
0.873 GC
1 LJ
1.333 LW
N
3452 1125 M
496 1125 L
S
GR
GS
[0.375 0 0 0.375 0 0.25] CT
0.873 GC
1 LJ
1.333 LW
N
3452 962.5 M
496 962.5 L
S
GR
GS
[0.375 0 0 0.375 0 0.25] CT
0.873 GC
1 LJ
1.333 LW
N
3452 800 M
496 800 L
S
GR
GS
[0.375 0 0 0.375 0 0.25] CT
0.873 GC
1 LJ
1.333 LW
N
3452 637.5 M
496 637.5 L
S
GR
GS
[0.375 0 0 0.375 0 0.25] CT
0.873 GC
1 LJ
1.333 LW
N
3452 475 M
496 475 L
S
GR
GS
[0.375 0 0 0.375 0 0.25] CT
0.873 GC
1 LJ
1.333 LW
N
3452 312.5 M
496 312.5 L
S
GR
GS
[0.375 0 0 0.375 0 0.25] CT
0.873 GC
1 LJ
1.333 LW
N
3452 150 M
496 150 L
S
GR
GS
[0.375 0 0 0.375 0 0.25] CT
0.149 GC
2 setlinecap
1 LJ
1.333 LW
N
496 1775 M
3452 1775 L
S
GR
GS
[0.375 0 0 0.375 0 0.25] CT
0.149 GC
2 setlinecap
1 LJ
1.333 LW
N
496 150 M
3452 150 L
S
GR
GS
[0.375 0 0 0.375 0 0.25] CT
0.149 GC
2 setlinecap
1 LJ
1.333 LW
N
496 1775 M
496 1745.44 L
S
GR
GS
[0.375 0 0 0.375 0 0.25] CT
0.149 GC
2 setlinecap
1 LJ
1.333 LW
N
1086.876 1775 M
1086.876 1745.44 L
S
GR
GS
[0.375 0 0 0.375 0 0.25] CT
0.149 GC
2 setlinecap
1 LJ
1.333 LW
N
1677.752 1775 M
1677.752 1745.44 L
S
GR
GS
[0.375 0 0 0.375 0 0.25] CT
0.149 GC
2 setlinecap
1 LJ
1.333 LW
N
2270.248 1775 M
2270.248 1745.44 L
S
GR
GS
[0.375 0 0 0.375 0 0.25] CT
0.149 GC
2 setlinecap
1 LJ
1.333 LW
N
2861.124 1775 M
2861.124 1745.44 L
S
GR
GS
[0.375 0 0 0.375 0 0.25] CT
0.149 GC
2 setlinecap
1 LJ
1.333 LW
N
3452 1775 M
3452 1745.44 L
S
GR
GS
[0.375 0 0 0.375 0 0.25] CT
0.149 GC
2 setlinecap
1 LJ
1.333 LW
N
496 150 M
496 179.56 L
S
GR
GS
[0.375 0 0 0.375 0 0.25] CT
0.149 GC
2 setlinecap
1 LJ
1.333 LW
N
1086.876 150 M
1086.876 179.56 L
S
GR
GS
[0.375 0 0 0.375 0 0.25] CT
0.149 GC
2 setlinecap
1 LJ
1.333 LW
N
1677.752 150 M
1677.752 179.56 L
S
GR
GS
[0.375 0 0 0.375 0 0.25] CT
0.149 GC
2 setlinecap
1 LJ
1.333 LW
N
2270.248 150 M
2270.248 179.56 L
S
GR
GS
[0.375 0 0 0.375 0 0.25] CT
0.149 GC
2 setlinecap
1 LJ
1.333 LW
N
2861.124 150 M
2861.124 179.56 L
S
GR
GS
[0.375 0 0 0.375 0 0.25] CT
0.149 GC
2 setlinecap
1 LJ
1.333 LW
N
3452 150 M
3452 179.56 L
S
GR
GS
[0.375 0 0 0.375 186 671.87495] CT
0.149 GC
/Helvetica 53.333 F
GS
[1 0 0 1 0 0] CT
-82 54 moveto 
1 -1 scale
(Jan-18) t 
GR
GR
GS
[0.375 0 0 0.375 407.57858 671.87495] CT
0.149 GC
/Helvetica 53.333 F
GS
[1 0 0 1 0 0] CT
-82 54 moveto 
1 -1 scale
(Jan-19) t 
GR
GR
GS
[0.375 0 0 0.375 629.15717 671.87495] CT
0.149 GC
/Helvetica 53.333 F
GS
[1 0 0 1 0 0] CT
-82 54 moveto 
1 -1 scale
(Jan-20) t 
GR
GR
GS
[0.375 0 0 0.375 851.34283 671.87495] CT
0.149 GC
/Helvetica 53.333 F
GS
[1 0 0 1 0 0] CT
-82 54 moveto 
1 -1 scale
(Jan-21) t 
GR
GR
GS
[0.375 0 0 0.375 1072.92142 671.87495] CT
0.149 GC
/Helvetica 53.333 F
GS
[1 0 0 1 0 0] CT
-82 54 moveto 
1 -1 scale
(Jan-22) t 
GR
GR
GS
[0.375 0 0 0.375 1294.5 671.87495] CT
0.149 GC
/Helvetica 53.333 F
GS
[1 0 0 1 0 0] CT
-82 54 moveto 
1 -1 scale
(Jan-23) t 
GR
GR
GS
[0.375 0 0 0.375 0 0.25] CT
0.149 GC
2 setlinecap
1 LJ
1.333 LW
N
496 1775 M
496 150 L
S
GR
GS
[0.375 0 0 0.375 0 0.25] CT
0.149 GC
2 setlinecap
1 LJ
1.333 LW
N
3452 1775 M
3452 150 L
S
GR
GS
[0.375 0 0 0.375 0 0.25] CT
0.149 GC
2 setlinecap
1 LJ
1.333 LW
N
496 1775 M
525.544 1775 L
S
GR
GS
[0.375 0 0 0.375 0 0.25] CT
0.149 GC
2 setlinecap
1 LJ
1.333 LW
N
496 1612.5 M
525.544 1612.5 L
S
GR
GS
[0.375 0 0 0.375 0 0.25] CT
0.149 GC
2 setlinecap
1 LJ
1.333 LW
N
496 1450 M
525.544 1450 L
S
GR
GS
[0.375 0 0 0.375 0 0.25] CT
0.149 GC
2 setlinecap
1 LJ
1.333 LW
N
496 1287.5 M
525.544 1287.5 L
S
GR
GS
[0.375 0 0 0.375 0 0.25] CT
0.149 GC
2 setlinecap
1 LJ
1.333 LW
N
496 1125 M
525.544 1125 L
S
GR
GS
[0.375 0 0 0.375 0 0.25] CT
0.149 GC
2 setlinecap
1 LJ
1.333 LW
N
496 962.5 M
525.544 962.5 L
S
GR
GS
[0.375 0 0 0.375 0 0.25] CT
0.149 GC
2 setlinecap
1 LJ
1.333 LW
N
496 800 M
525.544 800 L
S
GR
GS
[0.375 0 0 0.375 0 0.25] CT
0.149 GC
2 setlinecap
1 LJ
1.333 LW
N
496 637.5 M
525.544 637.5 L
S
GR
GS
[0.375 0 0 0.375 0 0.25] CT
0.149 GC
2 setlinecap
1 LJ
1.333 LW
N
496 475 M
525.544 475 L
S
GR
GS
[0.375 0 0 0.375 0 0.25] CT
0.149 GC
2 setlinecap
1 LJ
1.333 LW
N
496 312.5 M
525.544 312.5 L
S
GR
GS
[0.375 0 0 0.375 0 0.25] CT
0.149 GC
2 setlinecap
1 LJ
1.333 LW
N
496 150 M
525.544 150 L
S
GR
GS
[0.375 0 0 0.375 0 0.25] CT
0.149 GC
2 setlinecap
1 LJ
1.333 LW
N
3452 1775 M
3422.456 1775 L
S
GR
GS
[0.375 0 0 0.375 0 0.25] CT
0.149 GC
2 setlinecap
1 LJ
1.333 LW
N
3452 1612.5 M
3422.456 1612.5 L
S
GR
GS
[0.375 0 0 0.375 0 0.25] CT
0.149 GC
2 setlinecap
1 LJ
1.333 LW
N
3452 1450 M
3422.456 1450 L
S
GR
GS
[0.375 0 0 0.375 0 0.25] CT
0.149 GC
2 setlinecap
1 LJ
1.333 LW
N
3452 1287.5 M
3422.456 1287.5 L
S
GR
GS
[0.375 0 0 0.375 0 0.25] CT
0.149 GC
2 setlinecap
1 LJ
1.333 LW
N
3452 1125 M
3422.456 1125 L
S
GR
GS
[0.375 0 0 0.375 0 0.25] CT
0.149 GC
2 setlinecap
1 LJ
1.333 LW
N
3452 962.5 M
3422.456 962.5 L
S
GR
GS
[0.375 0 0 0.375 0 0.25] CT
0.149 GC
2 setlinecap
1 LJ
1.333 LW
N
3452 800 M
3422.456 800 L
S
GR
GS
[0.375 0 0 0.375 0 0.25] CT
0.149 GC
2 setlinecap
1 LJ
1.333 LW
N
3452 637.5 M
3422.456 637.5 L
S
GR
GS
[0.375 0 0 0.375 0 0.25] CT
0.149 GC
2 setlinecap
1 LJ
1.333 LW
N
3452 475 M
3422.456 475 L
S
GR
GS
[0.375 0 0 0.375 0 0.25] CT
0.149 GC
2 setlinecap
1 LJ
1.333 LW
N
3452 312.5 M
3422.456 312.5 L
S
GR
GS
[0.375 0 0 0.375 0 0.25] CT
0.149 GC
2 setlinecap
1 LJ
1.333 LW
N
3452 150 M
3422.456 150 L
S
GR
GS
[0.375 0 0 0.375 180.00524 665.875] CT
0.149 GC
/Helvetica 53.333 F
GS
[1 0 0 1 0 0] CT
-48 21 moveto 
1 -1 scale
(-4) t 
GR
GR
GS
[0.375 0 0 0.375 180.00524 604.9375] CT
0.149 GC
/Helvetica 53.333 F
GS
[1 0 0 1 0 0] CT
-92 21 moveto 
1 -1 scale
(-3.5) t 
GR
GR
GS
[0.375 0 0 0.375 180.00524 544] CT
0.149 GC
/Helvetica 53.333 F
GS
[1 0 0 1 0 0] CT
-48 21 moveto 
1 -1 scale
(-3) t 
GR
GR
GS
[0.375 0 0 0.375 180.00524 483.0625] CT
0.149 GC
/Helvetica 53.333 F
GS
[1 0 0 1 0 0] CT
-92 21 moveto 
1 -1 scale
(-2.5) t 
GR
GR
GS
[0.375 0 0 0.375 180.00524 422.125] CT
0.149 GC
/Helvetica 53.333 F
GS
[1 0 0 1 0 0] CT
-48 21 moveto 
1 -1 scale
(-2) t 
GR
GR
GS
[0.375 0 0 0.375 180.00524 361.1875] CT
0.149 GC
/Helvetica 53.333 F
GS
[1 0 0 1 0 0] CT
-92 21 moveto 
1 -1 scale
(-1.5) t 
GR
GR
GS
[0.375 0 0 0.375 180.00524 300.25] CT
0.149 GC
/Helvetica 53.333 F
GS
[1 0 0 1 0 0] CT
-48 21 moveto 
1 -1 scale
(-1) t 
GR
GR
GS
[0.375 0 0 0.375 180.00524 239.3125] CT
0.149 GC
/Helvetica 53.333 F
GS
[1 0 0 1 0 0] CT
-92 21 moveto 
1 -1 scale
(-0.5) t 
GR
GR
GS
[0.375 0 0 0.375 180.00524 178.375] CT
0.149 GC
/Helvetica 53.333 F
GS
[1 0 0 1 0 0] CT
-30 21 moveto 
1 -1 scale
(0) t 
GR
GR
GS
[0.375 0 0 0.375 180.00524 117.4375] CT
0.149 GC
/Helvetica 53.333 F
GS
[1 0 0 1 0 0] CT
-75 21 moveto 
1 -1 scale
(0.5) t 
GR
GR
GS
[0.375 0 0 0.375 180.00524 56.5] CT
0.149 GC
/Helvetica 53.333 F
GS
[1 0 0 1 0 0] CT
-30 21 moveto 
1 -1 scale
(1) t 
GR
GR
GS
[0.375 0 0 0.375 0 0.25] CT
0 0.447 0.741 RC
[20 20] 0 setdash
2 LJ
5.333 LW
N
544.565 676.149 M
589.893 678.329 L
636.839 694.148 L
688.642 689.568 L
738.826 676.816 L
785.772 679.023 L
837.575 695.328 L
887.759 691.427 L
933.087 685.216 L
986.508 718.701 L
1035.073 701.667 L
1085.257 731.993 L
1135.441 1140.111 L
1185.625 1103.482 L
1235.809 1114.197 L
1285.993 1267.357 L
1336.177 1159.619 L
1386.361 1266.462 L
1436.545 1174.849 L
1486.729 1427.603 L
1536.913 1321.054 L
1587.098 1243.677 L
1637.281 977.768 L
1687.465 998.451 L
1737.65 1130.296 L
1787.833 875.964 L
1838.018 1052.888 L
1888.202 1282.15 L
1938.385 1277.605 L
1988.57 1329.154 L
2038.754 1394 L
2088.938 1220.573 L
2139.122 1226.323 L
2189.306 1409.254 L
2239.49 1279.518 L
2289.674 857.147 L
2339.858 1005.75 L
2390.042 973.693 L
2440.226 1117.285 L
2490.41 1273.047 L
2540.594 994.201 L
2590.778 833.635 L
2640.962 903.406 L
2691.146 767.033 L
2741.33 809.17 L
2791.514 1018.635 L
2841.698 809.866 L
2891.882 1034.005 L
2942.066 1265.114 L
2992.25 1550.88 L
3042.434 1163.541 L
3092.618 1398.759 L
3142.802 1481.451 L
3192.986 1517.368 L
S
GR
GS
[0.375 0 0 0.375 0 0.25] CT
0.851 0.325 0.098 RC
[20 20] 0 setdash
2 LJ
5.333 LW
N
544.565 689.5 M
589.893 689.5 L
636.839 699.25 L
688.642 689.5 L
738.826 696 L
785.772 699.25 L
837.575 692.75 L
887.759 686.25 L
933.087 676.5 L
986.508 709 L
1035.073 696 L
1085.257 702.5 L
1135.441 861.826 L
1185.625 875.304 L
1235.809 1027.561 L
1285.993 1166.35 L
1336.177 1129.251 L
1386.361 1100.618 L
1436.545 1117.724 L
1486.729 1159.197 L
1536.913 1151.051 L
1587.098 1178.692 L
1637.281 1129.406 L
1687.465 1071.275 L
1737.65 1090.857 L
1787.833 1028.522 L
1838.018 1061.928 L
1888.202 1139.485 L
1938.385 1354.17 L
1988.57 1401.524 L
2038.754 1378.201 L
2088.938 1361.141 L
2139.122 1404.98 L
2189.306 1403.309 L
2239.49 1284.287 L
2289.674 1187.951 L
2339.858 1224.35 L
2390.042 1196.581 L
2440.226 1098.382 L
2490.41 1158.185 L
2540.594 1060.939 L
2590.778 1051.971 L
2640.962 951.978 L
2691.146 844.943 L
2741.33 873.491 L
2791.514 886.545 L
2841.698 1019.175 L
2891.882 1077.477 L
2942.066 1119.214 L
2992.25 1152.246 L
3042.434 1200.609 L
3092.618 1336.057 L
3142.802 1518.827 L
3192.986 1582.402 L
S
GR
GS
[0.375 0 0 0.375 0 0.25] CT
0.929 0.694 0.125 RC
[20 20] 0 setdash
2 LJ
5.333 LW
N
544.565 650.5 M
589.893 657 L
636.839 670 L
688.642 657 L
738.826 686.25 L
785.772 686.25 L
837.575 670 L
887.759 673.25 L
933.087 650.5 L
986.508 686.25 L
1035.073 683 L
1085.257 686.25 L
1135.441 765.045 L
1185.625 703.958 L
1235.809 824.71 L
1285.993 978.308 L
1336.177 963.577 L
1386.361 969.002 L
1436.545 994.506 L
1486.729 1082.043 L
1536.913 1040.629 L
1587.098 1100.022 L
1637.281 1124.688 L
1687.465 1111.168 L
1737.65 1115.745 L
1787.833 1099.345 L
1838.018 1072.248 L
1888.202 1155.114 L
1938.385 1363.704 L
1988.57 1394.073 L
2038.754 1403.498 L
2088.938 1413.765 L
2139.122 1441.464 L
2189.306 1401.171 L
2239.49 1264.42 L
2289.674 1234.541 L
2339.858 1252.864 L
2390.042 1239.165 L
2440.226 1154.077 L
2490.41 1176.691 L
2540.594 1021.387 L
2590.778 1063.395 L
2640.962 959.38 L
2691.146 859.643 L
2741.33 916.254 L
2791.514 901.079 L
2841.698 1080.246 L
2891.882 1104.84 L
2942.066 1136.475 L
2992.25 1210.017 L
3042.434 1302.516 L
3092.618 1428.918 L
3142.802 1623.656 L
3192.986 1623.768 L
S
GR
GS
[0.375 0 0 0.375 0 0.25] CT
0.494 0.184 0.557 RC
[20 20] 0 setdash
2 LJ
5.333 LW
N
544.565 465.25 M
589.893 468.5 L
636.839 510.75 L
688.642 494.5 L
738.826 549.75 L
785.772 556.25 L
837.575 536.75 L
887.759 556.25 L
933.087 504.25 L
986.508 540 L
1035.073 559.5 L
1085.257 575.75 L
1135.441 582.434 L
1185.625 483.808 L
1235.809 589.637 L
1285.993 720.277 L
1336.177 685.894 L
1386.361 717.47 L
1436.545 768.501 L
1486.729 854.123 L
1536.913 816.176 L
1587.098 912 L
1637.281 987.798 L
1687.465 1007.051 L
1737.65 1040.222 L
1787.833 1033.316 L
1838.018 965.872 L
1888.202 1047.888 L
1938.385 1182.584 L
1988.57 1224.321 L
2038.754 1290.02 L
2088.938 1288.646 L
2139.122 1305.479 L
2189.306 1260.106 L
2239.49 1148.715 L
2289.674 1188.684 L
2339.858 1194.924 L
2390.042 1142.229 L
2440.226 1094.31 L
2490.41 1073.721 L
2540.594 887.016 L
2590.778 929.164 L
2640.962 816.122 L
2691.146 812.546 L
2741.33 907.395 L
2791.514 846.93 L
2841.698 996.265 L
2891.882 1039.829 L
2942.066 1078.784 L
2992.25 1135.644 L
3042.434 1192.754 L
3092.618 1260.564 L
3142.802 1388.456 L
3192.986 1420.57 L
S
GR
GS
[0.375 0 0 0.375 0 0.25] CT
0.467 0.675 0.188 RC
[20 20] 0 setdash
2 LJ
5.333 LW
N
544.565 364.5 M
589.893 361.25 L
636.839 413.25 L
688.642 390.5 L
738.826 445.75 L
785.772 462 L
837.575 445.75 L
887.759 465.25 L
933.087 416.5 L
986.508 449 L
1035.073 471.75 L
1085.257 494.5 L
1135.441 475.876 L
1185.625 359.944 L
1235.809 457.797 L
1285.993 573.373 L
1336.177 530.168 L
1386.361 551.283 L
1436.545 618.257 L
1486.729 711.364 L
1536.913 688.979 L
1587.098 763.273 L
1637.281 850.482 L
1687.465 886.837 L
1737.65 918.005 L
1787.833 924.757 L
1838.018 870.107 L
1888.202 961.592 L
1938.385 1079.49 L
1988.57 1087.745 L
2038.754 1155.676 L
2088.938 1153.395 L
2139.122 1173.683 L
2189.306 1145.899 L
2239.49 1047.833 L
2289.674 1087.639 L
2339.858 1089.783 L
2390.042 1038.057 L
2440.226 1002.746 L
2490.41 966.651 L
2540.594 787.192 L
2590.778 830.152 L
2640.962 713.531 L
2691.146 731.848 L
2741.33 828.885 L
2791.514 762.97 L
2841.698 890.881 L
2891.882 931.454 L
2942.066 961.681 L
2992.25 1021.891 L
3042.434 1058.91 L
3092.618 1097.724 L
3142.802 1187.507 L
3192.986 1230.341 L
S
GR
GS
[0.375 0 0 0.375 0 0.25] CT
0.302 0.745 0.933 RC
[20 20] 0 setdash
2 LJ
5.333 LW
N
544.565 250.75 M
589.893 247.5 L
636.839 302.75 L
688.642 280 L
738.826 332 L
785.772 351.5 L
837.575 335.25 L
887.759 361.25 L
933.087 315.75 L
986.508 345 L
1035.073 367.75 L
1085.257 393.75 L
1135.441 351.743 L
1185.625 206.509 L
1235.809 296.225 L
1285.993 377.75 L
1336.177 319.72 L
1386.361 323.137 L
1436.545 414.442 L
1486.729 532.061 L
1536.913 531.472 L
1587.098 570.963 L
1637.281 654.577 L
1687.465 705.791 L
1737.65 736.994 L
1787.833 769.092 L
1838.018 725.449 L
1888.202 829.583 L
1938.385 933.09 L
1988.57 916.288 L
2038.754 986.975 L
2088.938 977.953 L
2139.122 987.2 L
2189.306 971.336 L
2239.49 898.055 L
2289.674 909.422 L
2339.858 934.533 L
2390.042 878.419 L
2440.226 865.272 L
2490.41 828.423 L
2540.594 647.926 L
2590.778 683.777 L
2640.962 588.594 L
2691.146 622.299 L
2741.33 707.498 L
2791.514 631.513 L
2841.698 729.211 L
2891.882 748.755 L
2942.066 774.052 L
2992.25 882.47 L
3042.434 886.888 L
3092.618 894.054 L
3142.802 962.301 L
3192.986 1015.62 L
S
GR
GS
[0.375 0 0 0.375 0 0.25] CT
0.635 0.078 0.184 RC
1 LJ
5.333 LW
N
544.565 676.149 M
589.893 678.329 L
636.839 694.148 L
688.642 689.568 L
738.826 676.816 L
785.772 679.023 L
837.575 695.328 L
887.759 691.427 L
933.087 685.216 L
986.508 718.701 L
1035.073 701.667 L
1085.257 731.993 L
S
GR
GS
[0.375 0 0 0.375 0 0.25] CT
0 0.447 0.741 RC
1 LJ
5.333 LW
N
544.565 689.5 M
589.893 689.5 L
636.839 699.25 L
688.642 689.5 L
738.826 696 L
785.772 699.25 L
837.575 692.75 L
887.759 686.25 L
933.087 676.5 L
986.508 709 L
1035.073 696 L
1085.257 702.5 L
S
GR
GS
[0.375 0 0 0.375 0 0.25] CT
0.851 0.325 0.098 RC
1 LJ
5.333 LW
N
544.565 650.5 M
589.893 657 L
636.839 670 L
688.642 657 L
738.826 686.25 L
785.772 686.25 L
837.575 670 L
887.759 673.25 L
933.087 650.5 L
986.508 686.25 L
1035.073 683 L
1085.257 686.25 L
S
GR
GS
[0.375 0 0 0.375 0 0.25] CT
0.929 0.694 0.125 RC
1 LJ
5.333 LW
N
544.565 465.25 M
589.893 468.5 L
636.839 510.75 L
688.642 494.5 L
738.826 549.75 L
785.772 556.25 L
837.575 536.75 L
887.759 556.25 L
933.087 504.25 L
986.508 540 L
1035.073 559.5 L
1085.257 575.75 L
S
GR
GS
[0.375 0 0 0.375 0 0.25] CT
0.494 0.184 0.557 RC
1 LJ
5.333 LW
N
544.565 364.5 M
589.893 361.25 L
636.839 413.25 L
688.642 390.5 L
738.826 445.75 L
785.772 462 L
837.575 445.75 L
887.759 465.25 L
933.087 416.5 L
986.508 449 L
1035.073 471.75 L
1085.257 494.5 L
S
GR
GS
[0.375 0 0 0.375 0 0.25] CT
0.467 0.675 0.188 RC
1 LJ
5.333 LW
N
544.565 250.75 M
589.893 247.5 L
636.839 302.75 L
688.642 280 L
738.826 332 L
785.772 351.5 L
837.575 335.25 L
887.759 361.25 L
933.087 315.75 L
986.508 345 L
1035.073 367.75 L
1085.257 393.75 L
S
GR
%%Trailer
%%Pages: 1
%%EOF
