%!PS-Adobe-3.0 EPSF-3.0
%%Creator: (MATLAB, The Mathworks, Inc. Version 9.12.0.1975300 \(R2022a\) Update 3. Operating System: Windows 10)
%%Title: ./Yslices.eps
%%CreationDate: 2022-09-11T13:52:48
%%Pages: (atend)
%%BoundingBox:   325   116  2623  1457
%%LanguageLevel: 3
%%EndComments
%%BeginProlog
%%BeginResource: procset (Apache XML Graphics Std ProcSet) 1.2 0
%%Version: 1.2 0
%%Copyright: (Copyright 2001-2003,2010 The Apache Software Foundation. License terms: http://www.apache.org/licenses/LICENSE-2.0)
/bd{bind def}bind def
/ld{load def}bd
/GR/grestore ld
/GS/gsave ld
/RM/rmoveto ld
/C/curveto ld
/t/show ld
/L/lineto ld
/ML/setmiterlimit ld
/CT/concat ld
/f/fill ld
/N/newpath ld
/S/stroke ld
/CC/setcmykcolor ld
/A/ashow ld
/cp/closepath ld
/RC/setrgbcolor ld
/LJ/setlinejoin ld
/GC/setgray ld
/LW/setlinewidth ld
/M/moveto ld
/re {4 2 roll M
1 index 0 rlineto
0 exch rlineto
neg 0 rlineto
cp } bd
/_ctm matrix def
/_tm matrix def
/BT { _ctm currentmatrix pop matrix _tm copy pop 0 0 moveto } bd
/ET { _ctm setmatrix } bd
/iTm { _ctm setmatrix _tm concat } bd
/Tm { _tm astore pop iTm 0 0 moveto } bd
/ux 0.0 def
/uy 0.0 def
/F {
  /Tp exch def
  /Tf exch def
  Tf findfont Tp scalefont setfont
  /cf Tf def  /cs Tp def
} bd
/ULS {currentpoint /uy exch def /ux exch def} bd
/ULE {
  /Tcx currentpoint pop def
  gsave
  newpath
  cf findfont cs scalefont dup
  /FontMatrix get 0 get /Ts exch def /FontInfo get dup
  /UnderlinePosition get Ts mul /To exch def
  /UnderlineThickness get Ts mul /Tt exch def
  ux uy To add moveto  Tcx uy To add lineto
  Tt setlinewidth stroke
  grestore
} bd
/OLE {
  /Tcx currentpoint pop def
  gsave
  newpath
  cf findfont cs scalefont dup
  /FontMatrix get 0 get /Ts exch def /FontInfo get dup
  /UnderlinePosition get Ts mul /To exch def
  /UnderlineThickness get Ts mul /Tt exch def
  ux uy To add cs add moveto Tcx uy To add cs add lineto
  Tt setlinewidth stroke
  grestore
} bd
/SOE {
  /Tcx currentpoint pop def
  gsave
  newpath
  cf findfont cs scalefont dup
  /FontMatrix get 0 get /Ts exch def /FontInfo get dup
  /UnderlinePosition get Ts mul /To exch def
  /UnderlineThickness get Ts mul /Tt exch def
  ux uy To add cs 10 mul 26 idiv add moveto Tcx uy To add cs 10 mul 26 idiv add lineto
  Tt setlinewidth stroke
  grestore
} bd
/QT {
/Y22 exch store
/X22 exch store
/Y21 exch store
/X21 exch store
currentpoint
/Y21 load 2 mul add 3 div exch
/X21 load 2 mul add 3 div exch
/X21 load 2 mul /X22 load add 3 div
/Y21 load 2 mul /Y22 load add 3 div
/X22 load /Y22 load curveto
} bd
/SSPD {
dup length /d exch dict def
{
/v exch def
/k exch def
currentpagedevice k known {
/cpdv currentpagedevice k get def
v cpdv ne {
/upd false def
/nullv v type /nulltype eq def
/nullcpdv cpdv type /nulltype eq def
nullv nullcpdv or
{
/upd true def
} {
/sametype v type cpdv type eq def
sametype {
v type /arraytype eq {
/vlen v length def
/cpdvlen cpdv length def
vlen cpdvlen eq {
0 1 vlen 1 sub {
/i exch def
/obj v i get def
/cpdobj cpdv i get def
obj cpdobj ne {
/upd true def
exit
} if
} for
} {
/upd true def
} ifelse
} {
v type /dicttype eq {
v {
/dv exch def
/dk exch def
/cpddv cpdv dk get def
dv cpddv ne {
/upd true def
exit
} if
} forall
} {
/upd true def
} ifelse
} ifelse
} if
} ifelse
upd true eq {
d k v put
} if
} if
} if
} forall
d length 0 gt {
d setpagedevice
} if
} bd
/RE { % /NewFontName [NewEncodingArray] /FontName RE -
  findfont dup length dict begin
  {
    1 index /FID ne
    {def} {pop pop} ifelse
  } forall
  /Encoding exch def
  /FontName 1 index def
  currentdict definefont pop
  end
} bind def
%%EndResource
%%BeginResource: procset (Apache XML Graphics EPS ProcSet) 1.0 0
%%Version: 1.0 0
%%Copyright: (Copyright 2002-2003 The Apache Software Foundation. License terms: http://www.apache.org/licenses/LICENSE-2.0)
/BeginEPSF { %def
/b4_Inc_state save def         % Save state for cleanup
/dict_count countdictstack def % Count objects on dict stack
/op_count count 1 sub def      % Count objects on operand stack
userdict begin                 % Push userdict on dict stack
/showpage { } def              % Redefine showpage, { } = null proc
0 setgray 0 setlinecap         % Prepare graphics state
1 setlinewidth 0 setlinejoin
10 setmiterlimit [ ] 0 setdash newpath
/languagelevel where           % If level not equal to 1 then
{pop languagelevel             % set strokeadjust and
1 ne                           % overprint to their defaults.
{false setstrokeadjust false setoverprint
} if
} if
} bd
/EndEPSF { %def
count op_count sub {pop} repeat            % Clean up stacks
countdictstack dict_count sub {end} repeat
b4_Inc_state restore
} bd
%%EndResource
%FOPBeginFontDict
%%IncludeResource: font Courier-Oblique
%%IncludeResource: font Courier-BoldOblique
%%IncludeResource: font Courier-Bold
%%IncludeResource: font ZapfDingbats
%%IncludeResource: font Symbol
%%IncludeResource: font Helvetica
%%IncludeResource: font Helvetica-Oblique
%%IncludeResource: font Helvetica-Bold
%%IncludeResource: font Helvetica-BoldOblique
%%IncludeResource: font Times-Roman
%%IncludeResource: font Times-Italic
%%IncludeResource: font Times-Bold
%%IncludeResource: font Times-BoldItalic
%%IncludeResource: font Courier
%FOPEndFontDict
%%BeginResource: encoding WinAnsiEncoding
/WinAnsiEncoding [
/.notdef /.notdef /.notdef /.notdef /.notdef
/.notdef /.notdef /.notdef /.notdef /.notdef
/.notdef /.notdef /.notdef /.notdef /.notdef
/.notdef /.notdef /.notdef /.notdef /.notdef
/.notdef /.notdef /.notdef /.notdef /.notdef
/.notdef /.notdef /.notdef /.notdef /.notdef
/.notdef /.notdef /space /exclam /quotedbl
/numbersign /dollar /percent /ampersand /quotesingle
/parenleft /parenright /asterisk /plus /comma
/hyphen /period /slash /zero /one
/two /three /four /five /six
/seven /eight /nine /colon /semicolon
/less /equal /greater /question /at
/A /B /C /D /E
/F /G /H /I /J
/K /L /M /N /O
/P /Q /R /S /T
/U /V /W /X /Y
/Z /bracketleft /backslash /bracketright /asciicircum
/underscore /quoteleft /a /b /c
/d /e /f /g /h
/i /j /k /l /m
/n /o /p /q /r
/s /t /u /v /w
/x /y /z /braceleft /bar
/braceright /asciitilde /bullet /Euro /bullet
/quotesinglbase /florin /quotedblbase /ellipsis /dagger
/daggerdbl /circumflex /perthousand /Scaron /guilsinglleft
/OE /bullet /Zcaron /bullet /bullet
/quoteleft /quoteright /quotedblleft /quotedblright /bullet
/endash /emdash /asciitilde /trademark /scaron
/guilsinglright /oe /bullet /zcaron /Ydieresis
/space /exclamdown /cent /sterling /currency
/yen /brokenbar /section /dieresis /copyright
/ordfeminine /guillemotleft /logicalnot /sfthyphen /registered
/macron /degree /plusminus /twosuperior /threesuperior
/acute /mu /paragraph /middot /cedilla
/onesuperior /ordmasculine /guillemotright /onequarter /onehalf
/threequarters /questiondown /Agrave /Aacute /Acircumflex
/Atilde /Adieresis /Aring /AE /Ccedilla
/Egrave /Eacute /Ecircumflex /Edieresis /Igrave
/Iacute /Icircumflex /Idieresis /Eth /Ntilde
/Ograve /Oacute /Ocircumflex /Otilde /Odieresis
/multiply /Oslash /Ugrave /Uacute /Ucircumflex
/Udieresis /Yacute /Thorn /germandbls /agrave
/aacute /acircumflex /atilde /adieresis /aring
/ae /ccedilla /egrave /eacute /ecircumflex
/edieresis /igrave /iacute /icircumflex /idieresis
/eth /ntilde /ograve /oacute /ocircumflex
/otilde /odieresis /divide /oslash /ugrave
/uacute /ucircumflex /udieresis /yacute /thorn
/ydieresis
] def
%%EndResource
%FOPBeginFontReencode
/Courier-Oblique findfont
dup length dict begin
  {1 index /FID ne {def} {pop pop} ifelse} forall
  /Encoding WinAnsiEncoding def
  currentdict
end
/Courier-Oblique exch definefont pop
/Courier-BoldOblique findfont
dup length dict begin
  {1 index /FID ne {def} {pop pop} ifelse} forall
  /Encoding WinAnsiEncoding def
  currentdict
end
/Courier-BoldOblique exch definefont pop
/Courier-Bold findfont
dup length dict begin
  {1 index /FID ne {def} {pop pop} ifelse} forall
  /Encoding WinAnsiEncoding def
  currentdict
end
/Courier-Bold exch definefont pop
/Helvetica findfont
dup length dict begin
  {1 index /FID ne {def} {pop pop} ifelse} forall
  /Encoding WinAnsiEncoding def
  currentdict
end
/Helvetica exch definefont pop
/Helvetica-Oblique findfont
dup length dict begin
  {1 index /FID ne {def} {pop pop} ifelse} forall
  /Encoding WinAnsiEncoding def
  currentdict
end
/Helvetica-Oblique exch definefont pop
/Helvetica-Bold findfont
dup length dict begin
  {1 index /FID ne {def} {pop pop} ifelse} forall
  /Encoding WinAnsiEncoding def
  currentdict
end
/Helvetica-Bold exch definefont pop
/Helvetica-BoldOblique findfont
dup length dict begin
  {1 index /FID ne {def} {pop pop} ifelse} forall
  /Encoding WinAnsiEncoding def
  currentdict
end
/Helvetica-BoldOblique exch definefont pop
/Times-Roman findfont
dup length dict begin
  {1 index /FID ne {def} {pop pop} ifelse} forall
  /Encoding WinAnsiEncoding def
  currentdict
end
/Times-Roman exch definefont pop
/Times-Italic findfont
dup length dict begin
  {1 index /FID ne {def} {pop pop} ifelse} forall
  /Encoding WinAnsiEncoding def
  currentdict
end
/Times-Italic exch definefont pop
/Times-Bold findfont
dup length dict begin
  {1 index /FID ne {def} {pop pop} ifelse} forall
  /Encoding WinAnsiEncoding def
  currentdict
end
/Times-Bold exch definefont pop
/Times-BoldItalic findfont
dup length dict begin
  {1 index /FID ne {def} {pop pop} ifelse} forall
  /Encoding WinAnsiEncoding def
  currentdict
end
/Times-BoldItalic exch definefont pop
/Courier findfont
dup length dict begin
  {1 index /FID ne {def} {pop pop} ifelse} forall
  /Encoding WinAnsiEncoding def
  currentdict
end
/Courier exch definefont pop
%FOPEndFontReencode
%%EndProlog
%%Page: 1 1
%%PageBoundingBox: 0 0 2868 1550
%%BeginPageSetup
N
  325   116 M
 2948   116 L
 2948  1573 L
  325  1573 L
cp
clip
[1 0 0 -1 0 1550] CT
%%EndPageSetup
GS
[0.75 0 0 0.75 0 -0.25] CT
1 GC
N
0 0 3824 2067 re
f
GR
GS
[0.75 0 0 0.75 0 -0.25] CT
1 GC
N
0 0 3824 2067 re
f
GR
GS
[0.75 0 0 0.75 0 -0.25] CT
1 GC
N
497 860 M
3461 860 L
3461 155 L
497 155 L
cp
f
GR
GS
[0.75 0 0 0.75 0 -0.25] CT
0.149 GC
2 setlinecap
1 LJ
0.667 LW
N
497 860 M
3461 860 L
S
GR
GS
[0.75 0 0 0.75 0 -0.25] CT
0.149 GC
2 setlinecap
1 LJ
0.667 LW
N
497 155 M
3461 155 L
S
GR
GS
[0.75 0 0 0.75 0 -0.25] CT
0.149 GC
2 setlinecap
1 LJ
0.667 LW
N
497 860 M
497 830.36 L
S
GR
GS
[0.75 0 0 0.75 0 -0.25] CT
0.149 GC
2 setlinecap
1 LJ
0.667 LW
N
595.868 860 M
595.868 830.36 L
S
GR
GS
[0.75 0 0 0.75 0 -0.25] CT
0.149 GC
2 setlinecap
1 LJ
0.667 LW
N
694.6 860 M
694.6 830.36 L
S
GR
GS
[0.75 0 0 0.75 0 -0.25] CT
0.149 GC
2 setlinecap
1 LJ
0.667 LW
N
793.468 860 M
793.468 830.36 L
S
GR
GS
[0.75 0 0 0.75 0 -0.25] CT
0.149 GC
2 setlinecap
1 LJ
0.667 LW
N
892.2 860 M
892.2 830.36 L
S
GR
GS
[0.75 0 0 0.75 0 -0.25] CT
0.149 GC
2 setlinecap
1 LJ
0.667 LW
N
991.068 860 M
991.068 830.36 L
S
GR
GS
[0.75 0 0 0.75 0 -0.25] CT
0.149 GC
2 setlinecap
1 LJ
0.667 LW
N
1089.8 860 M
1089.8 830.36 L
S
GR
GS
[0.75 0 0 0.75 0 -0.25] CT
0.149 GC
2 setlinecap
1 LJ
0.667 LW
N
1188.668 860 M
1188.668 830.36 L
S
GR
GS
[0.75 0 0 0.75 0 -0.25] CT
0.149 GC
2 setlinecap
1 LJ
0.667 LW
N
1287.4 860 M
1287.4 830.36 L
S
GR
GS
[0.75 0 0 0.75 0 -0.25] CT
0.149 GC
2 setlinecap
1 LJ
0.667 LW
N
1386.268 860 M
1386.268 830.36 L
S
GR
GS
[0.75 0 0 0.75 0 -0.25] CT
0.149 GC
2 setlinecap
1 LJ
0.667 LW
N
1485 860 M
1485 830.36 L
S
GR
GS
[0.75 0 0 0.75 0 -0.25] CT
0.149 GC
2 setlinecap
1 LJ
0.667 LW
N
1583.868 860 M
1583.868 830.36 L
S
GR
GS
[0.75 0 0 0.75 0 -0.25] CT
0.149 GC
2 setlinecap
1 LJ
0.667 LW
N
1682.6 860 M
1682.6 830.36 L
S
GR
GS
[0.75 0 0 0.75 0 -0.25] CT
0.149 GC
2 setlinecap
1 LJ
0.667 LW
N
1781.468 860 M
1781.468 830.36 L
S
GR
GS
[0.75 0 0 0.75 0 -0.25] CT
0.149 GC
2 setlinecap
1 LJ
0.667 LW
N
1880.2 860 M
1880.2 830.36 L
S
GR
GS
[0.75 0 0 0.75 0 -0.25] CT
0.149 GC
2 setlinecap
1 LJ
0.667 LW
N
1979.068 860 M
1979.068 830.36 L
S
GR
GS
[0.75 0 0 0.75 0 -0.25] CT
0.149 GC
2 setlinecap
1 LJ
0.667 LW
N
2077.8 860 M
2077.8 830.36 L
S
GR
GS
[0.75 0 0 0.75 0 -0.25] CT
0.149 GC
2 setlinecap
1 LJ
0.667 LW
N
2176.668 860 M
2176.668 830.36 L
S
GR
GS
[0.75 0 0 0.75 0 -0.25] CT
0.149 GC
2 setlinecap
1 LJ
0.667 LW
N
2275.4 860 M
2275.4 830.36 L
S
GR
GS
[0.75 0 0 0.75 0 -0.25] CT
0.149 GC
2 setlinecap
1 LJ
0.667 LW
N
2374.268 860 M
2374.268 830.36 L
S
GR
GS
[0.75 0 0 0.75 0 -0.25] CT
0.149 GC
2 setlinecap
1 LJ
0.667 LW
N
2473 860 M
2473 830.36 L
S
GR
GS
[0.75 0 0 0.75 0 -0.25] CT
0.149 GC
2 setlinecap
1 LJ
0.667 LW
N
2571.868 860 M
2571.868 830.36 L
S
GR
GS
[0.75 0 0 0.75 0 -0.25] CT
0.149 GC
2 setlinecap
1 LJ
0.667 LW
N
2670.6 860 M
2670.6 830.36 L
S
GR
GS
[0.75 0 0 0.75 0 -0.25] CT
0.149 GC
2 setlinecap
1 LJ
0.667 LW
N
2769.468 860 M
2769.468 830.36 L
S
GR
GS
[0.75 0 0 0.75 0 -0.25] CT
0.149 GC
2 setlinecap
1 LJ
0.667 LW
N
2868.2 860 M
2868.2 830.36 L
S
GR
GS
[0.75 0 0 0.75 0 -0.25] CT
0.149 GC
2 setlinecap
1 LJ
0.667 LW
N
2967.068 860 M
2967.068 830.36 L
S
GR
GS
[0.75 0 0 0.75 0 -0.25] CT
0.149 GC
2 setlinecap
1 LJ
0.667 LW
N
3065.8 860 M
3065.8 830.36 L
S
GR
GS
[0.75 0 0 0.75 0 -0.25] CT
0.149 GC
2 setlinecap
1 LJ
0.667 LW
N
3164.668 860 M
3164.668 830.36 L
S
GR
GS
[0.75 0 0 0.75 0 -0.25] CT
0.149 GC
2 setlinecap
1 LJ
0.667 LW
N
3263.4 860 M
3263.4 830.36 L
S
GR
GS
[0.75 0 0 0.75 0 -0.25] CT
0.149 GC
2 setlinecap
1 LJ
0.667 LW
N
3362.268 860 M
3362.268 830.36 L
S
GR
GS
[0.75 0 0 0.75 0 -0.25] CT
0.149 GC
2 setlinecap
1 LJ
0.667 LW
N
3461 860 M
3461 830.36 L
S
GR
GS
[0.75 0 0 0.75 0 -0.25] CT
0.149 GC
2 setlinecap
1 LJ
0.667 LW
N
497 155 M
497 184.64 L
S
GR
GS
[0.75 0 0 0.75 0 -0.25] CT
0.149 GC
2 setlinecap
1 LJ
0.667 LW
N
595.868 155 M
595.868 184.64 L
S
GR
GS
[0.75 0 0 0.75 0 -0.25] CT
0.149 GC
2 setlinecap
1 LJ
0.667 LW
N
694.6 155 M
694.6 184.64 L
S
GR
GS
[0.75 0 0 0.75 0 -0.25] CT
0.149 GC
2 setlinecap
1 LJ
0.667 LW
N
793.468 155 M
793.468 184.64 L
S
GR
GS
[0.75 0 0 0.75 0 -0.25] CT
0.149 GC
2 setlinecap
1 LJ
0.667 LW
N
892.2 155 M
892.2 184.64 L
S
GR
GS
[0.75 0 0 0.75 0 -0.25] CT
0.149 GC
2 setlinecap
1 LJ
0.667 LW
N
991.068 155 M
991.068 184.64 L
S
GR
GS
[0.75 0 0 0.75 0 -0.25] CT
0.149 GC
2 setlinecap
1 LJ
0.667 LW
N
1089.8 155 M
1089.8 184.64 L
S
GR
GS
[0.75 0 0 0.75 0 -0.25] CT
0.149 GC
2 setlinecap
1 LJ
0.667 LW
N
1188.668 155 M
1188.668 184.64 L
S
GR
GS
[0.75 0 0 0.75 0 -0.25] CT
0.149 GC
2 setlinecap
1 LJ
0.667 LW
N
1287.4 155 M
1287.4 184.64 L
S
GR
GS
[0.75 0 0 0.75 0 -0.25] CT
0.149 GC
2 setlinecap
1 LJ
0.667 LW
N
1386.268 155 M
1386.268 184.64 L
S
GR
GS
[0.75 0 0 0.75 0 -0.25] CT
0.149 GC
2 setlinecap
1 LJ
0.667 LW
N
1485 155 M
1485 184.64 L
S
GR
GS
[0.75 0 0 0.75 0 -0.25] CT
0.149 GC
2 setlinecap
1 LJ
0.667 LW
N
1583.868 155 M
1583.868 184.64 L
S
GR
GS
[0.75 0 0 0.75 0 -0.25] CT
0.149 GC
2 setlinecap
1 LJ
0.667 LW
N
1682.6 155 M
1682.6 184.64 L
S
GR
GS
[0.75 0 0 0.75 0 -0.25] CT
0.149 GC
2 setlinecap
1 LJ
0.667 LW
N
1781.468 155 M
1781.468 184.64 L
S
GR
GS
[0.75 0 0 0.75 0 -0.25] CT
0.149 GC
2 setlinecap
1 LJ
0.667 LW
N
1880.2 155 M
1880.2 184.64 L
S
GR
GS
[0.75 0 0 0.75 0 -0.25] CT
0.149 GC
2 setlinecap
1 LJ
0.667 LW
N
1979.068 155 M
1979.068 184.64 L
S
GR
GS
[0.75 0 0 0.75 0 -0.25] CT
0.149 GC
2 setlinecap
1 LJ
0.667 LW
N
2077.8 155 M
2077.8 184.64 L
S
GR
GS
[0.75 0 0 0.75 0 -0.25] CT
0.149 GC
2 setlinecap
1 LJ
0.667 LW
N
2176.668 155 M
2176.668 184.64 L
S
GR
GS
[0.75 0 0 0.75 0 -0.25] CT
0.149 GC
2 setlinecap
1 LJ
0.667 LW
N
2275.4 155 M
2275.4 184.64 L
S
GR
GS
[0.75 0 0 0.75 0 -0.25] CT
0.149 GC
2 setlinecap
1 LJ
0.667 LW
N
2374.268 155 M
2374.268 184.64 L
S
GR
GS
[0.75 0 0 0.75 0 -0.25] CT
0.149 GC
2 setlinecap
1 LJ
0.667 LW
N
2473 155 M
2473 184.64 L
S
GR
GS
[0.75 0 0 0.75 0 -0.25] CT
0.149 GC
2 setlinecap
1 LJ
0.667 LW
N
2571.868 155 M
2571.868 184.64 L
S
GR
GS
[0.75 0 0 0.75 0 -0.25] CT
0.149 GC
2 setlinecap
1 LJ
0.667 LW
N
2670.6 155 M
2670.6 184.64 L
S
GR
GS
[0.75 0 0 0.75 0 -0.25] CT
0.149 GC
2 setlinecap
1 LJ
0.667 LW
N
2769.468 155 M
2769.468 184.64 L
S
GR
GS
[0.75 0 0 0.75 0 -0.25] CT
0.149 GC
2 setlinecap
1 LJ
0.667 LW
N
2868.2 155 M
2868.2 184.64 L
S
GR
GS
[0.75 0 0 0.75 0 -0.25] CT
0.149 GC
2 setlinecap
1 LJ
0.667 LW
N
2967.068 155 M
2967.068 184.64 L
S
GR
GS
[0.75 0 0 0.75 0 -0.25] CT
0.149 GC
2 setlinecap
1 LJ
0.667 LW
N
3065.8 155 M
3065.8 184.64 L
S
GR
GS
[0.75 0 0 0.75 0 -0.25] CT
0.149 GC
2 setlinecap
1 LJ
0.667 LW
N
3164.668 155 M
3164.668 184.64 L
S
GR
GS
[0.75 0 0 0.75 0 -0.25] CT
0.149 GC
2 setlinecap
1 LJ
0.667 LW
N
3263.4 155 M
3263.4 184.64 L
S
GR
GS
[0.75 0 0 0.75 0 -0.25] CT
0.149 GC
2 setlinecap
1 LJ
0.667 LW
N
3362.268 155 M
3362.268 184.64 L
S
GR
GS
[0.75 0 0 0.75 0 -0.25] CT
0.149 GC
2 setlinecap
1 LJ
0.667 LW
N
3461 155 M
3461 184.64 L
S
GR
GS
[0.75 0 0 0.75 372.75 650.35001] CT
0.149 GC
/Helvetica 24 F
GS
[1 0 0 1 0 0] CT
-37 25 moveto 
1 -1 scale
(Jan-60) t 
GR
GR
GS
[0.75 0 0 0.75 446.90071 650.35001] CT
0.149 GC
/Helvetica 24 F
GS
[1 0 0 1 0 0] CT
-37 25 moveto 
1 -1 scale
(Jan-62) t 
GR
GR
GS
[0.75 0 0 0.75 520.94998 650.35001] CT
0.149 GC
/Helvetica 24 F
GS
[1 0 0 1 0 0] CT
-37 25 moveto 
1 -1 scale
(Jan-64) t 
GR
GR
GS
[0.75 0 0 0.75 595.10074 650.35001] CT
0.149 GC
/Helvetica 24 F
GS
[1 0 0 1 0 0] CT
-37 25 moveto 
1 -1 scale
(Jan-66) t 
GR
GR
GS
[0.75 0 0 0.75 669.15001 650.35001] CT
0.149 GC
/Helvetica 24 F
GS
[1 0 0 1 0 0] CT
-37 25 moveto 
1 -1 scale
(Jan-68) t 
GR
GR
GS
[0.75 0 0 0.75 743.30072 650.35001] CT
0.149 GC
/Helvetica 24 F
GS
[1 0 0 1 0 0] CT
-37 25 moveto 
1 -1 scale
(Jan-70) t 
GR
GR
GS
[0.75 0 0 0.75 817.35004 650.35001] CT
0.149 GC
/Helvetica 24 F
GS
[1 0 0 1 0 0] CT
-37 25 moveto 
1 -1 scale
(Jan-72) t 
GR
GR
GS
[0.75 0 0 0.75 891.5007 650.35001] CT
0.149 GC
/Helvetica 24 F
GS
[1 0 0 1 0 0] CT
-37 25 moveto 
1 -1 scale
(Jan-74) t 
GR
GR
GS
[0.75 0 0 0.75 965.55002 650.35001] CT
0.149 GC
/Helvetica 24 F
GS
[1 0 0 1 0 0] CT
-37 25 moveto 
1 -1 scale
(Jan-76) t 
GR
GR
GS
[0.75 0 0 0.75 1039.70068 650.35001] CT
0.149 GC
/Helvetica 24 F
GS
[1 0 0 1 0 0] CT
-37 25 moveto 
1 -1 scale
(Jan-78) t 
GR
GR
GS
[0.75 0 0 0.75 1113.75 650.35001] CT
0.149 GC
/Helvetica 24 F
GS
[1 0 0 1 0 0] CT
-37 25 moveto 
1 -1 scale
(Jan-80) t 
GR
GR
GS
[0.75 0 0 0.75 1187.90076 650.35001] CT
0.149 GC
/Helvetica 24 F
GS
[1 0 0 1 0 0] CT
-37 25 moveto 
1 -1 scale
(Jan-82) t 
GR
GR
GS
[0.75 0 0 0.75 1261.94998 650.35001] CT
0.149 GC
/Helvetica 24 F
GS
[1 0 0 1 0 0] CT
-37 25 moveto 
1 -1 scale
(Jan-84) t 
GR
GR
GS
[0.75 0 0 0.75 1336.10074 650.35001] CT
0.149 GC
/Helvetica 24 F
GS
[1 0 0 1 0 0] CT
-37 25 moveto 
1 -1 scale
(Jan-86) t 
GR
GR
GS
[0.75 0 0 0.75 1410.14996 650.35001] CT
0.149 GC
/Helvetica 24 F
GS
[1 0 0 1 0 0] CT
-37 25 moveto 
1 -1 scale
(Jan-88) t 
GR
GR
GS
[0.75 0 0 0.75 1484.30072 650.35001] CT
0.149 GC
/Helvetica 24 F
GS
[1 0 0 1 0 0] CT
-37 25 moveto 
1 -1 scale
(Jan-90) t 
GR
GR
GS
[0.75 0 0 0.75 1558.35004 650.35001] CT
0.149 GC
/Helvetica 24 F
GS
[1 0 0 1 0 0] CT
-37 25 moveto 
1 -1 scale
(Jan-92) t 
GR
GR
GS
[0.75 0 0 0.75 1632.50079 650.35001] CT
0.149 GC
/Helvetica 24 F
GS
[1 0 0 1 0 0] CT
-37 25 moveto 
1 -1 scale
(Jan-94) t 
GR
GR
GS
[0.75 0 0 0.75 1706.54993 650.35001] CT
0.149 GC
/Helvetica 24 F
GS
[1 0 0 1 0 0] CT
-37 25 moveto 
1 -1 scale
(Jan-96) t 
GR
GR
GS
[0.75 0 0 0.75 1780.70068 650.35001] CT
0.149 GC
/Helvetica 24 F
GS
[1 0 0 1 0 0] CT
-37 25 moveto 
1 -1 scale
(Jan-98) t 
GR
GR
GS
[0.75 0 0 0.75 1854.75 650.35001] CT
0.149 GC
/Helvetica 24 F
GS
[1 0 0 1 0 0] CT
-37 25 moveto 
1 -1 scale
(Jan-00) t 
GR
GR
GS
[0.75 0 0 0.75 1928.90076 650.35001] CT
0.149 GC
/Helvetica 24 F
GS
[1 0 0 1 0 0] CT
-37 25 moveto 
1 -1 scale
(Jan-02) t 
GR
GR
GS
[0.75 0 0 0.75 2002.95007 650.35001] CT
0.149 GC
/Helvetica 24 F
GS
[1 0 0 1 0 0] CT
-37 25 moveto 
1 -1 scale
(Jan-04) t 
GR
GR
GS
[0.75 0 0 0.75 2077.10065 650.35001] CT
0.149 GC
/Helvetica 24 F
GS
[1 0 0 1 0 0] CT
-37 25 moveto 
1 -1 scale
(Jan-06) t 
GR
GR
GS
[0.75 0 0 0.75 2151.14996 650.35001] CT
0.149 GC
/Helvetica 24 F
GS
[1 0 0 1 0 0] CT
-37 25 moveto 
1 -1 scale
(Jan-08) t 
GR
GR
GS
[0.75 0 0 0.75 2225.30072 650.35001] CT
0.149 GC
/Helvetica 24 F
GS
[1 0 0 1 0 0] CT
-37 25 moveto 
1 -1 scale
(Jan-10) t 
GR
GR
GS
[0.75 0 0 0.75 2299.35004 650.35001] CT
0.149 GC
/Helvetica 24 F
GS
[1 0 0 1 0 0] CT
-37 25 moveto 
1 -1 scale
(Jan-12) t 
GR
GR
GS
[0.75 0 0 0.75 2373.50079 650.35001] CT
0.149 GC
/Helvetica 24 F
GS
[1 0 0 1 0 0] CT
-37 25 moveto 
1 -1 scale
(Jan-14) t 
GR
GR
GS
[0.75 0 0 0.75 2447.54993 650.35001] CT
0.149 GC
/Helvetica 24 F
GS
[1 0 0 1 0 0] CT
-37 25 moveto 
1 -1 scale
(Jan-16) t 
GR
GR
GS
[0.75 0 0 0.75 2521.70068 650.35001] CT
0.149 GC
/Helvetica 24 F
GS
[1 0 0 1 0 0] CT
-37 25 moveto 
1 -1 scale
(Jan-18) t 
GR
GR
GS
[0.75 0 0 0.75 2595.75 650.35001] CT
0.149 GC
/Helvetica 24 F
GS
[1 0 0 1 0 0] CT
-37 25 moveto 
1 -1 scale
(Jan-20) t 
GR
GR
GS
[0.75 0 0 0.75 0 -0.25] CT
0.149 GC
2 setlinecap
1 LJ
0.667 LW
N
497 860 M
497 155 L
S
GR
GS
[0.75 0 0 0.75 0 -0.25] CT
0.149 GC
2 setlinecap
1 LJ
0.667 LW
N
3461 860 M
3461 155 L
S
GR
GS
[0.75 0 0 0.75 0 -0.25] CT
0.149 GC
2 setlinecap
1 LJ
0.667 LW
N
497 860 M
526.637 860 L
S
GR
GS
[0.75 0 0 0.75 0 -0.25] CT
0.149 GC
2 setlinecap
1 LJ
0.667 LW
N
497 625 M
526.637 625 L
S
GR
GS
[0.75 0 0 0.75 0 -0.25] CT
0.149 GC
2 setlinecap
1 LJ
0.667 LW
N
497 390 M
526.637 390 L
S
GR
GS
[0.75 0 0 0.75 0 -0.25] CT
0.149 GC
2 setlinecap
1 LJ
0.667 LW
N
497 155 M
526.637 155 L
S
GR
GS
[0.75 0 0 0.75 0 -0.25] CT
0.149 GC
2 setlinecap
1 LJ
0.667 LW
N
3461 860 M
3431.363 860 L
S
GR
GS
[0.75 0 0 0.75 0 -0.25] CT
0.149 GC
2 setlinecap
1 LJ
0.667 LW
N
3461 625 M
3431.363 625 L
S
GR
GS
[0.75 0 0 0.75 0 -0.25] CT
0.149 GC
2 setlinecap
1 LJ
0.667 LW
N
3461 390 M
3431.363 390 L
S
GR
GS
[0.75 0 0 0.75 0 -0.25] CT
0.149 GC
2 setlinecap
1 LJ
0.667 LW
N
3461 155 M
3431.363 155 L
S
GR
GS
[0.75 0 0 0.75 367.15192 644.75] CT
0.149 GC
/Helvetica 24 F
GS
[1 0 0 1 0 0] CT
-14 9.5 moveto 
1 -1 scale
(0) t 
GR
GR
GS
[0.75 0 0 0.75 367.15192 468.5] CT
0.149 GC
/Helvetica 24 F
GS
[1 0 0 1 0 0] CT
-14 9.5 moveto 
1 -1 scale
(5) t 
GR
GR
GS
[0.75 0 0 0.75 367.15192 292.25] CT
0.149 GC
/Helvetica 24 F
GS
[1 0 0 1 0 0] CT
-27 9.5 moveto 
1 -1 scale
(10) t 
GR
GR
GS
[0.75 0 0 0.75 367.15192 116] CT
0.149 GC
/Helvetica 24 F
GS
[1 0 0 1 0 0] CT
-27 9.5 moveto 
1 -1 scale
(15) t 
GR
GR
GS
[0 -0.75 0.75 0 343.89741 380.37475] CT
0.149 GC
/Helvetica 26.4 F
GS
[1 0 0 1 0 0] CT
-59.5 -6 moveto 
1 -1 scale
(Yield \(pct\)) t 
GR
GR
GS
[0.75 0 0 0.75 1484.25 112.2875] CT
/Helvetica-Bold 26.4 F
GS
[1 0 0 1 0 0] CT
-79.5 -6 moveto 
1 -1 scale
(10 year yield) t 
GR
GR
GS
[0.75 0 0 0.75 0 -0.25] CT
0 0.447 0.741 RC
1 LJ
2.667 LW
N
570.846 678.088 M
575.039 670.867 L
579.232 669.114 L
583.154 676.589 L
587.482 675.305 L
591.54 678.524 L
595.462 681.37 L
599.925 670.745 L
603.712 678.013 L
607.77 678.817 L
611.962 684.638 L
616.155 677.08 L
620.077 673.742 L
624.405 671.222 L
628.598 672.793 L
632.385 672.815 L
636.848 673.67 L
640.906 675.324 L
645.099 677.382 L
649.291 678.382 L
653.078 674.41 L
657.001 672.765 L
661.329 675.232 L
665.521 674.619 L
669.308 672.288 L
673.772 674.358 L
677.829 670.97 L
682.022 669.655 L
686.215 666.711 L
690.137 670.773 L
694.465 668.39 L
698.657 667.3 L
702.445 666.608 L
706.772 662.944 L
710.83 663.2 L
714.617 666.551 L
719.08 668.573 L
723.273 662.131 L
727.466 663.065 L
731.523 667.128 L
735.581 667.143 L
739.773 666.483 L
743.966 665.831 L
747.888 660.908 L
751.675 661.209 L
756.139 663.791 L
760.196 665.347 L
763.983 665.031 L
768.446 664.725 L
772.504 663.654 L
776.832 662.044 L
780.889 654.208 L
784.812 653.848 L
789.004 652.573 L
793.332 636.001 L
797.525 632.73 L
801.312 623.451 L
805.505 635.383 L
809.427 633.69 L
813.755 630.201 L
817.813 623.029 L
821.735 615.114 L
826.198 595.583 L
830.256 612.135 L
834.448 618.249 L
838.506 614.207 L
842.563 638.43 L
846.891 644.043 L
850.678 639.242 L
854.871 652.381 L
858.658 636.398 L
863.121 636.472 L
867.179 615.269 L
871.372 624.456 L
875.564 612.814 L
879.487 612.032 L
883.815 595.074 L
887.872 591.678 L
891.794 590.629 L
896.258 600.754 L
900.18 599.198 L
904.102 591.667 L
908.43 584.756 L
912.623 588.644 L
916.41 578.243 L
920.873 580.782 L
924.93 602.021 L
929.123 601.437 L
933.316 595.227 L
937.238 592.177 L
941.566 570.032 L
945.759 573.576 L
949.546 573.116 L
953.333 564.59 L
957.796 571.128 L
961.718 559.24 L
966.046 552.613 L
970.239 563.592 L
974.161 548.373 L
978.489 516.503 L
982.682 555.613 L
986.469 526.462 L
990.932 530.053 L
994.99 504.42 L
998.777 547.667 L
1003.105 532.911 L
1007.162 496.666 L
1011.085 508.896 L
1015.413 505.273 L
1019.605 512.365 L
1023.798 512.853 L
1027.856 520.126 L
1031.913 529.807 L
1036.106 551.046 L
1040.299 567.734 L
1044.221 556.363 L
1048.008 570.778 L
1052.471 588.413 L
1056.529 563.777 L
1060.316 555.199 L
1064.779 537.285 L
1068.836 531.636 L
1073.164 568.939 L
1077.222 573.17 L
1081.144 580.391 L
1085.472 574.096 L
1089.665 579.519 L
1093.858 570.805 L
1097.78 571.553 L
1101.837 569.579 L
1105.76 570.948 L
1110.223 571.77 L
1114.28 572.164 L
1118.473 571.348 L
1122.666 561.287 L
1126.588 561.965 L
1130.916 564.446 L
1134.973 567.628 L
1138.896 565.027 L
1143.359 559.669 L
1147.146 554.494 L
1151.203 550.668 L
1155.396 550.373 L
1159.589 548.314 L
1163.511 546.557 L
1167.839 516.268 L
1172.032 532.108 L
1175.819 542.146 L
1180.282 548.309 L
1184.34 553.727 L
1188.532 543.328 L
1192.725 534.975 L
1196.512 536.72 L
1200.434 514.931 L
1204.762 498.046 L
1208.955 500.735 L
1212.742 497.287 L
1217.205 498.899 L
1221.263 480.386 L
1225.456 492.65 L
1229.648 508.508 L
1233.571 516.427 L
1237.899 523.401 L
1242.091 517.857 L
1245.878 521.129 L
1250.071 510.13 L
1254.129 485.54 L
1258.186 498.758 L
1262.379 501.801 L
1266.572 497.432 L
1270.494 488.583 L
1274.822 476.939 L
1279.015 495.315 L
1282.802 487.426 L
1287.265 500.582 L
1291.322 499.57 L
1295.109 505.343 L
1299.573 506.846 L
1303.63 507.664 L
1307.417 496.922 L
1311.88 500.115 L
1315.938 500.338 L
1320.266 505.692 L
1324.323 509.194 L
1328.245 515.825 L
1332.573 530.067 L
1336.766 543.485 L
1340.959 520.196 L
1344.746 515.887 L
1348.939 515.187 L
1352.861 514.652 L
1357.189 515.326 L
1361.246 522.52 L
1365.169 516.814 L
1369.632 522.042 L
1373.689 518.381 L
1377.882 511.087 L
1381.94 512.169 L
1385.997 498.821 L
1390.325 491.782 L
1394.112 488.307 L
1398.305 486.28 L
1402.092 483.503 L
1406.555 477.083 L
1410.613 466.064 L
1414.805 469.358 L
1418.998 475.391 L
1422.92 472.24 L
1427.248 451.41 L
1431.306 460.11 L
1435.228 446.662 L
1439.691 457.361 L
1443.478 444.905 L
1447.536 447.056 L
1451.729 439.133 L
1455.921 450.419 L
1459.844 461.896 L
1464.172 452.285 L
1468.364 442.273 L
1472.151 433.233 L
1476.615 377.962 L
1480.672 392.694 L
1484.865 391.766 L
1489.057 352.549 L
1492.98 295.526 L
1497.172 300.055 L
1501.23 364.59 L
1505.287 383.965 L
1509.48 399.607 L
1513.673 369.37 L
1517.595 343.177 L
1521.923 318.791 L
1526.116 294.348 L
1529.903 294.082 L
1534.366 303.455 L
1538.424 294.372 L
1542.211 257.387 L
1546.539 256.467 L
1550.596 231.94 L
1554.518 263.102 L
1558.846 246.324 L
1563.039 218.871 L
1567.232 180.82 L
1571.289 160.069 L
1575.347 195.357 L
1579.54 272.766 L
1583.732 224.891 L
1587.655 218.388 L
1591.442 229.489 L
1595.905 231.55 L
1599.962 248.122 L
1603.749 245.583 L
1608.213 221.175 L
1612.27 243.453 L
1616.598 285.181 L
1620.656 313.963 L
1624.578 357.967 L
1628.906 350.77 L
1633.099 366.988 L
1637.291 347 L
1641.078 373.323 L
1645.271 361.145 L
1649.193 375.535 L
1653.521 353.616 L
1657.579 347.36 L
1661.501 310.554 L
1665.964 304.818 L
1670.022 326.594 L
1674.214 314.749 L
1678.272 322.069 L
1682.329 312.713 L
1686.657 320.381 L
1690.58 303.835 L
1694.637 284.545 L
1698.83 270.643 L
1703.023 222.303 L
1706.945 227.174 L
1711.273 268.012 L
1715.466 276.594 L
1719.253 291.896 L
1723.716 320.579 L
1727.773 323.483 L
1731.966 320.561 L
1736.159 341.201 L
1739.946 305.809 L
1743.868 314.666 L
1748.196 322.103 L
1752.389 374.033 L
1756.176 373.886 L
1760.639 358.633 L
1764.697 372.737 L
1768.889 368.815 L
1773.082 382.512 L
1777.004 399.691 L
1781.332 428.494 L
1785.525 422.772 L
1789.312 473.617 L
1793.505 507.072 L
1797.562 504.356 L
1801.62 470.399 L
1805.813 496.342 L
1810.005 492.26 L
1813.928 513.918 L
1818.256 488.053 L
1822.448 497.817 L
1826.235 506.121 L
1830.699 504.547 L
1834.756 509.401 L
1838.543 512.76 L
1842.871 499.829 L
1846.929 466.98 L
1850.851 458.095 L
1855.179 460.492 L
1859.372 448.547 L
1863.564 435.726 L
1867.622 406.83 L
1871.679 438.297 L
1875.872 434.228 L
1880.065 439.455 L
1883.987 461.249 L
1888.18 467.033 L
1892.372 448.142 L
1896.295 433.769 L
1900.623 423.942 L
1904.68 441.938 L
1908.602 423.653 L
1913.066 425.497 L
1917.123 443.09 L
1921.316 452.22 L
1925.373 437.101 L
1929.431 436.699 L
1933.759 445.132 L
1937.546 430.086 L
1941.739 433.526 L
1945.526 441.644 L
1949.989 459.789 L
1954.046 480.134 L
1958.239 494.197 L
1962.432 475.204 L
1966.354 472.19 L
1970.682 488.281 L
1974.74 493.516 L
1978.662 488.195 L
1983.125 467.209 L
1986.912 462.269 L
1990.97 457.492 L
1995.162 440.594 L
1999.355 459.377 L
2003.277 465.891 L
2007.605 468.385 L
2011.798 442.233 L
2015.585 443.357 L
2020.048 452.235 L
2024.106 470.337 L
2028.299 473.695 L
2032.491 477.26 L
2036.278 477.625 L
2040.065 475.786 L
2044.529 475.798 L
2048.721 472.497 L
2052.508 463.316 L
2056.971 469.846 L
2061.029 481.092 L
2065.222 497.494 L
2069.415 494.463 L
2073.337 495.359 L
2077.665 525.116 L
2081.857 499.952 L
2085.645 501.611 L
2089.972 495.299 L
2094.03 491.124 L
2097.952 501.887 L
2102.28 503.805 L
2106.473 523.949 L
2110.666 521.994 L
2114.723 530.787 L
2118.781 520.468 L
2122.973 516.535 L
2127.031 526.548 L
2131.088 539.825 L
2134.875 554.773 L
2139.339 553.043 L
2143.261 557.038 L
2147.183 556.115 L
2151.646 573.728 L
2155.704 574.629 L
2160.032 590.683 L
2164.089 593.079 L
2168.012 591.76 L
2172.34 575.367 L
2176.532 574.559 L
2180.725 584.421 L
2184.512 558.19 L
2188.705 531.96 L
2192.627 521.923 L
2196.955 516.927 L
2201.013 506.7 L
2204.935 520.445 L
2209.398 518.378 L
2213.456 498.284 L
2217.648 491.911 L
2221.706 491.053 L
2225.763 492.855 L
2230.091 504.043 L
2233.878 517.887 L
2238.071 518.342 L
2241.858 526.743 L
2246.321 558.991 L
2250.379 563.448 L
2254.572 552.758 L
2258.764 560.368 L
2262.687 566.356 L
2267.014 573.955 L
2271.072 584.435 L
2274.994 592.876 L
2279.458 590.986 L
2283.38 566.946 L
2287.302 555.045 L
2291.63 542.815 L
2295.823 535.973 L
2299.61 542.885 L
2304.073 540.469 L
2308.13 531.585 L
2312.323 542.546 L
2316.516 558.765 L
2320.438 573.317 L
2324.766 557.453 L
2328.959 553.075 L
2332.746 550.12 L
2336.939 532.998 L
2340.996 542.071 L
2345.054 544.717 L
2349.246 551.054 L
2353.439 574.372 L
2357.361 557.929 L
2361.689 567.831 L
2365.882 580.9 L
2369.669 583.318 L
2374.132 588.352 L
2378.19 595.813 L
2381.977 590.733 L
2386.305 589.26 L
2390.362 586.958 L
2394.285 592.62 L
2398.613 599.559 L
2402.805 597.507 L
2406.998 616.59 L
2411.056 639.524 L
2415.113 629.273 L
2419.306 628.05 L
2423.499 624.933 L
2427.421 625.858 L
2431.208 598.047 L
2435.671 596.362 L
2439.729 595.308 L
2443.38 581.568 L
2447.979 573.47 L
2452.036 568.145 L
2456.364 562.98 L
2460.422 565.234 L
2464.344 562.235 L
2468.672 556.708 L
2472.865 545.058 L
2477.057 545.731 L
2480.98 553.184 L
2485.172 569.976 L
2488.959 563.225 L
2493.423 559.636 L
2497.48 569.834 L
2501.673 573.819 L
2505.866 582.948 L
2509.788 578.468 L
2514.116 583.423 L
2518.173 597.086 L
2522.096 608.891 L
2526.559 607.293 L
2530.346 614.908 L
2534.403 612.341 L
2538.596 595.896 L
2542.789 592.606 L
2546.711 592.522 L
2551.039 609.833 L
2555.232 616.202 L
2559.019 622.857 L
2563.482 638.978 L
2567.54 613.383 L
2571.732 601.002 L
2575.925 604.173 L
2579.712 609.157 L
2583.499 586.235 L
2587.962 602.677 L
2592.155 605.158 L
2595.942 613.612 L
2600.405 629.097 L
2604.463 645.734 L
2608.656 666.827 L
2612.848 653.437 L
2616.771 640.58 L
2621.099 660.313 L
2625.291 654.228 L
2629.078 668.308 L
2633.271 661.857 L
2637.329 661.514 L
2641.386 687.499 L
2645.579 679.6 L
2649.771 631.171 L
2653.694 633.934 L
2658.022 658.849 L
2662.215 641.987 L
2666.001 641.721 L
2670.465 645.942 L
2674.522 651.108 L
2678.309 659.098 L
2682.772 665.657 L
2686.83 633.42 L
2690.617 627.269 L
2695.08 630.479 L
2699.138 636.545 L
2703.466 653.351 L
2707.523 654.716 L
2711.446 659.044 L
2715.773 645.333 L
2719.966 652.87 L
2724.159 659.234 L
2727.946 649.758 L
2732.003 640.746 L
2736.061 658.152 L
2740.389 667.833 L
2744.446 671.674 L
2748.369 656.201 L
2752.832 668.035 L
2756.889 652.513 L
2761.082 641.614 L
2765.14 643.408 L
2769.197 651.217 L
2773.525 644.725 L
2777.312 643.828 L
2781.505 628.892 L
2785.292 619.65 L
2789.755 616.923 L
2793.813 616.977 L
2798.005 624.448 L
2802.198 635.091 L
2806.12 640.198 L
2810.448 641.81 L
2814.506 648.663 L
2818.428 637.011 L
2822.891 632.162 L
2826.678 643.343 L
2830.736 638.253 L
2834.928 640.075 L
2839.121 628.329 L
2843.043 621.713 L
2847.372 631.726 L
2851.564 640.733 L
2855.351 638.489 L
2859.814 643.603 L
2863.872 661.97 L
2868.065 658.562 L
2872.258 673.953 L
2876.18 677.467 L
2880.373 680.292 L
2884.43 668.507 L
2888.488 654.393 L
2892.68 660.004 L
2896.873 660.244 L
2900.795 666.986 L
2905.123 660.75 L
2909.316 632.733 L
2913.103 689.148 L
2917.566 724.684 L
2921.624 691.802 L
2925.411 686.327 L
2929.739 711.728 L
2933.796 689.554 L
2937.719 672.167 L
2942.046 671.133 L
2946.239 673.811 L
2950.432 678.614 L
2954.49 685.396 L
2958.547 681.651 L
2962.74 692.159 L
2966.932 663.425 L
2970.855 674.062 L
2974.642 674.2 L
2979.105 666.428 L
2983.162 675.136 L
2986.949 690.65 L
2991.413 707.719 L
2995.47 710.839 L
2999.798 734.838 L
3003.855 731.506 L
3007.778 726.133 L
3012.106 717.329 L
3016.299 693.394 L
3020.491 688.48 L
3024.278 688.989 L
3028.471 686.208 L
3032.393 693.029 L
3036.721 706.309 L
3040.779 698.78 L
3044.701 718.182 L
3049.164 747.43 L
3053.222 763.15 L
3057.415 751.603 L
3061.472 756.306 L
3065.53 766.738 L
3069.857 770.641 L
3073.78 763.277 L
3077.837 749.745 L
3082.03 764.649 L
3086.223 784.116 L
3090.145 779.759 L
3094.473 787.046 L
3098.666 784.368 L
3102.453 781.226 L
3106.916 777.648 L
3110.973 782.641 L
3115.166 774.757 L
3119.359 762.427 L
3123.146 768.242 L
3126.933 769.808 L
3131.396 778.426 L
3135.589 754.448 L
3139.376 735.969 L
3143.839 730.951 L
3147.897 722.104 L
3152.089 729.339 L
3156.282 732.746 L
3160.204 722.504 L
3164.532 709.145 L
3168.725 727.369 L
3172.512 728.54 L
3176.705 725.578 L
3180.762 728.918 L
3184.82 738.599 L
3189.013 736.174 L
3193.205 734.237 L
3197.128 745.165 L
3201.456 737.087 L
3205.648 744.465 L
3209.435 753.23 L
3213.899 754.57 L
3217.956 776.61 L
3221.743 761.471 L
3226.071 765.06 L
3230.129 759.359 L
3234.051 755.1 L
3238.379 744.541 L
3242.572 753.314 L
3246.764 751.675 L
3250.822 759.599 L
3254.879 754.713 L
3259.072 751.21 L
3263.265 748.256 L
3267.187 764.959 L
3271.38 773.481 L
3275.573 772.666 L
3279.495 771.023 L
3283.823 770.114 L
3287.88 787.883 L
3291.802 789.576 L
3296.266 783.626 L
3300.323 782.474 L
3304.516 771.04 L
3308.573 743.953 L
3312.631 740.309 L
3316.959 741.288 L
3320.746 745.461 L
3324.939 743.925 L
3328.726 749.472 L
3333.189 753.459 L
3337.246 749.281 L
3341.439 749.659 L
3345.632 758.525 L
3349.554 748.9 L
3353.882 747.157 L
3357.94 744.766 L
3361.862 745.695 L
3366.325 731.809 L
3370.112 723.796 L
3374.034 731.13 L
3378.362 721.825 L
3382.555 726.966 L
3386.477 725.339 L
3390.805 721.141 L
S
GR
GS
[0.75 0 0 0.75 0 -0.25] CT
1 GC
N
497 1840 M
3461 1840 L
3461 1134 L
497 1134 L
cp
f
GR
GS
[0.75 0 0 0.75 0 -0.25] CT
0.149 GC
2 setlinecap
1 LJ
0.667 LW
N
497 1840 M
3461 1840 L
S
GR
GS
[0.75 0 0 0.75 0 -0.25] CT
0.149 GC
2 setlinecap
1 LJ
0.667 LW
N
497 1134 M
3461 1134 L
S
GR
GS
[0.75 0 0 0.75 0 -0.25] CT
0.149 GC
2 setlinecap
1 LJ
0.667 LW
N
571.1 1840 M
571.1 1810.36 L
S
GR
GS
[0.75 0 0 0.75 0 -0.25] CT
0.149 GC
2 setlinecap
1 LJ
0.667 LW
N
793.4 1840 M
793.4 1810.36 L
S
GR
GS
[0.75 0 0 0.75 0 -0.25] CT
0.149 GC
2 setlinecap
1 LJ
0.667 LW
N
1089.8 1840 M
1089.8 1810.36 L
S
GR
GS
[0.75 0 0 0.75 0 -0.25] CT
0.149 GC
2 setlinecap
1 LJ
0.667 LW
N
1386.2 1840 M
1386.2 1810.36 L
S
GR
GS
[0.75 0 0 0.75 0 -0.25] CT
0.149 GC
2 setlinecap
1 LJ
0.667 LW
N
1682.6 1840 M
1682.6 1810.36 L
S
GR
GS
[0.75 0 0 0.75 0 -0.25] CT
0.149 GC
2 setlinecap
1 LJ
0.667 LW
N
1979 1840 M
1979 1810.36 L
S
GR
GS
[0.75 0 0 0.75 0 -0.25] CT
0.149 GC
2 setlinecap
1 LJ
0.667 LW
N
2275.4 1840 M
2275.4 1810.36 L
S
GR
GS
[0.75 0 0 0.75 0 -0.25] CT
0.149 GC
2 setlinecap
1 LJ
0.667 LW
N
2571.8 1840 M
2571.8 1810.36 L
S
GR
GS
[0.75 0 0 0.75 0 -0.25] CT
0.149 GC
2 setlinecap
1 LJ
0.667 LW
N
2868.2 1840 M
2868.2 1810.36 L
S
GR
GS
[0.75 0 0 0.75 0 -0.25] CT
0.149 GC
2 setlinecap
1 LJ
0.667 LW
N
3164.6 1840 M
3164.6 1810.36 L
S
GR
GS
[0.75 0 0 0.75 0 -0.25] CT
0.149 GC
2 setlinecap
1 LJ
0.667 LW
N
3461 1840 M
3461 1810.36 L
S
GR
GS
[0.75 0 0 0.75 0 -0.25] CT
0.149 GC
2 setlinecap
1 LJ
0.667 LW
N
571.1 1134 M
571.1 1163.64 L
S
GR
GS
[0.75 0 0 0.75 0 -0.25] CT
0.149 GC
2 setlinecap
1 LJ
0.667 LW
N
793.4 1134 M
793.4 1163.64 L
S
GR
GS
[0.75 0 0 0.75 0 -0.25] CT
0.149 GC
2 setlinecap
1 LJ
0.667 LW
N
1089.8 1134 M
1089.8 1163.64 L
S
GR
GS
[0.75 0 0 0.75 0 -0.25] CT
0.149 GC
2 setlinecap
1 LJ
0.667 LW
N
1386.2 1134 M
1386.2 1163.64 L
S
GR
GS
[0.75 0 0 0.75 0 -0.25] CT
0.149 GC
2 setlinecap
1 LJ
0.667 LW
N
1682.6 1134 M
1682.6 1163.64 L
S
GR
GS
[0.75 0 0 0.75 0 -0.25] CT
0.149 GC
2 setlinecap
1 LJ
0.667 LW
N
1979 1134 M
1979 1163.64 L
S
GR
GS
[0.75 0 0 0.75 0 -0.25] CT
0.149 GC
2 setlinecap
1 LJ
0.667 LW
N
2275.4 1134 M
2275.4 1163.64 L
S
GR
GS
[0.75 0 0 0.75 0 -0.25] CT
0.149 GC
2 setlinecap
1 LJ
0.667 LW
N
2571.8 1134 M
2571.8 1163.64 L
S
GR
GS
[0.75 0 0 0.75 0 -0.25] CT
0.149 GC
2 setlinecap
1 LJ
0.667 LW
N
2868.2 1134 M
2868.2 1163.64 L
S
GR
GS
[0.75 0 0 0.75 0 -0.25] CT
0.149 GC
2 setlinecap
1 LJ
0.667 LW
N
3164.6 1134 M
3164.6 1163.64 L
S
GR
GS
[0.75 0 0 0.75 0 -0.25] CT
0.149 GC
2 setlinecap
1 LJ
0.667 LW
N
3461 1134 M
3461 1163.64 L
S
GR
GS
[0.75 0 0 0.75 428.32498 1385.35001] CT
0.149 GC
/Helvetica 24 F
GS
[1 0 0 1 0 0] CT
-13.5 25 moveto 
1 -1 scale
(3  ) t 
GR
GR
GS
[0.75 0 0 0.75 595.05002 1385.35001] CT
0.149 GC
/Helvetica 24 F
GS
[1 0 0 1 0 0] CT
-17 25 moveto 
1 -1 scale
(12 ) t 
GR
GR
GS
[0.75 0 0 0.75 817.35004 1385.35001] CT
0.149 GC
/Helvetica 24 F
GS
[1 0 0 1 0 0] CT
-17 25 moveto 
1 -1 scale
(24 ) t 
GR
GR
GS
[0.75 0 0 0.75 1039.64996 1385.35001] CT
0.149 GC
/Helvetica 24 F
GS
[1 0 0 1 0 0] CT
-17 25 moveto 
1 -1 scale
(36 ) t 
GR
GR
GS
[0.75 0 0 0.75 1261.94998 1385.35001] CT
0.149 GC
/Helvetica 24 F
GS
[1 0 0 1 0 0] CT
-17 25 moveto 
1 -1 scale
(48 ) t 
GR
GR
GS
[0.75 0 0 0.75 1484.25 1385.35001] CT
0.149 GC
/Helvetica 24 F
GS
[1 0 0 1 0 0] CT
-17 25 moveto 
1 -1 scale
(60 ) t 
GR
GR
GS
[0.75 0 0 0.75 1706.54993 1385.35001] CT
0.149 GC
/Helvetica 24 F
GS
[1 0 0 1 0 0] CT
-17 25 moveto 
1 -1 scale
(72 ) t 
GR
GR
GS
[0.75 0 0 0.75 1928.85004 1385.35001] CT
0.149 GC
/Helvetica 24 F
GS
[1 0 0 1 0 0] CT
-17 25 moveto 
1 -1 scale
(84 ) t 
GR
GR
GS
[0.75 0 0 0.75 2151.14996 1385.35001] CT
0.149 GC
/Helvetica 24 F
GS
[1 0 0 1 0 0] CT
-17 25 moveto 
1 -1 scale
(96 ) t 
GR
GR
GS
[0.75 0 0 0.75 2373.45007 1385.35001] CT
0.149 GC
/Helvetica 24 F
GS
[1 0 0 1 0 0] CT
-20.5 25 moveto 
1 -1 scale
(108) t 
GR
GR
GS
[0.75 0 0 0.75 2595.75 1385.35001] CT
0.149 GC
/Helvetica 24 F
GS
[1 0 0 1 0 0] CT
-20.5 25 moveto 
1 -1 scale
(120) t 
GR
GR
GS
[0.75 0 0 0.75 1484.2511 1409.60004] CT
0.149 GC
/Helvetica 26.4 F
GS
[1 0 0 1 0 0] CT
-103 27 moveto 
1 -1 scale
(Maturity \(months\)) t 
GR
GR
GS
[0.75 0 0 0.75 0 -0.25] CT
0.149 GC
2 setlinecap
1 LJ
0.667 LW
N
497 1840 M
497 1134 L
S
GR
GS
[0.75 0 0 0.75 0 -0.25] CT
0.149 GC
2 setlinecap
1 LJ
0.667 LW
N
3461 1840 M
3461 1134 L
S
GR
GS
[0.75 0 0 0.75 0 -0.25] CT
0.149 GC
2 setlinecap
1 LJ
0.667 LW
N
497 1840 M
526.64 1840 L
S
GR
GS
[0.75 0 0 0.75 0 -0.25] CT
0.149 GC
2 setlinecap
1 LJ
0.667 LW
N
497 1751.75 M
526.64 1751.75 L
S
GR
GS
[0.75 0 0 0.75 0 -0.25] CT
0.149 GC
2 setlinecap
1 LJ
0.667 LW
N
497 1663.5 M
526.64 1663.5 L
S
GR
GS
[0.75 0 0 0.75 0 -0.25] CT
0.149 GC
2 setlinecap
1 LJ
0.667 LW
N
497 1575.25 M
526.64 1575.25 L
S
GR
GS
[0.75 0 0 0.75 0 -0.25] CT
0.149 GC
2 setlinecap
1 LJ
0.667 LW
N
497 1487 M
526.64 1487 L
S
GR
GS
[0.75 0 0 0.75 0 -0.25] CT
0.149 GC
2 setlinecap
1 LJ
0.667 LW
N
497 1398.75 M
526.64 1398.75 L
S
GR
GS
[0.75 0 0 0.75 0 -0.25] CT
0.149 GC
2 setlinecap
1 LJ
0.667 LW
N
497 1310.5 M
526.64 1310.5 L
S
GR
GS
[0.75 0 0 0.75 0 -0.25] CT
0.149 GC
2 setlinecap
1 LJ
0.667 LW
N
497 1222.25 M
526.64 1222.25 L
S
GR
GS
[0.75 0 0 0.75 0 -0.25] CT
0.149 GC
2 setlinecap
1 LJ
0.667 LW
N
497 1134 M
526.64 1134 L
S
GR
GS
[0.75 0 0 0.75 0 -0.25] CT
0.149 GC
2 setlinecap
1 LJ
0.667 LW
N
3461 1840 M
3431.36 1840 L
S
GR
GS
[0.75 0 0 0.75 0 -0.25] CT
0.149 GC
2 setlinecap
1 LJ
0.667 LW
N
3461 1751.75 M
3431.36 1751.75 L
S
GR
GS
[0.75 0 0 0.75 0 -0.25] CT
0.149 GC
2 setlinecap
1 LJ
0.667 LW
N
3461 1663.5 M
3431.36 1663.5 L
S
GR
GS
[0.75 0 0 0.75 0 -0.25] CT
0.149 GC
2 setlinecap
1 LJ
0.667 LW
N
3461 1575.25 M
3431.36 1575.25 L
S
GR
GS
[0.75 0 0 0.75 0 -0.25] CT
0.149 GC
2 setlinecap
1 LJ
0.667 LW
N
3461 1487 M
3431.36 1487 L
S
GR
GS
[0.75 0 0 0.75 0 -0.25] CT
0.149 GC
2 setlinecap
1 LJ
0.667 LW
N
3461 1398.75 M
3431.36 1398.75 L
S
GR
GS
[0.75 0 0 0.75 0 -0.25] CT
0.149 GC
2 setlinecap
1 LJ
0.667 LW
N
3461 1310.5 M
3431.36 1310.5 L
S
GR
GS
[0.75 0 0 0.75 0 -0.25] CT
0.149 GC
2 setlinecap
1 LJ
0.667 LW
N
3461 1222.25 M
3431.36 1222.25 L
S
GR
GS
[0.75 0 0 0.75 0 -0.25] CT
0.149 GC
2 setlinecap
1 LJ
0.667 LW
N
3461 1134 M
3431.36 1134 L
S
GR
GS
[0.75 0 0 0.75 367.14999 1379.75] CT
0.149 GC
/Helvetica 24 F
GS
[1 0 0 1 0 0] CT
-14 9.5 moveto 
1 -1 scale
(0) t 
GR
GR
GS
[0.75 0 0 0.75 367.14999 1313.5625] CT
0.149 GC
/Helvetica 24 F
GS
[1 0 0 1 0 0] CT
-14 9.5 moveto 
1 -1 scale
(1) t 
GR
GR
GS
[0.75 0 0 0.75 367.14999 1247.375] CT
0.149 GC
/Helvetica 24 F
GS
[1 0 0 1 0 0] CT
-14 9.5 moveto 
1 -1 scale
(2) t 
GR
GR
GS
[0.75 0 0 0.75 367.14999 1181.1875] CT
0.149 GC
/Helvetica 24 F
GS
[1 0 0 1 0 0] CT
-14 9.5 moveto 
1 -1 scale
(3) t 
GR
GR
GS
[0.75 0 0 0.75 367.14999 1115] CT
0.149 GC
/Helvetica 24 F
GS
[1 0 0 1 0 0] CT
-14 9.5 moveto 
1 -1 scale
(4) t 
GR
GR
GS
[0.75 0 0 0.75 367.14999 1048.8125] CT
0.149 GC
/Helvetica 24 F
GS
[1 0 0 1 0 0] CT
-14 9.5 moveto 
1 -1 scale
(5) t 
GR
GR
GS
[0.75 0 0 0.75 367.14999 982.625] CT
0.149 GC
/Helvetica 24 F
GS
[1 0 0 1 0 0] CT
-14 9.5 moveto 
1 -1 scale
(6) t 
GR
GR
GS
[0.75 0 0 0.75 367.14999 916.4375] CT
0.149 GC
/Helvetica 24 F
GS
[1 0 0 1 0 0] CT
-14 9.5 moveto 
1 -1 scale
(7) t 
GR
GR
GS
[0.75 0 0 0.75 367.14999 850.25] CT
0.149 GC
/Helvetica 24 F
GS
[1 0 0 1 0 0] CT
-14 9.5 moveto 
1 -1 scale
(8) t 
GR
GR
GS
[0 -0.75 0.75 0 353.64999 1114.99973] CT
0.149 GC
/Helvetica 26.4 F
GS
[1 0 0 1 0 0] CT
-59.5 -6 moveto 
1 -1 scale
(Yield \(pct\)) t 
GR
GR
GS
[0.75 0 0 0.75 1484.25137 846.53754] CT
/Helvetica-Bold 26.4 F
GS
[1 0 0 1 0 0] CT
-172 -6 moveto 
1 -1 scale
(Yield curve on 30-Nov-1971) t 
GR
GR
GS
[0.75 0 0 0.75 0 -0.25] CT
0 0.447 0.741 RC
1 LJ
2.667 LW
N
571.1 1460.542 M
793.4 1429.289 L
1089.8 1393.31 L
1386.2 1366.56 L
1682.6 1347.496 L
1979 1333.914 L
2275.4 1324.059 L
2571.8 1316.724 L
2868.2 1311.113 L
3164.6 1306.708 L
3461 1303.17 L
S
GR
GS
[0.75 0 0 0.75 428.32498 1095.15649] CT
0 0.447 0.741 RC
10.0 ML
2.667 LW
N
0 -4 M
0 4 L
-4 0 M
4 0 L
-2.828 -2.828 M
2.828 2.828 L
-2.828 2.828 M
2.828 -2.828 L
S
GR
GS
[0.75 0 0 0.75 595.05002 1071.71689] CT
0 0.447 0.741 RC
10.0 ML
2.667 LW
N
0 -4 M
0 4 L
-4 0 M
4 0 L
-2.828 -2.828 M
2.828 2.828 L
-2.828 2.828 M
2.828 -2.828 L
S
GR
GS
[0.75 0 0 0.75 817.35004 1044.73245] CT
0 0.447 0.741 RC
10.0 ML
2.667 LW
N
0 -4 M
0 4 L
-4 0 M
4 0 L
-2.828 -2.828 M
2.828 2.828 L
-2.828 2.828 M
2.828 -2.828 L
S
GR
GS
[0.75 0 0 0.75 1039.64996 1024.66977] CT
0 0.447 0.741 RC
10.0 ML
2.667 LW
N
0 -4 M
0 4 L
-4 0 M
4 0 L
-2.828 -2.828 M
2.828 2.828 L
-2.828 2.828 M
2.828 -2.828 L
S
GR
GS
[0.75 0 0 0.75 1261.94998 1010.37207] CT
0 0.447 0.741 RC
10.0 ML
2.667 LW
N
0 -4 M
0 4 L
-4 0 M
4 0 L
-2.828 -2.828 M
2.828 2.828 L
-2.828 2.828 M
2.828 -2.828 L
S
GR
GS
[0.75 0 0 0.75 1484.25 1000.18536] CT
0 0.447 0.741 RC
10.0 ML
2.667 LW
N
0 -4 M
0 4 L
-4 0 M
4 0 L
-2.828 -2.828 M
2.828 2.828 L
-2.828 2.828 M
2.828 -2.828 L
S
GR
GS
[0.75 0 0 0.75 1706.54993 992.7944] CT
0 0.447 0.741 RC
10.0 ML
2.667 LW
N
0 -4 M
0 4 L
-4 0 M
4 0 L
-2.828 -2.828 M
2.828 2.828 L
-2.828 2.828 M
2.828 -2.828 L
S
GR
GS
[0.75 0 0 0.75 1928.85004 987.29291] CT
0 0.447 0.741 RC
10.0 ML
2.667 LW
N
0 -4 M
0 4 L
-4 0 M
4 0 L
-2.828 -2.828 M
2.828 2.828 L
-2.828 2.828 M
2.828 -2.828 L
S
GR
GS
[0.75 0 0 0.75 2151.14996 983.08459] CT
0 0.447 0.741 RC
10.0 ML
2.667 LW
N
0 -4 M
0 4 L
-4 0 M
4 0 L
-2.828 -2.828 M
2.828 2.828 L
-2.828 2.828 M
2.828 -2.828 L
S
GR
GS
[0.75 0 0 0.75 2373.45007 979.78128] CT
0 0.447 0.741 RC
10.0 ML
2.667 LW
N
0 -4 M
0 4 L
-4 0 M
4 0 L
-2.828 -2.828 M
2.828 2.828 L
-2.828 2.828 M
2.828 -2.828 L
S
GR
GS
[0.75 0 0 0.75 2595.75 977.12735] CT
0 0.447 0.741 RC
10.0 ML
2.667 LW
N
0 -4 M
0 4 L
-4 0 M
4 0 L
-2.828 -2.828 M
2.828 2.828 L
-2.828 2.828 M
2.828 -2.828 L
S
GR
%%Trailer
%%Pages: 1
%%EOF
