,mdl_MAT,mdl_DATE,TICKER,mdl_YTM,nssm_YTM,ISIN
0,2022-03-01,2021-08-17,NSWTC,0.04,0.0430907208919529,AU3SG0000284
1,2023-04-20,2021-08-17,NSWTC,0.1,0.08862200045585672,AU3SG0001159
2,2024-02-08,2021-08-17,NSWTC,0.29,0.2563979876041416,AU3CB0266484
3,2024-08-20,2021-08-17,NSWTC,0.4,0.36857724642753636,AU3SG0000417
4,2025-03-20,2021-08-17,NSWTC,0.52,0.5126698579734394,AU3SG0002025
5,2026-05-20,2021-08-17,NSWTC,0.74,0.7461310980319981,AU3SG0001373
6,2027-05-20,2021-08-17,NSWTC,0.95,0.9424691579341893,AU3SG0001696
7,2028-03-20,2021-08-17,NSWTC,1.08,1.0845493366718295,AU3SG0001514
8,2028-11-01,2021-08-17,NSWTC,1.14,1.1487878100872044,AU3CB0094001
9,2028-11-15,2021-08-17,NSWTC,1.11,1.1865049574375155,AU3SG0001878
10,2029-04-20,2021-08-17,NSWTC,1.24,1.2487163031101227,AU3SG0001720
11,2030-02-20,2021-08-17,NSWTC,1.36,1.361953649282456,AU3SG0001571
12,2030-11-20,2021-08-17,NSWTC,1.43,1.4900461227893833,AU3SG0002348
13,2031-03-20,2021-08-17,NSWTC,1.5,1.5122081390930873,AU3SG0001944
14,2032-02-20,2021-08-17,NSWTC,1.63,1.6252259683609014,AU3SG0002389
15,2033-03-08,2021-08-17,NSWTC,1.74,1.7133590841293345,AU3SG0002082
16,2034-03-20,2021-08-17,NSWTC,1.76,1.7604983663558968,AU3SG0001852
17,2037-11-20,2021-08-17,NSWTC,1.97,1.9904216337203988,AU3SG0001753
18,2040-11-20,2021-08-17,NSWTC,2.21,2.1640736722946174,AU3SG0002249
19,2041-05-07,2021-08-17,NSWTC,2.23,2.181073410360828,AU3SG0002165
20,2042-05-20,2021-08-17,NSWTC,2.25,2.2166298194201666,AU3SG0002215
21,2050-08-24,2021-08-17,NSWTC,2.39,2.3990951901104616,AU3SG0002272
22,2021-09-20,2021-08-17,NTTC,0.04,0.06657142976740414,AU3SG0001183
23,2022-03-15,2021-08-17,NTTC,0.17,0.10363531708717388,AU000NT27303
24,2022-11-21,2021-08-17,NTTC,0.15,0.19268331980705297,AU3SG0001712
25,2024-03-15,2021-08-17,NTTC,0.45,0.394159912824631,AU000NT27436
26,2024-10-21,2021-08-17,NTTC,0.56,0.4999236004352573,AU3SG0001597
27,2026-03-15,2021-08-17,NTTC,0.76,0.7298899810314181,AU000NT27410
28,2027-04-21,2021-08-17,NTTC,0.93,0.9472263605594639,AU3SG0001886
29,2028-04-21,2021-08-17,NTTC,1.11,1.1221721990108493,AU3SG0001738
30,2029-05-21,2021-08-17,NTTC,1.31,1.3369733593463904,AU3SG0001951
31,2030-05-21,2021-08-17,NTTC,1.43,1.4809811427593238,AU3SG0001845
32,2031-04-21,2021-08-17,NTTC,1.67,1.6627059872449244,AU3SG0002074
33,2032-05-21,2021-08-17,NTTC,1.84,1.814032912254334,AU3SG0002470
34,2033-04-21,2021-08-17,NTTC,1.95,1.902897744178772,AU3SG0001795
35,2042-11-21,2021-08-17,NTTC,2.7,2.6923394890200987,AU3SG0001746
36,2022-07-21,2021-08-17,QTC,0.05,0.12360173964500462,AU0000XQLQT2
37,2023-07-21,2021-08-17,QTC,0.18,0.19178132653236424,AU0000XQLQX4
38,2024-03-22,2021-08-17,QTC,0.23,0.2848343470096591,AU000XQLQAD1
39,2024-07-22,2021-08-17,QTC,0.4,0.334808545827866,AU0000XQLQU0
40,2025-07-21,2021-08-17,QTC,0.59,0.5133445479869844,AU0000XQLQZ9
41,2026-07-21,2021-08-17,QTC,0.76,0.7086569964885716,AU000XQLQAA7
42,2027-08-20,2021-08-17,QTC,0.93,0.9131528050899507,AU3SG0001605
43,2028-07-21,2021-08-17,QTC,1.06,1.0661721403598792,AU000XQLQAB5
44,2029-03-06,2021-08-17,QTC,1.15,1.1766737737001989,AU3SG0001928
45,2029-08-21,2021-08-17,QTC,1.22,1.2350554525852204,AU3SG0001860
46,2030-08-21,2021-08-17,QTC,1.34,1.3688636929988869,AU3CB0248037
47,2031-03-10,2021-08-17,QTC,1.42,1.4865848152637486,AU3SG0002371
48,2031-08-21,2021-08-17,QTC,1.49,1.5297893502712254,AU3SG0001993
49,2032-08-20,2021-08-17,QTC,1.6,1.6481718056430146,AU3SG0002439
50,2033-03-14,2021-08-17,QTC,1.6,1.5892622401714322,AU0000XQLQI5
51,2034-07-20,2021-08-17,QTC,1.84,1.8179559587579255,AU0000079402
52,2040-04-16,2021-08-17,QTC,2.13,2.1290417795101333,AU3SG0002124
53,2041-11-20,2021-08-17,QTC,2.23,2.187108225822449,AU3CB0271989
54,2047-02-20,2021-08-17,QTC,2.27,2.255000724191914,AU3SG0001647
55,2050-10-28,2021-08-17,QTC,2.37,2.3890086984634404,AU3SG0002363
56,2021-10-29,2021-08-17,TCV,0.03,-0.06171125960349998,AU0000027948
57,2022-10-17,2021-08-17,TCV,0.05,0.001571040617000158,AU0000XVGZZ0
58,2023-11-20,2021-08-17,TCV,0.2,0.20610531497001686,AU0000075624
59,2024-12-17,2021-08-17,TCV,0.46,0.4167464110851291,AU0000XVG2B1
60,2025-11-20,2021-08-17,TCV,0.66,0.6260588581176919,AU3SG0002421
61,2026-11-17,2021-08-17,TCV,0.8,0.7818514983654025,AU0000XVGZJ4
62,2027-11-19,2021-08-17,TCV,0.99,0.9991681397396814,AU0000085631
63,2028-10-20,2021-08-17,TCV,1.13,1.128777387857437,AU0000XVGHI4
64,2029-10-22,2021-08-17,TCV,1.26,1.2867749717235568,AU0000042004
65,2030-11-20,2021-08-17,TCV,1.32,1.390813243627549,AU3SG0001225
66,2030-11-20,2021-08-17,TCV,1.43,1.4541612474918368,AU0000078552
67,2031-09-10,2021-08-17,TCV,1.52,1.555097542524338,AU3SG0002314
68,2032-12-20,2021-08-17,TCV,1.57,1.62750331401825,AU3SG0001175
69,2033-09-15,2021-08-17,TCV,1.75,1.7483573579788212,AU3SG0002504
70,2034-11-20,2021-08-17,TCV,1.85,1.851242451667786,AU0000048274
71,2037-11-20,2021-08-17,TCV,2.08,2.068347792625428,AU3SG0002256
72,2040-11-20,2021-08-17,TCV,2.25,2.2078525400161744,AU3SG0002231
73,2040-11-20,2021-08-17,TCV,2.23,2.113527235984803,AU0000XVGHH6
74,2041-11-20,2021-08-17,TCV,2.3,2.2482161951065067,AU3CB0271955
75,2047-11-06,2021-08-17,TCV,2.38,2.3538055285707045,AU0000XVGHL8
76,2050-08-18,2021-08-17,TCV,2.4,2.473370070605035,AU3SG0002264
77,2022-10-20,2021-08-17,WATC,0.05,0.005262696501144174,AU3SG0001522
78,2023-10-16,2021-08-17,WATC,0.19,0.19721214318275485,AU300WT60390
79,2024-07-23,2021-08-17,WATC,0.39,0.35821008563041723,AU3SG0001639
80,2025-07-23,2021-08-17,WATC,0.58,0.538119506120682,AU3SG0001241
81,2026-10-21,2021-08-17,WATC,0.77,0.763831537485123,AU3SG0001704
82,2027-10-21,2021-08-17,WATC,0.93,0.9249748650624027,AU3SG0001563
83,2028-07-20,2021-08-17,WATC,1.06,1.0357254149913793,AU3SG0001829
84,2029-07-24,2021-08-17,WATC,1.18,1.1872278091907507,AU3SG0001910
85,2030-10-22,2021-08-17,WATC,1.37,1.3775169618129735,AU3SG0002454
86,2031-10-22,2021-08-17,WATC,1.47,1.4972830212116248,AU3SG0002199
87,2034-10-24,2021-08-17,WATC,1.8,1.8058502281271767,AU3SG0001985
88,2041-07-23,2021-08-17,WATC,2.25,2.2451039838790896,AU3SG0002207
91,2021-12-21,2021-08-17,ACGB,0.03,0.015556354761124042,AU000XCLWAT5
92,2022-07-15,2021-08-17,ACGB,-0.01,-0.07604467654228171,AU3TB0000051
93,2023-04-21,2021-08-17,ACGB,0.04,-0.020194426298141093,AU3TB0000101
94,2024-04-21,2021-08-17,ACGB,0.05,0.1576438667774204,AU3TB0000143
95,2024-11-21,2021-08-17,ACGB,0.32,0.2768704063892368,AU0000083768
96,2025-04-21,2021-08-17,ACGB,0.4,0.34609865212440527,AU3TB0000168
97,2025-11-21,2021-08-17,ACGB,0.52,0.4657840454578404,AU0000095457
98,2026-04-21,2021-08-17,ACGB,0.56,0.5151443440914156,AU000XCLWAI8
99,2026-09-21,2021-08-17,ACGB,0.65,0.6081766649219458,AU0000106411
100,2027-04-21,2021-08-17,ACGB,0.71,0.6666398091654642,AU3TB0000135
101,2027-11-21,2021-08-17,ACGB,0.8,0.7677129371166233,AU000XCLWAQ1
102,2028-05-21,2021-08-17,ACGB,0.86,0.8416983854770667,AU000XCLWAR9
103,2028-11-21,2021-08-17,ACGB,0.91,0.9018826034069061,AU000XCLWAU3
104,2029-04-21,2021-08-17,ACGB,0.95,0.9481566393375402,AU3TB0000150
105,2029-11-21,2021-08-17,ACGB,1.02,1.0238972819110848,AU000XCLWAX7
106,2030-05-21,2021-08-17,ACGB,1.08,1.0841041018962865,AU0000013740
107,2030-12-21,2021-08-17,ACGB,1.15,1.1758884651660924,AU0000087454
108,2031-06-21,2021-08-17,ACGB,1.18,1.2188551924228668,AU0000047003
109,2031-11-21,2021-08-17,ACGB,1.22,1.271652703523636,AU0000101792
110,2032-05-21,2021-08-17,ACGB,1.25,1.3145995261669159,AU0000075681
111,2032-11-21,2021-08-17,ACGB,1.29,1.3494923136234283,AU0000143901
112,2033-04-21,2021-08-17,ACGB,1.27,1.3273479073047643,AU000XCLWAG2
113,2035-06-21,2021-08-17,ACGB,1.47,1.5251526229381565,AU000XCLWAM0
114,2037-04-21,2021-08-17,ACGB,1.61,1.6107969367504118,AU3TB0000192
115,2039-06-21,2021-08-17,ACGB,1.77,1.7322216389781355,AU000XCLWAP3
116,2041-05-21,2021-08-17,ACGB,1.89,1.8273681974411018,AU0000018442
117,2047-03-21,2021-08-17,ACGB,2.03,1.9920365667343147,AU000XCLWAS7
118,2051-06-21,2021-08-17,ACGB,2.07,2.1303860109158737,AU0000097495
